Type,Analog,Analog,Analog,Analog,Analog,Analog,Digital,Digital,Digital,Digital,Digital,Digital,Digital,Digital,Integer,Integer
Index,1,5,2,53,3,58,41,42,43,44,45,46,49,50,95,98
Name,R1,R9,R2,R2 Solltemperatur,R3,R3 Solltemperatur,M1,M3,M2/M11,E10,M13,M18,M16,E9,Waermemenge Heizen,Waermemenge Warmwasser
Description,Variable 1,Variable 2,Variable 3,Variable 4,Variable 5,Variable 6,Variable 7,Variable 8,Variable 9,Variable 10,Variable 11,Variable 12,Variable 13,Variable 14,Variable 15,Variable 16
2024/06/19 00:00:39,18.9,34.7,30.0,10.0,49.8,40.0,0,0,0,0,0,0,0,0,1780,6374
2024/06/19 00:02:39,18.9,34.7,30.0,10.0,49.7,40.0,0,0,0,0,0,0,0,0,1780,6374
2024/06/19 00:04:37,18.8,34.7,29.9,10.0,49.7,40.0,0,0,0,0,0,0,0,0,1780,6374
2024/06/19 00:06:36,18.8,34.6,29.9,10.0,49.7,40.0,0,0,0,0,0,0,0,0,1780,6374
2024/06/19 00:08:35,18.8,34.6,29.8,10.0,49.7,40.0,0,0,0,0,0,0,0,0,1780,6374
2024/06/19 00:10:34,18.8,34.5,29.8,10.0,49.7,40.0,0,0,0,0,0,0,0,0,1780,6374
2024/06/19 00:12:33,18.7,34.5,29.8,10.0,49.7,40.0,0,0,0,0,0,0,0,0,1780,6374
2024/06/19 00:14:31,18.7,34.4,29.7,10.0,49.7,40.0,0,0,0,0,0,0,0,0,1780,6374
2024/06/19 00:16:30,18.7,34.4,29.7,10.0,49.6,40.0,0,0,0,0,0,0,0,0,1780,6374
2024/06/19 00:18:28,18.6,34.3,29.6,10.0,49.6,40.0,0,0,0,0,0,0,0,0,1780,6374
2024/06/19 00:20:27,18.6,34.3,29.6,10.0,49.6,40.0,0,0,0,0,0,0,0,0,1780,6374
2024/06/19 00:22:26,18.5,34.2,29.6,10.0,49.6,40.0,0,0,0,0,0,0,0,0,1780,6374
2024/06/19 00:24:25,18.5,34.2,29.5,10.0,49.6,40.0,0,0,0,0,0,0,0,0,1780,6374
2024/06/19 00:26:25,18.5,34.1,29.5,10.0,49.6,40.0,0,0,0,0,0,0,0,0,1780,6374
2024/06/19 00:28:22,18.5,34.1,29.4,10.0,49.5,40.0,0,0,0,0,0,0,0,0,1780,6374
2024/06/19 00:30:21,18.5,34.0,29.4,10.0,49.5,40.0,0,0,0,0,0,0,0,0,1780,6374
2024/06/19 00:32:20,18.4,34.0,29.4,10.0,49.5,40.0,0,0,0,0,0,0,0,0,1780,6374
2024/06/19 00:34:19,18.4,34.0,29.3,10.0,49.5,40.0,0,0,0,0,0,0,0,0,1780,6374
2024/06/19 00:36:17,18.4,33.9,29.3,10.0,49.5,40.0,0,0,0,0,0,0,0,0,1780,6374
2024/06/19 00:39:15,18.4,33.9,29.3,10.0,49.4,40.0,0,0,0,0,0,0,0,0,1780,6374
2024/06/19 00:41:14,18.4,33.8,29.2,10.0,49.4,40.0,0,0,0,0,0,0,0,0,1780,6374
2024/06/19 00:43:13,18.4,33.8,29.2,10.0,49.4,40.0,0,0,0,0,0,0,0,0,1780,6374
2024/06/19 00:45:10,18.3,33.7,29.2,10.0,49.4,40.0,0,0,0,0,0,0,0,0,1780,6374
2024/06/19 00:47:09,18.3,33.7,29.1,10.0,49.4,40.0,0,0,0,0,0,0,0,0,1780,6374
2024/06/19 00:49:08,18.3,33.6,29.1,10.0,49.3,40.0,0,0,0,0,0,0,0,0,1780,6374
2024/06/19 00:51:06,18.3,33.6,29.1,10.0,49.3,40.0,0,0,0,0,0,0,0,0,1780,6374
2024/06/19 00:53:04,18.3,33.6,29.0,10.0,49.3,40.0,0,0,0,0,0,0,0,0,1780,6374
2024/06/19 00:55:01,18.3,33.5,29.0,10.0,49.3,40.0,0,0,0,0,0,0,0,0,1780,6374
2024/06/19 00:57:01,18.3,33.5,29.0,10.0,49.3,40.0,0,0,0,0,0,0,0,0,1780,6374
2024/06/19 00:59:00,18.3,33.4,28.9,10.0,49.2,40.0,0,0,0,0,0,0,0,0,1780,6374
2024/06/19 01:00:57,18.3,33.4,28.9,10.0,49.2,40.0,0,0,0,0,0,0,0,0,1780,6374
2024/06/19 01:02:55,18.2,33.3,28.9,10.0,49.2,40.0,0,0,0,0,0,0,0,0,1780,6374
2024/06/19 01:04:54,18.2,33.3,28.8,10.0,49.2,40.0,0,0,0,0,0,0,0,0,1780,6374
2024/06/19 01:06:52,18.2,33.2,28.8,10.0,49.2,40.0,0,0,0,0,0,0,0,0,1780,6374
2024/06/19 01:08:52,18.2,33.2,28.8,10.0,49.1,40.0,0,0,0,0,0,0,0,0,1780,6374
2024/06/19 01:10:50,18.2,33.2,28.8,10.0,49.1,40.0,0,0,0,0,0,0,0,0,1780,6374
2024/06/19 01:12:49,18.2,33.1,28.7,10.0,49.1,40.0,0,0,0,0,0,0,0,0,1780,6374
2024/06/19 01:14:48,18.1,33.1,28.7,10.0,49.1,40.0,0,0,0,0,0,0,0,0,1780,6374
2024/06/19 01:16:48,18.1,33.0,28.7,10.0,49.0,40.0,0,0,0,0,0,0,0,0,1780,6374
2024/06/19 01:18:47,18.1,33.0,28.6,10.0,49.0,40.0,0,0,0,0,0,0,0,0,1780,6374
2024/06/19 01:20:45,18.0,33.0,28.6,10.0,49.0,40.0,0,0,0,0,0,0,0,0,1780,6374
2024/06/19 01:22:44,18.0,32.9,28.6,10.0,49.0,40.0,0,0,0,0,0,0,0,0,1780,6374
2024/06/19 01:24:43,17.9,32.9,28.5,10.0,49.0,40.0,0,0,0,0,0,0,0,0,1780,6374
2024/06/19 01:26:42,17.9,32.8,28.5,10.0,48.9,40.0,0,0,0,0,0,0,0,0,1780,6374
2024/06/19 01:28:41,17.8,32.8,28.5,10.0,48.9,40.0,0,0,0,0,0,0,0,0,1780,6374
2024/06/19 01:30:39,17.8,32.8,28.5,10.0,48.9,40.0,0,0,0,0,0,0,0,0,1780,6374
2024/06/19 01:32:38,17.8,32.7,28.4,10.0,48.9,40.0,0,0,0,0,0,0,0,0,1780,6374
2024/06/19 01:34:37,17.8,32.7,28.4,10.0,48.9,40.0,0,0,0,0,0,0,0,0,1780,6374
2024/06/19 01:36:36,17.7,32.6,28.4,10.0,48.8,40.0,0,0,0,0,0,0,0,0,1780,6374
2024/06/19 01:38:35,17.7,32.6,28.4,10.0,48.8,40.0,0,0,0,0,0,0,0,0,1780,6374
2024/06/19 01:40:34,17.7,32.6,28.3,10.0,48.8,40.0,0,0,0,0,0,0,0,0,1780,6374
2024/06/19 01:42:33,17.7,32.5,28.3,10.0,48.8,40.0,0,0,0,0,0,0,0,0,1780,6374
2024/06/19 01:44:31,17.7,32.5,28.3,10.0,48.8,40.0,0,0,0,0,0,0,0,0,1780,6374
2024/06/19 01:46:31,17.7,32.4,28.2,10.0,48.7,40.0,0,0,0,0,0,0,0,0,1780,6374
2024/06/19 01:48:29,17.6,32.4,28.2,10.0,48.7,40.0,0,0,0,0,0,0,0,0,1780,6374
2024/06/19 01:50:27,17.6,32.3,28.2,10.0,48.7,40.0,0,0,0,0,0,0,0,0,1780,6374
2024/06/19 01:52:25,17.6,32.3,28.2,10.0,48.7,40.0,0,0,0,0,0,0,0,0,1780,6374
2024/06/19 01:54:25,17.6,32.3,28.1,10.0,48.6,40.0,0,0,0,0,0,0,0,0,1780,6374
2024/06/19 01:56:23,17.5,32.2,28.1,10.0,48.6,40.0,0,0,0,0,0,0,0,0,1780,6374
2024/06/19 01:58:21,17.5,32.2,28.1,10.0,48.6,40.0,0,0,0,0,0,0,0,0,1780,6374
2024/06/19 02:00:20,17.5,32.1,28.1,10.0,48.6,40.0,0,0,0,0,0,0,0,0,1780,6374
2024/06/19 02:02:18,17.5,32.1,28.0,10.0,48.6,40.0,0,0,0,0,0,0,0,0,1780,6374
2024/06/19 02:05:17,17.5,32.1,28.0,10.0,48.5,40.0,0,0,0,0,0,0,0,0,1780,6374
2024/06/19 02:07:15,17.5,32.0,28.0,10.0,48.5,40.0,0,0,0,0,0,0,0,0,1780,6374
2024/06/19 02:09:15,17.5,32.0,28.0,10.0,48.5,40.0,0,0,0,0,0,0,0,0,1780,6374
2024/06/19 02:11:13,17.5,31.9,27.9,10.0,48.5,40.0,0,0,0,0,0,0,0,0,1780,6374
2024/06/19 02:13:11,17.5,31.9,27.9,10.0,48.5,40.0,0,0,0,0,0,0,0,0,1780,6374
2024/06/19 02:15:10,17.4,31.9,27.9,10.0,48.4,40.0,0,0,0,0,0,0,0,0,1780,6374
2024/06/19 02:17:09,17.4,31.8,27.9,10.0,48.4,40.0,0,0,0,0,0,0,0,0,1780,6374
2024/06/19 02:19:08,17.4,31.8,27.8,10.0,48.4,40.0,0,0,0,0,0,0,0,0,1780,6374
2024/06/19 02:21:07,17.3,31.8,27.8,10.0,48.4,40.0,0,0,0,0,0,0,0,0,1780,6374
2024/06/19 02:23:06,17.3,31.7,27.8,10.0,48.4,40.0,0,0,0,0,0,0,0,0,1780,6374
2024/06/19 02:25:04,17.2,31.7,27.8,10.0,48.3,40.0,0,0,0,0,0,0,0,0,1780,6374
2024/06/19 02:27:02,17.2,31.7,27.8,10.0,48.3,40.0,0,0,0,0,0,0,0,0,1780,6374
2024/06/19 02:29:01,17.2,31.6,27.7,10.0,48.3,40.0,0,0,0,0,0,0,0,0,1780,6374
2024/06/19 02:30:59,17.2,31.6,27.7,10.0,48.3,40.0,0,0,0,0,0,0,0,0,1780,6374
2024/06/19 02:32:59,17.2,31.6,27.7,10.0,48.3,40.0,0,0,0,0,0,0,0,0,1780,6374
2024/06/19 02:34:58,17.2,31.5,27.7,10.0,48.2,40.0,0,0,0,0,0,0,0,0,1780,6374
2024/06/19 02:36:56,17.2,31.5,27.6,10.0,48.2,40.0,0,0,0,0,0,0,0,0,1780,6374
2024/06/19 02:38:55,17.2,31.4,27.6,10.0,48.2,40.0,0,0,0,0,0,0,0,0,1780,6374
2024/06/19 02:40:53,17.2,31.4,27.6,10.0,48.2,40.0,0,0,0,0,0,0,0,0,1780,6374
2024/06/19 02:42:53,17.2,31.4,27.6,10.0,48.1,40.0,0,0,0,0,0,0,0,0,1780,6374
2024/06/19 02:44:52,17.2,31.3,27.5,10.0,48.1,40.0,0,0,0,0,0,0,0,0,1780,6374
2024/06/19 02:46:51,17.2,31.3,27.5,10.0,48.1,40.0,0,0,0,0,0,0,0,0,1780,6374
2024/06/19 02:48:50,17.2,31.3,27.5,10.0,48.1,40.0,0,0,0,0,0,0,0,0,1780,6374
2024/06/19 02:50:49,17.2,31.2,27.5,10.0,48.1,40.0,0,0,0,0,0,0,0,0,1780,6374
2024/06/19 02:52:48,17.1,31.2,27.5,10.0,48.0,40.0,0,0,0,0,0,0,0,0,1780,6374
2024/06/19 02:54:47,17.1,31.2,27.4,10.0,48.0,40.0,0,0,0,0,0,0,0,0,1780,6374
2024/06/19 02:56:44,17.1,31.1,27.4,10.0,48.0,40.0,0,0,0,0,0,0,0,0,1780,6374
2024/06/19 02:58:42,17.1,31.1,27.4,10.0,48.0,40.0,0,0,0,0,0,0,0,0,1780,6374
2024/06/19 03:00:42,17.1,31.0,27.4,10.0,48.0,40.0,0,0,0,0,0,0,0,0,1780,6374
2024/06/19 03:02:40,17.1,31.0,27.4,10.0,47.9,40.0,0,0,0,0,0,0,0,0,1780,6374
2024/06/19 03:04:39,17.1,31.0,27.3,10.0,47.9,40.0,0,0,0,0,0,0,0,0,1780,6374
2024/06/19 03:06:38,17.1,31.0,27.3,10.0,47.9,40.0,0,0,0,0,0,0,0,0,1780,6374
2024/06/19 03:08:38,17.1,30.9,27.3,10.0,47.9,40.0,0,0,0,0,0,0,0,0,1780,6374
2024/06/19 03:10:36,17.1,30.9,27.3,10.0,47.9,40.0,0,0,0,0,0,0,0,0,1780,6374
2024/06/19 03:12:35,17.1,30.9,27.3,10.0,47.8,40.0,0,0,0,0,0,0,0,0,1780,6374
2024/06/19 03:14:34,17.0,30.8,27.2,10.0,47.8,40.0,0,0,0,0,0,0,0,0,1780,6374
2024/06/19 03:16:33,17.0,30.8,27.2,10.0,47.8,40.0,0,0,0,0,0,0,0,0,1780,6374
2024/06/19 03:18:33,17.0,30.8,27.2,10.0,47.8,40.0,0,0,0,0,0,0,0,0,1780,6374
2024/06/19 03:20:31,16.9,30.7,27.2,10.0,47.8,40.0,0,0,0,0,0,0,0,0,1780,6374
2024/06/19 03:22:30,16.9,30.7,27.2,10.0,47.7,40.0,0,0,0,0,0,0,0,0,1780,6374
2024/06/19 03:24:29,16.8,30.7,27.1,10.0,47.7,40.0,0,0,0,0,0,0,0,0,1780,6374
2024/06/19 03:26:28,16.8,30.6,27.1,10.0,47.7,40.0,0,0,0,0,0,0,0,0,1780,6374
2024/06/19 03:28:27,16.8,30.6,27.1,10.0,47.7,40.0,0,0,0,0,0,0,0,0,1780,6374
2024/06/19 03:30:24,16.8,30.5,27.1,10.0,47.7,40.0,0,0,0,0,0,0,0,0,1780,6374
2024/06/19 03:32:23,16.7,30.5,27.1,10.0,47.6,40.0,0,0,0,0,0,0,0,0,1780,6374
2024/06/19 03:34:22,16.7,30.5,27.0,10.0,47.6,40.0,0,0,0,0,0,0,0,0,1780,6374
2024/06/19 03:36:20,16.7,30.5,27.0,10.0,47.6,40.0,0,0,0,0,0,0,0,0,1780,6374
2024/06/19 03:38:17,16.7,30.4,27.0,10.0,47.6,40.0,0,0,0,0,0,0,0,0,1780,6374
2024/06/19 03:41:16,16.7,30.4,27.0,10.0,47.5,40.0,0,0,0,0,0,0,0,0,1780,6374
2024/06/19 03:43:15,16.7,30.4,27.0,10.0,47.5,40.0,0,0,0,0,0,0,0,0,1780,6374
2024/06/19 03:45:14,16.7,30.3,27.0,10.0,47.5,40.0,0,0,0,0,0,0,0,0,1780,6374
2024/06/19 03:47:13,16.7,30.3,26.9,10.0,47.5,40.0,0,0,0,0,0,0,0,0,1780,6374
2024/06/19 03:49:12,16.8,30.3,26.9,10.0,47.5,40.0,0,0,0,0,0,0,0,0,1780,6374
2024/06/19 03:51:08,16.8,30.2,26.9,10.0,47.4,40.0,0,0,0,0,0,0,0,0,1780,6374
2024/06/19 03:53:07,16.8,30.2,26.9,10.0,47.4,40.0,0,0,0,0,0,0,0,0,1780,6374
2024/06/19 03:55:06,16.8,30.2,26.9,10.0,47.4,40.0,0,0,0,0,0,0,0,0,1780,6374
2024/06/19 03:57:04,16.8,30.1,26.8,10.0,47.4,40.0,0,0,0,0,0,0,0,0,1780,6374
2024/06/19 03:59:01,16.8,30.1,26.8,10.0,47.4,40.0,0,0,0,0,0,0,0,0,1780,6374
2024/06/19 04:01:00,16.8,30.1,26.8,10.0,47.3,40.0,0,0,0,0,0,0,0,0,1780,6374
2024/06/19 04:03:00,16.8,30.1,26.8,10.0,47.3,40.0,0,0,0,0,0,0,0,0,1780,6374
2024/06/19 04:04:59,16.8,30.0,26.8,10.0,47.3,40.0,0,0,0,0,0,0,0,0,1780,6374
2024/06/19 04:06:55,16.8,30.0,26.8,10.0,47.3,40.0,0,0,0,0,0,0,0,0,1780,6374
2024/06/19 04:08:54,16.8,30.0,26.7,10.0,47.3,40.0,0,0,0,0,0,0,0,0,1780,6374
2024/06/19 04:10:52,16.8,30.0,26.7,10.0,47.2,40.0,0,0,0,0,0,0,0,0,1780,6374
2024/06/19 04:12:51,16.8,29.9,26.7,10.0,47.2,40.0,0,0,0,0,0,0,0,0,1780,6374
2024/06/19 04:14:49,16.8,29.9,26.7,10.0,47.2,40.0,0,0,0,0,0,0,0,0,1780,6374
2024/06/19 04:16:48,16.7,29.9,26.7,10.0,47.2,40.0,0,0,0,0,0,0,0,0,1780,6374
2024/06/19 04:18:48,16.7,29.9,26.7,10.0,47.2,40.0,0,0,0,0,0,0,0,0,1780,6374
2024/06/19 04:20:46,16.7,29.8,26.7,10.0,47.1,40.0,0,0,0,0,0,0,0,0,1780,6374
2024/06/19 04:22:44,16.7,29.8,26.6,10.0,47.1,40.0,0,0,0,0,0,0,0,0,1780,6374
2024/06/19 04:24:43,16.7,29.8,26.6,10.0,47.1,40.0,0,0,0,0,0,0,0,0,1780,6374
2024/06/19 04:26:42,16.7,29.8,26.6,10.0,47.1,40.0,0,0,0,0,0,0,0,0,1780,6374
2024/06/19 04:28:40,16.7,29.7,26.6,10.0,47.1,40.0,0,0,0,0,0,0,0,0,1780,6374
2024/06/19 04:30:39,16.6,29.7,26.6,10.0,47.0,40.0,0,0,0,0,0,0,0,0,1780,6374
2024/06/19 04:32:37,16.6,29.7,26.6,10.0,47.0,40.0,0,0,0,0,0,0,0,0,1780,6374
2024/06/19 04:34:37,16.6,29.7,26.5,10.0,47.0,40.0,0,0,0,0,0,0,0,0,1780,6374
2024/06/19 04:36:34,16.5,29.7,26.5,10.0,47.0,40.0,0,0,0,0,0,0,0,0,1780,6374
2024/06/19 04:38:32,16.5,29.6,26.5,10.0,47.0,40.0,0,0,0,0,0,0,0,0,1780,6374
2024/06/19 04:40:30,16.5,29.6,26.5,10.0,46.9,40.0,0,0,0,0,0,0,0,0,1780,6374
2024/06/19 04:42:29,16.5,29.6,26.5,10.0,46.9,40.0,0,0,0,0,0,0,0,0,1780,6374
2024/06/19 04:44:25,16.4,29.5,26.5,10.0,46.9,40.0,0,0,0,0,0,0,0,0,1780,6374
2024/06/19 04:46:23,16.4,29.5,26.5,10.0,46.9,40.0,0,0,0,0,0,0,0,0,1780,6374
2024/06/19 04:48:22,16.4,29.5,26.4,10.0,46.9,40.0,0,0,0,0,0,0,0,0,1780,6374
2024/06/19 04:50:21,16.3,29.5,26.4,10.0,46.8,40.0,0,0,0,0,0,0,0,0,1780,6374
2024/06/19 04:52:19,16.3,29.5,26.4,10.0,46.8,40.0,0,0,0,0,0,0,0,0,1780,6374
2024/06/19 04:54:18,16.3,29.4,26.4,10.0,46.8,40.0,0,0,0,0,0,0,0,0,1780,6374
2024/06/19 04:57:17,16.2,29.4,26.4,10.0,46.8,40.0,0,0,0,0,0,0,0,0,1780,6374
2024/06/19 04:59:17,16.2,29.4,26.4,10.0,46.8,40.0,0,0,0,0,0,0,0,0,1780,6374
2024/06/19 05:01:16,16.2,29.4,26.4,10.0,46.7,40.0,0,0,0,0,0,0,0,0,1780,6374
2024/06/19 05:03:15,16.2,29.4,26.3,10.0,46.7,40.0,0,0,0,0,0,0,0,0,1780,6374
2024/06/19 05:05:14,16.2,29.3,26.3,10.0,46.7,40.0,0,0,0,0,0,0,0,0,1780,6374
2024/06/19 05:07:13,16.2,29.3,26.3,10.0,46.7,40.0,0,0,0,0,0,0,0,0,1780,6374
2024/06/19 05:09:11,16.2,29.3,26.3,10.0,46.7,40.0,0,0,0,0,0,0,0,0,1780,6374
2024/06/19 05:11:10,16.2,29.3,26.3,10.0,46.6,40.0,0,0,0,0,0,0,0,0,1780,6374
2024/06/19 05:13:09,16.2,29.2,26.3,10.0,46.6,40.0,0,0,0,0,0,0,0,0,1780,6374
2024/06/19 05:15:08,16.1,29.2,26.3,10.0,46.6,40.0,0,0,0,0,0,0,0,0,1780,6374
2024/06/19 05:17:06,16.1,29.2,26.2,10.0,46.6,52.0,0,0,0,0,0,0,0,0,1780,6374
2024/06/19 05:19:05,16.1,29.2,26.2,10.0,46.6,52.0,0,0,0,0,0,0,0,0,1780,6374
2024/06/19 05:21:03,16.1,29.2,26.2,10.0,46.5,52.0,0,0,0,0,0,0,0,0,1780,6374
2024/06/19 05:23:02,16.0,29.2,26.2,10.0,46.5,52.0,0,0,0,0,0,0,0,0,1780,6374
2024/06/19 05:25:02,16.0,29.1,26.2,10.0,46.5,52.0,0,0,0,0,0,0,0,0,1780,6374
2024/06/19 05:27:01,16.0,29.1,26.2,10.0,46.5,52.0,0,0,0,0,0,0,0,0,1780,6374
2024/06/19 05:29:00,16.0,29.1,26.2,10.0,46.5,52.0,0,0,0,0,0,0,0,0,1780,6374
2024/06/19 05:30:59,16.0,29.1,26.1,10.0,46.3,52.0,0,0,0,0,0,0,0,0,1780,6374
2024/06/19 05:32:58,16.0,29.1,26.1,10.0,45.6,52.0,0,0,0,0,0,0,0,0,1780,6374
2024/06/19 05:34:57,15.9,29.0,26.1,10.0,45.1,52.0,0,0,0,0,0,0,0,0,1780,6374
2024/06/19 05:36:56,15.9,29.0,26.1,10.0,44.7,52.0,0,0,0,0,0,0,0,0,1780,6374
2024/06/19 05:38:54,15.9,29.0,26.1,10.0,44.5,52.0,0,0,0,0,0,0,0,0,1780,6374
2024/06/19 05:40:52,15.9,29.0,26.1,10.0,44.3,52.0,0,0,0,0,0,0,0,0,1780,6374
2024/06/19 05:42:50,15.9,29.0,26.1,10.0,44.2,52.0,0,0,0,0,0,0,0,0,1780,6374
2024/06/19 05:44:50,15.9,28.9,26.1,10.0,44.1,52.0,0,0,0,0,0,0,0,0,1780,6374
2024/06/19 05:46:48,15.9,28.9,26.0,10.0,44.1,52.0,0,0,0,0,0,0,0,0,1780,6374
2024/06/19 05:48:46,15.9,28.9,26.0,10.0,44.1,52.0,0,0,0,0,0,0,0,0,1780,6374
2024/06/19 05:50:45,15.9,28.9,26.0,10.0,44.1,52.0,0,0,0,0,0,0,0,0,1780,6374
2024/06/19 05:52:42,15.9,28.9,26.0,10.0,44.1,52.0,0,0,0,0,0,0,0,0,1780,6374
2024/06/19 05:54:41,15.9,28.8,26.0,10.0,44.1,52.0,0,0,0,0,0,0,0,0,1780,6374
2024/06/19 05:56:41,15.9,28.8,26.0,10.0,44.0,52.0,0,0,1,0,0,1,1,0,1780,6374
2024/06/19 05:58:40,15.9,37.6,33.7,10.0,43.7,52.0,1,0,1,0,0,1,1,0,1780,6374
2024/06/19 06:00:39,15.9,39.3,36.1,10.0,43.1,52.0,1,0,1,0,0,1,1,0,1780,6375
2024/06/19 06:02:36,15.9,41.1,37.3,10.0,42.9,52.0,1,0,1,0,0,1,1,0,1780,6376
2024/06/19 06:04:36,15.9,42.4,38.5,10.0,42.8,52.0,1,0,1,0,0,1,1,0,1780,6377
2024/06/19 06:06:34,15.9,43.5,39.3,10.0,43.0,52.0,1,0,1,0,0,1,1,0,1780,6378
2024/06/19 06:08:33,15.9,44.4,40.0,10.0,43.3,52.0,1,0,1,0,0,1,1,0,1780,6378
2024/06/19 06:10:33,15.9,45.1,40.8,10.0,43.6,52.0,1,0,1,0,0,1,1,0,1780,6379
2024/06/19 06:12:31,15.9,45.8,41.4,10.0,43.9,52.0,1,0,1,0,0,1,1,0,1780,6380
2024/06/19 06:14:29,15.9,46.5,42.0,10.0,44.2,52.0,1,0,1,0,0,1,1,0,1780,6381
2024/06/19 06:16:28,15.9,47.2,42.6,10.0,44.6,52.0,1,0,1,0,0,1,1,0,1780,6382
2024/06/19 06:18:27,15.9,47.8,43.2,10.0,44.8,52.0,1,0,1,0,0,1,1,0,1780,6382
2024/06/19 06:20:26,16.0,48.5,43.8,10.0,45.1,52.0,1,0,1,0,0,1,1,0,1780,6383
2024/06/19 06:22:25,16.0,49.0,44.3,10.0,45.5,52.0,1,0,1,0,0,1,1,0,1780,6384
2024/06/19 06:24:22,16.1,49.4,44.7,10.0,45.9,52.0,1,0,1,0,0,1,1,0,1780,6385
2024/06/19 06:26:21,16.1,49.6,44.9,10.0,46.5,52.0,1,0,1,0,0,1,1,0,1780,6385
2024/06/19 06:28:20,16.2,50.0,45.3,10.0,46.8,52.0,1,0,1,0,0,1,1,0,1780,6386
2024/06/19 06:30:20,16.3,50.5,45.8,10.0,47.2,52.0,1,0,1,0,0,1,1,0,1780,6387
2024/06/19 06:32:19,16.4,51.1,46.3,10.0,47.6,52.0,1,0,1,0,0,1,1,0,1780,6388
2024/06/19 06:34:19,16.5,51.8,46.9,10.0,48.0,52.0,1,0,1,0,0,1,1,0,1780,6388
2024/06/19 06:36:18,16.6,52.3,47.3,10.0,48.4,52.0,1,0,1,0,0,1,1,0,1780,6389
2024/06/19 06:39:17,16.7,52.8,47.8,10.0,48.9,52.0,1,0,1,0,0,1,1,0,1780,6390
2024/06/19 06:41:16,16.8,53.1,48.2,10.0,49.4,52.0,1,0,1,0,0,1,1,0,1780,6391
2024/06/19 06:43:16,16.9,53.6,48.6,10.0,49.8,52.0,1,0,1,0,0,1,1,0,1780,6391
2024/06/19 06:45:15,17.0,54.0,49.0,10.0,50.2,52.0,1,0,1,0,0,1,1,0,1780,6392
2024/06/19 06:47:14,17.3,54.4,49.4,10.0,50.7,52.0,1,0,1,0,0,1,1,0,1780,6393
2024/06/19 06:49:11,17.6,54.8,49.8,10.0,51.3,52.0,1,0,1,0,0,1,1,0,1780,6394
2024/06/19 06:51:10,17.8,55.3,50.2,10.0,51.8,52.0,1,0,1,0,0,1,1,0,1780,6394
2024/06/19 06:53:10,18.1,53.2,50.5,10.0,52.3,52.0,0,0,0,0,0,0,1,0,1780,6395
2024/06/19 06:55:09,18.4,41.9,39.6,10.0,52.5,52.0,0,0,0,0,0,0,0,0,1780,6395
2024/06/19 06:57:08,18.7,41.3,38.8,10.0,52.6,52.0,0,0,0,0,0,0,0,0,1780,6395
2024/06/19 06:59:06,19.0,40.7,38.4,10.0,52.6,52.0,0,0,0,0,0,0,0,0,1780,6395
2024/06/19 07:01:04,19.2,40.2,38.0,10.0,52.5,52.0,0,0,0,0,0,0,0,0,1780,6395
2024/06/19 07:03:03,19.4,39.9,37.6,10.0,52.4,52.0,0,0,0,0,0,0,0,0,1780,6395
2024/06/19 07:05:01,19.6,39.6,37.3,10.0,52.3,52.0,0,0,0,0,0,0,0,0,1780,6395
2024/06/19 07:06:59,19.8,39.4,37.1,10.0,52.2,52.0,0,0,0,0,0,0,0,0,1780,6395
2024/06/19 07:08:58,20.0,39.2,36.8,10.0,52.1,52.0,0,0,0,0,0,0,0,0,1780,6395
2024/06/19 07:10:57,20.2,39.0,36.6,10.0,52.1,52.0,0,0,0,0,0,0,0,0,1780,6395
2024/06/19 07:12:56,20.4,38.9,36.4,10.0,52.0,52.0,0,0,0,0,0,0,0,0,1780,6395
2024/06/19 07:14:54,20.6,38.8,36.2,10.0,51.9,52.0,0,0,0,0,0,0,0,0,1780,6395
2024/06/19 07:16:53,20.8,38.7,36.0,10.0,51.9,52.0,0,0,0,0,0,0,0,0,1780,6395
2024/06/19 07:18:52,21.0,38.6,35.9,10.0,51.8,52.0,0,0,0,0,0,0,0,0,1780,6395
2024/06/19 07:20:51,21.2,38.5,35.7,10.0,51.8,52.0,0,0,0,0,0,0,0,0,1780,6395
2024/06/19 07:22:51,21.4,38.4,35.5,10.0,51.7,52.0,0,0,0,0,0,0,0,0,1780,6395
2024/06/19 07:24:50,21.5,38.3,35.4,10.0,51.6,52.0,0,0,0,0,0,0,0,0,1780,6395
2024/06/19 07:26:49,21.6,38.2,35.2,10.0,51.5,52.0,0,0,0,0,0,0,0,0,1780,6395
2024/06/19 07:28:48,21.7,38.1,35.1,10.0,51.5,52.0,0,0,0,0,0,0,0,0,1780,6395
2024/06/19 07:30:47,21.8,38.1,35.0,10.0,51.4,52.0,0,0,0,0,0,0,0,0,1780,6395
2024/06/19 07:32:45,22.0,38.0,34.8,10.0,51.3,52.0,0,0,0,0,0,0,0,0,1780,6395
2024/06/19 07:34:43,22.1,37.9,34.7,10.0,51.3,52.0,0,0,0,0,0,0,0,0,1780,6395
2024/06/19 07:36:43,22.2,37.9,34.6,10.0,51.2,52.0,0,0,0,0,0,0,0,0,1780,6395
2024/06/19 07:38:41,22.4,37.8,34.5,10.0,51.1,52.0,0,0,0,0,0,0,0,0,1780,6395
2024/06/19 07:40:41,22.5,37.8,34.4,10.0,51.0,52.0,0,0,0,0,0,0,0,0,1780,6395
2024/06/19 07:42:40,22.6,37.7,34.3,10.0,51.0,52.0,0,0,0,0,0,0,0,0,1780,6395
2024/06/19 07:44:39,22.7,37.6,34.2,10.0,50.9,52.0,0,0,0,0,0,0,0,0,1780,6395
2024/06/19 07:46:36,22.7,37.6,34.1,10.0,50.8,52.0,0,0,0,0,0,0,0,0,1780,6395
2024/06/19 07:48:35,22.5,37.5,34.0,10.0,50.8,52.0,0,0,0,0,0,0,0,0,1780,6395
2024/06/19 07:50:34,22.2,37.5,33.9,10.0,50.7,52.0,0,0,0,0,0,0,0,0,1780,6395
2024/06/19 07:52:32,21.9,37.4,33.8,10.0,50.6,52.0,0,0,0,0,0,0,0,0,1780,6395
2024/06/19 07:54:31,21.7,37.4,33.7,10.0,50.6,52.0,0,0,0,0,0,0,0,0,1780,6395
2024/06/19 07:56:29,21.5,37.3,33.6,10.0,50.5,52.0,0,0,0,0,0,0,0,0,1780,6395
2024/06/19 07:58:27,21.3,37.3,33.5,10.0,50.4,52.0,0,0,0,0,0,0,0,0,1780,6395
2024/06/19 08:00:27,21.2,37.3,33.4,10.0,50.4,52.0,0,0,0,0,0,0,0,0,1780,6395
2024/06/19 08:02:26,21.2,37.2,33.3,10.0,50.3,52.0,0,0,0,0,0,0,0,0,1780,6395
2024/06/19 08:04:25,21.1,37.2,33.2,10.0,50.2,52.0,0,0,0,0,0,0,0,0,1780,6395
2024/06/19 08:06:23,21.1,37.1,33.1,10.0,50.2,52.0,0,0,0,0,0,0,0,0,1780,6395
2024/06/19 08:08:22,21.1,37.0,33.0,10.0,50.1,52.0,0,0,0,0,0,0,0,0,1780,6395
2024/06/19 08:10:21,21.1,37.0,32.9,10.0,50.1,52.0,0,0,0,0,0,0,0,0,1780,6395
2024/06/19 08:13:18,21.1,36.9,32.8,10.0,50.0,52.0,0,0,0,0,0,0,0,0,1780,6395
2024/06/19 08:15:17,21.1,36.9,32.7,10.0,49.9,52.0,0,0,0,0,0,0,0,0,1780,6395
2024/06/19 08:17:16,21.1,36.8,32.6,10.0,49.9,52.0,0,0,0,0,0,0,0,0,1780,6395
2024/06/19 08:19:13,21.2,36.7,32.5,10.0,49.8,52.0,0,0,0,0,0,0,0,0,1780,6395
2024/06/19 08:21:11,21.3,36.7,32.4,10.0,49.8,52.0,0,0,0,0,0,0,0,0,1780,6395
2024/06/19 08:23:10,21.3,36.6,32.3,10.0,49.7,52.0,0,0,0,0,0,0,0,0,1780,6395
2024/06/19 08:25:09,21.4,36.5,32.3,10.0,49.7,52.0,0,0,0,0,0,0,0,0,1780,6395
2024/06/19 08:27:05,21.5,36.5,32.2,10.0,49.6,52.0,0,0,0,0,0,0,0,0,1780,6395
2024/06/19 08:29:03,21.5,36.4,32.1,10.0,49.6,52.0,0,0,0,0,0,0,0,0,1780,6395
2024/06/19 08:31:01,21.6,36.4,32.0,10.0,49.5,52.0,0,0,0,0,0,0,0,0,1780,6395
2024/06/19 08:33:00,21.6,36.3,31.9,10.0,49.5,52.0,0,0,0,0,0,0,0,0,1780,6395
2024/06/19 08:35:00,21.7,36.2,31.8,10.0,49.4,52.0,0,0,0,0,0,0,0,0,1780,6395
2024/06/19 08:36:59,21.8,36.2,31.8,10.0,49.4,52.0,0,0,0,0,0,0,0,0,1780,6395
2024/06/19 08:38:58,21.8,36.1,31.7,10.0,49.3,52.0,0,0,0,0,0,0,0,0,1780,6395
2024/06/19 08:40:57,21.8,36.0,31.6,10.0,49.3,52.0,0,0,0,0,0,0,0,0,1780,6395
2024/06/19 08:42:56,21.8,36.0,31.5,10.0,49.2,52.0,0,0,0,0,0,0,0,0,1780,6395
2024/06/19 08:44:56,21.8,36.0,33.0,10.0,49.1,58.2,0,0,1,0,0,1,1,0,1780,6395
2024/06/19 08:46:55,21.9,43.1,39.7,10.0,49.0,57.1,0,1,1,0,0,1,1,0,1780,6395
2024/06/19 08:48:54,21.9,47.2,43.5,10.0,48.7,57.1,0,1,1,0,0,1,1,0,1780,6396
2024/06/19 08:50:52,21.9,49.1,45.2,10.0,48.7,57.1,0,1,1,0,0,1,1,0,1780,6397
2024/06/19 08:52:50,22.0,50.1,45.9,10.0,48.8,57.1,0,1,1,0,0,1,1,0,1780,6398
2024/06/19 08:54:50,22.0,51.0,46.7,10.0,49.1,57.1,0,1,1,0,0,1,1,0,1780,6398
2024/06/19 08:56:49,22.1,52.1,47.5,10.0,49.3,57.1,0,1,1,0,0,1,1,0,1780,6399
2024/06/19 08:58:48,22.1,52.8,48.1,10.0,49.7,57.1,0,1,1,0,0,1,1,0,1780,6400
2024/06/19 09:00:48,22.2,53.5,48.7,10.0,50.2,57.1,0,1,1,0,0,1,1,0,1780,6401
2024/06/19 09:02:47,22.2,53.9,49.2,10.0,50.6,57.1,0,1,1,0,0,1,1,0,1780,6401
2024/06/19 09:04:45,22.3,54.5,49.5,10.0,51.1,57.1,0,1,1,0,0,1,1,0,1780,6402
2024/06/19 09:06:42,22.3,55.0,50.1,10.0,51.6,57.1,0,1,1,0,0,1,1,0,1780,6403
2024/06/19 09:08:42,22.4,55.4,50.6,10.0,52.1,57.1,0,1,1,0,0,1,1,0,1780,6403
2024/06/19 09:10:40,22.4,56.1,51.0,10.0,52.6,57.1,0,1,1,0,0,1,1,0,1780,6404
2024/06/19 09:12:38,22.5,56.5,51.6,10.0,53.1,57.1,0,1,1,0,0,1,1,0,1780,6405
2024/06/19 09:14:37,22.5,57.0,51.9,10.0,53.6,57.1,0,1,1,0,0,1,1,0,1780,6406
2024/06/19 09:16:35,22.6,57.4,52.4,10.0,54.0,57.1,0,1,1,0,0,1,1,0,1780,6406
2024/06/19 09:18:34,22.6,57.8,52.9,10.0,54.4,57.1,0,1,1,0,0,1,1,0,1780,6407
2024/06/19 09:20:33,22.6,58.3,53.2,10.0,54.8,57.1,0,1,1,0,0,1,1,0,1780,6408
2024/06/19 09:22:32,22.7,58.8,53.6,10.0,55.2,57.1,0,1,1,0,0,1,1,0,1780,6408
2024/06/19 09:24:29,22.7,59.1,54.1,10.0,55.8,57.1,0,1,1,0,0,1,1,0,1780,6409
2024/06/19 09:26:28,22.7,59.5,54.4,10.0,56.2,57.1,0,1,1,0,0,1,1,0,1780,6410
2024/06/19 09:28:27,22.7,59.9,54.8,10.0,56.7,57.1,0,1,1,0,0,1,1,0,1780,6410
2024/06/19 09:30:26,22.8,58.9,55.2,10.0,57.2,57.1,0,0,1,0,0,0,1,0,1780,6411
2024/06/19 09:32:25,22.8,43.6,40.7,10.0,57.5,57.1,0,0,0,0,0,0,1,0,1780,6411
2024/06/19 09:34:23,22.9,42.5,39.7,10.0,57.6,57.1,0,0,0,0,0,0,0,0,1780,6411
2024/06/19 09:36:22,22.9,41.9,39.1,10.0,57.6,57.1,0,0,0,0,0,0,0,0,1780,6411
2024/06/19 09:38:21,22.9,41.3,38.5,10.0,57.5,58.2,0,0,0,0,0,0,0,0,1780,6411
2024/06/19 09:40:20,23.0,40.9,37.9,10.0,57.4,58.2,0,0,0,0,0,0,0,0,1780,6411
2024/06/19 09:42:19,23.0,40.5,37.5,10.0,57.2,58.2,0,0,0,0,0,0,0,0,1780,6411
2024/06/19 09:45:17,23.1,40.2,37.2,10.0,57.1,58.2,0,0,0,0,0,0,0,0,1780,6411
2024/06/19 09:47:17,23.1,40.0,37.0,10.0,57.0,58.2,0,0,0,0,0,0,0,0,1780,6411
2024/06/19 09:49:15,23.2,39.8,36.7,10.0,56.9,58.2,0,0,0,0,0,0,0,0,1780,6411
2024/06/19 09:51:14,23.3,39.7,36.5,10.0,56.8,58.2,0,0,0,0,0,0,0,0,1780,6411
2024/06/19 09:53:13,23.3,39.6,36.3,10.0,56.8,58.2,0,0,0,0,0,0,0,0,1780,6411
2024/06/19 09:55:11,23.3,39.5,36.1,10.0,56.7,58.2,0,0,0,0,0,0,0,0,1780,6411
2024/06/19 09:57:10,23.3,39.3,35.9,10.0,56.6,58.2,0,0,0,0,0,0,0,0,1780,6411
2024/06/19 09:59:10,23.4,39.2,35.7,10.0,56.6,58.2,0,0,0,0,0,0,0,0,1780,6411
2024/06/19 10:01:08,23.5,39.1,35.5,10.0,56.5,58.2,0,0,0,0,0,0,0,0,1780,6411
2024/06/19 10:03:07,23.5,39.0,35.3,10.0,56.4,58.2,0,0,0,0,0,0,0,0,1780,6411
2024/06/19 10:05:05,23.6,38.9,35.2,10.0,56.4,58.2,0,0,0,0,0,0,0,0,1780,6411
2024/06/19 10:07:04,23.7,38.8,35.0,10.0,56.3,58.2,0,0,0,0,0,0,0,0,1780,6411
2024/06/19 10:09:02,23.8,38.7,34.9,10.0,56.2,58.2,0,0,0,0,0,0,0,0,1780,6411
2024/06/19 10:11:01,23.8,38.7,34.8,10.0,56.1,58.2,0,0,0,0,0,0,0,0,1780,6411
2024/06/19 10:13:00,23.8,38.6,34.7,10.0,56.1,58.2,0,0,0,0,0,0,0,0,1780,6411
2024/06/19 10:14:59,23.9,38.5,34.6,10.0,56.0,58.2,0,0,0,0,0,0,0,0,1780,6411
2024/06/19 10:16:57,23.9,38.5,34.5,10.0,55.9,58.2,0,0,0,0,0,0,0,0,1780,6411
2024/06/19 10:18:57,23.9,38.4,34.4,10.0,55.8,58.2,0,0,0,0,0,0,0,0,1780,6411
2024/06/19 10:20:55,24.0,38.3,34.3,10.0,55.8,58.2,0,0,0,0,0,0,0,0,1780,6411
2024/06/19 10:22:54,24.0,38.3,34.2,10.0,55.7,58.2,0,0,0,0,0,0,0,0,1780,6411
2024/06/19 10:24:53,24.1,38.2,34.1,10.0,55.6,58.2,0,0,0,0,0,0,0,0,1780,6411
2024/06/19 10:26:50,24.1,38.2,34.0,10.0,55.5,58.2,0,0,0,0,0,0,0,0,1780,6411
2024/06/19 10:28:49,24.1,38.1,33.9,10.0,55.5,58.2,0,0,0,0,0,0,0,0,1780,6411
2024/06/19 10:30:48,24.2,38.1,33.8,10.0,55.4,58.2,0,0,0,0,0,0,0,0,1780,6411
2024/06/19 10:32:47,24.2,38.1,33.8,10.0,55.3,58.2,0,0,0,0,0,0,0,0,1780,6411
2024/06/19 10:34:46,24.3,38.0,33.7,10.0,55.2,58.2,0,0,0,0,0,0,0,0,1780,6411
2024/06/19 10:36:45,24.3,38.0,33.6,10.0,55.2,58.2,0,0,0,0,0,0,0,0,1780,6411
2024/06/19 10:38:44,24.4,37.9,33.5,10.0,55.1,58.2,0,0,0,0,0,0,0,0,1780,6411
2024/06/19 10:40:41,24.4,37.9,33.4,10.0,55.0,58.2,0,0,0,0,0,0,0,0,1780,6411
2024/06/19 10:42:39,24.5,37.8,33.3,10.0,55.0,58.2,0,0,0,0,0,0,0,0,1780,6411
2024/06/19 10:44:37,24.5,37.8,33.3,10.0,54.9,58.2,0,0,0,0,0,0,0,0,1780,6411
2024/06/19 10:46:36,24.6,37.7,33.2,10.0,54.9,58.2,0,0,0,0,0,0,0,0,1780,6411
2024/06/19 10:48:35,24.7,37.7,33.1,10.0,54.8,58.2,0,0,0,0,0,0,0,0,1780,6411
2024/06/19 10:50:34,24.7,37.6,33.0,10.0,54.7,58.2,0,0,0,0,0,0,0,0,1780,6411
2024/06/19 10:52:33,24.7,37.6,32.9,10.0,54.7,58.2,0,0,0,0,0,0,0,0,1780,6411
2024/06/19 10:54:30,24.8,37.5,32.9,10.0,54.6,58.2,0,0,0,0,0,0,0,0,1780,6411
2024/06/19 10:56:27,24.8,37.5,32.8,10.0,54.6,58.2,0,0,0,0,0,0,0,0,1780,6411
2024/06/19 10:58:25,24.9,37.4,32.7,10.0,54.5,58.2,0,0,0,0,0,0,0,0,1780,6411
2024/06/19 11:00:24,25.0,37.4,32.6,10.0,54.5,58.2,0,0,0,0,0,0,0,0,1780,6411
2024/06/19 11:02:23,25.0,37.3,32.5,10.0,54.4,58.2,0,0,0,0,0,0,0,0,1780,6411
2024/06/19 11:04:22,25.1,37.3,32.5,10.0,54.3,58.2,0,0,0,0,0,0,0,0,1780,6411
2024/06/19 11:06:22,25.1,37.2,32.4,10.0,54.3,58.2,0,0,0,0,0,0,0,0,1780,6411
2024/06/19 11:08:20,25.1,37.2,32.3,10.0,54.2,58.2,0,0,0,0,0,0,0,0,1780,6411
2024/06/19 11:10:19,25.2,37.1,32.2,10.0,54.2,58.2,0,0,0,0,0,0,0,0,1780,6411
2024/06/19 11:13:18,25.2,37.0,32.2,10.0,54.1,58.2,0,0,0,0,0,0,0,0,1780,6411
2024/06/19 11:15:16,25.3,37.0,32.1,10.0,54.0,58.2,0,0,0,0,0,0,0,0,1780,6411
2024/06/19 11:17:15,25.3,36.9,32.0,10.0,54.0,58.2,0,0,0,0,0,0,0,0,1780,6411
2024/06/19 11:19:13,25.3,36.9,32.0,10.0,53.9,58.2,0,0,0,0,0,0,0,0,1780,6411
2024/06/19 11:21:12,25.3,36.8,31.9,10.0,53.9,58.2,0,0,0,0,0,0,0,0,1780,6411
2024/06/19 11:23:10,25.4,36.7,31.8,10.0,53.8,58.2,0,0,0,0,0,0,0,0,1780,6411
2024/06/19 11:25:09,25.4,36.7,31.7,10.0,53.8,58.2,0,0,0,0,0,0,0,0,1780,6411
2024/06/19 11:27:08,25.5,36.6,31.7,10.0,53.7,58.2,0,0,0,0,0,0,0,0,1780,6411
2024/06/19 11:29:05,25.6,36.6,31.6,10.0,53.6,58.2,0,0,0,0,0,0,0,0,1780,6411
2024/06/19 11:31:04,25.6,36.5,31.6,10.0,53.6,58.2,0,0,0,0,0,0,0,0,1780,6411
2024/06/19 11:33:04,25.7,36.5,31.5,10.0,53.5,58.2,0,0,0,0,0,0,0,0,1780,6411
2024/06/19 11:35:03,25.7,36.4,31.4,10.0,53.5,58.2,0,0,0,0,0,0,0,0,1780,6411
2024/06/19 11:37:01,25.8,36.3,31.4,10.0,53.4,58.2,0,0,0,0,0,0,0,0,1780,6411
2024/06/19 11:39:00,25.8,36.3,31.3,10.0,53.4,58.2,0,0,0,0,0,0,0,0,1780,6411
2024/06/19 11:40:59,25.9,36.2,31.2,10.0,53.3,58.2,0,0,0,0,0,0,0,0,1780,6411
2024/06/19 11:42:57,25.9,36.2,31.2,10.0,53.2,58.2,0,0,0,0,0,0,0,0,1780,6411
2024/06/19 11:44:57,26.0,36.1,31.1,10.0,53.2,58.2,0,0,0,0,0,0,0,0,1780,6411
2024/06/19 11:46:56,26.0,36.1,31.1,10.0,53.1,58.2,0,0,0,0,0,0,0,0,1780,6411
2024/06/19 11:48:54,26.1,36.0,31.0,10.0,53.1,58.2,0,0,0,0,0,0,0,0,1780,6411
2024/06/19 11:50:52,26.1,35.9,31.0,10.0,53.0,58.2,0,0,0,0,0,0,0,0,1780,6411
2024/06/19 11:52:51,26.2,35.9,30.9,10.0,52.9,58.2,0,0,0,0,0,0,0,0,1780,6411
2024/06/19 11:54:50,26.3,35.8,30.8,10.0,52.9,58.2,0,0,0,0,0,0,0,0,1780,6411
2024/06/19 11:56:47,26.3,35.8,30.8,10.0,52.8,58.2,0,0,0,0,0,0,0,0,1780,6411
2024/06/19 11:58:47,26.3,35.7,30.7,10.0,52.8,58.2,0,0,0,0,0,0,0,0,1780,6411
2024/06/19 12:00:46,26.3,35.7,30.7,10.0,52.7,58.2,0,0,0,0,0,0,0,0,1780,6411
2024/06/19 12:02:44,26.3,35.6,30.6,10.0,52.6,58.2,0,0,0,0,0,0,0,0,1780,6411
2024/06/19 12:04:44,26.4,35.6,30.6,10.0,52.6,58.2,0,0,0,0,0,0,0,0,1780,6411
2024/06/19 12:06:42,26.4,35.5,30.5,10.0,52.5,58.2,0,0,0,0,0,0,0,0,1780,6411
2024/06/19 12:08:41,26.4,35.4,30.5,10.0,52.5,58.2,0,0,0,0,0,0,0,0,1780,6411
2024/06/19 12:10:40,26.4,35.4,30.4,10.0,52.4,58.2,0,0,0,0,0,0,0,0,1780,6411
2024/06/19 12:12:36,26.4,35.3,30.4,10.0,52.4,58.2,0,0,0,0,0,0,0,0,1780,6411
2024/06/19 12:14:35,26.4,35.3,30.3,10.0,52.3,58.2,0,0,0,0,0,0,0,0,1780,6411
2024/06/19 12:16:34,26.5,35.2,30.3,10.0,52.3,58.2,0,0,0,0,0,0,0,0,1780,6411
2024/06/19 12:18:32,26.5,35.2,30.2,10.0,52.2,58.2,0,0,0,0,0,0,0,0,1780,6411
2024/06/19 12:20:32,26.5,35.1,30.2,10.0,52.1,58.2,0,0,0,0,0,0,0,0,1780,6411
2024/06/19 12:22:30,26.6,35.1,30.1,10.0,52.1,58.2,0,0,0,0,0,0,0,0,1780,6411
2024/06/19 12:24:28,26.6,35.0,30.1,10.0,52.0,58.2,0,0,0,0,0,0,0,0,1780,6411
2024/06/19 12:26:26,26.6,35.0,30.0,10.0,52.0,58.2,0,0,0,0,0,0,0,0,1780,6411
2024/06/19 12:28:25,26.7,34.9,30.0,10.0,51.9,58.2,0,0,0,0,0,0,0,0,1780,6411
2024/06/19 12:30:24,26.7,34.9,30.0,10.0,51.8,58.2,0,0,0,0,0,0,0,0,1780,6411
2024/06/19 12:32:21,26.7,34.8,29.9,10.0,51.8,58.2,0,0,0,0,0,0,0,0,1780,6411
2024/06/19 12:34:21,26.7,34.8,29.9,10.0,51.7,58.2,0,0,0,0,0,0,0,0,1780,6411
2024/06/19 12:36:19,26.7,34.8,29.9,10.0,51.6,58.2,0,0,0,0,0,0,0,0,1780,6411
2024/06/19 12:39:17,26.8,34.7,29.8,10.0,51.6,58.2,0,0,0,0,0,0,0,0,1780,6411
2024/06/19 12:41:15,26.8,34.7,29.8,10.0,51.5,58.2,0,0,0,0,0,0,0,0,1780,6411
2024/06/19 12:43:14,26.8,34.6,29.8,10.0,51.5,58.2,0,0,0,0,0,0,0,0,1780,6411
2024/06/19 12:45:11,26.9,34.6,29.7,10.0,51.4,58.2,0,0,0,0,0,0,0,0,1780,6411
2024/06/19 12:47:10,26.9,34.6,29.7,10.0,51.4,58.2,0,0,0,0,0,0,0,0,1780,6411
2024/06/19 12:49:09,26.9,34.5,29.7,10.0,51.3,58.2,0,0,0,0,0,0,0,0,1780,6411
2024/06/19 12:51:07,26.9,34.5,29.6,10.0,51.2,58.2,0,0,0,0,0,0,0,0,1780,6411
2024/06/19 12:53:05,27.0,34.4,29.6,10.0,51.2,58.2,0,0,0,0,0,0,0,0,1780,6411
2024/06/19 12:55:03,27.0,34.4,29.6,10.0,51.1,58.2,0,0,0,0,0,0,0,0,1780,6411
2024/06/19 12:57:02,27.0,34.3,29.5,10.0,51.1,58.2,0,0,0,0,0,0,0,0,1780,6411
2024/06/19 12:59:02,27.0,34.3,29.5,10.0,51.0,58.2,0,0,0,0,0,0,0,0,1780,6411
2024/06/19 13:01:01,27.0,34.3,29.5,10.0,50.9,58.2,0,0,0,0,0,0,0,0,1780,6411
2024/06/19 13:02:58,27.1,34.2,29.4,10.0,50.9,58.2,0,0,0,0,0,0,0,0,1780,6411
2024/06/19 13:04:57,27.1,34.2,29.4,10.0,50.8,58.2,0,0,0,0,0,0,0,0,1780,6411
2024/06/19 13:06:56,27.2,34.1,29.4,10.0,50.8,58.2,0,0,0,0,0,0,0,0,1780,6411
2024/06/19 13:08:54,27.2,34.1,29.3,10.0,50.7,58.2,0,0,0,0,0,0,0,0,1780,6411
2024/06/19 13:10:54,27.3,34.1,29.3,10.0,50.6,58.2,0,0,0,0,0,0,0,0,1780,6411
2024/06/19 13:12:52,27.4,34.0,29.3,10.0,50.6,58.2,0,0,0,0,0,0,0,0,1780,6411
2024/06/19 13:14:50,27.4,34.0,29.2,10.0,50.5,58.2,0,0,0,0,0,0,0,0,1780,6411
2024/06/19 13:16:50,27.5,33.9,29.2,10.0,50.5,58.2,0,0,0,0,0,0,0,0,1780,6411
2024/06/19 13:18:49,27.6,33.9,29.2,10.0,50.4,58.2,0,0,0,0,0,0,0,0,1780,6411
2024/06/19 13:20:47,27.6,33.9,29.1,10.0,50.4,58.2,0,0,0,0,0,0,0,0,1780,6411
2024/06/19 13:22:46,27.6,33.8,29.1,10.0,50.3,58.2,0,0,0,0,0,0,0,0,1780,6411
2024/06/19 13:24:44,27.7,35.4,35.1,10.0,50.2,58.2,0,0,1,0,0,1,1,0,1780,6411
2024/06/19 13:26:42,27.7,45.2,42.8,10.0,50.0,57.1,1,0,1,0,0,1,1,0,1780,6412
2024/06/19 13:28:42,27.7,48.8,45.2,10.0,49.8,57.1,1,0,1,0,0,1,1,0,1780,6412
2024/06/19 13:30:41,27.7,51.1,47.2,10.0,49.8,57.1,1,0,1,0,0,1,1,0,1780,6413
2024/06/19 13:32:41,27.7,52.7,48.4,10.0,50.0,57.1,1,0,1,0,0,1,1,0,1780,6414
2024/06/19 13:34:40,27.7,53.6,49.2,10.0,50.4,57.1,1,0,1,0,0,1,1,0,1780,6415
2024/06/19 13:36:38,27.8,54.3,49.7,10.0,50.9,57.1,1,0,1,0,0,1,1,0,1780,6415
2024/06/19 13:38:38,27.8,54.9,50.2,10.0,51.5,57.1,1,0,1,0,0,1,1,0,1780,6416
2024/06/19 13:40:37,27.9,55.5,50.8,10.0,52.0,57.1,1,0,1,0,0,1,1,0,1780,6417
2024/06/19 13:42:37,27.9,56.2,51.5,10.0,52.6,57.1,1,0,1,0,0,1,1,0,1780,6417
2024/06/19 13:44:35,28.0,56.8,52.0,10.0,53.0,57.1,1,0,1,0,0,1,1,0,1780,6418
2024/06/19 13:46:34,28.0,57.3,52.5,10.0,53.6,57.1,1,0,1,0,0,1,1,0,1780,6419
2024/06/19 13:48:34,28.1,57.8,53.0,10.0,54.0,57.1,1,0,1,0,0,1,1,0,1780,6420
2024/06/19 13:50:33,28.1,58.3,53.4,10.0,54.5,57.1,1,0,1,0,0,1,1,0,1780,6420
2024/06/19 13:52:32,28.2,58.8,53.8,10.0,55.0,57.1,1,0,1,0,0,1,1,0,1780,6421
2024/06/19 13:54:29,28.3,59.2,54.2,10.0,55.5,57.1,1,0,1,0,0,1,1,0,1780,6422
2024/06/19 13:56:28,28.4,59.5,54.5,10.0,56.1,57.1,1,0,1,0,0,1,1,0,1780,6422
2024/06/19 13:58:27,28.5,59.9,54.9,10.0,56.6,57.1,1,0,1,0,0,1,1,0,1780,6423
2024/06/19 14:00:26,28.6,60.5,55.4,10.0,57.0,57.1,1,0,1,0,0,1,1,1,1780,6424
2024/06/19 14:02:25,28.7,45.5,42.0,10.0,57.6,57.1,0,0,0,0,0,0,1,1,1780,6424
2024/06/19 14:04:24,28.7,42.7,40.1,10.0,57.7,57.1,0,0,0,0,0,0,0,1,1780,6424
2024/06/19 14:06:23,28.7,42.1,39.5,10.0,57.7,57.1,0,0,0,0,0,0,0,1,1780,6424
2024/06/19 14:08:22,28.7,41.5,39.1,10.0,57.7,58.2,0,0,0,0,0,0,0,1,1780,6424
2024/06/19 14:10:21,28.8,41.1,38.7,10.0,57.5,58.2,0,0,0,0,0,0,0,1,1780,6424
2024/06/19 14:12:20,28.8,40.7,38.4,10.0,57.4,58.2,0,0,0,0,0,0,0,1,1780,6424
2024/06/19 14:14:20,28.8,40.4,38.1,10.0,57.3,58.2,0,0,0,0,0,0,0,1,1780,6424
2024/06/19 14:16:19,28.8,40.2,37.8,10.0,57.1,58.2,0,0,0,0,0,0,0,1,1780,6424
2024/06/19 14:19:18,28.8,40.0,37.6,10.0,57.1,58.2,0,0,0,0,0,0,0,1,1780,6424
2024/06/19 14:21:16,28.8,39.9,37.4,10.0,57.0,58.2,0,0,0,0,0,0,0,1,1780,6424
2024/06/19 14:23:16,28.9,39.7,37.2,10.0,56.9,58.2,0,0,0,0,0,0,0,1,1780,6424
2024/06/19 14:25:14,28.9,39.6,37.1,10.0,56.8,58.2,0,0,0,0,0,0,0,1,1780,6424
2024/06/19 14:27:14,28.9,39.5,36.9,10.0,56.8,58.2,0,0,0,0,0,0,0,1,1780,6424
2024/06/19 14:29:12,29.0,39.4,36.7,10.0,56.7,58.2,0,0,0,0,0,0,0,1,1780,6424
2024/06/19 14:31:11,29.0,39.3,36.6,10.0,56.6,58.2,0,0,0,0,0,0,0,1,1780,6424
2024/06/19 14:33:10,29.1,39.2,36.4,10.0,56.6,58.2,0,0,0,0,0,0,0,1,1780,6424
2024/06/19 14:35:08,29.1,39.0,36.3,10.0,56.5,58.2,0,0,0,0,0,0,0,1,1780,6424
2024/06/19 14:37:04,29.2,38.9,36.2,10.0,56.4,58.2,0,0,0,0,0,0,0,1,1780,6424
2024/06/19 14:39:03,29.2,38.9,36.0,10.0,56.3,58.2,0,0,0,0,0,0,0,1,1780,6424
2024/06/19 14:41:01,29.2,38.8,35.9,10.0,56.3,58.2,0,0,0,0,0,0,0,1,1780,6424
2024/06/19 14:43:00,29.2,38.7,35.8,10.0,56.2,58.2,0,0,0,0,0,0,0,1,1780,6424
2024/06/19 14:45:00,29.2,38.6,35.6,10.0,56.1,58.2,0,0,0,0,0,0,0,1,1780,6424
2024/06/19 14:46:58,29.2,38.6,35.5,10.0,56.0,58.2,0,0,0,0,0,0,0,1,1780,6424
2024/06/19 14:48:58,29.2,38.5,35.4,10.0,56.0,58.2,0,0,0,0,0,0,0,1,1780,6424
2024/06/19 14:50:56,29.2,38.5,35.2,10.0,55.9,58.2,0,0,0,0,0,0,0,1,1780,6424
2024/06/19 14:52:52,29.2,38.4,35.1,10.0,55.8,58.2,0,0,0,0,0,0,0,1,1780,6424
2024/06/19 14:54:50,29.2,38.3,35.0,10.0,55.7,58.2,0,0,0,0,0,0,0,1,1780,6424
2024/06/19 14:56:49,29.3,38.3,34.9,10.0,55.7,58.2,0,0,0,0,0,0,0,1,1780,6424
2024/06/19 14:58:47,29.3,38.2,34.8,10.0,55.6,58.2,0,0,0,0,0,0,0,1,1780,6424
2024/06/19 15:00:46,29.3,38.2,34.8,10.0,55.5,58.2,0,0,0,0,0,0,0,1,1780,6424
2024/06/19 15:02:45,29.3,38.2,34.7,10.0,55.5,58.2,0,0,0,0,0,0,0,1,1780,6424
2024/06/19 15:04:44,29.4,38.1,34.6,10.0,55.4,58.2,0,0,0,0,0,0,0,1,1780,6424
2024/06/19 15:06:44,29.4,38.1,34.5,10.0,55.3,58.2,0,0,0,0,0,0,0,1,1780,6424
2024/06/19 15:08:43,29.4,38.0,34.4,10.0,55.2,58.2,0,0,0,0,0,0,0,1,1780,6424
2024/06/19 15:10:42,29.4,38.0,34.3,10.0,55.2,58.2,0,0,0,0,0,0,0,1,1780,6424
2024/06/19 15:12:41,29.4,37.9,34.2,10.0,55.1,58.2,0,0,0,0,0,0,0,1,1780,6424
2024/06/19 15:14:40,29.4,37.9,34.1,10.0,55.0,58.2,0,0,0,0,0,0,0,1,1780,6424
2024/06/19 15:16:38,29.4,37.9,34.1,10.0,55.0,58.2,0,0,0,0,0,0,0,1,1780,6424
2024/06/19 15:18:37,29.4,37.8,34.0,10.0,54.9,58.2,0,0,0,0,0,0,0,1,1780,6424
2024/06/19 15:20:35,29.4,37.8,33.9,10.0,54.8,58.2,0,0,0,0,0,0,0,1,1780,6424
2024/06/19 15:22:34,29.4,37.7,33.8,10.0,54.8,58.2,0,0,0,0,0,0,0,1,1780,6424
2024/06/19 15:24:34,29.5,37.7,33.7,10.0,54.7,58.2,0,0,0,0,0,0,0,1,1780,6424
2024/06/19 15:26:33,29.5,37.6,33.6,10.0,54.7,58.2,0,0,0,0,0,0,0,1,1780,6424
2024/06/19 15:28:31,29.5,37.6,33.5,10.0,54.6,58.2,0,0,0,0,0,0,0,1,1780,6424
2024/06/19 15:30:29,29.5,37.5,33.5,10.0,54.5,58.2,0,0,0,0,0,0,0,1,1780,6424
2024/06/19 15:32:29,29.5,37.5,33.4,10.0,54.5,58.2,0,0,0,0,0,0,0,1,1780,6424
2024/06/19 15:34:27,29.5,37.4,33.3,10.0,54.4,58.2,0,0,0,0,0,0,0,1,1780,6424
2024/06/19 15:36:24,29.5,37.3,33.2,10.0,54.4,58.2,0,0,0,0,0,0,0,1,1780,6424
2024/06/19 15:38:23,29.5,37.3,33.1,10.0,54.3,58.2,0,0,0,0,0,0,0,1,1780,6424
2024/06/19 15:40:22,29.5,37.3,33.1,10.0,54.2,58.2,0,0,0,0,0,0,0,1,1780,6424
2024/06/19 15:42:21,29.5,37.2,33.0,10.0,54.2,58.2,0,0,0,0,0,0,0,1,1780,6424
2024/06/19 15:44:20,29.5,37.1,32.9,10.0,54.1,58.2,0,0,0,0,0,0,0,1,1780,6424
2024/06/19 15:46:18,29.5,37.1,32.8,10.0,54.1,58.2,0,0,0,0,0,0,0,1,1780,6424
2024/06/19 15:49:18,29.5,37.0,32.8,10.0,54.0,58.2,0,0,0,0,0,0,0,1,1780,6424
2024/06/19 15:51:17,29.5,37.0,32.7,10.0,54.0,58.2,0,0,0,0,0,0,0,1,1780,6424
2024/06/19 15:53:15,29.6,36.9,32.6,10.0,53.9,58.2,0,0,0,0,0,0,0,1,1780,6424
2024/06/19 15:55:14,29.6,36.9,32.6,10.0,53.8,58.2,0,0,0,0,0,0,0,1,1780,6424
2024/06/19 15:57:13,29.7,36.8,32.5,10.0,53.8,58.2,0,0,0,0,0,0,0,1,1780,6424
2024/06/19 15:59:11,29.7,36.7,32.4,10.0,53.7,58.2,0,0,0,0,0,0,0,1,1780,6424
2024/06/19 16:01:10,29.7,36.7,32.3,10.0,53.7,58.2,0,0,0,0,0,0,0,1,1780,6424
2024/06/19 16:03:07,29.7,36.6,32.3,10.0,53.6,58.2,0,0,0,0,0,0,0,1,1780,6424
2024/06/19 16:05:06,29.6,36.6,32.2,10.0,53.5,58.2,0,0,0,0,0,0,0,1,1780,6424
2024/06/19 16:07:05,29.6,36.5,32.1,10.0,53.5,58.2,0,0,0,0,0,0,0,1,1780,6424
2024/06/19 16:09:04,29.6,36.5,32.1,10.0,53.4,58.2,0,0,0,0,0,0,0,1,1780,6424
2024/06/19 16:11:03,29.6,36.4,32.0,10.0,53.4,58.2,0,0,0,0,0,0,0,1,1780,6424
2024/06/19 16:13:02,29.6,36.4,31.9,10.0,53.3,58.2,0,0,0,0,0,0,0,1,1780,6424
2024/06/19 16:15:01,29.6,36.3,31.9,10.0,53.3,58.2,0,0,0,0,0,0,0,1,1780,6424
2024/06/19 16:17:00,29.6,36.3,31.8,10.0,53.2,58.2,0,0,0,0,0,0,0,1,1780,6424
2024/06/19 16:18:58,29.6,36.2,31.7,10.0,53.1,58.2,0,0,0,0,0,0,0,1,1780,6424
2024/06/19 16:20:57,29.6,36.1,31.7,10.0,53.1,58.2,0,0,0,0,0,0,0,1,1780,6424
2024/06/19 16:22:56,29.6,36.1,31.6,10.0,53.0,58.2,0,0,0,0,0,0,0,1,1780,6424
2024/06/19 16:24:56,29.6,36.0,31.6,10.0,53.0,58.2,0,0,0,0,0,0,0,1,1780,6424
2024/06/19 16:26:54,29.6,36.0,31.5,10.0,52.9,58.2,0,0,0,0,0,0,0,1,1780,6424
2024/06/19 16:28:54,29.6,35.9,31.5,10.0,52.8,58.2,0,0,0,0,0,0,0,1,1780,6424
2024/06/19 16:30:52,29.6,35.9,31.4,10.0,52.8,58.2,0,0,0,0,0,0,0,1,1780,6424
2024/06/19 16:32:51,29.6,35.8,31.3,10.0,52.7,58.2,0,0,0,0,0,0,0,1,1780,6424
2024/06/19 16:34:50,29.6,35.8,31.3,10.0,52.7,58.2,0,0,0,0,0,0,0,1,1780,6424
2024/06/19 16:36:49,29.6,35.7,31.2,10.0,52.6,58.2,0,0,0,0,0,0,0,1,1780,6424
2024/06/19 16:38:49,29.7,35.7,31.2,10.0,52.5,58.2,0,0,0,0,0,0,0,1,1780,6424
2024/06/19 16:40:48,29.7,35.6,31.1,10.0,52.5,58.2,0,0,0,0,0,0,0,1,1780,6424
2024/06/19 16:42:46,29.7,35.6,31.1,10.0,52.4,58.2,0,0,0,0,0,0,0,1,1780,6424
2024/06/19 16:44:43,29.7,35.5,31.0,10.0,52.4,58.2,0,0,0,0,0,0,0,1,1780,6424
2024/06/19 16:46:43,29.7,35.4,31.0,10.0,52.3,58.2,0,0,0,0,0,0,0,1,1780,6424
2024/06/19 16:48:42,29.6,35.4,30.9,10.0,52.3,58.2,0,0,0,0,0,0,0,1,1780,6424
2024/06/19 16:50:41,29.6,35.3,30.8,10.0,52.2,58.2,0,0,0,0,0,0,0,1,1780,6424
2024/06/19 16:52:39,29.6,35.3,30.8,10.0,52.1,58.2,0,0,0,0,0,0,0,1,1780,6424
2024/06/19 16:54:38,29.6,35.2,30.7,10.0,52.1,58.2,0,0,0,0,0,0,0,1,1780,6424
2024/06/19 16:56:36,29.7,35.2,30.7,10.0,52.0,58.2,0,0,0,0,0,0,0,1,1780,6424
2024/06/19 16:58:35,29.7,35.1,30.6,10.0,52.0,58.2,0,0,0,0,0,0,0,1,1780,6424
2024/06/19 17:00:34,29.7,35.1,30.6,10.0,51.9,58.2,0,0,0,0,0,0,0,1,1780,6424
2024/06/19 17:02:31,29.7,35.0,30.6,10.0,51.9,58.2,0,0,0,0,0,0,0,1,1780,6424
2024/06/19 17:04:30,29.7,35.0,30.5,10.0,51.8,58.2,0,0,0,0,0,0,0,1,1780,6424
2024/06/19 17:06:29,29.7,34.9,30.5,10.0,51.7,58.2,0,0,0,0,0,0,0,1,1780,6424
2024/06/19 17:08:26,29.7,34.9,30.4,10.0,51.7,58.2,0,0,0,0,0,0,0,1,1780,6424
2024/06/19 17:10:25,29.7,34.8,30.4,10.0,51.6,58.2,0,0,0,0,0,0,0,1,1780,6424
2024/06/19 17:12:23,29.7,34.8,30.3,10.0,51.6,58.2,0,0,0,0,0,0,0,1,1780,6424
2024/06/19 17:14:21,29.7,34.8,30.3,10.0,51.5,58.2,0,0,0,0,0,0,0,1,1780,6424
2024/06/19 17:16:20,29.7,34.7,30.2,10.0,51.5,58.2,0,0,0,0,0,0,0,1,1780,6424
2024/06/19 17:18:19,29.6,34.7,30.2,10.0,51.4,58.2,0,0,0,0,0,0,0,1,1780,6424
2024/06/19 17:21:17,29.5,34.6,30.1,10.0,51.3,58.2,0,0,0,0,0,0,0,1,1780,6424
2024/06/19 17:23:17,29.5,34.6,30.1,10.0,51.3,58.2,0,0,0,0,0,0,0,1,1780,6424
2024/06/19 17:25:16,29.5,34.6,30.1,10.0,51.2,58.2,0,0,0,0,0,0,0,1,1780,6424
2024/06/19 17:27:14,29.5,34.5,30.0,10.0,51.2,58.2,0,0,0,0,0,0,0,1,1780,6424
2024/06/19 17:29:13,29.5,34.5,30.0,10.0,51.1,58.2,0,0,0,0,0,0,0,1,1780,6424
2024/06/19 17:31:11,29.6,34.4,29.9,10.0,51.0,58.2,0,0,0,0,0,0,0,1,1780,6424
2024/06/19 17:33:10,29.8,34.4,29.9,10.0,51.0,58.2,0,0,0,0,0,0,0,1,1780,6424
2024/06/19 17:35:07,29.8,34.4,29.9,10.0,50.9,58.2,0,0,0,0,0,0,0,1,1780,6424
2024/06/19 17:37:05,29.9,34.3,29.9,10.0,50.9,58.2,0,0,0,0,0,0,0,1,1780,6424
2024/06/19 17:39:04,29.9,34.3,29.8,10.0,50.8,58.2,0,0,0,0,0,0,0,1,1780,6424
2024/06/19 17:41:03,29.9,34.2,29.8,10.0,50.8,58.2,0,0,0,0,0,0,0,1,1780,6424
2024/06/19 17:43:02,29.9,34.2,29.8,10.0,50.7,58.2,0,0,0,0,0,0,0,1,1780,6424
2024/06/19 17:45:00,29.8,34.2,29.7,10.0,50.7,58.2,0,0,0,0,0,0,0,1,1780,6424
2024/06/19 17:46:58,29.8,34.1,29.7,10.0,50.6,58.2,0,0,0,0,0,0,0,1,1780,6424
2024/06/19 17:48:57,29.7,34.1,29.7,10.0,50.5,58.2,0,0,0,0,0,0,0,1,1780,6424
2024/06/19 17:50:56,29.6,34.0,29.6,10.0,50.5,58.2,0,0,0,0,0,0,0,1,1780,6424
2024/06/19 17:52:55,29.6,34.0,29.6,10.0,50.4,58.2,0,0,0,0,0,0,0,1,1780,6424
2024/06/19 17:54:53,29.5,34.0,29.6,10.0,50.4,58.2,0,0,0,0,0,0,0,1,1780,6424
2024/06/19 17:56:52,29.5,33.9,29.5,10.0,50.3,58.2,0,0,0,0,0,0,0,1,1780,6424
2024/06/19 17:58:51,29.4,33.9,29.5,10.0,50.3,58.2,0,0,0,0,0,0,0,1,1780,6424
2024/06/19 18:00:50,29.2,44.0,41.3,10.0,50.1,52.0,0,1,1,0,0,1,1,0,1780,6424
2024/06/19 18:02:50,29.0,47.7,44.8,10.0,49.8,52.0,0,1,1,0,0,1,1,0,1780,6425
2024/06/19 18:04:49,28.8,50.4,46.9,10.0,49.8,52.0,0,1,1,0,0,1,1,0,1780,6426
2024/06/19 18:06:47,28.7,52.4,48.3,10.0,49.9,52.0,0,1,1,0,0,1,1,0,1780,6426
2024/06/19 18:08:46,28.6,53.6,49.2,10.0,50.3,52.0,0,1,1,0,0,1,1,0,1780,6427
2024/06/19 18:10:46,28.5,54.4,49.8,10.0,50.8,52.0,0,1,1,0,0,1,1,0,1780,6428
2024/06/19 18:12:45,28.5,55.0,50.4,10.0,51.3,52.0,0,1,1,0,0,1,1,0,1780,6429
2024/06/19 18:14:43,28.4,55.7,51.2,10.0,52.0,52.0,0,0,1,0,0,1,1,0,1780,6429
2024/06/19 18:16:43,28.4,43.6,40.8,10.0,52.5,52.0,0,0,0,0,0,0,1,0,1780,6429
2024/06/19 18:18:42,28.4,42.1,39.9,10.0,52.7,52.0,0,0,0,0,0,0,0,0,1780,6429
2024/06/19 18:20:41,28.3,41.5,39.3,10.0,52.7,52.0,0,0,0,0,0,0,0,0,1780,6429
2024/06/19 18:22:41,28.3,41.0,38.9,10.0,52.7,52.0,0,0,0,0,0,0,0,0,1780,6429
2024/06/19 18:24:40,28.2,40.6,38.6,10.0,52.6,52.0,0,0,0,0,0,0,0,0,1780,6429
2024/06/19 18:26:39,28.2,40.2,38.3,10.0,52.5,52.0,0,0,0,0,0,0,0,0,1780,6429
2024/06/19 18:28:37,28.1,40.0,38.0,10.0,52.5,52.0,0,0,0,0,0,0,0,0,1780,6429
2024/06/19 18:30:36,28.1,39.8,37.8,10.0,52.4,52.0,0,0,0,0,0,0,0,0,1780,6429
2024/06/19 18:32:34,28.0,39.7,37.6,10.0,52.3,52.0,0,0,0,0,0,0,0,0,1780,6429
2024/06/19 18:34:32,28.0,39.6,37.4,10.0,52.3,52.0,0,0,0,0,0,0,0,0,1780,6429
2024/06/19 18:36:31,27.9,39.5,37.2,10.0,52.2,52.0,0,0,0,0,0,0,0,0,1780,6429
2024/06/19 18:38:30,27.9,39.4,37.0,10.0,52.2,52.0,0,0,0,0,0,0,0,0,1780,6429
2024/06/19 18:40:30,27.8,39.3,36.9,10.0,52.1,52.0,0,0,0,0,0,0,0,0,1780,6429
2024/06/19 18:42:28,27.8,39.2,36.7,10.0,52.1,52.0,0,0,0,0,0,0,0,0,1780,6429
2024/06/19 18:44:28,27.7,39.1,36.6,10.0,52.0,52.0,0,0,0,0,0,0,0,0,1780,6429
2024/06/19 18:46:26,27.7,39.0,36.4,10.0,51.9,52.0,0,0,0,0,0,0,0,0,1780,6429
2024/06/19 18:48:26,27.7,38.9,36.3,10.0,51.9,52.0,0,0,0,0,0,0,0,0,1780,6429
2024/06/19 18:50:24,27.7,38.9,36.1,10.0,51.8,52.0,0,0,0,0,0,0,0,0,1780,6429
2024/06/19 18:52:22,27.7,38.8,36.0,10.0,51.8,52.0,0,0,0,0,0,0,0,0,1780,6429
2024/06/19 18:54:21,27.8,38.7,35.8,10.0,51.7,52.0,0,0,0,0,0,0,0,0,1780,6429
2024/06/19 18:56:20,28.0,38.7,35.7,10.0,51.6,58.2,0,0,0,0,0,0,0,0,1780,6429
2024/06/19 18:58:19,28.2,38.6,35.6,10.0,51.6,58.2,0,0,0,0,0,0,0,0,1780,6429
2024/06/19 19:01:18,28.3,38.6,35.5,10.0,51.5,58.2,0,0,0,0,0,0,0,0,1780,6429
2024/06/19 19:03:17,28.4,38.5,35.3,10.0,51.5,58.2,0,0,0,0,0,0,0,0,1780,6429
2024/06/19 19:05:16,28.4,38.5,35.2,10.0,51.4,58.2,0,0,0,0,0,0,0,0,1780,6429
2024/06/19 19:07:15,28.5,38.4,35.1,10.0,51.4,58.2,0,0,0,0,0,0,0,0,1780,6429
2024/06/19 19:09:13,28.5,38.4,35.0,10.0,51.3,58.2,0,0,0,0,0,0,0,0,1780,6429
2024/06/19 19:11:12,28.6,38.4,34.9,10.0,51.2,58.2,0,0,0,0,0,0,0,0,1780,6429
2024/06/19 19:13:11,28.6,38.3,34.8,10.0,51.2,58.2,0,0,0,0,0,0,0,0,1780,6429
2024/06/19 19:15:09,28.6,38.3,34.7,10.0,51.1,58.2,0,0,0,0,0,0,0,0,1780,6429
2024/06/19 19:17:07,28.6,38.2,34.6,10.0,51.1,58.2,0,0,0,0,0,0,0,0,1780,6429
2024/06/19 19:19:06,28.6,38.2,34.5,10.0,51.0,58.2,0,0,0,0,0,0,0,0,1780,6429
2024/06/19 19:21:05,28.6,38.1,34.4,10.0,51.0,58.2,0,0,0,0,0,0,0,0,1780,6429
2024/06/19 19:23:05,28.5,38.1,34.3,10.0,50.9,58.2,0,0,0,0,0,0,0,0,1780,6429
2024/06/19 19:25:04,28.5,38.1,34.2,10.0,50.8,58.2,0,0,0,0,0,0,0,0,1780,6429
2024/06/19 19:27:03,28.5,38.0,34.1,10.0,50.8,58.2,0,0,0,0,0,0,0,0,1780,6429
2024/06/19 19:29:01,28.5,37.9,34.0,10.0,50.7,58.2,0,0,0,0,0,0,0,0,1780,6429
2024/06/19 19:31:01,28.5,37.9,33.9,10.0,50.7,58.2,0,0,0,0,0,0,0,0,1780,6429
2024/06/19 19:33:00,28.5,37.8,33.8,10.0,50.6,58.2,0,0,0,0,0,0,0,0,1780,6429
2024/06/19 19:34:58,28.4,37.8,33.7,10.0,50.6,58.2,0,0,0,0,0,0,0,0,1780,6429
2024/06/19 19:36:55,28.3,37.7,33.6,10.0,50.5,58.2,0,0,0,0,0,0,0,0,1780,6429
2024/06/19 19:38:53,28.2,37.7,33.5,10.0,50.5,58.2,0,0,0,0,0,0,0,0,1780,6429
2024/06/19 19:40:52,28.2,37.6,33.4,10.0,50.4,58.2,0,0,0,0,0,0,0,0,1780,6429
2024/06/19 19:42:49,28.1,37.5,33.3,10.0,50.3,58.2,0,0,0,0,0,0,0,0,1780,6429
2024/06/19 19:44:48,28.0,37.5,33.2,10.0,50.3,58.2,0,0,0,0,0,0,0,0,1780,6429
2024/06/19 19:46:47,27.9,39.2,38.4,10.0,50.2,58.2,0,0,1,0,0,1,1,0,1780,6429
2024/06/19 19:48:47,27.9,47.1,44.1,10.0,50.0,52.0,1,0,1,0,0,1,1,0,1780,6430
2024/06/19 19:50:46,27.8,49.7,46.3,10.0,49.9,52.0,1,0,1,0,0,1,1,0,1780,6431
2024/06/19 19:52:45,27.8,52.1,48.0,10.0,49.9,52.0,1,0,1,0,0,1,1,0,1780,6432
2024/06/19 19:54:43,27.7,53.4,49.0,10.0,50.3,52.0,1,0,1,0,0,1,1,0,1780,6432
2024/06/19 19:56:42,27.6,54.2,49.6,10.0,50.7,52.0,1,0,1,0,0,1,1,0,1780,6433
2024/06/19 19:58:41,27.6,54.9,50.2,10.0,51.3,52.0,1,0,1,0,0,1,1,0,1780,6434
2024/06/19 20:00:40,27.5,55.5,50.8,10.0,51.9,52.0,1,0,1,0,0,1,1,0,1780,6434
2024/06/19 20:02:39,27.4,44.7,41.7,10.0,52.4,52.0,0,0,0,0,0,0,1,0,1780,6434
2024/06/19 20:04:38,27.3,42.6,40.4,10.0,52.6,52.0,0,0,0,0,0,0,0,0,1780,6434
2024/06/19 20:06:34,27.2,42.0,39.7,10.0,52.6,52.0,0,0,0,0,0,0,0,0,1780,6434
2024/06/19 20:08:34,27.2,41.5,39.3,10.0,52.6,52.0,0,0,0,0,0,0,0,0,1780,6434
2024/06/19 20:10:33,27.1,41.1,39.0,10.0,52.6,52.0,0,0,0,0,0,0,0,0,1780,6434
2024/06/19 20:12:32,27.0,40.7,38.6,10.0,52.5,52.0,0,0,0,0,0,0,0,0,1780,6434
2024/06/19 20:14:30,27.0,40.4,38.4,10.0,52.4,52.0,0,0,0,0,0,0,0,0,1780,6434
2024/06/19 20:16:28,26.9,40.3,38.1,10.0,52.3,52.0,0,0,0,0,0,0,0,0,1780,6434
2024/06/19 20:18:27,26.9,40.1,37.9,10.0,52.3,52.0,0,0,0,0,0,0,0,0,1780,6434
2024/06/19 20:20:26,26.9,40.0,37.7,10.0,52.2,52.0,0,0,0,0,0,0,0,0,1780,6434
2024/06/19 20:22:24,26.8,39.9,37.6,10.0,52.2,52.0,0,0,0,0,0,0,0,0,1780,6434
2024/06/19 20:24:23,26.8,39.8,37.4,10.0,52.1,52.0,0,0,0,0,0,0,0,0,1780,6434
2024/06/19 20:26:22,26.7,39.7,37.2,10.0,52.1,52.0,0,0,0,0,0,0,0,0,1780,6434
2024/06/19 20:28:21,26.6,39.6,37.1,10.0,52.0,52.0,0,0,0,0,0,0,0,0,1780,6434
2024/06/19 20:30:20,26.6,39.5,36.9,10.0,52.0,52.0,0,0,0,0,0,0,0,0,1780,6434
2024/06/19 20:33:18,26.5,39.4,36.8,10.0,51.9,52.0,0,0,0,0,0,0,0,0,1780,6434
2024/06/19 20:35:17,26.4,39.3,36.6,10.0,51.9,52.0,0,0,0,0,0,0,0,0,1780,6434
2024/06/19 20:37:16,26.4,39.2,36.5,10.0,51.8,52.0,0,0,0,0,0,0,0,0,1780,6434
2024/06/19 20:39:15,26.3,39.2,36.3,10.0,51.7,52.0,0,0,0,0,0,0,0,0,1780,6434
2024/06/19 20:41:14,26.2,39.1,36.2,10.0,51.7,52.0,0,0,0,0,0,0,0,0,1780,6434
2024/06/19 20:43:12,26.2,39.0,36.1,10.0,51.6,52.0,0,0,0,0,0,0,0,0,1780,6434
2024/06/19 20:45:10,26.1,39.0,35.9,10.0,51.6,52.0,0,0,0,0,0,0,0,0,1780,6434
2024/06/19 20:47:09,26.1,38.9,35.8,10.0,51.5,52.0,0,0,0,0,0,0,0,0,1780,6434
2024/06/19 20:49:08,26.0,38.9,35.7,10.0,51.4,52.0,0,0,0,0,0,0,0,0,1780,6434
2024/06/19 20:51:07,25.9,38.8,35.6,10.0,51.4,52.0,0,0,0,0,0,0,0,0,1780,6434
2024/06/19 20:53:06,25.8,38.8,35.4,10.0,51.3,52.0,0,0,0,0,0,0,0,0,1780,6434
2024/06/19 20:55:05,25.8,38.7,35.3,10.0,51.3,52.0,0,0,0,0,0,0,0,0,1780,6434
2024/06/19 20:57:05,25.7,38.7,35.2,10.0,51.2,52.0,0,0,0,0,0,0,0,0,1780,6434
2024/06/19 20:59:01,25.5,38.6,35.0,10.0,51.2,52.0,0,0,0,0,0,0,0,0,1780,6434
2024/06/19 21:01:00,25.4,38.6,34.9,10.0,51.1,52.0,0,0,0,0,0,0,0,0,1780,6434
2024/06/19 21:02:58,25.3,38.5,34.8,10.0,51.0,52.0,0,0,0,0,0,0,0,0,1780,6434
2024/06/19 21:04:57,25.2,38.5,34.7,10.0,51.0,52.0,0,0,0,0,0,0,0,0,1780,6434
2024/06/19 21:06:55,25.1,38.4,34.6,10.0,50.9,52.0,0,0,0,0,0,0,0,0,1780,6434
2024/06/19 21:08:54,24.9,38.4,34.5,10.0,50.9,52.0,0,0,0,0,0,0,0,0,1780,6434
2024/06/19 21:10:52,24.8,38.3,34.4,10.0,50.8,52.0,0,0,0,0,0,0,0,0,1780,6434
2024/06/19 21:12:52,24.7,38.3,34.3,10.0,50.8,52.0,0,0,0,0,0,0,0,0,1780,6434
2024/06/19 21:14:50,24.6,38.2,34.2,10.0,50.7,52.0,0,0,0,0,0,0,0,0,1780,6434
2024/06/19 21:16:48,24.5,38.2,34.1,10.0,50.6,52.0,0,0,0,0,0,0,0,0,1780,6434
2024/06/19 21:18:46,24.4,38.1,34.0,10.0,50.6,52.0,0,0,0,0,0,0,0,0,1780,6434
2024/06/19 21:20:45,24.3,38.0,33.9,10.0,50.5,52.0,0,0,0,0,0,0,0,0,1780,6434
2024/06/19 21:22:43,24.2,38.0,33.8,10.0,50.5,52.0,0,0,0,0,0,0,0,0,1780,6434
2024/06/19 21:24:42,24.1,37.9,33.7,10.0,50.4,52.0,0,0,0,0,0,0,0,0,1780,6434
2024/06/19 21:26:41,24.0,37.9,33.6,10.0,50.4,52.0,0,0,0,0,0,0,0,0,1780,6434
2024/06/19 21:28:40,23.9,37.8,33.6,10.0,50.3,52.0,0,0,0,0,0,0,0,0,1780,6434
2024/06/19 21:30:38,23.8,37.7,33.5,10.0,50.3,52.0,0,0,0,0,0,0,0,0,1780,6434
2024/06/19 21:32:36,23.7,37.7,33.4,10.0,50.2,52.0,0,0,0,0,0,0,0,0,1780,6434
2024/06/19 21:34:36,23.6,37.6,33.3,10.0,50.1,52.0,0,0,0,0,0,0,0,0,1780,6434
2024/06/19 21:36:35,23.5,37.5,33.2,10.0,50.1,52.0,0,0,0,0,0,0,0,0,1780,6434
2024/06/19 21:38:33,23.5,37.5,33.1,10.0,50.0,52.0,0,0,0,0,0,0,0,0,1780,6434
2024/06/19 21:40:29,23.4,37.4,33.0,10.0,50.0,52.0,0,0,0,0,0,0,0,0,1780,6434
2024/06/19 21:42:28,23.3,37.3,32.9,10.0,49.9,52.0,0,0,0,0,0,0,0,0,1780,6434
2024/06/19 21:44:27,23.3,37.3,32.9,10.0,49.9,52.0,0,0,0,0,0,0,0,0,1780,6434
2024/06/19 21:46:25,23.3,37.2,32.8,10.0,49.8,52.0,0,0,0,0,0,0,0,0,1780,6434
2024/06/19 21:48:24,23.2,37.2,32.7,10.0,49.8,52.0,0,0,0,0,0,0,0,0,1780,6434
2024/06/19 21:50:22,23.2,37.1,32.6,10.0,49.7,52.0,0,0,0,0,0,0,0,0,1780,6434
2024/06/19 21:53:19,23.1,37.0,32.5,10.0,49.7,52.0,0,0,0,0,0,0,0,0,1780,6434
2024/06/19 21:55:17,23.1,37.0,32.5,10.0,49.7,52.0,0,0,0,0,0,0,0,0,1780,6434
2024/06/19 21:57:16,23.0,36.9,32.4,10.0,49.6,52.0,0,0,0,0,0,0,0,0,1780,6434
2024/06/19 21:59:14,23.0,36.9,32.3,10.0,49.5,52.0,0,0,0,0,0,0,0,0,1780,6434
2024/06/19 22:01:14,23.0,36.8,32.2,10.0,49.5,52.0,0,0,0,0,0,0,0,0,1780,6434
2024/06/19 22:03:13,22.9,36.7,32.2,10.0,49.5,52.0,0,0,0,0,0,0,0,0,1780,6434
2024/06/19 22:05:12,22.9,36.7,32.1,10.0,49.4,52.0,0,0,0,0,0,0,0,0,1780,6434
2024/06/19 22:07:10,22.9,36.6,32.0,10.0,49.4,52.0,0,0,0,0,0,0,0,0,1780,6434
2024/06/19 22:09:09,22.9,36.5,31.9,10.0,49.4,52.0,0,0,0,0,0,0,0,0,1780,6434
2024/06/19 22:11:08,22.9,36.5,31.9,10.0,49.4,52.0,0,0,0,0,0,0,0,0,1780,6434
2024/06/19 22:13:07,22.9,36.4,31.8,10.0,49.4,52.0,0,0,0,0,0,0,0,0,1780,6434
2024/06/19 22:15:06,22.9,36.4,31.7,10.0,49.4,52.0,0,0,0,0,0,0,0,0,1780,6434
2024/06/19 22:17:03,22.8,36.3,31.7,10.0,49.4,52.0,0,0,0,0,0,0,0,0,1780,6434
2024/06/19 22:19:02,22.8,36.2,31.6,10.0,49.4,52.0,0,0,0,0,0,0,0,0,1780,6434
2024/06/19 22:21:01,22.8,36.2,31.5,10.0,49.4,52.0,0,0,0,0,0,0,0,0,1780,6434
2024/06/19 22:23:00,22.8,36.1,31.5,10.0,49.4,52.0,0,0,0,0,0,0,0,0,1780,6434
2024/06/19 22:24:59,22.8,36.0,31.4,10.0,49.4,52.0,0,0,0,0,0,0,0,0,1780,6434
2024/06/19 22:26:57,22.8,36.0,31.3,10.0,49.4,52.0,0,0,0,0,0,0,0,0,1780,6434
2024/06/19 22:28:57,22.7,35.9,31.3,10.0,49.4,52.0,0,0,0,0,0,0,0,0,1780,6434
2024/06/19 22:30:55,22.7,35.9,31.2,10.0,49.4,40.0,0,0,0,0,0,0,0,0,1780,6434
2024/06/19 22:32:55,22.7,35.8,31.2,10.0,49.4,40.0,0,0,0,0,0,0,0,0,1780,6434
2024/06/19 22:34:54,22.7,35.7,31.1,10.0,49.4,40.0,0,0,0,0,0,0,0,0,1780,6434
2024/06/19 22:36:53,22.6,35.7,31.0,10.0,49.4,40.0,0,0,0,0,0,0,0,0,1780,6434
2024/06/19 22:38:52,22.6,35.6,31.0,10.0,49.4,40.0,0,0,0,0,0,0,0,0,1780,6434
2024/06/19 22:40:51,22.6,35.6,30.9,10.0,49.3,40.0,0,0,0,0,0,0,0,0,1780,6434
2024/06/19 22:42:50,22.5,35.5,30.9,10.0,49.3,40.0,0,0,0,0,0,0,0,0,1780,6434
2024/06/19 22:44:49,22.5,35.4,30.8,10.0,49.3,40.0,0,0,0,0,0,0,0,0,1780,6434
2024/06/19 22:46:47,22.5,35.4,30.7,10.0,49.3,40.0,0,0,0,0,0,0,0,0,1780,6434
2024/06/19 22:48:43,22.4,35.3,30.7,10.0,49.3,40.0,0,0,0,0,0,0,0,0,1780,6434
2024/06/19 22:50:42,22.3,35.2,30.6,10.0,49.3,40.0,0,0,0,0,0,0,0,0,1780,6434
2024/06/19 22:52:40,22.3,35.2,30.6,10.0,49.3,40.0,0,0,0,0,0,0,0,0,1780,6434
2024/06/19 22:54:38,22.2,35.1,30.5,10.0,49.3,40.0,0,0,0,0,0,0,0,0,1780,6434
2024/06/19 22:56:37,22.2,35.1,30.5,10.0,49.3,40.0,0,0,0,0,0,0,0,0,1780,6434
2024/06/19 22:58:36,22.2,35.0,30.4,10.0,49.3,40.0,0,0,0,0,0,0,0,0,1780,6434
2024/06/19 23:00:35,22.1,35.0,30.4,10.0,49.3,40.0,0,0,0,0,0,0,0,0,1780,6434
2024/06/19 23:02:35,22.1,34.9,30.3,10.0,49.3,40.0,0,0,0,0,0,0,0,0,1780,6434
2024/06/19 23:04:34,22.1,34.9,30.3,10.0,49.3,40.0,0,0,0,0,0,0,0,0,1780,6434
2024/06/19 23:06:32,22.0,34.8,30.2,10.0,49.2,40.0,0,0,0,0,0,0,0,0,1780,6434
2024/06/19 23:08:30,22.0,34.8,30.1,10.0,49.2,40.0,0,0,0,0,0,0,0,0,1780,6434
2024/06/19 23:10:29,21.9,34.7,30.1,10.0,49.2,40.0,0,0,0,0,0,0,0,0,1780,6434
2024/06/19 23:12:29,21.9,34.7,30.0,10.0,49.2,40.0,0,0,0,0,0,0,0,0,1780,6434
2024/06/19 23:14:28,21.8,34.6,30.0,10.0,49.2,40.0,0,0,0,0,0,0,0,0,1780,6434
2024/06/19 23:16:27,21.8,34.6,30.0,10.0,49.2,40.0,0,0,0,0,0,0,0,0,1780,6434
2024/06/19 23:18:25,21.7,34.6,29.9,10.0,49.2,40.0,0,0,0,0,0,0,0,0,1780,6434
2024/06/19 23:20:23,21.7,34.5,29.9,10.0,49.2,40.0,0,0,0,0,0,0,0,0,1780,6434
2024/06/19 23:22:23,21.6,34.5,29.8,10.0,49.2,40.0,0,0,0,0,0,0,0,0,1780,6434
2024/06/19 23:24:22,21.6,34.4,29.8,10.0,49.2,40.0,0,0,0,0,0,0,0,0,1780,6434
2024/06/19 23:26:22,21.5,34.4,29.8,10.0,49.2,40.0,0,0,0,0,0,0,0,0,1780,6434
2024/06/19 23:28:21,21.5,34.3,29.7,10.0,49.2,40.0,0,0,0,0,0,0,0,0,1780,6434
2024/06/19 23:31:19,21.4,34.3,29.7,10.0,49.2,40.0,0,0,0,0,0,0,0,0,1780,6434
2024/06/19 23:33:17,21.4,34.2,29.7,10.0,49.2,40.0,0,0,0,0,0,0,0,0,1780,6434
2024/06/19 23:35:16,21.3,34.2,29.6,10.0,49.1,40.0,0,0,0,0,0,0,0,0,1780,6434
2024/06/19 23:37:15,21.3,34.1,29.6,10.0,49.1,40.0,0,0,0,0,0,0,0,0,1780,6434
2024/06/19 23:39:14,21.3,34.1,29.5,10.0,49.1,40.0,0,0,0,0,0,0,0,0,1780,6434
2024/06/19 23:41:13,21.3,34.0,29.5,10.0,49.1,40.0,0,0,0,0,0,0,0,0,1780,6434
2024/06/19 23:43:12,21.3,34.0,29.5,10.0,49.1,40.0,0,0,0,0,0,0,0,0,1780,6434
2024/06/19 23:45:10,21.3,34.0,29.4,10.0,49.1,40.0,0,0,0,0,0,0,0,0,1780,6434
2024/06/19 23:47:10,21.3,33.9,29.4,10.0,49.1,40.0,0,0,0,0,0,0,0,0,1780,6434
2024/06/19 23:49:07,21.3,33.9,29.4,10.0,49.1,40.0,0,0,0,0,0,0,0,0,1780,6434
2024/06/19 23:51:05,21.3,33.8,29.3,10.0,49.0,40.0,0,0,0,0,0,0,0,0,1780,6434
2024/06/19 23:53:05,21.3,33.8,29.3,10.0,49.0,40.0,0,0,0,0,0,0,0,0,1780,6434
2024/06/19 23:55:04,21.3,33.7,29.3,10.0,49.0,40.0,0,0,0,0,0,0,0,0,1780,6434
2024/06/19 23:57:01,21.3,33.7,29.2,10.0,49.0,40.0,0,0,0,0,0,0,0,0,1780,6434
2024/06/19 23:59:00,21.3,33.7,29.2,10.0,49.0,40.0,0,0,0,0,0,0,0,0,1780,6434
