Type,Analog,Analog,Analog,Analog,Analog,Analog,Digital,Digital,Digital,Digital,Digital,Digital,Digital,Digital,Integer,Integer
Index,1,5,2,53,3,58,41,42,43,44,45,46,49,50,95,98
Name,R1,R9,R2,R2 Solltemperatur,R3,R3 Solltemperatur,M1,M3,M2/M11,E10,M13,M18,M16,E9,Waermemenge Heizen,Waermemenge Warmwasser
Description,Variable 1,Variable 2,Variable 3,Variable 4,Variable 5,Variable 6,Variable 7,Variable 8,Variable 9,Variable 10,Variable 11,Variable 12,Variable 13,Variable 14,Variable 15,Variable 16
2024/06/29 00:01:40,21.7,29.5,26.7,10.0,44.1,40.0,0,0,0,0,0,0,0,0,1780,7011
2024/06/29 00:03:38,21.6,29.4,26.7,10.0,44.1,40.0,0,0,0,0,0,0,0,0,1780,7011
2024/06/29 00:05:37,21.6,29.4,26.7,10.0,44.1,40.0,0,0,0,0,0,0,0,0,1780,7011
2024/06/29 00:07:36,21.6,29.4,26.7,10.0,44.1,40.0,0,0,0,0,0,0,0,0,1780,7011
2024/06/29 00:09:34,21.5,29.4,26.7,10.0,44.1,40.0,0,0,0,0,0,0,0,0,1780,7011
2024/06/29 00:11:32,21.5,29.4,26.7,10.0,44.1,40.0,0,0,0,0,0,0,0,0,1780,7011
2024/06/29 00:13:31,21.5,29.4,26.7,10.0,44.1,40.0,0,0,0,0,0,0,0,0,1780,7011
2024/06/29 00:15:29,21.5,29.3,26.7,10.0,44.0,40.0,0,0,0,0,0,0,0,0,1780,7011
2024/06/29 00:17:29,21.4,29.3,26.6,10.0,44.0,40.0,0,0,0,0,0,0,0,0,1780,7011
2024/06/29 00:19:28,21.4,29.3,26.6,10.0,44.0,40.0,0,0,0,0,0,0,0,0,1780,7011
2024/06/29 00:21:27,21.4,29.3,26.6,10.0,44.0,40.0,0,0,0,0,0,0,0,0,1780,7011
2024/06/29 00:23:24,21.4,29.3,26.6,10.0,44.0,40.0,0,0,0,0,0,0,0,0,1780,7011
2024/06/29 00:25:22,21.3,29.2,26.6,10.0,44.0,40.0,0,0,0,0,0,0,0,0,1780,7011
2024/06/29 00:27:21,21.3,29.2,26.6,10.0,44.0,40.0,0,0,0,0,0,0,0,0,1780,7011
2024/06/29 00:29:19,21.3,29.2,26.6,10.0,43.9,40.0,0,0,0,0,0,0,0,0,1780,7011
2024/06/29 00:31:16,21.3,29.2,26.6,10.0,43.9,40.0,0,0,0,0,0,0,0,0,1780,7011
2024/06/29 00:33:15,21.3,29.2,26.6,10.0,43.9,40.0,0,0,0,0,0,0,0,0,1780,7011
2024/06/29 00:35:13,21.3,29.2,26.5,10.0,43.9,40.0,0,0,0,0,0,0,0,0,1780,7011
2024/06/29 00:37:10,21.3,29.2,26.5,10.0,43.9,40.0,0,0,0,0,0,0,0,0,1780,7011
2024/06/29 00:39:09,21.3,29.1,26.5,10.0,43.9,40.0,0,0,0,0,0,0,0,0,1780,7011
2024/06/29 00:41:08,21.3,29.1,26.5,10.0,43.9,40.0,0,0,0,0,0,0,0,0,1780,7011
2024/06/29 00:43:05,21.3,29.1,26.5,10.0,43.9,40.0,0,0,0,0,0,0,0,0,1780,7011
2024/06/29 00:45:04,21.3,29.1,26.5,10.0,43.9,40.0,0,0,0,0,0,0,0,0,1780,7011
2024/06/29 00:47:03,21.3,29.1,26.5,10.0,43.9,40.0,0,0,0,0,0,0,0,0,1780,7011
2024/06/29 00:49:02,21.3,29.1,26.5,10.0,43.8,40.0,0,0,0,0,0,0,0,0,1780,7011
2024/06/29 00:51:01,21.3,29.0,26.5,10.0,43.8,40.0,0,0,0,0,0,0,0,0,1780,7011
2024/06/29 00:53:00,21.2,29.0,26.5,10.0,43.8,40.0,0,0,0,0,0,0,0,0,1780,7011
2024/06/29 00:55:00,21.2,29.0,26.4,10.0,43.8,40.0,0,0,0,0,0,0,0,0,1780,7011
2024/06/29 00:56:59,21.1,29.0,26.4,10.0,43.8,40.0,0,0,0,0,0,0,0,0,1780,7011
2024/06/29 00:58:59,21.1,29.0,26.4,10.0,43.8,40.0,0,0,0,0,0,0,0,0,1780,7011
2024/06/29 01:00:56,21.1,29.0,26.4,10.0,43.8,40.0,0,0,0,0,0,0,0,0,1780,7011
2024/06/29 01:02:54,21.0,29.0,26.4,10.0,43.8,40.0,0,0,0,0,0,0,0,0,1780,7011
2024/06/29 01:04:53,21.0,28.9,26.4,10.0,43.8,40.0,0,0,0,0,0,0,0,0,1780,7011
2024/06/29 01:06:52,20.9,28.9,26.4,10.0,43.8,40.0,0,0,0,0,0,0,0,0,1780,7011
2024/06/29 01:08:52,20.9,28.9,26.4,10.0,43.7,40.0,0,0,0,0,0,0,0,0,1780,7011
2024/06/29 01:10:51,20.8,28.9,26.4,10.0,43.7,40.0,0,0,0,0,0,0,0,0,1780,7011
2024/06/29 01:12:50,20.8,28.9,26.4,10.0,43.7,40.0,0,0,0,0,0,0,0,0,1780,7011
2024/06/29 01:14:48,20.8,28.9,26.4,10.0,43.7,40.0,0,0,0,0,0,0,0,0,1780,7011
2024/06/29 01:16:47,20.7,28.8,26.3,10.0,43.7,40.0,0,0,0,0,0,0,0,0,1780,7011
2024/06/29 01:18:45,20.7,28.8,26.3,10.0,43.7,40.0,0,0,0,0,0,0,0,0,1780,7011
2024/06/29 01:20:43,20.7,28.8,26.3,10.0,43.7,40.0,0,0,0,0,0,0,0,0,1780,7011
2024/06/29 01:22:42,20.6,28.8,26.3,10.0,43.7,40.0,0,0,0,0,0,0,0,0,1780,7011
2024/06/29 01:24:41,20.6,28.8,26.3,10.0,43.6,40.0,0,0,0,0,0,0,0,0,1780,7011
2024/06/29 01:27:40,20.6,28.8,26.3,10.0,43.6,40.0,0,0,0,0,0,0,0,0,1780,7011
2024/06/29 01:29:38,20.5,28.8,26.3,10.0,43.6,40.0,0,0,0,0,0,0,0,0,1780,7011
2024/06/29 01:31:37,20.5,28.7,26.3,10.0,43.6,40.0,0,0,0,0,0,0,0,0,1780,7011
2024/06/29 01:33:37,20.5,28.7,26.3,10.0,43.6,40.0,0,0,0,0,0,0,0,0,1780,7011
2024/06/29 01:35:35,20.5,28.7,26.3,10.0,43.6,40.0,0,0,0,0,0,0,0,0,1780,7011
2024/06/29 01:37:34,20.4,28.7,26.3,10.0,43.6,40.0,0,0,0,0,0,0,0,0,1780,7011
2024/06/29 01:39:34,20.4,28.7,26.2,10.0,43.6,40.0,0,0,0,0,0,0,0,0,1780,7011
2024/06/29 01:41:33,20.3,28.7,26.2,10.0,43.5,40.0,0,0,0,0,0,0,0,0,1780,7011
2024/06/29 01:43:32,20.3,28.7,26.2,10.0,43.5,40.0,0,0,0,0,0,0,0,0,1780,7011
2024/06/29 01:45:31,20.2,28.6,26.2,10.0,43.5,40.0,0,0,0,0,0,0,0,0,1780,7011
2024/06/29 01:47:30,20.2,28.6,26.2,10.0,43.5,40.0,0,0,0,0,0,0,0,0,1780,7011
2024/06/29 01:49:29,20.2,28.6,26.2,10.0,43.5,40.0,0,0,0,0,0,0,0,0,1780,7011
2024/06/29 01:51:26,20.2,28.6,26.2,10.0,43.5,40.0,0,0,0,0,0,0,0,0,1780,7011
2024/06/29 01:53:25,20.1,28.6,26.2,10.0,43.5,40.0,0,0,0,0,0,0,0,0,1780,7011
2024/06/29 01:55:25,20.1,28.6,26.2,10.0,43.5,40.0,0,0,0,0,0,0,0,0,1780,7011
2024/06/29 01:57:23,20.1,28.6,26.2,10.0,43.4,40.0,0,0,0,0,0,0,0,0,1780,7011
2024/06/29 01:59:20,20.1,28.5,26.2,10.0,43.4,40.0,0,0,0,0,0,0,0,0,1780,7011
2024/06/29 02:01:17,20.0,28.5,26.1,10.0,43.4,40.0,0,0,0,0,0,0,0,0,1780,7011
2024/06/29 02:03:16,20.0,28.5,26.1,10.0,43.4,40.0,0,0,0,0,0,0,0,0,1780,7011
2024/06/29 02:05:14,20.0,28.5,26.1,10.0,43.4,40.0,0,0,0,0,0,0,0,0,1780,7011
2024/06/29 02:07:13,19.9,28.5,26.1,10.0,43.4,40.0,0,0,0,0,0,0,0,0,1780,7011
2024/06/29 02:09:12,19.9,28.5,26.1,10.0,43.4,40.0,0,0,0,0,0,0,0,0,1780,7011
2024/06/29 02:11:11,19.9,28.5,26.1,10.0,43.3,40.0,0,0,0,0,0,0,0,0,1780,7011
2024/06/29 02:13:08,19.9,28.4,26.1,10.0,43.3,40.0,0,0,0,0,0,0,0,0,1780,7011
2024/06/29 02:15:07,19.9,28.4,26.1,10.0,43.3,40.0,0,0,0,0,0,0,0,0,1780,7011
2024/06/29 02:17:05,19.8,28.4,26.1,10.0,43.3,40.0,0,0,0,0,0,0,0,0,1780,7011
2024/06/29 02:19:04,19.8,28.4,26.1,10.0,43.3,40.0,0,0,0,0,0,0,0,0,1780,7011
2024/06/29 02:21:03,19.8,28.4,26.1,10.0,43.3,40.0,0,0,0,0,0,0,0,0,1780,7011
2024/06/29 02:23:02,19.8,28.4,26.1,10.0,43.3,40.0,0,0,0,0,0,0,0,0,1780,7011
2024/06/29 02:25:01,19.8,28.4,26.0,10.0,43.2,40.0,0,0,0,0,0,0,0,0,1780,7011
2024/06/29 02:27:00,19.8,28.4,26.0,10.0,43.2,40.0,0,0,0,0,0,0,0,0,1780,7011
2024/06/29 02:29:00,19.8,28.3,26.0,10.0,43.2,40.0,0,0,0,0,0,0,0,0,1780,7011
2024/06/29 02:30:57,19.8,28.3,26.0,10.0,43.2,40.0,0,0,0,0,0,0,0,0,1780,7011
2024/06/29 02:32:56,19.8,28.3,26.0,10.0,43.2,40.0,0,0,0,0,0,0,0,0,1780,7011
2024/06/29 02:34:54,19.8,28.3,26.0,10.0,43.2,40.0,0,0,0,0,0,0,0,0,1780,7011
2024/06/29 02:36:52,19.7,28.3,26.0,10.0,43.2,40.0,0,0,0,0,0,0,0,0,1780,7011
2024/06/29 02:38:51,19.7,28.3,26.0,10.0,43.1,40.0,0,0,0,0,0,0,0,0,1780,7011
2024/06/29 02:40:50,19.7,28.3,26.0,10.0,43.1,40.0,0,0,0,0,0,0,0,0,1780,7011
2024/06/29 02:42:48,19.7,28.3,26.0,10.0,43.1,40.0,0,0,0,0,0,0,0,0,1780,7011
2024/06/29 02:44:48,19.7,28.2,26.0,10.0,43.1,40.0,0,0,0,0,0,0,0,0,1780,7011
2024/06/29 02:46:46,19.6,28.2,26.0,10.0,43.1,40.0,0,0,0,0,0,0,0,0,1780,7011
2024/06/29 02:48:45,19.6,28.2,26.0,10.0,43.1,40.0,0,0,0,0,0,0,0,0,1780,7011
2024/06/29 02:50:44,19.6,28.2,25.9,10.0,43.1,40.0,0,0,0,0,0,0,0,0,1780,7011
2024/06/29 02:52:43,19.6,28.2,25.9,10.0,43.0,40.0,0,0,0,0,0,0,0,0,1780,7011
2024/06/29 02:54:41,19.6,28.2,25.9,10.0,43.0,40.0,0,0,0,0,0,0,0,0,1780,7011
2024/06/29 02:57:40,19.6,28.2,25.9,10.0,43.0,40.0,0,0,0,0,0,0,0,0,1780,7011
2024/06/29 02:59:39,19.6,28.2,25.9,10.0,43.0,40.0,0,0,0,0,0,0,0,0,1780,7011
2024/06/29 03:01:37,19.6,28.1,25.9,10.0,43.0,40.0,0,0,0,0,0,0,0,0,1780,7011
2024/06/29 03:03:36,19.5,28.1,25.9,10.0,43.0,40.0,0,0,0,0,0,0,0,0,1780,7011
2024/06/29 03:05:35,19.5,28.1,25.9,10.0,43.0,40.0,0,0,0,0,0,0,0,0,1780,7011
2024/06/29 03:07:34,19.5,28.1,25.9,10.0,42.9,40.0,0,0,0,0,0,0,0,0,1780,7011
2024/06/29 03:09:33,19.5,28.1,25.9,10.0,42.9,40.0,0,0,0,0,0,0,0,0,1780,7011
2024/06/29 03:11:31,19.4,28.1,25.9,10.0,42.9,40.0,0,0,0,0,0,0,0,0,1780,7011
2024/06/29 03:13:29,19.4,28.1,25.9,10.0,42.9,40.0,0,0,0,0,0,0,0,0,1780,7011
2024/06/29 03:15:27,19.4,28.1,25.9,10.0,42.9,40.0,0,0,0,0,0,0,0,0,1780,7011
2024/06/29 03:17:27,19.4,28.0,25.8,10.0,42.9,40.0,0,0,0,0,0,0,0,0,1780,7011
2024/06/29 03:19:25,19.4,28.0,25.8,10.0,42.9,40.0,0,0,0,0,0,0,0,0,1780,7011
2024/06/29 03:21:23,19.3,28.0,25.8,10.0,42.8,40.0,0,0,0,0,0,0,0,0,1780,7011
2024/06/29 03:23:21,19.3,28.0,25.8,10.0,42.8,40.0,0,0,0,0,0,0,0,0,1780,7011
2024/06/29 03:25:21,19.3,28.0,25.8,10.0,42.8,40.0,0,0,0,0,0,0,0,0,1780,7011
2024/06/29 03:27:19,19.3,28.0,25.8,10.0,42.8,40.0,0,0,0,0,0,0,0,0,1780,7011
2024/06/29 03:29:17,19.3,28.0,25.8,10.0,42.8,40.0,0,0,0,0,0,0,0,0,1780,7011
2024/06/29 03:31:17,19.3,28.0,25.8,10.0,42.8,40.0,0,0,0,0,0,0,0,0,1780,7011
2024/06/29 03:33:16,19.3,28.0,25.8,10.0,42.8,40.0,0,0,0,0,0,0,0,0,1780,7011
2024/06/29 03:35:15,19.3,27.9,25.8,10.0,42.7,40.0,0,0,0,0,0,0,0,0,1780,7011
2024/06/29 03:37:13,19.2,27.9,25.8,10.0,42.7,40.0,0,0,0,0,0,0,0,0,1780,7011
2024/06/29 03:39:10,19.2,27.9,25.8,10.0,42.7,40.0,0,0,0,0,0,0,0,0,1780,7011
2024/06/29 03:41:08,19.2,27.9,25.8,10.0,42.7,40.0,0,0,0,0,0,0,0,0,1780,7011
2024/06/29 03:43:07,19.2,27.9,25.8,10.0,42.7,40.0,0,0,0,0,0,0,0,0,1780,7011
2024/06/29 03:45:06,19.2,27.9,25.7,10.0,42.7,40.0,0,0,0,0,0,0,0,0,1780,7011
2024/06/29 03:47:05,19.2,27.9,25.7,10.0,42.7,40.0,0,0,0,0,0,0,0,0,1780,7011
2024/06/29 03:49:04,19.2,27.9,25.7,10.0,42.6,40.0,0,0,0,0,0,0,0,0,1780,7011
2024/06/29 03:51:02,19.2,27.9,25.7,10.0,42.6,40.0,0,0,0,0,0,0,0,0,1780,7011
2024/06/29 03:53:01,19.2,27.8,25.7,10.0,42.6,40.0,0,0,0,0,0,0,0,0,1780,7011
2024/06/29 03:55:00,19.2,27.8,25.7,10.0,42.6,40.0,0,0,0,0,0,0,0,0,1780,7011
2024/06/29 03:56:59,19.2,27.8,25.7,10.0,42.6,40.0,0,0,0,0,0,0,0,0,1780,7011
2024/06/29 03:58:58,19.2,27.8,25.7,10.0,42.6,40.0,0,0,0,0,0,0,0,0,1780,7011
2024/06/29 04:00:54,19.2,27.8,25.7,10.0,42.6,40.0,0,0,0,0,0,0,0,0,1780,7011
2024/06/29 04:02:51,19.2,27.8,25.7,10.0,42.5,40.0,0,0,0,0,0,0,0,0,1780,7011
2024/06/29 04:04:50,19.1,27.8,25.7,10.0,42.5,40.0,0,0,0,0,0,0,0,0,1780,7011
2024/06/29 04:06:48,19.1,27.8,25.7,10.0,42.5,40.0,0,0,0,0,0,0,0,0,1780,7011
2024/06/29 04:08:47,19.1,27.8,25.7,10.0,42.5,40.0,0,0,0,0,0,0,0,0,1780,7011
2024/06/29 04:10:46,19.1,27.8,25.7,10.0,42.5,40.0,0,0,0,0,0,0,0,0,1780,7011
2024/06/29 04:12:44,19.1,27.7,25.7,10.0,42.5,40.0,0,0,0,0,0,0,0,0,1780,7011
2024/06/29 04:14:41,19.1,27.7,25.6,10.0,42.4,40.0,0,0,0,0,0,0,0,0,1780,7011
2024/06/29 04:17:40,19.0,27.7,25.6,10.0,42.4,40.0,0,0,0,0,0,0,0,0,1780,7011
2024/06/29 04:19:40,19.0,27.7,25.6,10.0,42.4,40.0,0,0,0,0,0,0,0,0,1780,7011
2024/06/29 04:21:37,19.0,27.7,25.6,10.0,42.4,40.0,0,0,0,0,0,0,0,0,1780,7011
2024/06/29 04:23:35,19.0,27.7,25.6,10.0,42.4,40.0,0,0,0,0,0,0,0,0,1780,7011
2024/06/29 04:25:34,19.0,27.7,25.6,10.0,42.4,40.0,0,0,0,0,0,0,0,0,1780,7011
2024/06/29 04:27:32,19.0,27.7,25.6,10.0,42.3,40.0,0,0,0,0,0,0,0,0,1780,7011
2024/06/29 04:29:29,19.0,27.7,25.6,10.0,42.3,40.0,0,0,0,0,0,0,0,0,1780,7011
2024/06/29 04:31:28,19.0,27.6,25.6,10.0,42.3,40.0,0,0,0,0,0,0,0,0,1780,7011
2024/06/29 04:33:28,19.0,27.6,25.6,10.0,42.3,40.0,0,0,0,0,0,0,0,0,1780,7011
2024/06/29 04:35:24,18.9,27.6,25.6,10.0,42.3,40.0,0,0,0,0,0,0,0,0,1780,7011
2024/06/29 04:37:22,18.9,27.6,25.6,10.0,42.3,40.0,0,0,0,0,0,0,0,0,1780,7011
2024/06/29 04:39:21,18.9,27.6,25.6,10.0,42.3,40.0,0,0,0,0,0,0,0,0,1780,7011
2024/06/29 04:41:20,18.9,27.6,25.6,10.0,42.2,40.0,0,0,0,0,0,0,0,0,1780,7011
2024/06/29 04:43:19,18.9,27.6,25.6,10.0,42.2,40.0,0,0,0,0,0,0,0,0,1780,7011
2024/06/29 04:45:18,18.9,27.6,25.5,10.0,42.2,40.0,0,0,0,0,0,0,0,0,1780,7011
2024/06/29 04:47:17,18.9,27.6,25.5,10.0,42.2,40.0,0,0,0,0,0,0,0,0,1780,7011
2024/06/29 04:49:16,18.9,27.6,25.5,10.0,42.2,40.0,0,0,0,0,0,0,0,0,1780,7011
2024/06/29 04:51:13,18.9,27.6,25.5,10.0,42.2,40.0,0,0,0,0,0,0,0,0,1780,7011
2024/06/29 04:53:12,18.9,27.5,25.5,10.0,42.2,40.0,0,0,0,0,0,0,0,0,1780,7011
2024/06/29 04:55:11,18.9,27.5,25.5,10.0,42.2,40.0,0,0,0,0,0,0,0,0,1780,7011
2024/06/29 04:57:08,18.9,27.5,25.5,10.0,42.1,40.0,0,0,0,0,0,0,0,0,1780,7011
2024/06/29 04:59:08,18.8,27.5,25.5,10.0,42.1,40.0,0,0,0,0,0,0,0,0,1780,7011
2024/06/29 05:01:06,18.8,27.5,25.5,10.0,42.1,40.0,0,0,0,0,0,0,0,0,1780,7011
2024/06/29 05:03:05,18.8,27.5,25.5,10.0,42.1,40.0,0,0,0,0,0,0,0,0,1780,7011
2024/06/29 05:05:05,18.8,27.5,25.5,10.0,42.1,40.0,0,0,0,0,0,0,0,0,1780,7011
2024/06/29 05:07:04,18.8,27.5,25.5,10.0,42.1,40.0,0,0,0,0,0,0,0,0,1780,7011
2024/06/29 05:09:00,18.8,27.5,25.5,10.0,42.1,40.0,0,0,0,0,0,0,0,0,1780,7011
2024/06/29 05:10:59,18.8,27.5,25.5,10.0,42.0,40.0,0,0,0,0,0,0,0,0,1780,7011
2024/06/29 05:12:59,18.8,27.5,25.5,10.0,42.0,40.0,0,0,0,0,0,0,0,0,1780,7011
2024/06/29 05:14:58,18.7,27.4,25.5,10.0,42.0,40.0,0,0,0,0,0,0,0,0,1780,7011
2024/06/29 05:16:57,18.7,35.5,34.3,10.0,42.0,52.0,0,1,1,0,0,1,1,0,1780,7011
2024/06/29 05:18:56,18.7,39.4,36.0,10.0,41.7,52.0,0,1,1,0,0,1,1,0,1780,7012
2024/06/29 05:20:56,18.7,42.2,38.6,10.0,41.6,52.0,0,1,1,0,0,1,1,0,1780,7013
2024/06/29 05:22:55,18.7,43.7,39.8,10.0,41.9,52.0,0,1,1,0,0,1,1,0,1780,7014
2024/06/29 05:24:54,18.7,44.7,40.7,10.0,42.3,52.0,0,1,1,0,0,1,1,0,1780,7015
2024/06/29 05:26:53,18.7,45.6,41.4,10.0,42.7,52.0,0,1,1,0,0,1,1,0,1780,7016
2024/06/29 05:28:53,18.6,46.4,42.1,10.0,43.2,52.0,0,1,1,0,0,1,1,0,1780,7016
2024/06/29 05:30:51,18.6,47.1,42.6,10.0,43.5,52.0,0,1,1,0,0,1,1,0,1780,7017
2024/06/29 05:32:50,18.6,47.5,42.9,10.0,43.6,52.0,0,1,1,0,0,1,1,0,1780,7018
2024/06/29 05:34:49,18.6,47.9,43.3,10.0,43.9,52.0,0,1,1,0,0,1,1,0,1780,7019
2024/06/29 05:36:48,18.6,48.5,43.7,10.0,44.2,52.0,0,1,1,0,0,1,1,0,1780,7020
2024/06/29 05:38:46,18.6,48.9,44.2,10.0,44.5,52.0,0,1,1,0,0,1,1,0,1780,7020
2024/06/29 05:40:46,18.6,49.4,44.6,10.0,44.9,52.0,0,1,1,0,0,1,1,0,1780,7021
2024/06/29 05:42:45,18.6,49.9,45.1,10.0,45.3,52.0,0,1,1,0,0,1,1,0,1780,7022
2024/06/29 05:44:44,18.6,50.4,45.5,10.0,45.9,52.0,0,1,1,0,0,1,1,0,1780,7023
2024/06/29 05:46:43,18.6,50.9,46.0,10.0,46.4,52.0,0,1,1,0,0,1,1,0,1780,7023
2024/06/29 05:48:42,18.6,51.5,46.5,10.0,46.9,52.0,0,1,1,0,0,1,1,0,1780,7024
2024/06/29 05:51:41,18.6,52.0,46.9,10.0,47.4,52.0,0,1,1,0,0,1,1,0,1780,7025
2024/06/29 05:53:39,18.6,52.4,47.4,10.0,47.8,52.0,0,1,1,0,0,1,1,0,1780,7026
2024/06/29 05:55:36,18.6,52.9,47.9,10.0,48.4,52.0,0,1,1,0,0,1,1,0,1780,7026
2024/06/29 05:57:34,18.6,53.3,48.3,10.0,48.8,52.0,0,1,1,0,0,1,1,0,1780,7027
2024/06/29 05:59:33,18.6,53.8,48.7,10.0,49.4,52.0,0,1,1,0,0,1,1,0,1780,7028
2024/06/29 06:01:31,18.6,54.2,49.1,10.0,49.8,52.0,0,1,1,0,0,1,1,0,1780,7029
2024/06/29 06:03:30,18.6,54.6,49.5,10.0,50.4,52.0,0,1,1,0,0,1,1,0,1780,7029
2024/06/29 06:05:30,18.6,55.1,49.9,10.0,51.1,52.0,0,1,1,0,0,1,1,0,1780,7030
2024/06/29 06:07:28,18.6,55.5,50.4,10.0,51.5,52.0,0,1,1,0,0,1,1,0,1780,7031
2024/06/29 06:09:27,18.6,56.1,51.2,10.0,52.0,52.0,0,0,1,0,0,1,1,0,1780,7031
2024/06/29 06:11:27,18.6,42.0,39.1,10.0,52.5,52.0,0,0,0,0,0,0,1,0,1780,7031
2024/06/29 06:13:26,18.6,40.9,38.3,10.0,52.6,52.0,0,0,0,0,0,0,0,0,1780,7031
2024/06/29 06:15:25,18.6,40.2,37.7,10.0,52.6,52.0,0,0,0,0,0,0,0,0,1780,7031
2024/06/29 06:17:24,18.6,39.8,37.3,10.0,52.6,52.0,0,0,0,0,0,0,0,0,1780,7031
2024/06/29 06:19:22,18.6,39.4,36.9,10.0,52.4,52.0,0,0,0,0,0,0,0,0,1780,7031
2024/06/29 06:21:20,18.6,39.0,36.6,10.0,52.3,52.0,0,0,0,0,0,0,0,0,1780,7031
2024/06/29 06:23:20,18.6,38.8,36.3,10.0,52.2,52.0,0,0,0,0,0,0,0,0,1780,7031
2024/06/29 06:25:19,18.6,38.6,36.0,10.0,52.1,52.0,0,0,0,0,0,0,0,0,1780,7031
2024/06/29 06:27:18,18.6,38.5,35.8,10.0,52.0,52.0,0,0,0,0,0,0,0,0,1780,7031
2024/06/29 06:29:17,18.6,38.3,35.6,10.0,51.9,52.0,0,0,0,0,0,0,0,0,1780,7031
2024/06/29 06:31:16,18.6,38.2,35.4,10.0,51.9,52.0,0,0,0,0,0,0,0,0,1780,7031
2024/06/29 06:33:13,18.6,38.1,35.3,10.0,51.8,52.0,0,0,0,0,0,0,0,0,1780,7031
2024/06/29 06:35:12,18.6,38.0,35.1,10.0,51.7,52.0,0,0,0,0,0,0,0,0,1780,7031
2024/06/29 06:37:11,18.6,37.9,35.0,10.0,51.7,52.0,0,0,0,0,0,0,0,0,1780,7031
2024/06/29 06:39:10,18.7,37.8,34.8,10.0,51.6,52.0,0,0,0,0,0,0,0,0,1780,7031
2024/06/29 06:41:08,18.7,37.7,34.7,10.0,51.6,52.0,0,0,0,0,0,0,0,0,1780,7031
2024/06/29 06:43:07,18.7,37.6,34.6,10.0,51.5,52.0,0,0,0,0,0,0,0,0,1780,7031
2024/06/29 06:45:05,18.8,37.5,34.5,10.0,51.4,52.0,0,0,0,0,0,0,0,0,1780,7031
2024/06/29 06:47:04,18.9,37.4,34.4,10.0,51.4,52.0,0,0,0,0,0,0,0,0,1780,7031
2024/06/29 06:49:03,18.9,37.3,34.2,10.0,51.3,52.0,0,0,0,0,0,0,0,0,1780,7031
2024/06/29 06:51:02,19.0,37.3,34.1,10.0,51.2,52.0,0,0,0,0,0,0,0,0,1780,7031
2024/06/29 06:53:02,19.1,37.2,34.0,10.0,51.1,52.0,0,0,0,0,0,0,0,0,1780,7031
2024/06/29 06:55:00,19.2,37.1,33.9,10.0,51.1,52.0,0,0,0,0,0,0,0,0,1780,7031
2024/06/29 06:57:00,19.2,37.1,33.8,10.0,51.0,52.0,0,0,0,0,0,0,0,0,1780,7031
2024/06/29 06:58:59,19.3,37.0,33.7,10.0,50.9,52.0,0,0,0,0,0,0,0,0,1780,7031
2024/06/29 07:00:58,19.4,36.9,33.6,10.0,50.9,52.0,0,0,0,0,0,0,0,0,1780,7031
2024/06/29 07:02:57,19.5,36.9,33.6,10.0,50.8,52.0,0,0,0,0,0,0,0,0,1780,7031
2024/06/29 07:04:54,19.7,36.8,33.5,10.0,50.7,52.0,0,0,0,0,0,0,0,0,1780,7031
2024/06/29 07:06:51,19.8,36.8,33.4,10.0,50.6,52.0,0,0,0,0,0,0,0,0,1780,7031
2024/06/29 07:08:50,19.9,36.7,33.3,10.0,50.6,52.0,0,0,0,0,0,0,0,0,1780,7031
2024/06/29 07:10:48,20.1,36.7,33.2,10.0,50.5,52.0,0,0,0,0,0,0,0,0,1780,7031
2024/06/29 07:12:46,20.2,36.6,33.1,10.0,50.4,52.0,0,0,0,0,0,0,0,0,1780,7031
2024/06/29 07:14:42,20.4,36.6,33.0,10.0,50.4,52.0,0,0,0,0,0,0,0,0,1780,7031
2024/06/29 07:17:40,20.6,36.5,32.9,10.0,50.3,52.0,0,0,0,0,0,0,0,0,1780,7031
2024/06/29 07:19:39,20.7,36.5,32.8,10.0,50.2,52.0,0,0,0,0,0,0,0,0,1780,7031
2024/06/29 07:21:38,20.9,36.4,32.7,10.0,50.2,52.0,0,0,0,0,0,0,0,0,1780,7031
2024/06/29 07:23:37,21.1,36.4,32.7,10.0,50.1,52.0,0,0,0,0,0,0,0,0,1780,7031
2024/06/29 07:25:34,21.2,36.4,32.6,10.0,50.1,52.0,0,0,0,0,0,0,0,0,1780,7031
2024/06/29 07:27:30,21.3,36.3,32.5,10.0,50.0,52.0,0,0,0,0,0,0,0,0,1780,7031
2024/06/29 07:29:29,21.4,36.3,32.4,10.0,50.0,52.0,0,0,0,0,0,0,0,0,1780,7031
2024/06/29 07:31:28,21.5,36.2,32.3,10.0,49.9,52.0,0,0,0,0,0,0,0,0,1780,7031
2024/06/29 07:33:25,21.7,36.2,32.2,10.0,49.9,52.0,0,0,0,0,0,0,0,0,1780,7031
2024/06/29 07:35:23,21.8,36.1,32.1,10.0,49.8,52.0,0,0,0,0,0,0,0,0,1780,7031
2024/06/29 07:37:21,21.9,36.0,32.0,10.0,49.8,52.0,0,0,0,0,0,0,0,0,1780,7031
2024/06/29 07:39:19,21.9,36.0,32.0,10.0,49.7,52.0,0,0,0,0,0,0,0,0,1780,7031
2024/06/29 07:41:18,21.9,35.9,31.9,10.0,49.7,52.0,0,0,0,0,0,0,0,0,1780,7031
2024/06/29 07:43:17,21.9,35.9,31.8,10.0,49.6,52.0,0,0,0,0,0,0,0,0,1780,7031
2024/06/29 07:45:15,21.9,35.8,31.7,10.0,49.6,52.0,0,0,0,0,0,0,0,0,1780,7031
2024/06/29 07:47:15,21.9,35.8,31.6,10.0,49.5,52.0,0,0,0,0,0,0,0,0,1780,7031
2024/06/29 07:49:13,21.8,35.7,31.6,10.0,49.5,52.0,0,0,0,0,0,0,0,0,1780,7031
2024/06/29 07:51:12,21.8,35.7,31.5,10.0,49.4,52.0,0,0,0,0,0,0,0,0,1780,7031
2024/06/29 07:53:10,21.7,35.6,31.4,10.0,49.4,52.0,0,0,0,0,0,0,0,0,1780,7031
2024/06/29 07:55:09,21.6,35.6,31.3,10.0,49.3,52.0,0,0,0,0,0,0,0,0,1780,7031
2024/06/29 07:57:07,21.6,35.5,31.3,10.0,49.3,52.0,0,0,0,0,0,0,0,0,1780,7031
2024/06/29 07:59:05,21.5,35.4,31.2,10.0,49.2,52.0,0,0,0,0,0,0,0,0,1780,7031
2024/06/29 08:01:03,21.5,35.4,31.1,10.0,49.2,52.0,0,0,0,0,0,0,0,0,1780,7031
2024/06/29 08:03:02,21.5,35.3,31.0,10.0,49.1,52.0,0,0,0,0,0,0,0,0,1780,7031
2024/06/29 08:05:00,21.5,35.2,31.0,10.0,49.1,52.0,0,0,0,0,0,0,0,0,1780,7031
2024/06/29 08:07:00,21.4,35.2,30.9,10.0,49.0,52.0,0,0,0,0,0,0,0,0,1780,7031
2024/06/29 08:08:58,21.4,35.1,30.8,10.0,49.0,52.0,0,0,0,0,0,0,0,0,1780,7031
2024/06/29 08:10:56,21.4,35.1,30.8,10.0,49.0,52.0,0,0,0,0,0,0,0,0,1780,7031
2024/06/29 08:12:55,21.4,35.0,30.7,10.0,48.9,52.0,0,0,0,0,0,0,0,0,1780,7031
2024/06/29 08:14:54,21.4,35.0,30.6,10.0,48.9,52.0,0,0,0,0,0,0,0,0,1780,7031
2024/06/29 08:16:52,21.5,34.9,30.6,10.0,48.8,52.0,0,0,0,0,0,0,0,0,1780,7031
2024/06/29 08:18:50,21.6,34.9,30.5,10.0,48.8,52.0,0,0,0,0,0,0,0,0,1780,7031
2024/06/29 08:20:49,21.6,34.8,30.5,10.0,48.7,52.0,0,0,0,0,0,0,0,0,1780,7031
2024/06/29 08:22:48,21.7,34.8,30.4,10.0,48.7,52.0,0,0,0,0,0,0,0,0,1780,7031
2024/06/29 08:24:46,21.8,34.7,30.3,10.0,48.6,52.0,0,0,0,0,0,0,0,0,1780,7031
2024/06/29 08:26:45,21.8,34.7,30.3,10.0,48.6,52.0,0,0,0,0,0,0,0,0,1780,7031
2024/06/29 08:28:42,21.9,34.7,30.2,10.0,48.5,52.0,0,0,0,0,0,0,0,0,1780,7031
2024/06/29 08:31:41,22.0,34.6,30.1,10.0,48.5,52.0,0,0,0,0,0,0,0,0,1780,7031
2024/06/29 08:33:40,22.0,34.6,30.1,10.0,48.4,52.0,0,0,0,0,0,0,0,0,1780,7031
2024/06/29 08:35:40,22.1,34.5,30.0,10.0,48.4,52.0,0,0,0,0,0,0,0,0,1780,7031
2024/06/29 08:37:39,22.2,34.5,30.0,10.0,48.3,52.0,0,0,0,0,0,0,0,0,1780,7031
2024/06/29 08:39:39,22.3,34.4,29.9,10.0,48.3,52.0,0,0,0,0,0,0,0,0,1780,7031
2024/06/29 08:41:38,22.3,34.4,29.9,10.0,48.2,52.0,0,0,0,0,0,0,0,0,1780,7031
2024/06/29 08:43:36,22.4,35.5,34.8,10.0,48.2,58.2,0,0,1,0,0,1,1,0,1780,7031
2024/06/29 08:45:35,22.5,44.0,41.2,10.0,48.0,57.1,1,0,1,0,0,1,1,0,1780,7032
2024/06/29 08:47:34,22.5,47.5,43.7,10.0,47.9,57.1,1,0,1,0,0,1,1,0,1780,7033
2024/06/29 08:49:33,22.5,49.3,45.4,10.0,47.9,57.1,1,0,1,0,0,1,1,0,1780,7034
2024/06/29 08:51:32,22.6,50.6,46.5,10.0,48.1,57.1,1,0,1,0,0,1,1,0,1780,7034
2024/06/29 08:53:31,22.6,51.3,46.9,10.0,48.5,57.1,1,0,1,0,0,1,1,0,1780,7035
2024/06/29 08:55:31,22.6,52.1,47.5,10.0,48.9,57.1,1,0,1,0,0,1,1,0,1780,7036
2024/06/29 08:57:29,22.6,52.9,48.0,10.0,49.3,57.1,1,0,1,0,0,1,1,0,1780,7037
2024/06/29 08:59:28,22.6,53.4,48.7,10.0,49.7,52.0,1,0,1,0,0,1,1,0,1780,7037
2024/06/29 09:01:27,22.6,53.9,49.1,10.0,50.3,52.0,1,0,1,0,0,1,1,0,1780,7038
2024/06/29 09:03:26,22.6,54.5,49.6,10.0,50.8,52.0,1,0,1,0,0,1,1,0,1780,7039
2024/06/29 09:05:25,22.7,54.9,50.1,10.0,51.2,52.0,1,0,1,0,0,1,1,0,1780,7040
2024/06/29 09:07:24,22.8,55.5,50.6,10.0,51.8,52.0,1,0,1,0,0,1,1,0,1780,7040
2024/06/29 09:09:23,22.9,52.3,45.7,10.0,52.3,52.0,0,0,0,0,0,0,1,0,1780,7041
2024/06/29 09:11:22,23.0,41.4,39.2,10.0,52.6,52.0,0,0,0,0,0,0,0,0,1780,7041
2024/06/29 09:13:22,23.1,40.7,38.4,10.0,52.6,52.0,0,0,0,0,0,0,0,0,1780,7041
2024/06/29 09:15:21,23.2,40.1,37.8,10.0,52.6,57.1,0,0,0,0,0,0,0,0,1780,7041
2024/06/29 09:17:20,23.3,39.8,37.2,10.0,52.6,58.2,0,0,0,0,0,0,0,0,1780,7041
2024/06/29 09:19:18,23.4,39.4,36.6,10.0,52.5,58.2,0,0,0,0,0,0,0,0,1780,7041
2024/06/29 09:21:17,23.5,39.2,36.3,10.0,52.4,58.2,0,0,0,0,0,0,0,0,1780,7041
2024/06/29 09:23:17,23.6,39.0,36.0,10.0,52.3,58.2,0,0,0,0,0,0,0,0,1780,7041
2024/06/29 09:25:16,23.7,38.8,35.7,10.0,52.2,58.2,0,0,0,0,0,0,0,0,1780,7041
2024/06/29 09:27:14,23.7,38.7,35.5,10.0,52.2,58.2,0,0,0,0,0,0,0,0,1780,7041
2024/06/29 09:29:13,23.8,38.6,35.2,10.0,52.1,58.2,0,0,0,0,0,0,0,0,1780,7041
2024/06/29 09:31:12,23.8,38.5,35.0,10.0,52.1,58.2,0,0,0,0,0,0,0,0,1780,7041
2024/06/29 09:33:11,23.8,38.4,34.8,10.0,52.0,58.2,0,0,0,0,0,0,0,0,1780,7041
2024/06/29 09:35:09,23.9,38.3,34.7,10.0,52.0,58.2,0,0,0,0,0,0,0,0,1780,7041
2024/06/29 09:37:08,24.0,38.2,34.5,10.0,51.9,58.2,0,0,0,0,0,0,0,0,1780,7041
2024/06/29 09:39:05,24.0,38.1,34.4,10.0,51.9,58.2,0,0,0,0,0,0,0,0,1780,7041
2024/06/29 09:41:02,24.1,38.0,34.3,10.0,51.8,58.2,0,0,0,0,0,0,0,0,1780,7041
2024/06/29 09:43:01,24.1,37.9,34.1,10.0,51.7,58.2,0,0,0,0,0,0,0,0,1780,7041
2024/06/29 09:44:59,24.2,37.8,34.0,10.0,51.7,58.2,0,0,0,0,0,0,0,0,1780,7041
2024/06/29 09:46:59,24.3,37.7,33.9,10.0,51.6,58.2,0,0,0,0,0,0,0,0,1780,7041
2024/06/29 09:48:56,24.3,37.7,33.8,10.0,51.5,58.2,0,0,0,0,0,0,0,0,1780,7041
2024/06/29 09:50:54,24.3,37.6,33.7,10.0,51.5,58.2,0,0,0,0,0,0,0,0,1780,7041
2024/06/29 09:52:53,24.4,37.5,33.6,10.0,51.4,58.2,0,0,0,0,0,0,0,0,1780,7041
2024/06/29 09:54:51,24.5,37.5,33.5,10.0,51.4,58.2,0,0,0,0,0,0,0,0,1780,7041
2024/06/29 09:56:49,24.5,37.4,33.4,10.0,51.3,58.2,0,0,0,0,0,0,0,0,1780,7041
2024/06/29 09:58:48,24.6,37.3,33.3,10.0,51.2,58.2,0,0,0,0,0,0,0,0,1780,7041
2024/06/29 10:00:46,24.6,37.3,33.3,10.0,51.2,58.2,0,0,0,0,0,0,0,0,1780,7041
2024/06/29 10:02:46,24.6,37.3,33.2,10.0,51.1,58.2,0,0,0,0,0,0,0,0,1780,7041
2024/06/29 10:04:45,24.7,37.2,33.1,10.0,51.0,58.2,0,0,0,0,0,0,0,0,1780,7041
2024/06/29 10:06:43,24.8,37.2,33.0,10.0,51.0,58.2,0,0,0,0,0,0,0,0,1780,7041
2024/06/29 10:09:41,24.8,37.1,32.9,10.0,50.9,58.2,0,0,0,0,0,0,0,0,1780,7041
2024/06/29 10:11:41,24.9,37.1,32.9,10.0,50.9,58.2,0,0,0,0,0,0,0,0,1780,7041
2024/06/29 10:13:39,24.9,37.0,32.8,10.0,50.8,58.2,0,0,0,0,0,0,0,0,1780,7041
2024/06/29 10:15:36,25.0,37.0,32.7,10.0,50.7,58.2,0,0,0,0,0,0,0,0,1780,7041
2024/06/29 10:17:35,25.1,36.9,32.6,10.0,50.7,58.2,0,0,0,0,0,0,0,0,1780,7041
2024/06/29 10:19:33,25.1,36.9,32.6,10.0,50.6,58.2,0,0,0,0,0,0,0,0,1780,7041
2024/06/29 10:21:33,25.2,36.8,32.5,10.0,50.6,58.2,0,0,0,0,0,0,0,0,1780,7041
2024/06/29 10:23:33,25.3,36.8,32.4,10.0,50.5,58.2,0,0,0,0,0,0,0,0,1780,7041
2024/06/29 10:25:32,25.4,36.7,32.3,10.0,50.4,58.2,0,0,0,0,0,0,0,0,1780,7041
2024/06/29 10:27:31,25.4,36.7,32.2,10.0,50.4,58.2,0,0,0,0,0,0,0,0,1780,7041
2024/06/29 10:29:30,25.5,36.6,32.2,10.0,50.3,58.2,0,0,0,0,0,0,0,0,1780,7041
2024/06/29 10:31:29,25.5,36.6,32.1,10.0,50.3,58.2,0,0,0,0,0,0,0,0,1780,7041
2024/06/29 10:33:28,25.6,44.4,41.4,10.0,50.1,57.1,0,1,1,0,0,1,1,0,1780,7041
2024/06/29 10:35:28,25.7,47.9,44.7,10.0,49.8,57.1,0,1,1,0,0,1,1,0,1780,7042
2024/06/29 10:37:27,25.7,50.4,46.7,10.0,49.8,57.1,0,1,1,0,0,1,1,0,1780,7043
2024/06/29 10:39:26,25.8,52.3,48.1,10.0,49.9,57.1,0,1,1,0,0,1,1,0,1780,7043
2024/06/29 10:41:25,25.9,53.4,49.0,10.0,50.3,57.1,0,1,1,0,0,1,1,0,1780,7044
2024/06/29 10:43:24,25.9,54.2,49.6,10.0,50.8,57.1,0,1,1,0,0,1,1,0,1780,7045
2024/06/29 10:45:23,25.9,54.9,50.2,10.0,51.3,57.1,0,1,1,0,0,1,1,0,1780,7046
2024/06/29 10:47:22,26.0,55.5,50.7,10.0,51.8,57.1,0,1,1,0,0,1,1,0,1780,7046
2024/06/29 10:49:21,26.0,56.2,51.4,10.0,52.4,57.1,0,1,1,0,0,1,1,0,1780,7047
2024/06/29 10:51:20,26.0,56.7,51.9,10.0,52.9,57.1,0,1,1,0,0,1,1,0,1780,7048
2024/06/29 10:53:20,26.1,57.3,52.4,10.0,53.4,57.1,0,1,1,0,0,1,1,0,1780,7048
2024/06/29 10:55:17,26.1,57.8,52.9,10.0,54.0,57.1,0,1,1,0,0,1,1,0,1780,7049
2024/06/29 10:57:16,26.2,58.3,53.3,10.0,54.4,57.1,0,1,1,0,0,1,1,0,1780,7050
2024/06/29 10:59:15,26.3,58.7,53.7,10.0,55.0,57.1,0,1,1,0,0,1,1,0,1780,7050
2024/06/29 11:01:14,26.3,59.2,54.1,10.0,55.4,57.1,0,1,1,0,0,1,1,0,1780,7051
2024/06/29 11:03:11,26.3,59.7,54.6,10.0,56.0,57.1,0,1,1,0,0,1,1,0,1780,7052
2024/06/29 11:05:10,26.4,60.2,55.0,10.0,56.5,57.1,0,1,1,0,0,1,1,0,1780,7053
2024/06/29 11:07:09,26.4,60.7,55.4,10.0,57.1,57.1,0,1,1,0,0,1,1,0,1780,7053
2024/06/29 11:09:08,26.5,44.9,41.4,10.0,57.5,57.1,0,0,0,0,0,0,1,0,1780,7053
2024/06/29 11:11:05,26.5,42.4,39.7,10.0,57.6,57.1,0,0,0,0,0,0,0,0,1780,7053
2024/06/29 11:13:04,26.6,41.8,39.1,10.0,57.7,58.2,0,0,0,0,0,0,0,0,1780,7053
2024/06/29 11:15:02,26.7,41.2,38.7,10.0,57.6,58.2,0,0,0,0,0,0,0,0,1780,7053
2024/06/29 11:17:00,26.8,40.8,38.3,10.0,57.5,58.2,0,0,0,0,0,0,0,0,1780,7053
2024/06/29 11:18:59,26.9,40.3,37.9,10.0,57.4,58.2,0,0,0,0,0,0,0,0,1780,7053
2024/06/29 11:20:59,26.9,40.0,37.6,10.0,57.2,58.2,0,0,0,0,0,0,0,0,1780,7053
2024/06/29 11:22:57,27.0,39.8,37.4,10.0,57.1,58.2,0,0,0,0,0,0,0,0,1780,7053
2024/06/29 11:24:56,27.1,39.7,37.2,10.0,57.0,58.2,0,0,0,0,0,0,0,0,1780,7053
2024/06/29 11:26:55,27.2,39.5,37.0,10.0,56.9,58.2,0,0,0,0,0,0,0,0,1780,7053
2024/06/29 11:28:53,27.3,39.4,36.8,10.0,56.9,58.2,0,0,0,0,0,0,0,0,1780,7053
2024/06/29 11:30:51,27.4,39.3,36.7,10.0,56.8,58.2,0,0,0,0,0,0,0,0,1780,7053
2024/06/29 11:32:50,27.4,39.2,36.5,10.0,56.7,58.2,0,0,0,0,0,0,0,0,1780,7053
2024/06/29 11:34:48,27.5,39.0,36.3,10.0,56.7,58.2,0,0,0,0,0,0,0,0,1780,7053
2024/06/29 11:36:46,27.5,38.9,36.2,10.0,56.6,58.2,0,0,0,0,0,0,0,0,1780,7053
2024/06/29 11:38:46,27.5,38.8,36.1,10.0,56.5,58.2,0,0,0,0,0,0,0,0,1780,7053
2024/06/29 11:40:43,27.5,38.7,35.9,10.0,56.5,58.2,0,0,0,0,0,0,0,0,1780,7053
2024/06/29 11:42:42,27.5,38.7,35.8,10.0,56.4,58.2,0,0,0,0,0,0,0,0,1780,7053
2024/06/29 11:45:41,27.6,38.6,35.6,10.0,56.3,58.2,0,0,0,0,0,0,0,0,1780,7053
2024/06/29 11:47:40,27.7,38.5,35.5,10.0,56.3,58.2,0,0,0,0,0,0,0,0,1780,7053
2024/06/29 11:49:37,27.7,38.4,35.4,10.0,56.2,58.2,0,0,0,0,0,0,0,0,1780,7053
2024/06/29 11:51:37,27.7,38.4,35.3,10.0,56.1,58.2,0,0,0,0,0,0,0,0,1780,7053
2024/06/29 11:53:36,27.8,38.3,35.1,10.0,56.0,58.2,0,0,0,0,0,0,0,0,1780,7053
2024/06/29 11:55:34,27.8,38.2,35.0,10.0,56.0,58.2,0,0,0,0,0,0,0,0,1780,7053
2024/06/29 11:57:33,27.9,38.2,34.9,10.0,55.9,58.2,0,0,0,0,0,0,0,0,1780,7053
2024/06/29 11:59:31,27.9,38.1,34.8,10.0,55.8,58.2,0,0,0,0,0,0,0,0,1780,7053
2024/06/29 12:01:31,27.9,38.1,34.7,10.0,55.7,58.2,0,0,0,0,0,0,0,0,1780,7053
2024/06/29 12:03:30,27.9,38.0,34.7,10.0,55.6,58.2,0,0,0,0,0,0,0,0,1780,7053
2024/06/29 12:05:30,27.9,38.0,34.6,10.0,55.6,58.2,0,0,0,0,0,0,0,0,1780,7053
2024/06/29 12:07:29,28.0,38.0,34.5,10.0,55.5,58.2,0,0,0,0,0,0,0,0,1780,7053
2024/06/29 12:09:27,28.0,37.9,34.4,10.0,55.4,58.2,0,0,0,0,0,0,0,0,1780,7053
2024/06/29 12:11:27,28.0,37.9,34.3,10.0,55.3,58.2,0,0,0,0,0,0,0,0,1780,7053
2024/06/29 12:13:25,28.0,37.8,34.2,10.0,55.3,58.2,0,0,0,0,0,0,0,0,1780,7053
2024/06/29 12:15:23,28.0,37.8,34.1,10.0,55.2,58.2,0,0,0,0,0,0,0,0,1780,7053
2024/06/29 12:17:21,27.9,37.7,34.0,10.0,55.1,58.2,0,0,0,0,0,0,0,0,1780,7053
2024/06/29 12:19:19,27.9,37.7,34.0,10.0,55.1,58.2,0,0,0,0,0,0,0,0,1780,7053
2024/06/29 12:21:18,27.8,37.6,33.9,10.0,55.0,58.2,0,0,0,0,0,0,0,0,1780,7053
2024/06/29 12:23:17,27.8,37.6,33.8,10.0,54.9,58.2,0,0,0,0,0,0,0,0,1780,7053
2024/06/29 12:25:15,27.8,37.6,33.7,10.0,54.9,58.2,0,0,0,0,0,0,0,0,1780,7053
2024/06/29 12:27:14,27.8,37.5,33.6,10.0,54.8,58.2,0,0,0,0,0,0,0,0,1780,7053
2024/06/29 12:29:12,27.8,37.5,33.5,10.0,54.8,58.2,0,0,0,0,0,0,0,0,1780,7053
2024/06/29 12:31:11,27.9,37.4,33.5,10.0,54.7,58.2,0,0,0,0,0,0,0,0,1780,7053
2024/06/29 12:33:10,28.0,37.4,33.4,10.0,54.6,58.2,0,0,0,0,0,0,0,0,1780,7053
2024/06/29 12:35:09,28.1,37.3,33.3,10.0,54.6,58.2,0,0,0,0,0,0,0,0,1780,7053
2024/06/29 12:37:08,28.2,37.3,33.2,10.0,54.5,58.2,0,0,0,0,0,0,0,0,1780,7053
2024/06/29 12:39:08,28.2,37.3,33.1,10.0,54.5,58.2,0,0,0,0,0,0,0,0,1780,7053
2024/06/29 12:41:06,28.2,37.2,33.1,10.0,54.4,58.2,0,0,0,0,0,0,0,0,1780,7053
2024/06/29 12:43:05,28.3,37.2,33.0,10.0,54.3,58.2,0,0,0,0,0,0,0,0,1780,7053
2024/06/29 12:45:03,28.3,37.1,32.9,10.0,54.3,58.2,0,0,0,0,0,0,0,0,1780,7053
2024/06/29 12:47:02,28.3,37.0,32.8,10.0,54.2,58.2,0,0,0,0,0,0,0,0,1780,7053
2024/06/29 12:49:01,28.3,37.0,32.8,10.0,54.2,58.2,0,0,0,0,0,0,0,0,1780,7053
2024/06/29 12:50:59,28.3,37.0,32.7,10.0,54.1,58.2,0,0,0,0,0,0,0,0,1780,7053
2024/06/29 12:52:58,28.3,36.9,32.6,10.0,54.0,58.2,0,0,0,0,0,0,0,0,1780,7053
2024/06/29 12:54:57,28.3,36.8,32.5,10.0,54.0,58.2,0,0,0,0,0,0,0,0,1780,7053
2024/06/29 12:56:57,28.3,36.8,32.5,10.0,53.9,58.2,0,0,0,0,0,0,0,0,1780,7053
2024/06/29 12:58:54,28.3,36.7,32.4,10.0,53.8,58.2,0,0,0,0,0,0,0,0,1780,7053
2024/06/29 13:00:52,28.3,36.7,32.3,10.0,53.8,58.2,0,0,0,0,0,0,0,0,1780,7053
2024/06/29 13:02:51,28.4,36.6,32.2,10.0,53.7,58.2,0,0,0,0,0,0,0,0,1780,7053
2024/06/29 13:04:49,28.4,36.6,32.2,10.0,53.7,58.2,0,0,0,0,0,0,0,0,1780,7053
2024/06/29 13:06:46,28.4,36.5,32.1,10.0,53.6,58.2,0,0,0,0,0,0,0,0,1780,7053
2024/06/29 13:08:45,28.4,36.5,32.0,10.0,53.6,58.2,0,0,0,0,0,0,0,0,1780,7053
2024/06/29 13:10:44,28.5,36.4,32.0,10.0,53.5,58.2,0,0,0,0,0,0,0,0,1780,7053
2024/06/29 13:12:42,28.5,36.3,31.9,10.0,53.4,58.2,0,0,0,0,0,0,0,0,1780,7053
2024/06/29 13:15:40,28.5,36.3,31.9,10.0,53.4,58.2,0,0,0,0,0,0,0,0,1780,7053
2024/06/29 13:17:40,28.5,36.2,31.8,10.0,53.3,58.2,0,0,0,0,0,0,0,0,1780,7053
2024/06/29 13:19:38,28.5,36.2,31.7,10.0,53.3,58.2,0,0,0,0,0,0,0,0,1780,7053
2024/06/29 13:21:35,28.5,36.1,31.7,10.0,53.2,58.2,0,0,0,0,0,0,0,0,1780,7053
2024/06/29 13:23:33,28.4,36.1,31.6,10.0,53.1,58.2,0,0,0,0,0,0,0,0,1780,7053
2024/06/29 13:25:33,28.4,36.0,31.5,10.0,53.1,58.2,0,0,0,0,0,0,0,0,1780,7053
2024/06/29 13:27:31,28.4,36.0,31.5,10.0,53.0,58.2,0,0,0,0,0,0,0,0,1780,7053
2024/06/29 13:29:30,28.4,35.9,31.4,10.0,53.0,58.2,0,0,0,0,0,0,0,0,1780,7053
2024/06/29 13:31:29,28.4,35.9,31.4,10.0,52.9,58.2,0,0,0,0,0,0,0,0,1780,7053
2024/06/29 13:33:27,28.4,35.8,31.3,10.0,52.8,58.2,0,0,0,0,0,0,0,0,1780,7053
2024/06/29 13:35:26,28.4,35.8,31.3,10.0,52.8,58.2,0,0,0,0,0,0,0,0,1780,7053
2024/06/29 13:37:26,28.5,35.7,31.2,10.0,52.7,58.2,0,0,0,0,0,0,0,0,1780,7053
2024/06/29 13:39:25,28.5,35.7,31.1,10.0,52.7,58.2,0,0,0,0,0,0,0,0,1780,7053
2024/06/29 13:41:25,28.5,35.6,31.1,10.0,52.6,58.2,0,0,0,0,0,0,0,0,1780,7053
2024/06/29 13:43:24,28.5,35.6,31.0,10.0,52.5,58.2,0,0,0,0,0,0,0,0,1780,7053
2024/06/29 13:45:24,28.5,35.5,31.0,10.0,52.5,58.2,0,0,0,0,0,0,0,0,1780,7053
2024/06/29 13:47:23,28.4,35.4,30.9,10.0,52.4,58.2,0,0,0,0,0,0,0,0,1780,7053
2024/06/29 13:49:22,28.4,35.4,30.9,10.0,52.3,58.2,0,0,0,0,0,0,0,0,1780,7053
2024/06/29 13:51:21,28.4,35.3,30.8,10.0,52.3,58.2,0,0,0,0,0,0,0,0,1780,7053
2024/06/29 13:53:19,28.4,35.3,30.8,10.0,52.2,58.2,0,0,0,0,0,0,0,0,1780,7053
2024/06/29 13:55:19,28.4,35.2,30.7,10.0,52.2,58.2,0,0,0,0,0,0,0,0,1780,7053
2024/06/29 13:57:18,28.4,35.2,30.7,10.0,52.1,58.2,0,0,0,0,0,0,0,0,1780,7053
2024/06/29 13:59:17,28.4,35.1,30.6,10.0,52.0,58.2,0,0,0,0,0,0,0,0,1780,7053
2024/06/29 14:01:16,28.4,35.1,30.6,10.0,52.0,58.2,0,0,0,0,0,0,0,0,1780,7053
2024/06/29 14:03:13,28.4,35.0,30.5,10.0,51.9,58.2,0,0,0,0,0,0,0,0,1780,7053
2024/06/29 14:05:12,28.4,35.0,30.5,10.0,51.9,58.2,0,0,0,0,0,0,0,0,1780,7053
2024/06/29 14:07:10,28.4,34.9,30.4,10.0,51.8,58.2,0,0,0,0,0,0,0,0,1780,7053
2024/06/29 14:09:07,28.4,34.9,30.4,10.0,51.7,58.2,0,0,0,0,0,0,0,0,1780,7053
2024/06/29 14:11:06,28.4,34.9,30.3,10.0,51.7,58.2,0,0,0,0,0,0,0,0,1780,7053
2024/06/29 14:13:05,28.4,34.8,30.3,10.0,51.6,58.2,0,0,0,0,0,0,0,0,1780,7053
2024/06/29 14:15:04,28.4,34.8,30.3,10.0,51.5,58.2,0,0,0,0,0,0,0,0,1780,7053
2024/06/29 14:17:03,28.4,34.7,30.2,10.0,51.5,58.2,0,0,0,0,0,0,0,0,1780,7053
2024/06/29 14:19:02,28.4,34.7,30.2,10.0,51.4,58.2,0,0,0,0,0,0,0,0,1780,7053
2024/06/29 14:21:00,28.4,34.7,30.1,10.0,51.3,58.2,0,0,0,0,0,0,0,0,1780,7053
2024/06/29 14:22:59,28.4,34.6,30.1,10.0,51.3,58.2,0,0,0,0,0,0,0,0,1780,7053
2024/06/29 14:24:59,28.4,34.6,30.0,10.0,51.2,58.2,0,0,0,0,0,0,0,0,1780,7053
2024/06/29 14:26:57,28.5,34.5,30.0,10.0,51.2,58.2,0,0,0,0,0,0,0,0,1780,7053
2024/06/29 14:28:56,28.5,34.5,30.0,10.0,51.1,58.2,0,0,0,0,0,0,0,0,1780,7053
2024/06/29 14:30:55,28.5,34.5,29.9,10.0,51.1,58.2,0,0,0,0,0,0,0,0,1780,7053
2024/06/29 14:32:53,28.5,34.4,29.9,10.0,51.0,58.2,0,0,0,0,0,0,0,0,1780,7053
2024/06/29 14:34:52,28.5,34.4,29.9,10.0,50.9,58.2,0,0,0,0,0,0,0,0,1780,7053
2024/06/29 14:36:50,28.5,34.3,29.8,10.0,50.9,58.2,0,0,0,0,0,0,0,0,1780,7053
2024/06/29 14:38:48,28.5,34.3,29.8,10.0,50.8,58.2,0,0,0,0,0,0,0,0,1780,7053
2024/06/29 14:40:48,28.5,34.3,29.8,10.0,50.7,58.2,0,0,0,0,0,0,0,0,1780,7053
2024/06/29 14:42:45,28.4,34.2,29.7,10.0,50.7,58.2,0,0,0,0,0,0,0,0,1780,7053
2024/06/29 14:44:43,28.3,34.2,29.7,10.0,50.6,58.2,0,0,0,0,0,0,0,0,1780,7053
2024/06/29 14:46:42,28.2,34.1,29.7,10.0,50.5,58.2,0,0,0,0,0,0,0,0,1780,7053
2024/06/29 14:49:39,28.2,34.1,29.6,10.0,50.5,58.2,0,0,0,0,0,0,0,0,1780,7053
2024/06/29 14:51:38,28.1,34.1,29.6,10.0,50.4,58.2,0,0,0,0,0,0,0,0,1780,7053
2024/06/29 14:53:37,28.1,34.0,29.6,10.0,50.4,58.2,0,0,0,0,0,0,0,0,1780,7053
2024/06/29 14:55:36,28.0,34.0,29.6,10.0,50.3,58.2,0,0,0,0,0,0,0,0,1780,7053
2024/06/29 14:57:33,27.9,33.9,31.4,10.0,50.2,58.2,0,0,1,0,0,1,1,0,1780,7053
2024/06/29 14:59:32,27.9,42.7,38.9,10.0,49.9,57.1,1,0,1,0,0,1,1,0,1780,7054
2024/06/29 15:01:32,27.8,46.8,43.1,10.0,49.5,52.0,1,0,1,0,0,1,1,0,1780,7055
2024/06/29 15:03:31,27.8,48.7,44.7,10.0,49.4,52.0,1,0,1,0,0,1,1,0,1780,7055
2024/06/29 15:05:29,27.7,50.0,45.9,10.0,49.5,52.0,1,0,1,0,0,1,1,0,1780,7056
2024/06/29 15:07:29,27.7,51.1,46.8,10.0,49.8,52.0,1,0,1,0,0,1,1,0,1780,7057
2024/06/29 15:09:27,27.6,52.1,47.5,10.0,50.0,52.0,1,0,1,0,0,1,1,0,1780,7058
2024/06/29 15:11:26,27.6,52.8,48.1,10.0,50.4,52.0,1,0,1,0,0,1,1,0,1780,7059
2024/06/29 15:13:26,27.5,53.4,48.7,10.0,50.8,52.0,1,0,1,0,0,1,1,0,1780,7059
2024/06/29 15:15:25,27.4,54.0,49.2,10.0,51.2,52.0,1,0,1,0,0,1,1,0,1780,7060
2024/06/29 15:17:24,27.3,54.5,49.6,10.0,51.6,52.0,1,0,1,0,0,1,1,0,1780,7061
2024/06/29 15:19:24,27.2,54.8,50.3,10.0,52.0,52.0,0,0,1,0,0,1,1,0,1780,7061
2024/06/29 15:21:23,27.1,42.6,40.2,10.0,52.4,52.0,0,0,0,0,0,0,1,0,1780,7061
2024/06/29 15:23:22,27.1,41.7,39.5,10.0,52.5,52.0,0,0,0,0,0,0,0,0,1780,7061
2024/06/29 15:25:20,27.0,41.1,39.0,10.0,52.5,52.0,0,0,0,0,0,0,0,0,1780,7061
2024/06/29 15:27:20,26.9,40.7,38.6,10.0,52.5,52.0,0,0,0,0,0,0,0,0,1780,7061
2024/06/29 15:29:19,26.8,40.2,38.3,10.0,52.5,52.0,0,0,0,0,0,0,0,0,1780,7061
2024/06/29 15:31:17,26.8,39.9,38.0,10.0,52.4,52.0,0,0,0,0,0,0,0,0,1780,7061
2024/06/29 15:33:17,26.7,39.7,37.8,10.0,52.3,52.0,0,0,0,0,0,0,0,0,1780,7061
2024/06/29 15:35:15,26.7,39.6,37.5,10.0,52.2,52.0,0,0,0,0,0,0,0,0,1780,7061
2024/06/29 15:37:14,26.6,39.5,37.3,10.0,52.2,52.0,0,0,0,0,0,0,0,0,1780,7061
2024/06/29 15:39:11,26.6,39.3,37.2,10.0,52.1,52.0,0,0,0,0,0,0,0,0,1780,7061
2024/06/29 15:41:09,26.6,39.2,37.0,10.0,52.1,52.0,0,0,0,0,0,0,0,0,1780,7061
2024/06/29 15:43:08,26.6,39.1,36.8,10.0,52.0,52.0,0,0,0,0,0,0,0,0,1780,7061
2024/06/29 15:45:07,26.6,39.0,36.7,10.0,51.9,52.0,0,0,0,0,0,0,0,0,1780,7061
2024/06/29 15:47:06,26.6,38.9,36.5,10.0,51.9,52.0,0,0,0,0,0,0,0,0,1780,7061
2024/06/29 15:49:05,26.6,38.8,36.4,10.0,51.8,52.0,0,0,0,0,0,0,0,0,1780,7061
2024/06/29 15:51:05,26.7,38.7,36.2,10.0,51.8,52.0,0,0,0,0,0,0,0,0,1780,7061
2024/06/29 15:53:00,26.8,38.7,36.1,10.0,51.7,52.0,0,0,0,0,0,0,0,0,1780,7061
2024/06/29 15:55:00,26.8,38.6,36.0,10.0,51.6,52.0,0,0,0,0,0,0,0,0,1780,7061
2024/06/29 15:56:59,26.9,38.5,35.8,10.0,51.6,52.0,0,0,0,0,0,0,0,0,1780,7061
2024/06/29 15:58:58,27.0,38.5,35.7,10.0,51.5,52.0,0,0,0,0,0,0,0,0,1780,7061
2024/06/29 16:00:57,27.0,38.4,35.6,10.0,51.4,52.0,0,0,0,0,0,0,0,0,1780,7061
2024/06/29 16:02:56,27.0,38.3,35.4,10.0,51.4,52.0,0,0,0,0,0,0,0,0,1780,7061
2024/06/29 16:04:56,27.0,38.3,35.3,10.0,51.3,52.0,0,0,0,0,0,0,0,0,1780,7061
2024/06/29 16:06:55,27.0,38.2,35.2,10.0,51.2,52.0,0,0,0,0,0,0,0,0,1780,7061
2024/06/29 16:08:55,26.9,38.2,35.1,10.0,51.2,52.0,0,0,0,0,0,0,0,0,1780,7061
2024/06/29 16:10:53,26.8,38.1,35.0,10.0,51.1,52.0,0,0,0,0,0,0,0,0,1780,7061
2024/06/29 16:12:52,26.8,38.1,34.9,10.0,51.1,52.0,0,0,0,0,0,0,0,0,1780,7061
2024/06/29 16:14:51,26.8,38.1,34.8,10.0,51.0,52.0,0,0,0,0,0,0,0,0,1780,7061
2024/06/29 16:16:50,26.8,38.0,34.7,10.0,50.9,52.0,0,0,0,0,0,0,0,0,1780,7061
2024/06/29 16:18:47,26.8,38.0,34.6,10.0,50.9,52.0,0,0,0,0,0,0,0,0,1780,7061
2024/06/29 16:20:46,26.8,37.9,34.5,10.0,50.8,52.0,0,0,0,0,0,0,0,0,1780,7061
2024/06/29 16:22:45,26.9,37.9,34.4,10.0,50.7,52.0,0,0,0,0,0,0,0,0,1780,7061
2024/06/29 16:24:44,26.9,37.8,34.3,10.0,50.7,52.0,0,0,0,0,0,0,0,0,1780,7061
2024/06/29 16:27:41,26.9,37.8,34.2,10.0,50.6,52.0,0,0,0,0,0,0,0,0,1780,7061
2024/06/29 16:29:40,26.9,37.7,34.1,10.0,50.6,52.0,0,0,0,0,0,0,0,0,1780,7061
2024/06/29 16:31:39,26.9,37.7,34.0,10.0,50.5,52.0,0,0,0,0,0,0,0,0,1780,7061
2024/06/29 16:33:38,26.9,37.6,33.9,10.0,50.4,52.0,0,0,0,0,0,0,0,0,1780,7061
2024/06/29 16:35:37,26.9,37.6,33.8,10.0,50.4,52.0,0,0,0,0,0,0,0,0,1780,7061
2024/06/29 16:37:35,26.8,37.5,33.7,10.0,50.3,52.0,0,0,0,0,0,0,0,0,1780,7061
2024/06/29 16:39:34,26.8,37.5,33.6,10.0,50.3,52.0,0,0,0,0,0,0,0,0,1780,7061
2024/06/29 16:41:34,26.7,37.4,33.5,10.0,50.2,52.0,0,0,0,0,0,0,0,0,1780,7061
2024/06/29 16:43:33,26.6,37.4,33.5,10.0,50.1,52.0,0,0,0,0,0,0,0,0,1780,7061
2024/06/29 16:45:32,26.5,37.3,33.4,10.0,50.1,52.0,0,0,0,0,0,0,0,0,1780,7061
2024/06/29 16:47:30,26.5,37.3,33.3,10.0,50.0,52.0,0,0,0,0,0,0,0,0,1780,7061
2024/06/29 16:49:30,26.4,37.2,33.2,10.0,50.0,52.0,0,0,0,0,0,0,0,0,1780,7061
2024/06/29 16:51:29,26.3,37.2,33.1,10.0,49.9,52.0,0,0,0,0,0,0,0,0,1780,7061
2024/06/29 16:53:28,26.2,37.1,33.0,10.0,49.8,52.0,0,0,0,0,0,0,0,0,1780,7061
2024/06/29 16:55:26,26.2,37.0,33.0,10.0,49.8,52.0,0,0,0,0,0,0,0,0,1780,7061
2024/06/29 16:57:25,26.1,37.0,32.9,10.0,49.7,52.0,0,0,0,0,0,0,0,0,1780,7061
2024/06/29 16:59:23,26.0,36.9,32.8,10.0,49.7,52.0,0,0,0,0,0,0,0,0,1780,7061
2024/06/29 17:01:21,25.9,36.9,32.7,10.0,49.6,52.0,0,0,0,0,0,0,0,0,1780,7061
2024/06/29 17:03:20,25.9,36.8,32.6,10.0,49.6,52.0,0,0,0,0,0,0,0,0,1780,7061
2024/06/29 17:05:17,25.8,36.8,32.6,10.0,49.5,52.0,0,0,0,0,0,0,0,0,1780,7061
2024/06/29 17:07:15,25.7,36.7,32.5,10.0,49.5,52.0,0,0,0,0,0,0,0,0,1780,7061
2024/06/29 17:09:13,25.7,36.6,32.4,10.0,49.4,52.0,0,0,0,0,0,0,0,0,1780,7061
2024/06/29 17:11:11,25.6,36.6,32.3,10.0,49.4,52.0,0,0,0,0,0,0,0,0,1780,7061
2024/06/29 17:13:11,25.5,36.5,32.3,10.0,49.3,52.0,0,0,0,0,0,0,0,0,1780,7061
2024/06/29 17:15:09,25.5,36.5,32.2,10.0,49.3,52.0,0,0,0,0,0,0,0,0,1780,7061
2024/06/29 17:17:08,25.4,36.4,32.1,10.0,49.2,52.0,0,0,0,0,0,0,0,0,1780,7061
2024/06/29 17:19:07,25.4,36.3,32.0,10.0,49.2,52.0,0,0,0,0,0,0,0,0,1780,7061
2024/06/29 17:21:05,25.4,36.3,32.0,10.0,49.1,52.0,0,0,0,0,0,0,0,0,1780,7061
2024/06/29 17:23:04,25.3,36.2,31.9,10.0,49.1,52.0,0,0,0,0,0,0,0,0,1780,7061
2024/06/29 17:25:03,25.3,36.2,31.8,10.0,49.0,52.0,0,0,0,0,0,0,0,0,1780,7061
2024/06/29 17:27:02,25.2,36.1,31.8,10.0,49.0,52.0,0,0,0,0,0,0,0,0,1780,7061
2024/06/29 17:29:01,25.2,36.1,31.7,10.0,48.9,52.0,0,0,0,0,0,0,0,0,1780,7061
2024/06/29 17:31:00,25.1,36.0,31.6,10.0,48.9,52.0,0,0,0,0,0,0,0,0,1780,7061
2024/06/29 17:33:00,25.1,35.9,31.6,10.0,48.8,52.0,0,0,0,0,0,0,0,0,1780,7061
2024/06/29 17:34:58,25.0,35.9,31.5,10.0,48.8,52.0,0,0,0,0,0,0,0,0,1780,7061
2024/06/29 17:36:57,25.0,35.8,31.5,10.0,48.7,52.0,0,0,0,0,0,0,0,0,1780,7061
2024/06/29 17:38:55,25.0,35.8,31.4,10.0,48.7,52.0,0,0,0,0,0,0,0,0,1780,7061
2024/06/29 17:40:51,25.0,35.7,31.3,10.0,48.6,52.0,0,0,0,0,0,0,0,0,1780,7061
2024/06/29 17:42:50,25.0,35.7,31.3,10.0,48.6,52.0,0,0,0,0,0,0,0,0,1780,7061
2024/06/29 17:44:49,24.9,35.6,31.2,10.0,48.6,52.0,0,0,0,0,0,0,0,0,1780,7061
2024/06/29 17:46:48,24.9,35.5,31.1,10.0,48.5,52.0,0,0,0,0,0,0,0,0,1780,7061
2024/06/29 17:48:46,24.8,35.5,31.1,10.0,48.4,52.0,0,0,0,0,0,0,0,0,1780,7061
2024/06/29 17:50:46,24.8,35.4,31.0,10.0,48.4,52.0,0,0,0,0,0,0,0,0,1780,7061
2024/06/29 17:52:44,24.7,35.3,31.0,10.0,48.4,52.0,0,0,0,0,0,0,0,0,1780,7061
2024/06/29 17:54:43,24.6,35.3,30.9,10.0,48.3,52.0,0,0,0,0,0,0,0,0,1780,7061
2024/06/29 17:57:42,24.5,35.2,30.9,10.0,48.3,52.0,0,0,0,0,0,0,0,0,1780,7061
2024/06/29 17:59:41,24.5,35.2,30.8,10.0,48.2,52.0,0,0,0,0,0,0,0,0,1780,7061
2024/06/29 18:01:41,24.4,35.1,30.8,10.0,48.2,52.0,0,0,0,0,0,0,0,0,1780,7061
2024/06/29 18:03:39,24.3,35.1,30.7,10.0,48.1,52.0,0,0,0,0,0,0,0,0,1780,7061
2024/06/29 18:05:37,24.3,35.0,30.6,10.0,48.1,52.0,0,0,0,0,0,0,0,0,1780,7061
2024/06/29 18:07:36,24.2,35.0,30.6,10.0,48.0,52.0,0,0,0,0,0,0,0,0,1780,7061
2024/06/29 18:09:34,24.1,34.9,30.5,10.0,48.0,52.0,0,0,0,0,0,0,0,0,1780,7061
2024/06/29 18:11:32,24.0,34.9,30.5,10.0,47.9,52.0,0,0,0,0,0,0,0,0,1780,7061
2024/06/29 18:13:30,23.9,34.8,30.4,10.0,47.9,52.0,0,0,0,0,0,0,0,0,1780,7061
2024/06/29 18:15:29,23.8,34.8,30.4,10.0,47.8,52.0,0,0,0,0,0,0,0,0,1780,7061
2024/06/29 18:17:28,23.8,34.8,30.3,10.0,47.8,52.0,0,0,0,0,0,0,0,0,1780,7061
2024/06/29 18:19:26,23.7,34.7,30.3,10.0,47.7,52.0,0,0,0,0,0,0,0,0,1780,7061
2024/06/29 18:21:24,23.7,34.7,30.2,10.0,47.7,52.0,0,0,0,0,0,0,0,0,1780,7061
2024/06/29 18:23:24,23.7,34.6,30.2,10.0,47.6,52.0,0,0,0,0,0,0,0,0,1780,7061
2024/06/29 18:25:23,23.7,34.6,30.1,10.0,47.6,52.0,0,0,0,0,0,0,0,0,1780,7061
2024/06/29 18:27:21,23.7,34.5,30.1,10.0,47.5,52.0,0,0,0,0,0,0,0,0,1780,7061
2024/06/29 18:29:17,23.7,34.5,30.0,10.0,47.5,52.0,0,0,0,0,0,0,0,0,1780,7061
2024/06/29 18:31:16,23.7,34.5,30.0,10.0,47.4,52.0,0,0,0,0,0,0,0,0,1780,7061
2024/06/29 18:33:16,23.7,34.4,30.0,10.0,47.4,52.0,0,0,0,0,0,0,0,0,1780,7061
2024/06/29 18:35:15,23.6,34.4,29.9,10.0,47.3,52.0,0,0,0,0,0,0,0,0,1780,7061
2024/06/29 18:37:14,23.6,34.3,29.9,10.0,47.3,52.0,0,0,0,0,0,0,0,0,1780,7061
2024/06/29 18:39:12,23.6,34.3,29.9,10.0,47.2,52.0,0,0,0,0,0,0,0,0,1780,7061
2024/06/29 18:41:10,23.7,34.2,29.8,10.0,47.2,52.0,0,0,0,0,0,0,0,0,1780,7061
2024/06/29 18:43:10,23.7,34.2,29.8,10.0,47.1,52.0,0,0,0,0,0,0,0,0,1780,7061
2024/06/29 18:45:09,23.8,34.2,29.8,10.0,47.1,52.0,0,0,0,0,0,0,0,0,1780,7061
2024/06/29 18:47:08,23.8,34.1,29.7,10.0,47.0,52.0,0,0,0,0,0,0,0,0,1780,7061
2024/06/29 18:49:06,23.8,34.1,29.7,10.0,47.0,52.0,0,0,0,0,0,0,0,0,1780,7061
2024/06/29 18:51:05,23.8,34.0,29.6,10.0,46.9,52.0,0,0,0,0,0,0,0,0,1780,7061
2024/06/29 18:53:03,23.8,34.0,29.6,10.0,46.9,52.0,0,0,0,0,0,0,0,0,1780,7061
2024/06/29 18:55:01,23.8,33.9,29.6,10.0,46.8,52.0,0,0,0,0,0,0,0,0,1780,7061
2024/06/29 18:57:00,23.8,33.9,29.5,10.0,46.8,52.0,0,0,0,0,0,0,0,0,1780,7061
2024/06/29 18:58:58,23.8,33.9,29.5,10.0,46.7,52.0,0,0,0,0,0,0,0,0,1780,7061
2024/06/29 19:00:57,23.8,33.8,29.5,10.0,46.7,52.0,0,0,0,0,0,0,0,0,1780,7061
2024/06/29 19:02:55,23.9,33.8,29.4,10.0,46.6,52.0,0,0,0,0,0,0,0,0,1780,7061
2024/06/29 19:04:54,23.9,33.7,29.4,10.0,46.6,52.0,0,0,0,0,0,0,0,0,1780,7061
2024/06/29 19:06:52,24.0,33.7,29.4,10.0,46.6,52.0,0,0,0,0,0,0,0,0,1780,7061
2024/06/29 19:08:49,24.0,33.7,29.3,10.0,46.5,52.0,0,0,0,0,0,0,0,0,1780,7061
2024/06/29 19:10:49,24.1,33.6,29.3,10.0,46.5,52.0,0,0,0,0,0,0,0,0,1780,7061
2024/06/29 19:12:47,24.1,33.6,29.3,10.0,46.4,52.0,0,0,0,0,0,0,0,0,1780,7061
2024/06/29 19:14:44,24.1,33.5,29.2,10.0,46.4,52.0,0,0,0,0,0,0,0,0,1780,7061
2024/06/29 19:16:42,24.1,33.5,29.2,10.0,46.3,52.0,0,0,0,0,0,0,0,0,1780,7061
2024/06/29 19:19:41,24.1,33.5,29.2,10.0,46.3,52.0,0,0,0,0,0,0,0,0,1780,7061
2024/06/29 19:21:41,24.0,33.4,29.2,10.0,46.2,52.0,0,0,0,0,0,0,0,0,1780,7061
2024/06/29 19:23:40,23.9,33.4,29.1,10.0,46.2,52.0,0,0,0,0,0,0,0,0,1780,7061
2024/06/29 19:25:39,23.9,33.3,29.1,10.0,46.1,52.0,0,0,0,0,0,0,0,0,1780,7061
2024/06/29 19:27:38,23.8,33.3,29.1,10.0,46.1,52.0,0,0,0,0,0,0,0,0,1780,7061
2024/06/29 19:29:37,23.7,33.3,29.0,10.0,46.0,52.0,0,0,0,0,0,0,0,0,1780,7061
2024/06/29 19:31:36,23.7,33.2,29.0,10.0,46.0,52.0,0,0,0,0,0,0,0,0,1780,7061
2024/06/29 19:33:34,23.7,33.2,29.0,10.0,45.9,52.0,0,0,0,0,0,0,0,0,1780,7061
2024/06/29 19:35:33,23.7,33.2,29.0,10.0,45.9,52.0,0,0,0,0,0,0,0,0,1780,7061
2024/06/29 19:37:31,23.7,33.1,28.9,10.0,45.8,52.0,0,0,0,0,0,0,0,0,1780,7061
2024/06/29 19:39:29,23.7,33.1,28.9,10.0,45.7,52.0,0,0,0,0,0,0,0,0,1780,7061
2024/06/29 19:41:26,23.7,33.0,28.9,10.0,45.7,52.0,0,0,0,0,0,0,0,0,1780,7061
2024/06/29 19:43:25,23.7,33.0,28.8,10.0,45.6,52.0,0,0,0,0,0,0,0,0,1780,7061
2024/06/29 19:45:24,23.7,33.0,28.8,10.0,45.6,52.0,0,0,0,0,0,0,0,0,1780,7061
2024/06/29 19:47:21,23.7,32.9,28.8,10.0,45.5,52.0,0,0,0,0,0,0,0,0,1780,7061
2024/06/29 19:49:19,23.7,32.9,28.8,10.0,45.5,52.0,0,0,0,0,0,0,0,0,1780,7061
2024/06/29 19:51:19,23.7,32.9,28.7,10.0,45.4,52.0,0,0,0,0,0,0,0,0,1780,7061
2024/06/29 19:53:17,23.7,32.8,28.7,10.0,45.4,52.0,0,0,0,0,0,0,0,0,1780,7061
2024/06/29 19:55:17,23.7,32.8,28.7,10.0,45.3,52.0,0,0,0,0,0,0,0,0,1780,7061
2024/06/29 19:57:15,23.7,32.8,28.7,10.0,45.3,52.0,0,0,0,0,0,0,0,0,1780,7061
2024/06/29 19:59:13,23.6,32.7,28.6,10.0,45.2,52.0,0,0,0,0,0,0,0,0,1780,7061
2024/06/29 20:01:12,23.6,32.7,28.6,10.0,45.2,52.0,0,0,0,0,0,0,0,0,1780,7061
2024/06/29 20:03:12,23.5,32.6,28.6,10.0,45.1,52.0,0,0,0,0,0,0,0,0,1780,7061
2024/06/29 20:05:10,23.4,32.6,28.6,10.0,45.1,52.0,0,0,0,0,0,0,0,0,1780,7061
2024/06/29 20:07:09,23.4,32.6,28.5,10.0,45.0,52.0,0,0,0,0,0,0,0,0,1780,7061
2024/06/29 20:09:07,23.3,32.5,28.5,10.0,45.0,52.0,0,0,0,0,0,0,0,0,1780,7061
2024/06/29 20:11:06,23.3,32.5,28.5,10.0,45.0,52.0,0,0,0,0,0,0,0,0,1780,7061
2024/06/29 20:13:05,23.2,32.5,28.5,10.0,44.9,52.0,0,0,0,0,0,0,0,0,1780,7061
2024/06/29 20:15:04,23.2,32.4,28.4,10.0,44.9,52.0,0,0,0,0,0,0,0,0,1780,7061
2024/06/29 20:17:03,23.1,32.4,28.4,10.0,44.8,52.0,0,0,0,0,0,0,0,0,1780,7061
2024/06/29 20:19:03,23.1,32.3,28.4,10.0,44.8,52.0,0,0,0,0,0,0,0,0,1780,7061
2024/06/29 20:20:58,23.0,32.3,28.4,10.0,44.8,52.0,0,0,0,0,0,0,0,0,1780,7061
2024/06/29 20:22:57,23.0,32.3,28.3,10.0,44.7,52.0,0,0,0,0,0,0,0,0,1780,7061
2024/06/29 20:24:56,22.9,32.2,28.3,10.0,44.7,52.0,0,0,0,0,0,0,0,0,1780,7061
2024/06/29 20:26:53,22.9,32.2,28.3,10.0,44.6,52.0,0,0,0,0,0,0,0,0,1780,7061
2024/06/29 20:28:50,22.9,32.2,28.3,10.0,44.6,52.0,0,0,0,0,0,0,0,0,1780,7061
2024/06/29 20:30:50,22.8,32.1,28.3,10.0,44.5,52.0,0,0,0,0,0,0,0,0,1780,7061
2024/06/29 20:32:48,22.8,32.1,28.2,10.0,44.5,52.0,0,0,0,0,0,0,0,0,1780,7061
2024/06/29 20:34:47,22.8,32.1,28.2,10.0,44.5,52.0,0,0,0,0,0,0,0,0,1780,7061
2024/06/29 20:36:46,22.7,32.0,28.2,10.0,44.4,52.0,0,0,0,0,0,0,0,0,1780,7061
2024/06/29 20:38:45,22.7,32.0,28.2,10.0,44.4,52.0,0,0,0,0,0,0,0,0,1780,7061
2024/06/29 20:40:43,22.7,32.0,28.1,10.0,44.3,52.0,0,0,0,0,0,0,0,0,1780,7061
2024/06/29 20:43:39,22.7,31.9,28.1,10.0,44.3,52.0,0,0,0,0,0,0,0,0,1780,7061
2024/06/29 20:45:38,22.7,31.9,28.1,10.0,44.3,52.0,0,0,0,0,0,0,0,0,1780,7061
2024/06/29 20:47:36,22.6,31.9,28.1,10.0,44.2,52.0,0,0,0,0,0,0,0,0,1780,7061
2024/06/29 20:49:34,22.6,31.8,28.1,10.0,44.2,52.0,0,0,0,0,0,0,0,0,1780,7061
2024/06/29 20:51:32,22.6,31.8,28.0,10.0,44.1,52.0,0,0,0,0,0,0,0,0,1780,7061
2024/06/29 20:53:31,22.6,31.8,28.0,10.0,44.1,52.0,0,0,0,0,0,0,0,0,1780,7061
2024/06/29 20:55:30,22.5,31.7,28.0,10.0,44.1,52.0,0,0,0,0,0,0,0,0,1780,7061
2024/06/29 20:57:30,22.5,39.0,37.1,10.0,44.0,52.0,0,1,1,0,0,1,1,0,1780,7062
2024/06/29 20:59:28,22.5,42.6,39.1,10.0,43.8,52.0,0,1,1,0,0,1,1,0,1780,7063
2024/06/29 21:01:28,22.5,45.1,41.4,10.0,43.8,52.0,0,1,1,0,0,1,1,0,1780,7063
2024/06/29 21:03:27,22.5,46.5,42.6,10.0,44.0,52.0,0,1,1,0,0,1,1,0,1780,7064
2024/06/29 21:05:26,22.4,47.5,43.3,10.0,44.1,52.0,0,1,1,0,0,1,1,0,1780,7065
2024/06/29 21:07:25,22.4,48.3,43.9,10.0,44.6,52.0,0,1,1,0,0,1,1,0,1780,7066
2024/06/29 21:09:24,22.4,49.0,44.4,10.0,45.0,52.0,0,1,1,0,0,1,1,0,1780,7067
2024/06/29 21:11:24,22.4,49.5,44.9,10.0,45.5,52.0,0,1,1,0,0,1,1,0,1780,7067
2024/06/29 21:13:23,22.4,50.1,45.5,10.0,46.0,52.0,0,1,1,0,0,1,1,0,1780,7068
2024/06/29 21:15:22,22.4,50.7,46.0,10.0,46.6,52.0,0,1,1,0,0,1,1,0,1780,7069
2024/06/29 21:17:19,22.4,51.4,46.6,10.0,47.1,52.0,0,1,1,0,0,1,1,0,1780,7070
2024/06/29 21:19:18,22.4,52.0,47.0,10.0,47.6,52.0,0,1,1,0,0,1,1,0,1780,7070
2024/06/29 21:21:17,22.4,52.5,47.6,10.0,48.2,52.0,0,1,1,0,0,1,1,0,1780,7071
2024/06/29 21:23:16,22.4,53.0,48.0,10.0,48.7,52.0,0,1,1,0,0,1,1,0,1780,7072
2024/06/29 21:25:15,22.4,53.5,48.5,10.0,49.1,52.0,0,1,1,0,0,1,1,0,1780,7073
2024/06/29 21:27:13,22.3,53.9,48.9,10.0,49.6,52.0,0,1,1,0,0,1,1,0,1780,7073
2024/06/29 21:29:13,22.3,54.3,49.2,10.0,50.2,52.0,0,1,1,0,0,1,1,0,1780,7074
2024/06/29 21:31:12,22.3,54.6,49.6,10.0,50.6,52.0,0,1,1,0,0,1,1,0,1780,7075
2024/06/29 21:33:11,22.2,55.1,50.0,10.0,51.3,52.0,0,1,1,0,0,1,1,0,1780,7076
2024/06/29 21:35:10,22.2,55.6,50.5,10.0,51.8,52.0,0,1,1,0,0,1,1,0,1780,7076
2024/06/29 21:37:10,22.2,53.4,49.1,10.0,52.3,52.0,0,0,0,0,0,0,1,0,1780,7077
2024/06/29 21:39:09,22.2,41.9,39.5,10.0,52.6,52.0,0,0,0,0,0,0,0,0,1780,7077
2024/06/29 21:41:08,22.1,41.2,38.7,10.0,52.6,52.0,0,0,0,0,0,0,0,0,1780,7077
2024/06/29 21:43:07,22.1,40.7,38.2,10.0,52.6,52.0,0,0,0,0,0,0,0,0,1780,7077
2024/06/29 21:45:05,22.1,40.2,37.9,10.0,52.6,52.0,0,0,0,0,0,0,0,0,1780,7077
2024/06/29 21:47:03,22.1,39.8,37.5,10.0,52.5,52.0,0,0,0,0,0,0,0,0,1780,7077
2024/06/29 21:49:01,22.1,39.5,37.2,10.0,52.4,52.0,0,0,0,0,0,0,0,0,1780,7077
2024/06/29 21:51:00,22.0,39.3,37.0,10.0,52.3,52.0,0,0,0,0,0,0,0,0,1780,7077
2024/06/29 21:52:59,22.0,39.2,36.8,10.0,52.2,52.0,0,0,0,0,0,0,0,0,1780,7077
2024/06/29 21:54:57,22.0,39.0,36.6,10.0,52.2,52.0,0,0,0,0,0,0,0,0,1780,7077
2024/06/29 21:56:56,21.9,38.9,36.4,10.0,52.1,52.0,0,0,0,0,0,0,0,0,1780,7077
2024/06/29 21:58:55,21.8,38.8,36.2,10.0,52.0,52.0,0,0,0,0,0,0,0,0,1780,7077
2024/06/29 22:00:54,21.7,38.7,36.1,10.0,52.0,52.0,0,0,0,0,0,0,0,0,1780,7077
2024/06/29 22:02:53,21.6,38.6,35.9,10.0,51.9,52.0,0,0,0,0,0,0,0,0,1780,7077
2024/06/29 22:04:52,21.5,38.5,35.7,10.0,51.9,52.0,0,0,0,0,0,0,0,0,1780,7077
2024/06/29 22:06:52,21.4,38.4,35.6,10.0,51.9,52.0,0,0,0,0,0,0,0,0,1780,7077
2024/06/29 22:08:47,21.3,38.3,35.4,10.0,51.9,52.0,0,0,0,0,0,0,0,0,1780,7077
2024/06/29 22:10:46,21.2,38.2,35.3,10.0,51.9,52.0,0,0,0,0,0,0,0,0,1780,7077
2024/06/29 22:12:44,21.2,38.1,35.1,10.0,51.9,52.0,0,0,0,0,0,0,0,0,1780,7077
2024/06/29 22:14:43,21.1,38.1,35.0,10.0,51.9,52.0,0,0,0,0,0,0,0,0,1780,7077
2024/06/29 22:16:42,21.1,38.0,34.9,10.0,51.9,52.0,0,0,0,0,0,0,0,0,1780,7077
2024/06/29 22:19:41,21.1,37.9,34.8,10.0,51.9,52.0,0,0,0,0,0,0,0,0,1780,7077
2024/06/29 22:21:40,21.1,37.9,34.7,10.0,51.9,52.0,0,0,0,0,0,0,0,0,1780,7077
2024/06/29 22:23:39,21.0,37.8,34.6,10.0,51.9,52.0,0,0,0,0,0,0,0,0,1780,7077
2024/06/29 22:25:38,21.0,37.8,34.5,10.0,51.9,52.0,0,0,0,0,0,0,0,0,1780,7077
2024/06/29 22:27:36,21.0,37.7,34.4,10.0,51.9,52.0,0,0,0,0,0,0,0,0,1780,7077
2024/06/29 22:29:36,21.0,37.7,34.3,10.0,51.9,52.0,0,0,0,0,0,0,0,0,1780,7077
2024/06/29 22:31:34,21.0,37.6,34.2,10.0,51.9,40.0,0,0,0,0,0,0,0,0,1780,7077
2024/06/29 22:33:31,21.0,37.6,34.1,10.0,51.8,40.0,0,0,0,0,0,0,0,0,1780,7077
2024/06/29 22:35:29,21.1,37.5,34.0,10.0,51.8,40.0,0,0,0,0,0,0,0,0,1780,7077
2024/06/29 22:37:27,21.1,37.5,33.9,10.0,51.8,40.0,0,0,0,0,0,0,0,0,1780,7077
2024/06/29 22:39:27,21.2,37.4,33.8,10.0,51.8,40.0,0,0,0,0,0,0,0,0,1780,7077
2024/06/29 22:41:26,21.2,37.4,33.8,10.0,51.8,40.0,0,0,0,0,0,0,0,0,1780,7077
2024/06/29 22:43:24,21.2,37.3,33.7,10.0,51.8,40.0,0,0,0,0,0,0,0,0,1780,7077
2024/06/29 22:45:23,21.2,37.3,33.6,10.0,51.8,40.0,0,0,0,0,0,0,0,0,1780,7077
2024/06/29 22:47:22,21.2,37.3,33.5,10.0,51.8,40.0,0,0,0,0,0,0,0,0,1780,7077
2024/06/29 22:49:20,21.2,37.2,33.4,10.0,51.7,40.0,0,0,0,0,0,0,0,0,1780,7077
2024/06/29 22:51:19,21.2,37.2,33.3,10.0,51.7,40.0,0,0,0,0,0,0,0,0,1780,7077
2024/06/29 22:53:18,21.2,37.1,33.2,10.0,51.7,40.0,0,0,0,0,0,0,0,0,1780,7077
2024/06/29 22:55:17,21.2,37.1,33.1,10.0,51.7,40.0,0,0,0,0,0,0,0,0,1780,7077
2024/06/29 22:57:16,21.1,37.0,33.0,10.0,51.7,40.0,0,0,0,0,0,0,0,0,1780,7077
2024/06/29 22:59:14,21.1,37.0,32.9,10.0,51.7,40.0,0,0,0,0,0,0,0,0,1780,7077
2024/06/29 23:01:12,21.1,36.9,32.9,10.0,51.7,40.0,0,0,0,0,0,0,0,0,1780,7077
2024/06/29 23:03:12,21.1,36.8,32.8,10.0,51.6,40.0,0,0,0,0,0,0,0,0,1780,7077
2024/06/29 23:05:10,21.2,36.8,32.7,10.0,51.6,40.0,0,0,0,0,0,0,0,0,1780,7077
2024/06/29 23:07:09,21.2,36.7,32.6,10.0,51.6,40.0,0,0,0,0,0,0,0,0,1780,7077
2024/06/29 23:09:08,21.2,36.7,32.5,10.0,51.6,40.0,0,0,0,0,0,0,0,0,1780,7077
2024/06/29 23:11:07,21.2,36.6,32.4,10.0,51.6,40.0,0,0,0,0,0,0,0,0,1780,7077
2024/06/29 23:13:05,21.2,36.6,32.4,10.0,51.6,40.0,0,0,0,0,0,0,0,0,1780,7077
2024/06/29 23:15:03,21.2,36.5,32.3,10.0,51.5,40.0,0,0,0,0,0,0,0,0,1780,7077
2024/06/29 23:17:02,21.2,36.4,32.2,10.0,51.5,40.0,0,0,0,0,0,0,0,0,1780,7077
2024/06/29 23:19:01,21.2,36.4,32.1,10.0,51.5,40.0,0,0,0,0,0,0,0,0,1780,7077
2024/06/29 23:21:00,21.2,36.3,32.0,10.0,51.5,40.0,0,0,0,0,0,0,0,0,1780,7077
2024/06/29 23:22:59,21.2,36.3,32.0,10.0,51.5,40.0,0,0,0,0,0,0,0,0,1780,7077
2024/06/29 23:24:58,21.3,36.2,31.9,10.0,51.5,40.0,0,0,0,0,0,0,0,0,1780,7077
2024/06/29 23:26:57,21.3,36.1,31.8,10.0,51.4,40.0,0,0,0,0,0,0,0,0,1780,7077
2024/06/29 23:28:54,21.4,36.1,31.7,10.0,51.4,40.0,0,0,0,0,0,0,0,0,1780,7077
2024/06/29 23:30:53,21.5,36.0,31.7,10.0,51.4,40.0,0,0,0,0,0,0,0,0,1780,7077
2024/06/29 23:32:52,21.7,36.0,31.6,10.0,51.4,40.0,0,0,0,0,0,0,0,0,1780,7077
2024/06/29 23:34:51,21.8,35.9,31.5,10.0,51.4,40.0,0,0,0,0,0,0,0,0,1780,7077
2024/06/29 23:36:49,21.9,35.8,31.5,10.0,51.3,40.0,0,0,0,0,0,0,0,0,1780,7077
2024/06/29 23:38:48,21.9,35.8,31.4,10.0,51.3,40.0,0,0,0,0,0,0,0,0,1780,7077
2024/06/29 23:40:46,21.9,35.7,31.3,10.0,51.3,40.0,0,0,0,0,0,0,0,0,1780,7077
2024/06/29 23:42:45,21.9,35.7,31.3,10.0,51.3,40.0,0,0,0,0,0,0,0,0,1780,7077
2024/06/29 23:44:44,21.9,35.6,31.2,10.0,51.3,40.0,0,0,0,0,0,0,0,0,1780,7077
2024/06/29 23:47:42,21.9,35.6,31.1,10.0,51.2,40.0,0,0,0,0,0,0,0,0,1780,7077
2024/06/29 23:49:40,21.9,35.5,31.1,10.0,51.2,40.0,0,0,0,0,0,0,0,0,1780,7077
2024/06/29 23:51:39,21.8,35.4,31.0,10.0,51.2,40.0,0,0,0,0,0,0,0,0,1780,7077
2024/06/29 23:53:38,21.8,35.4,30.9,10.0,51.2,40.0,0,0,0,0,0,0,0,0,1780,7077
2024/06/29 23:55:35,21.8,35.3,30.9,10.0,51.2,40.0,0,0,0,0,0,0,0,0,1780,7077
2024/06/29 23:57:33,21.7,35.2,30.8,10.0,51.2,40.0,0,0,0,0,0,0,0,0,1780,7077
2024/06/29 23:59:31,21.7,35.2,30.8,10.0,51.1,40.0,0,0,0,0,0,0,0,0,1780,7077
