Type,Analog,Analog,Analog,Analog,Analog,Analog,Digital,Digital,Digital,Digital,Digital,Digital,Digital,Digital,Integer,Integer
Index,1,5,2,53,3,58,41,42,43,44,45,46,49,50,95,98
Name,R1,R9,R2,R2 Solltemperatur,R3,R3 Solltemperatur,M1,M3,M2/M11,E10,M13,M18,M16,E9,Waermemenge Heizen,Waermemenge Warmwasser
Description,Variable 1,Variable 2,Variable 3,Variable 4,Variable 5,Variable 6,Variable 7,Variable 8,Variable 9,Variable 10,Variable 11,Variable 12,Variable 13,Variable 14,Variable 15,Variable 16
2022/03/16 00:01:35,6.2,35.5,31.1,29.1,51.3,10.0,0,0,1,0,1,0,1,0,6767,2869
2022/03/16 00:03:35,6.2,33.0,31.4,29.1,51.2,10.0,0,0,0,0,1,0,1,0,6767,2869
2022/03/16 00:05:34,6.2,33.3,31.5,29.1,51.2,10.0,0,0,0,0,1,0,0,0,6767,2869
2022/03/16 00:07:31,6.2,32.8,31.0,29.1,51.2,10.0,0,0,0,0,1,0,0,0,6767,2869
2022/03/16 00:09:30,6.2,32.6,30.7,29.1,51.1,10.0,0,0,0,0,1,0,0,0,6767,2869
2022/03/16 00:11:29,6.3,32.3,30.4,29.1,51.1,10.0,0,0,0,0,1,0,0,0,6767,2869
2022/03/16 00:13:28,6.3,32.1,30.2,29.1,51.1,10.0,0,0,0,0,1,0,0,0,6767,2869
2022/03/16 00:15:27,6.3,31.9,30.0,29.1,51.0,10.0,0,0,0,0,1,0,0,0,6767,2869
2022/03/16 00:17:26,6.4,31.8,29.9,29.1,51.0,10.0,0,0,0,0,1,0,0,0,6767,2869
2022/03/16 00:19:25,6.4,31.7,29.7,29.1,51.0,10.0,0,0,0,0,1,0,0,0,6767,2869
2022/03/16 00:21:24,6.4,31.6,29.5,29.1,51.0,10.0,0,0,0,0,1,0,0,0,6767,2869
2022/03/16 00:23:22,6.4,31.5,29.4,29.1,50.9,10.0,0,0,0,0,1,0,0,0,6767,2869
2022/03/16 00:25:20,6.4,31.4,29.2,29.1,50.9,10.0,0,0,0,0,1,0,0,0,6767,2869
2022/03/16 00:27:19,6.4,31.3,29.1,29.1,50.9,10.0,0,0,0,0,1,0,0,0,6767,2869
2022/03/16 00:29:18,6.4,31.2,29.0,29.1,50.8,10.0,0,0,0,0,1,0,0,0,6767,2869
2022/03/16 00:31:17,6.4,31.1,28.8,29.1,50.8,10.0,0,0,0,0,1,0,0,0,6767,2869
2022/03/16 00:33:16,6.4,31.1,28.7,29.1,50.8,10.0,0,0,0,0,1,0,0,0,6767,2869
2022/03/16 00:35:12,6.4,31.0,28.6,29.1,50.7,10.0,0,0,0,0,1,0,0,0,6767,2869
2022/03/16 00:37:10,6.4,30.9,28.4,29.1,50.7,10.0,0,0,0,0,1,0,0,0,6767,2869
2022/03/16 00:39:09,6.4,30.9,28.3,29.1,50.6,10.0,0,0,0,0,1,0,0,0,6767,2869
2022/03/16 00:41:07,6.4,30.8,28.2,29.1,50.6,10.0,0,0,0,0,1,0,0,0,6767,2869
2022/03/16 00:43:06,6.3,30.8,28.1,29.1,50.6,10.0,0,0,0,0,1,0,0,0,6767,2869
2022/03/16 00:45:06,6.3,30.7,27.9,29.1,50.5,10.0,0,0,0,0,1,0,0,0,6767,2869
2022/03/16 00:47:05,6.2,30.7,27.8,29.1,50.5,10.0,0,0,0,0,1,0,0,0,6767,2869
2022/03/16 00:49:03,6.2,30.6,27.7,29.1,50.5,10.0,0,0,0,0,1,0,0,0,6767,2869
2022/03/16 00:51:02,6.1,30.6,27.6,29.1,50.5,10.0,0,0,0,0,1,0,0,0,6767,2869
2022/03/16 00:53:01,6.1,30.5,27.4,29.1,50.4,10.0,0,0,0,0,1,0,0,0,6767,2869
2022/03/16 00:55:00,6.0,30.5,27.3,29.1,50.4,10.0,0,0,0,0,1,0,0,0,6767,2869
2022/03/16 00:56:59,6.0,30.4,27.2,29.1,50.4,10.0,0,0,0,0,1,0,0,0,6767,2869
2022/03/16 00:58:59,5.9,30.4,27.1,29.7,50.3,10.0,0,0,0,0,1,0,0,0,6767,2869
2022/03/16 01:00:58,5.9,30.3,26.9,29.7,50.3,10.0,0,0,0,0,1,0,0,0,6767,2869
2022/03/16 01:02:58,5.9,30.3,26.8,29.7,50.2,10.0,0,0,0,0,1,0,0,0,6767,2869
2022/03/16 01:04:56,5.9,30.2,26.7,29.7,50.2,10.0,0,0,0,0,1,0,0,0,6767,2869
2022/03/16 01:06:54,5.8,30.2,26.6,29.7,50.2,10.0,0,0,0,0,1,0,0,0,6767,2869
2022/03/16 01:09:53,5.8,30.1,26.5,29.7,50.2,10.0,0,0,0,0,1,0,0,0,6767,2869
2022/03/16 01:11:52,5.8,30.1,26.4,29.7,50.1,10.0,0,0,0,0,1,0,0,0,6767,2869
2022/03/16 01:13:51,5.8,30.1,26.2,29.7,50.1,10.0,0,0,0,0,1,0,0,0,6767,2869
2022/03/16 01:15:49,5.8,30.0,26.1,29.7,50.0,10.0,0,0,0,0,1,0,0,0,6767,2869
2022/03/16 01:17:48,5.8,30.0,26.0,29.7,50.0,10.0,0,0,0,0,1,0,0,0,6767,2869
2022/03/16 01:19:46,5.8,29.9,25.9,29.7,50.0,10.0,0,0,0,0,1,0,0,0,6767,2869
2022/03/16 01:21:44,5.8,29.9,25.8,29.7,50.0,10.0,0,0,0,0,1,0,0,0,6767,2869
2022/03/16 01:23:43,5.8,29.9,25.7,29.7,49.9,10.0,0,0,0,0,1,0,0,0,6767,2869
2022/03/16 01:25:40,5.8,29.8,25.6,29.7,49.9,10.0,0,0,0,0,1,0,0,0,6767,2869
2022/03/16 01:27:38,5.8,29.8,25.5,29.7,49.9,10.0,0,0,0,0,1,0,0,0,6767,2869
2022/03/16 01:29:37,5.7,29.7,25.4,29.7,49.8,10.0,0,0,0,0,1,0,0,0,6767,2869
2022/03/16 01:31:36,5.7,29.7,25.3,29.7,49.8,10.0,0,0,0,0,1,0,0,0,6767,2869
2022/03/16 01:33:35,5.7,29.7,25.2,29.7,49.8,10.0,0,0,0,0,1,0,0,0,6767,2869
2022/03/16 01:35:33,5.7,29.6,25.1,29.7,49.8,10.0,0,0,0,0,1,0,0,0,6767,2869
2022/03/16 01:37:32,5.7,29.6,25.0,29.7,49.7,10.0,0,0,0,0,1,0,0,0,6767,2869
2022/03/16 01:39:31,5.7,29.5,25.0,29.7,49.7,10.0,0,0,0,0,1,0,0,0,6767,2869
2022/03/16 01:41:29,5.7,29.5,24.9,29.7,49.7,10.0,0,0,0,0,1,0,0,0,6767,2869
2022/03/16 01:43:28,5.7,29.4,24.8,29.7,49.7,10.0,0,0,0,0,1,0,0,0,6767,2869
2022/03/16 01:45:27,5.7,29.4,24.8,29.7,49.6,10.0,0,0,0,0,1,0,0,0,6767,2869
2022/03/16 01:47:25,5.7,29.3,24.7,29.7,49.6,10.0,0,0,0,0,1,0,0,0,6767,2869
2022/03/16 01:49:24,5.6,29.3,24.6,29.7,49.6,10.0,0,0,0,0,1,0,0,0,6767,2869
2022/03/16 01:51:22,5.6,29.2,24.6,29.7,49.6,10.0,0,0,0,0,1,0,0,0,6767,2869
2022/03/16 01:53:20,5.6,29.2,24.5,29.7,49.5,10.0,0,0,0,0,1,0,0,0,6767,2869
2022/03/16 01:55:19,5.6,29.2,24.4,29.7,49.5,10.0,0,0,0,0,1,0,0,0,6767,2869
2022/03/16 01:57:18,5.6,29.1,24.4,29.7,49.5,10.0,0,0,0,0,1,0,0,0,6767,2869
2022/03/16 01:59:18,5.6,29.1,24.3,29.7,49.4,10.0,0,0,0,0,1,0,0,0,6767,2869
2022/03/16 02:01:17,5.6,29.0,24.3,29.7,49.4,10.0,0,0,0,0,1,0,0,0,6767,2869
2022/03/16 02:03:14,5.6,29.0,24.2,29.7,49.4,10.0,0,0,0,0,1,0,0,0,6767,2869
2022/03/16 02:05:13,5.6,28.9,24.1,29.7,49.4,10.0,0,0,0,0,1,0,0,0,6767,2869
2022/03/16 02:07:12,5.6,28.9,24.1,29.7,49.3,10.0,0,0,0,0,1,0,0,0,6767,2869
2022/03/16 02:09:10,5.6,28.8,24.0,29.7,49.3,10.0,0,0,0,0,1,0,0,0,6767,2869
2022/03/16 02:11:10,5.6,28.8,24.0,29.7,49.3,10.0,0,0,0,0,1,0,0,0,6767,2869
2022/03/16 02:13:08,5.6,28.7,23.9,29.7,49.2,10.0,0,0,0,0,1,0,0,0,6767,2869
2022/03/16 02:15:07,5.6,28.7,23.9,29.7,49.2,10.0,0,0,0,0,1,0,0,0,6767,2869
2022/03/16 02:17:04,5.5,28.6,23.8,29.7,49.2,10.0,0,0,0,0,1,0,0,0,6767,2869
2022/03/16 02:19:02,5.5,28.6,23.8,29.7,49.2,10.0,0,0,0,0,1,0,0,0,6767,2869
2022/03/16 02:21:01,5.5,28.6,23.7,29.7,49.1,10.0,0,0,0,0,1,0,1,0,6767,2869
2022/03/16 02:23:01,5.4,26.9,25.7,29.7,49.1,10.0,1,0,1,0,1,0,1,0,6767,2869
2022/03/16 02:25:00,5.4,29.3,26.0,29.7,49.1,10.0,1,0,1,0,1,0,1,0,6768,2869
2022/03/16 02:27:00,5.4,29.7,26.3,29.7,49.0,10.0,1,0,1,0,1,0,1,0,6769,2869
2022/03/16 02:28:59,5.4,30.0,26.5,29.7,49.0,10.0,1,0,1,0,1,0,1,0,6770,2869
2022/03/16 02:30:58,5.4,30.5,26.8,29.7,49.0,10.0,1,0,1,0,1,0,1,0,6770,2869
2022/03/16 02:32:57,5.4,30.7,27.0,29.7,49.0,10.0,1,0,1,0,1,0,1,0,6771,2869
2022/03/16 02:34:56,5.4,30.9,27.1,29.7,48.9,10.0,1,0,1,0,1,0,1,0,6772,2869
2022/03/16 02:36:55,5.3,31.3,27.5,29.7,48.9,10.0,1,0,1,0,1,0,1,0,6773,2869
2022/03/16 02:38:55,5.3,31.6,27.7,29.7,48.9,10.0,1,0,1,0,1,0,1,0,6774,2869
2022/03/16 02:41:53,5.3,32.0,28.1,29.7,48.9,10.0,1,0,1,0,1,0,1,0,6775,2869
2022/03/16 02:43:52,5.2,32.3,28.4,29.7,48.8,10.0,1,0,1,0,1,0,1,0,6775,2869
2022/03/16 02:45:51,5.2,32.7,28.7,29.7,48.8,10.0,1,0,1,0,1,0,1,0,6776,2869
2022/03/16 02:47:49,5.1,33.0,29.0,29.7,48.8,10.0,1,0,1,0,1,0,1,0,6777,2869
2022/03/16 02:49:48,5.1,33.2,29.2,29.7,48.7,10.0,1,0,1,0,1,0,1,0,6778,2869
2022/03/16 02:51:47,5.0,33.5,29.5,29.7,48.7,10.0,1,0,1,0,1,0,1,0,6779,2869
2022/03/16 02:53:46,5.0,33.8,29.7,29.7,48.7,10.0,1,0,1,0,1,0,1,0,6779,2869
2022/03/16 02:55:44,5.0,34.0,30.0,29.7,48.7,10.0,1,0,1,0,1,0,1,0,6780,2869
2022/03/16 02:57:43,5.0,34.7,30.3,29.7,48.6,10.0,1,0,1,0,1,0,1,0,6781,2869
2022/03/16 02:59:42,5.0,34.7,30.3,29.7,48.6,10.0,1,0,1,0,1,0,1,0,6782,2869
2022/03/16 03:01:39,5.0,35.0,30.6,29.7,48.6,10.0,1,0,1,0,1,0,1,0,6782,2869
2022/03/16 03:03:38,5.0,35.2,30.8,29.7,48.6,10.0,1,0,1,0,1,0,1,0,6783,2869
2022/03/16 03:05:37,4.9,35.6,31.2,30.3,48.5,10.0,1,0,1,0,1,0,1,0,6784,2869
2022/03/16 03:07:36,4.9,35.8,31.5,30.3,48.5,10.0,1,0,1,0,1,0,1,0,6785,2869
2022/03/16 03:09:34,4.9,36.1,31.7,30.3,48.5,10.0,1,0,1,0,1,0,1,0,6786,2869
2022/03/16 03:11:33,4.9,36.4,32.0,30.3,48.4,10.0,1,0,1,0,1,0,1,0,6786,2869
2022/03/16 03:13:32,4.9,36.6,32.2,30.3,48.4,10.0,1,0,1,0,1,0,1,0,6787,2869
2022/03/16 03:15:32,4.9,34.0,32.4,30.3,48.4,10.0,0,0,0,0,1,0,1,0,6787,2869
2022/03/16 03:17:31,4.8,34.3,32.7,30.3,48.4,10.0,0,0,0,0,1,0,0,0,6787,2869
2022/03/16 03:19:30,4.8,33.8,32.1,30.3,48.3,10.0,0,0,0,0,1,0,0,0,6787,2869
2022/03/16 03:21:28,4.8,33.5,31.8,30.3,48.3,10.0,0,0,0,0,1,0,0,0,6787,2869
2022/03/16 03:23:27,4.8,33.3,31.6,30.3,48.3,10.0,0,0,0,0,1,0,0,0,6787,2869
2022/03/16 03:25:26,4.8,33.1,31.4,30.3,48.3,10.0,0,0,0,0,1,0,0,0,6787,2869
2022/03/16 03:27:25,4.8,32.9,31.2,30.3,48.2,10.0,0,0,0,0,1,0,0,0,6787,2869
2022/03/16 03:29:22,4.8,32.8,30.9,30.3,48.2,10.0,0,0,0,0,1,0,0,0,6787,2869
2022/03/16 03:31:21,4.8,32.6,30.7,30.3,48.2,10.0,0,0,0,0,1,0,0,0,6787,2869
2022/03/16 03:33:21,4.7,32.5,30.5,30.3,48.1,10.0,0,0,0,0,1,0,0,0,6787,2869
2022/03/16 03:35:20,4.7,32.4,30.3,30.3,48.1,10.0,0,0,0,0,1,0,0,0,6787,2869
2022/03/16 03:37:19,4.7,32.3,30.1,30.3,48.1,10.0,0,0,0,0,1,0,0,0,6787,2869
2022/03/16 03:39:14,4.7,32.2,29.9,30.3,48.1,10.0,0,0,0,0,1,0,0,0,6787,2869
2022/03/16 03:41:12,4.7,32.1,29.8,30.3,48.0,10.0,0,0,0,0,1,0,0,0,6787,2869
2022/03/16 03:43:11,4.7,32.1,29.6,30.3,48.0,10.0,0,0,0,0,1,0,0,0,6787,2869
2022/03/16 03:45:10,4.7,32.0,29.5,30.3,48.0,10.0,0,0,0,0,1,0,0,0,6787,2869
2022/03/16 03:47:09,4.6,31.9,29.3,30.3,48.0,52.0,0,0,0,0,1,0,0,0,6787,2869
2022/03/16 03:49:08,4.6,31.9,29.2,30.3,47.9,52.0,0,0,0,0,1,0,0,0,6787,2869
2022/03/16 03:51:07,4.6,31.8,29.1,30.3,47.9,52.0,0,0,0,0,1,0,0,0,6787,2869
2022/03/16 03:53:06,4.6,31.7,28.9,30.3,47.9,52.0,0,0,0,0,1,0,0,0,6787,2869
2022/03/16 03:55:05,4.6,31.7,28.8,30.3,47.8,52.0,0,0,0,0,1,0,0,0,6787,2869
2022/03/16 03:57:04,4.5,31.6,28.6,30.3,47.8,52.0,0,0,0,0,1,0,0,0,6787,2869
2022/03/16 03:59:03,4.5,31.6,28.5,30.3,47.8,52.0,0,0,0,0,1,0,0,0,6787,2869
2022/03/16 04:01:01,4.5,31.5,28.4,30.3,47.8,52.0,0,0,0,0,1,0,0,0,6787,2869
2022/03/16 04:03:01,4.5,31.5,28.2,30.3,47.7,52.0,0,0,0,0,1,0,0,0,6787,2869
2022/03/16 04:04:59,4.4,31.4,28.1,30.3,47.7,52.0,0,0,0,0,1,0,0,0,6787,2869
2022/03/16 04:06:55,4.4,31.4,27.9,30.3,47.7,52.0,0,0,0,0,1,0,0,0,6787,2869
2022/03/16 04:09:52,4.4,31.4,27.8,30.3,47.7,52.0,0,0,0,0,1,0,0,0,6787,2869
2022/03/16 04:11:51,4.4,31.3,27.7,30.3,47.6,52.0,0,0,0,0,1,0,0,0,6787,2869
2022/03/16 04:13:50,4.4,31.3,27.5,30.3,47.6,52.0,0,0,0,0,1,0,0,0,6787,2869
2022/03/16 04:15:49,4.4,31.2,27.4,30.3,47.6,52.0,0,0,0,0,1,0,0,0,6787,2869
2022/03/16 04:17:48,4.4,31.2,27.3,30.3,47.6,52.0,0,0,0,0,1,0,0,0,6787,2869
2022/03/16 04:19:47,4.4,31.1,27.1,30.3,47.5,52.0,0,0,0,0,1,0,0,0,6787,2869
2022/03/16 04:21:47,4.4,31.1,27.0,30.3,47.5,52.0,0,0,0,0,1,0,0,0,6787,2869
2022/03/16 04:23:46,4.4,31.0,26.9,30.3,47.5,52.0,0,0,0,0,1,0,0,0,6787,2869
2022/03/16 04:25:45,4.4,31.0,26.8,30.3,47.5,52.0,0,0,0,0,1,0,0,0,6787,2869
2022/03/16 04:27:44,4.4,30.9,26.6,30.3,47.4,52.0,0,0,0,0,1,0,0,0,6787,2869
2022/03/16 04:29:43,4.4,30.9,26.5,30.3,47.4,52.0,0,0,0,0,1,0,0,0,6787,2869
2022/03/16 04:31:42,4.4,30.8,26.4,30.3,47.4,52.0,0,0,0,0,1,0,0,0,6787,2869
2022/03/16 04:33:41,4.4,30.8,26.3,30.3,47.3,52.0,0,0,0,0,1,0,0,0,6787,2869
2022/03/16 04:35:40,4.4,30.7,26.2,30.3,47.3,52.0,0,0,0,0,1,0,0,0,6787,2869
2022/03/16 04:37:39,4.4,30.7,26.1,30.3,47.3,52.0,0,0,0,0,1,0,0,0,6787,2869
2022/03/16 04:39:39,4.3,30.6,26.0,30.3,47.3,52.0,0,0,0,0,1,0,0,0,6787,2869
2022/03/16 04:41:38,4.3,30.6,25.9,30.3,47.2,52.0,0,0,0,0,1,0,0,0,6787,2869
2022/03/16 04:43:37,4.3,30.5,25.7,30.3,47.2,52.0,0,0,0,0,1,0,0,0,6787,2869
2022/03/16 04:45:36,4.3,30.4,25.6,30.3,47.2,52.0,0,0,0,0,1,0,0,0,6787,2869
2022/03/16 04:47:36,4.2,30.4,25.5,30.3,47.2,52.0,0,0,0,0,1,0,0,0,6787,2869
2022/03/16 04:49:35,4.2,30.3,25.4,30.3,47.1,52.0,0,0,0,0,1,0,0,0,6787,2869
2022/03/16 04:51:31,4.2,30.3,25.4,30.3,47.1,52.0,0,0,0,0,1,0,0,0,6787,2869
2022/03/16 04:53:31,4.2,30.2,25.3,30.3,47.1,52.0,0,0,0,0,1,0,0,0,6787,2869
2022/03/16 04:55:30,4.2,30.1,25.2,30.3,47.1,52.0,0,0,0,0,1,0,0,0,6787,2869
2022/03/16 04:57:29,4.2,30.1,25.1,30.3,47.0,52.0,0,0,0,0,1,0,0,0,6787,2869
2022/03/16 04:59:28,4.1,30.0,25.0,30.3,47.0,52.0,0,0,0,0,1,0,0,0,6787,2869
2022/03/16 05:01:27,4.1,30.0,24.9,30.3,47.0,52.0,0,0,0,0,1,0,0,0,6787,2869
2022/03/16 05:03:23,4.1,29.9,24.9,30.3,47.0,52.0,0,0,0,0,1,0,0,0,6787,2869
2022/03/16 05:05:22,4.1,29.9,24.8,30.3,46.9,52.0,0,0,0,0,1,0,0,0,6787,2869
2022/03/16 05:07:21,4.1,29.8,24.7,30.3,46.9,52.0,0,0,0,0,1,0,0,0,6787,2869
2022/03/16 05:09:19,4.1,29.8,24.7,30.3,46.9,52.0,0,0,0,0,1,0,0,0,6787,2869
2022/03/16 05:11:16,4.1,29.7,24.6,30.3,46.9,52.0,0,0,0,0,1,0,0,0,6787,2869
2022/03/16 05:13:15,4.1,29.7,24.5,30.3,46.8,52.0,0,0,0,0,1,0,0,0,6787,2869
2022/03/16 05:15:14,4.1,29.6,24.5,30.3,46.8,52.0,0,0,0,0,1,0,0,0,6787,2869
2022/03/16 05:17:13,4.1,29.6,24.4,30.3,46.8,52.0,0,0,0,0,1,0,0,0,6787,2869
2022/03/16 05:19:11,4.0,29.5,24.4,30.3,46.7,52.0,0,0,0,0,1,0,0,0,6787,2869
2022/03/16 05:21:10,4.0,29.5,24.3,30.3,46.7,52.0,0,0,0,0,1,0,0,0,6787,2869
2022/03/16 05:23:09,4.0,29.4,24.3,30.3,46.7,52.0,0,0,0,0,1,0,0,0,6787,2869
2022/03/16 05:25:07,4.0,29.4,24.2,30.3,46.7,52.0,0,0,0,0,1,0,0,0,6787,2869
2022/03/16 05:27:06,4.0,28.4,26.3,30.3,46.6,52.0,0,0,0,0,1,0,1,0,6787,2869
2022/03/16 05:29:05,3.9,28.5,26.3,30.8,46.6,52.0,0,1,1,0,1,0,1,0,6788,2869
2022/03/16 05:31:05,3.9,30.0,26.7,30.8,45.9,52.0,0,1,1,0,1,0,1,0,6788,2869
2022/03/16 05:33:03,3.9,30.4,26.9,30.8,44.8,52.0,0,1,1,0,1,0,1,0,6789,2869
2022/03/16 05:35:01,3.9,30.8,27.2,30.8,44.3,52.0,0,1,1,0,1,0,1,0,6790,2869
2022/03/16 05:37:01,3.9,31.2,27.4,30.8,44.1,52.0,0,1,1,0,1,0,1,0,6791,2869
2022/03/16 05:39:00,3.9,36.0,32.0,30.8,43.7,52.0,0,1,1,0,0,1,1,0,6791,2870
2022/03/16 05:40:58,3.9,37.7,34.0,30.8,42.8,52.0,0,1,1,0,0,1,1,0,6791,2870
2022/03/16 05:42:58,3.9,39.7,35.5,30.8,42.5,52.0,0,1,1,0,0,1,1,0,6791,2871
2022/03/16 05:44:57,3.9,41.0,36.9,30.8,42.4,52.0,0,1,1,0,0,1,1,0,6791,2872
2022/03/16 05:46:54,3.9,42.0,37.8,30.8,42.4,52.0,0,1,1,0,0,1,1,0,6791,2873
2022/03/16 05:49:53,3.8,44.7,38.5,30.8,42.6,52.0,1,1,1,0,0,1,1,0,6791,2874
2022/03/16 05:51:51,3.7,47.1,40.7,30.8,42.7,52.0,1,1,1,0,0,1,1,0,6791,2875
2022/03/16 05:53:50,3.7,48.9,42.3,30.8,43.1,52.0,1,1,1,0,0,1,1,0,6791,2876
2022/03/16 05:55:48,3.7,50.1,43.4,30.8,43.7,52.0,1,1,1,0,0,1,1,0,6791,2878
2022/03/16 05:57:47,3.7,51.5,44.4,30.8,44.4,52.0,1,1,1,0,0,1,1,0,6791,2879
2022/03/16 05:59:46,3.7,52.5,45.3,30.8,45.1,52.0,1,1,1,0,0,1,1,0,6791,2880
2022/03/16 06:01:44,3.7,53.5,46.3,30.8,45.9,52.0,1,1,1,0,0,1,1,0,6791,2881
2022/03/16 06:03:43,3.6,54.3,47.2,30.8,46.8,52.0,1,1,1,0,0,1,1,0,6791,2883
2022/03/16 06:05:42,3.6,55.2,48.1,30.8,47.6,52.0,1,1,1,0,0,1,1,0,6791,2884
2022/03/16 06:07:41,3.6,56.1,48.9,30.8,48.5,52.0,1,1,1,0,0,1,1,0,6791,2885
2022/03/16 06:09:40,3.6,57.0,49.6,30.8,49.4,52.0,1,1,1,0,0,1,1,0,6791,2886
2022/03/16 06:11:39,3.6,57.4,50.0,30.8,50.1,52.0,1,1,1,0,0,1,1,0,6791,2888
2022/03/16 06:13:37,3.5,57.8,50.4,30.8,51.0,52.0,1,1,1,0,0,1,1,0,6791,2889
2022/03/16 06:15:36,3.5,58.5,51.3,30.8,51.9,52.0,1,1,1,0,0,1,1,0,6791,2890
2022/03/16 06:17:35,3.5,39.0,31.8,30.8,52.6,52.0,1,0,1,0,1,0,1,0,6792,2890
2022/03/16 06:19:35,3.5,33.5,28.5,30.8,52.9,52.0,1,0,1,0,1,0,1,0,6793,2890
2022/03/16 06:21:34,3.4,32.4,27.7,30.8,53.0,52.0,1,0,1,0,1,0,1,0,6793,2890
2022/03/16 06:23:33,3.4,32.0,27.5,30.8,53.0,52.0,1,0,1,0,1,0,1,0,6794,2890
2022/03/16 06:25:30,3.4,31.7,27.4,30.8,52.9,52.0,1,0,1,0,1,0,1,0,6795,2890
2022/03/16 06:27:29,3.4,31.7,27.6,30.8,52.8,52.0,1,0,1,0,1,0,1,0,6796,2890
2022/03/16 06:29:28,3.4,31.8,27.7,30.8,52.7,52.0,1,0,1,0,1,0,1,0,6797,2890
2022/03/16 06:31:27,3.4,31.8,27.8,30.8,52.6,52.0,1,0,1,0,1,0,1,0,6797,2890
2022/03/16 06:33:27,3.4,31.8,27.8,30.8,52.4,52.0,1,0,1,0,1,0,1,0,6798,2890
2022/03/16 06:35:26,3.4,31.8,27.9,30.8,52.3,52.0,1,0,1,0,1,0,1,0,6799,2890
2022/03/16 06:37:24,3.4,31.9,28.0,30.8,52.2,52.0,1,0,1,0,1,0,1,0,6800,2890
2022/03/16 06:39:22,3.4,32.0,28.1,30.8,52.1,52.0,1,0,1,0,1,0,1,0,6801,2890
2022/03/16 06:41:21,3.4,32.0,28.1,30.8,52.0,52.0,1,0,1,0,1,0,1,0,6801,2890
2022/03/16 06:43:20,3.3,32.1,28.2,30.8,51.9,52.0,1,0,1,0,1,0,1,0,6802,2890
2022/03/16 06:45:20,3.3,34.0,28.3,30.8,51.7,52.0,1,1,1,0,1,0,1,0,6803,2890
2022/03/16 06:47:19,3.3,34.3,28.4,30.8,51.6,52.0,1,1,1,0,1,0,1,0,6805,2890
2022/03/16 06:49:18,3.3,34.5,28.5,30.8,51.5,52.0,1,1,1,0,1,0,1,0,6806,2890
2022/03/16 06:51:17,3.3,34.6,28.6,30.8,51.3,52.0,1,1,1,0,1,0,1,0,6808,2890
2022/03/16 06:53:15,3.2,34.9,28.9,30.8,51.2,52.0,1,1,1,0,1,0,1,0,6809,2890
2022/03/16 06:55:13,3.2,35.3,29.2,30.8,51.1,52.0,1,1,1,0,1,0,1,0,6810,2890
2022/03/16 06:57:13,3.2,35.7,29.5,30.8,50.9,52.0,1,1,1,0,1,0,1,0,6812,2890
2022/03/16 06:59:11,3.2,35.7,29.5,30.8,50.8,52.0,1,1,1,0,1,0,1,0,6813,2890
2022/03/16 07:01:10,3.2,36.4,30.1,30.8,50.7,52.0,1,1,1,0,1,0,1,0,6814,2890
2022/03/16 07:03:09,3.2,36.9,30.6,30.8,50.5,52.0,1,1,1,0,1,0,1,0,6816,2890
2022/03/16 07:05:08,3.2,37.4,31.1,30.8,50.4,52.0,1,1,1,0,1,0,1,0,6817,2890
2022/03/16 07:07:06,3.2,37.9,31.7,30.8,50.3,52.0,1,1,1,0,1,0,1,0,6819,2890
2022/03/16 07:09:04,3.2,38.3,32.1,30.8,50.1,52.0,1,1,1,0,1,0,1,0,6820,2890
2022/03/16 07:11:03,3.2,38.8,32.6,30.8,50.0,52.0,1,1,1,0,1,0,1,0,6821,2890
2022/03/16 07:13:02,3.2,37.9,32.9,30.8,49.9,52.0,0,1,1,0,1,0,1,0,6822,2890
2022/03/16 07:15:01,3.2,37.9,33.1,30.8,49.8,52.0,0,1,1,0,1,0,1,0,6823,2890
2022/03/16 07:17:00,3.2,37.9,33.2,30.8,49.7,52.0,0,1,1,0,1,0,1,0,6824,2890
2022/03/16 07:18:59,3.2,38.1,33.5,30.8,49.6,52.0,0,1,1,0,1,0,1,0,6825,2890
2022/03/16 07:20:58,3.2,38.1,33.5,30.8,49.5,52.0,0,1,1,0,1,0,1,0,6825,2890
2022/03/16 07:22:58,3.2,38.2,33.7,30.8,49.3,52.0,0,1,1,0,1,0,1,0,6826,2890
2022/03/16 07:24:57,3.2,38.4,33.8,30.8,49.3,52.0,0,1,1,0,1,0,1,0,6827,2890
2022/03/16 07:26:56,3.4,38.3,33.8,30.8,49.2,52.0,0,0,1,0,1,0,1,0,6828,2890
2022/03/16 07:28:55,3.4,35.7,34.0,30.8,49.0,52.0,0,0,0,0,1,0,1,0,6828,2890
2022/03/16 07:31:54,3.4,35.8,33.9,30.8,48.9,52.0,0,0,0,0,1,0,0,0,6828,2890
2022/03/16 07:33:53,3.4,35.3,33.4,30.8,48.8,52.0,0,0,0,0,1,0,0,0,6828,2890
2022/03/16 07:35:51,3.4,34.9,33.1,30.8,48.8,52.0,0,0,0,0,1,0,0,0,6828,2890
2022/03/16 07:37:50,3.5,34.7,32.8,30.8,48.6,52.0,0,0,0,0,1,0,0,0,6828,2890
2022/03/16 07:39:49,3.5,34.5,32.6,30.8,48.6,52.0,0,0,0,0,1,0,0,0,6828,2890
2022/03/16 07:41:48,3.5,34.4,32.4,30.8,48.5,52.0,0,0,0,0,1,0,0,0,6828,2890
2022/03/16 07:43:46,3.6,34.2,32.1,30.8,48.3,52.0,0,0,0,0,1,0,0,0,6828,2890
2022/03/16 07:45:45,3.6,34.1,31.9,30.8,48.2,52.0,0,0,0,0,1,0,0,0,6828,2890
2022/03/16 07:47:41,3.6,34.0,31.6,30.8,48.1,52.0,0,0,0,0,1,0,0,0,6828,2890
2022/03/16 07:49:39,3.7,33.9,31.3,30.8,48.0,52.0,0,0,0,0,1,0,0,0,6828,2890
2022/03/16 07:51:39,3.7,33.8,31.0,30.8,47.9,52.0,0,0,0,0,1,0,0,0,6828,2890
2022/03/16 07:53:37,3.8,33.7,30.8,30.8,47.8,52.0,0,0,0,0,1,0,0,0,6828,2890
2022/03/16 07:55:35,3.8,33.6,30.5,30.8,47.6,52.0,0,0,0,0,1,0,0,0,6828,2890
2022/03/16 07:57:33,3.9,33.6,30.2,30.8,47.5,52.0,0,0,0,0,1,0,0,0,6828,2890
2022/03/16 07:59:33,3.9,33.5,30.0,30.8,47.4,52.0,0,0,0,0,1,0,0,0,6828,2890
2022/03/16 08:01:32,4.0,33.4,29.8,30.3,47.3,52.0,0,0,0,0,1,0,0,0,6828,2890
2022/03/16 08:03:30,4.1,33.3,29.6,30.3,47.2,52.0,0,0,0,0,1,0,0,0,6828,2890
2022/03/16 08:05:30,4.2,33.3,29.4,30.3,47.1,52.0,0,0,0,0,1,0,0,0,6828,2890
2022/03/16 08:07:29,4.2,33.2,29.2,30.3,46.9,52.0,0,0,0,0,1,0,0,0,6828,2890
2022/03/16 08:09:27,4.3,33.2,29.0,30.3,46.8,52.0,0,0,0,0,1,0,0,0,6828,2890
2022/03/16 08:11:25,4.4,33.1,28.9,30.3,46.7,52.0,0,0,0,0,1,0,0,0,6828,2890
2022/03/16 08:13:25,4.4,33.1,28.7,30.3,46.5,52.0,0,0,0,0,1,0,0,0,6828,2890
2022/03/16 08:15:24,4.5,33.0,28.5,30.3,46.4,52.0,0,0,0,0,1,0,0,0,6828,2890
2022/03/16 08:17:23,4.6,33.0,28.4,30.3,46.3,52.0,0,0,0,0,1,0,0,0,6828,2890
2022/03/16 08:19:23,4.6,32.9,28.2,30.3,46.1,52.0,0,0,0,0,1,0,0,0,6828,2890
2022/03/16 08:21:22,4.7,32.9,28.1,30.3,46.0,52.0,0,0,0,0,1,0,0,0,6828,2890
2022/03/16 08:23:20,4.8,32.8,27.9,30.3,45.9,52.0,0,0,0,0,1,0,0,0,6828,2890
2022/03/16 08:25:17,4.8,32.8,27.8,30.3,45.7,52.0,0,0,0,0,1,0,0,0,6828,2890
2022/03/16 08:27:16,4.9,32.8,27.7,30.3,45.5,52.0,0,0,0,0,1,0,0,0,6828,2890
2022/03/16 08:29:16,5.0,32.7,27.5,29.7,45.4,52.0,0,0,0,0,1,0,0,0,6828,2890
2022/03/16 08:31:15,5.1,32.7,27.4,29.7,45.3,52.0,0,0,0,0,1,0,0,0,6828,2890
2022/03/16 08:33:13,5.1,32.6,27.2,29.7,45.1,52.0,0,0,0,0,1,0,0,0,6828,2890
2022/03/16 08:35:12,5.2,32.6,27.1,29.7,45.0,52.0,0,0,0,0,1,0,0,0,6828,2890
2022/03/16 08:37:11,5.3,32.5,27.0,29.7,44.9,52.0,0,0,0,0,1,0,0,0,6828,2890
2022/03/16 08:39:10,5.3,32.5,26.8,29.7,44.8,52.0,0,0,0,0,1,0,0,0,6828,2890
2022/03/16 08:41:08,5.4,32.4,26.7,29.7,44.7,52.0,0,0,0,0,1,0,0,0,6828,2890
2022/03/16 08:43:07,5.4,32.3,26.6,29.7,44.6,52.0,0,0,0,0,1,0,0,0,6828,2890
2022/03/16 08:45:06,5.4,32.3,26.5,29.7,44.5,52.0,0,0,0,0,1,0,0,0,6828,2890
2022/03/16 08:47:05,5.5,32.2,26.4,29.7,44.4,52.0,0,0,0,0,1,0,0,0,6828,2890
2022/03/16 08:49:04,5.5,32.2,26.2,29.7,44.2,52.0,0,0,0,0,1,0,0,0,6828,2890
2022/03/16 08:51:01,5.6,32.1,26.1,29.7,44.1,52.0,0,0,0,0,1,0,0,0,6828,2890
2022/03/16 08:53:00,5.6,32.1,26.0,29.7,44.0,52.0,0,0,1,0,1,1,1,0,6828,2890
2022/03/16 08:55:00,5.7,33.3,29.9,29.7,43.6,52.0,1,0,1,0,0,1,1,0,6828,2890
2022/03/16 08:56:59,5.8,34.9,31.8,29.7,42.4,52.0,1,0,1,0,0,1,1,0,6828,2891
2022/03/16 08:58:58,5.9,37.1,33.2,29.7,41.6,52.0,1,0,1,0,0,1,1,0,6828,2891
2022/03/16 09:00:56,5.9,38.5,34.4,29.7,41.4,52.0,1,0,1,0,0,1,1,0,6828,2892
2022/03/16 09:02:55,6.1,39.5,35.4,29.1,41.5,52.0,1,0,1,0,0,1,1,0,6828,2893
2022/03/16 09:04:54,6.2,40.2,36.0,29.1,41.6,52.0,1,0,1,0,0,1,1,0,6828,2894
2022/03/16 09:07:53,6.3,40.8,36.6,29.1,41.8,52.0,1,0,1,0,0,1,1,0,6828,2895
2022/03/16 09:09:51,6.4,41.5,37.2,29.1,41.9,52.0,1,0,1,0,0,1,1,0,6828,2895
2022/03/16 09:11:50,6.5,42.2,37.9,29.1,42.0,52.0,1,0,1,0,0,1,1,0,6828,2896
2022/03/16 09:13:49,6.5,42.9,38.5,29.1,42.1,52.0,1,0,1,0,0,1,1,0,6828,2897
2022/03/16 09:15:48,6.6,45.4,39.1,29.1,42.2,52.0,1,1,1,0,0,1,1,0,6828,2898
2022/03/16 09:17:47,6.7,47.8,41.3,29.1,42.5,52.0,1,1,1,0,0,1,1,0,6828,2899
2022/03/16 09:19:47,6.8,49.3,42.7,29.1,43.1,52.0,1,1,1,0,0,1,1,0,6828,2900
2022/03/16 09:21:46,6.9,50.6,43.8,29.1,43.7,52.0,1,1,1,0,0,1,1,0,6828,2902
2022/03/16 09:23:44,7.0,51.9,44.7,28.6,44.3,52.0,1,1,1,0,0,1,1,0,6828,2903
2022/03/16 09:25:44,7.1,52.9,45.7,28.6,45.1,52.0,1,1,1,0,0,1,1,0,6828,2904
2022/03/16 09:27:43,7.2,53.8,46.7,28.6,45.9,52.0,1,1,1,0,0,1,1,0,6828,2905
2022/03/16 09:29:43,7.3,54.6,47.5,28.6,46.8,52.0,1,1,1,0,0,1,1,0,6828,2907
2022/03/16 09:31:42,7.5,55.5,48.4,28.6,47.8,52.0,1,1,1,0,0,1,1,0,6828,2908
2022/03/16 09:33:42,7.6,56.4,49.1,28.6,48.6,52.0,1,1,1,0,0,1,1,0,6828,2909
2022/03/16 09:35:41,7.7,57.3,49.9,28.6,49.5,52.0,1,1,1,0,0,1,1,0,6828,2910
2022/03/16 09:37:41,7.9,58.1,50.8,28.6,50.3,52.0,1,1,1,0,0,1,1,0,6828,2912
2022/03/16 09:39:40,8.0,58.9,51.8,28.0,51.3,52.0,1,1,1,0,0,1,1,0,6828,2913
2022/03/16 09:41:39,8.1,58.4,52.2,28.0,52.2,52.0,0,1,1,0,1,0,1,0,6828,2914
2022/03/16 09:43:38,8.2,35.6,29.9,28.0,53.0,52.0,0,1,1,0,1,0,1,0,6829,2914
2022/03/16 09:45:37,8.3,33.2,28.3,28.0,53.3,52.0,0,1,1,0,1,0,1,0,6829,2914
2022/03/16 09:47:36,8.3,32.2,27.5,28.0,53.4,52.0,0,1,1,0,1,0,1,0,6830,2914
2022/03/16 09:49:33,8.4,31.7,27.2,28.0,53.4,52.0,0,1,1,0,1,0,1,0,6831,2914
2022/03/16 09:51:32,8.5,31.6,27.4,28.0,53.3,52.0,0,1,1,0,1,0,1,0,6832,2914
2022/03/16 09:53:32,8.5,32.0,27.7,28.0,53.2,52.0,0,1,1,0,1,0,1,0,6833,2914
2022/03/16 09:55:31,8.6,32.3,28.2,28.0,53.1,52.0,0,1,1,0,1,0,1,0,6833,2914
2022/03/16 09:57:30,8.6,32.5,28.3,28.0,53.0,52.0,0,1,1,0,1,0,1,0,6834,2914
2022/03/16 09:59:29,8.7,32.5,28.5,28.0,52.9,52.0,0,1,1,0,1,0,1,0,6835,2914
2022/03/16 10:01:27,8.7,32.6,28.5,28.0,52.7,52.0,0,1,1,0,1,0,1,0,6836,2914
2022/03/16 10:03:26,8.7,32.6,28.6,28.0,52.6,52.0,0,1,1,0,1,0,1,0,6837,2914
2022/03/16 10:05:23,8.8,32.7,28.7,28.0,52.5,52.0,0,1,1,0,1,0,1,0,6837,2914
2022/03/16 10:07:22,8.8,32.9,28.9,28.0,52.4,52.0,0,1,1,0,1,0,1,0,6838,2914
2022/03/16 10:09:22,8.9,33.1,29.1,28.0,52.3,52.0,0,1,1,0,1,0,1,0,6839,2914
2022/03/16 10:11:22,8.9,33.3,29.3,28.0,52.2,52.0,0,1,1,0,1,0,1,0,6840,2914
2022/03/16 10:13:21,9.0,31.3,29.5,27.4,52.1,52.0,0,0,0,0,1,0,1,0,6840,2914
2022/03/16 10:15:19,9.1,31.3,29.8,27.4,52.0,52.0,0,0,0,0,1,0,0,0,6840,2914
2022/03/16 10:17:15,9.1,31.1,29.4,27.4,51.9,52.0,0,0,0,0,1,0,0,0,6840,2914
2022/03/16 10:19:14,9.2,30.8,29.1,27.4,51.9,52.0,0,0,0,0,1,0,0,0,6840,2914
2022/03/16 10:21:12,9.2,30.6,28.9,27.4,51.8,52.0,0,0,0,0,1,0,0,0,6840,2914
2022/03/16 10:23:10,9.3,30.4,28.8,27.4,51.7,52.0,0,0,0,0,1,0,0,0,6840,2914
2022/03/16 10:25:10,9.4,30.3,28.6,27.4,51.6,52.0,0,0,0,0,1,0,0,0,6840,2914
2022/03/16 10:27:09,9.4,30.2,28.4,27.4,51.5,52.0,0,0,0,0,1,0,0,0,6840,2914
2022/03/16 10:29:08,9.5,30.0,28.3,27.4,51.4,52.0,0,0,0,0,1,0,0,0,6840,2914
2022/03/16 10:31:07,9.6,29.9,28.1,27.4,51.3,52.0,0,0,0,0,1,0,0,0,6840,2914
2022/03/16 10:33:06,9.7,29.9,28.0,27.4,51.2,52.0,0,0,0,0,1,0,0,0,6840,2914
2022/03/16 10:35:05,9.8,29.8,27.9,27.4,51.2,52.0,0,0,0,0,1,0,0,0,6840,2914
2022/03/16 10:37:03,9.8,29.7,27.7,27.4,51.1,52.0,0,0,0,0,1,0,0,0,6840,2914
2022/03/16 10:39:01,9.9,29.6,27.6,27.4,51.0,52.0,0,0,0,0,1,0,0,0,6840,2914
2022/03/16 10:41:00,9.9,29.6,27.5,27.4,50.9,52.0,0,0,0,0,1,0,0,0,6840,2914
2022/03/16 10:43:00,10.0,29.5,27.3,26.8,50.8,52.0,0,0,0,0,1,0,0,0,6840,2914
2022/03/16 10:44:59,10.0,29.4,27.2,26.8,50.7,52.0,0,0,0,0,1,0,0,0,6840,2914
2022/03/16 10:46:59,10.1,29.4,27.1,26.8,50.7,52.0,0,0,0,0,1,0,0,0,6840,2914
2022/03/16 10:48:57,10.1,29.3,27.0,26.8,50.6,52.0,0,0,0,0,1,0,0,0,6840,2914
2022/03/16 10:50:57,10.1,40.8,37.5,26.8,50.4,52.0,1,0,1,0,0,1,1,1,6840,2914
2022/03/16 10:52:56,10.2,44.8,43.0,26.8,50.1,52.0,1,0,1,0,0,1,1,1,6840,2915
2022/03/16 10:55:54,10.2,47.9,44.8,26.8,50.0,52.0,1,0,1,0,0,1,1,1,6840,2916
2022/03/16 10:57:53,10.3,50.5,46.8,26.8,50.1,52.0,1,0,1,0,0,1,1,1,6840,2917
2022/03/16 10:59:52,10.3,52.2,48.1,26.8,50.7,52.0,1,0,1,0,0,1,1,1,6840,2917
2022/03/16 11:01:51,10.3,53.4,49.0,26.8,51.2,52.0,1,0,1,0,0,1,1,1,6840,2918
2022/03/16 11:03:51,10.4,54.3,49.7,26.8,51.9,52.0,1,0,1,0,0,1,1,1,6840,2918
2022/03/16 11:05:49,10.5,55.0,50.4,26.8,52.5,52.0,1,0,1,0,0,1,1,1,6840,2919
2022/03/16 11:07:48,10.6,55.8,51.3,26.8,53.2,52.0,1,0,1,0,0,1,1,1,6840,2920
2022/03/16 11:09:47,10.7,56.6,52.0,26.8,53.8,52.0,1,0,1,0,0,1,1,1,6840,2920
2022/03/16 11:11:47,10.8,59.0,52.6,26.8,54.4,52.0,1,1,1,0,0,1,1,1,6840,2921
2022/03/16 11:13:45,10.8,58.7,53.9,26.8,54.9,52.0,0,1,1,0,0,1,1,1,6840,2922
2022/03/16 11:15:44,10.9,58.8,54.0,26.8,55.4,52.0,0,1,1,0,0,1,1,1,6840,2923
2022/03/16 11:17:44,11.0,59.2,54.3,26.1,56.0,52.0,0,1,1,0,0,1,1,1,6840,2923
2022/03/16 11:19:42,11.1,59.6,54.7,26.1,56.4,52.0,0,1,1,0,0,1,1,1,6840,2924
2022/03/16 11:21:41,11.1,60.0,55.1,26.1,56.9,52.0,0,1,1,0,0,1,1,1,6840,2924
2022/03/16 11:23:40,11.2,60.4,55.5,26.1,57.4,52.0,0,1,1,0,0,1,1,1,6840,2925
2022/03/16 11:25:38,11.3,60.9,55.9,26.1,57.8,52.0,0,1,1,0,0,1,1,1,6840,2926
2022/03/16 11:27:37,11.3,61.4,56.3,26.1,58.3,52.0,0,1,1,0,0,1,1,1,6840,2926
2022/03/16 11:29:36,11.4,42.8,35.4,26.1,58.7,52.0,0,0,0,0,1,0,1,1,6840,2926
2022/03/16 11:31:36,11.4,32.3,29.6,26.1,58.9,52.0,0,0,0,0,1,0,0,1,6840,2926
2022/03/16 11:33:34,11.5,31.7,29.0,26.1,58.9,52.0,0,0,0,0,1,0,0,1,6840,2926
2022/03/16 11:35:34,11.5,31.2,28.6,26.1,58.9,52.0,0,0,0,0,1,0,0,1,6840,2926
2022/03/16 11:37:34,11.6,30.7,28.3,26.1,58.8,52.0,0,0,0,0,1,0,0,1,6840,2926
2022/03/16 11:39:32,11.6,30.3,28.0,26.1,58.7,52.0,0,0,0,0,1,0,0,1,6840,2926
2022/03/16 11:41:32,11.7,30.0,27.7,26.1,58.6,52.0,0,0,0,0,1,0,0,1,6840,2926
2022/03/16 11:43:31,11.7,29.8,27.4,26.1,58.5,52.0,0,0,0,0,1,0,0,1,6840,2926
2022/03/16 11:45:30,11.8,29.7,27.2,26.1,58.4,52.0,0,0,0,0,1,0,0,1,6840,2926
2022/03/16 11:47:29,11.8,29.5,27.0,26.1,58.3,52.0,0,0,0,0,1,0,0,1,6840,2926
2022/03/16 11:49:29,11.9,29.4,26.9,26.1,58.2,52.0,0,0,0,0,1,0,0,1,6840,2926
2022/03/16 11:51:28,12.0,29.3,26.7,25.5,58.1,52.0,0,0,0,0,1,0,0,1,6840,2926
2022/03/16 11:53:26,12.1,29.2,26.6,25.5,58.0,52.0,0,0,0,0,1,0,0,1,6840,2926
2022/03/16 11:55:25,12.2,29.1,26.4,25.5,57.9,52.0,0,0,0,0,1,0,0,1,6840,2926
2022/03/16 11:57:24,12.2,29.0,26.3,25.5,57.9,52.0,0,0,0,0,1,0,0,1,6840,2926
2022/03/16 11:59:22,12.3,28.9,26.2,25.5,57.8,52.0,0,0,0,0,1,0,0,1,6840,2926
2022/03/16 12:01:22,12.3,28.9,26.1,25.5,57.7,52.0,0,0,0,0,1,0,0,1,6840,2926
2022/03/16 12:03:21,12.4,28.8,26.0,25.5,57.6,52.0,0,0,0,0,1,0,0,1,6840,2926
2022/03/16 12:05:18,12.4,28.7,25.9,25.5,57.5,52.0,0,0,0,0,1,0,0,1,6840,2926
2022/03/16 12:07:18,12.4,28.6,25.8,25.5,57.4,52.0,0,0,0,0,1,0,0,1,6840,2926
2022/03/16 12:09:16,12.5,28.6,25.7,25.5,57.3,52.0,0,0,0,0,1,0,0,1,6840,2926
2022/03/16 12:11:15,12.5,28.5,25.7,25.5,57.3,52.0,0,0,0,0,1,0,0,1,6840,2926
2022/03/16 12:13:13,12.6,28.4,25.6,25.5,57.2,52.0,0,0,0,0,1,0,0,1,6840,2926
2022/03/16 12:15:13,12.6,28.4,25.5,25.5,57.1,52.0,0,0,0,0,1,0,0,1,6840,2926
2022/03/16 12:17:10,12.7,28.3,25.4,25.5,57.0,52.0,0,0,0,0,1,0,0,1,6840,2926
2022/03/16 12:19:08,12.7,28.3,25.3,25.5,56.9,52.0,0,0,0,0,1,0,0,1,6840,2926
2022/03/16 12:21:06,12.7,28.2,25.2,25.5,56.8,52.0,0,0,0,0,1,0,0,1,6840,2926
2022/03/16 12:23:03,12.7,28.2,25.2,25.5,56.8,52.0,0,0,0,0,1,0,0,1,6840,2926
2022/03/16 12:25:01,12.8,28.1,25.1,25.5,56.7,52.0,0,0,0,0,1,0,0,1,6840,2926
2022/03/16 12:27:00,12.8,28.0,25.0,25.5,56.6,52.0,0,0,0,0,1,0,0,1,6840,2926
2022/03/16 12:29:00,12.8,28.0,24.9,25.5,56.5,52.0,0,0,0,0,1,0,0,1,6840,2926
2022/03/16 12:30:58,12.8,28.0,24.9,25.5,56.4,52.0,0,0,0,0,1,0,0,1,6840,2926
2022/03/16 12:32:57,12.8,27.9,24.8,25.5,56.3,52.0,0,0,0,0,1,0,0,1,6840,2926
2022/03/16 12:34:56,12.8,27.9,24.8,25.5,56.3,52.0,0,0,0,0,1,0,0,1,6840,2926
2022/03/16 12:37:54,12.8,27.8,24.7,25.5,56.2,52.0,0,0,0,0,1,0,0,1,6840,2926
2022/03/16 12:39:52,12.8,27.8,24.6,25.5,56.1,52.0,0,0,0,0,1,0,0,1,6840,2926
2022/03/16 12:41:51,12.8,27.7,24.6,25.5,56.0,52.0,0,0,0,0,1,0,0,1,6840,2926
2022/03/16 12:43:50,12.8,27.7,24.5,25.5,55.9,52.0,0,0,0,0,1,0,0,1,6840,2926
2022/03/16 12:45:48,12.8,27.6,24.5,25.5,55.8,52.0,0,0,0,0,1,0,0,1,6840,2926
2022/03/16 12:47:46,12.8,27.6,24.4,25.5,55.8,52.0,0,0,0,0,1,0,0,1,6840,2926
2022/03/16 12:49:45,12.8,27.6,24.4,25.5,55.7,52.0,0,0,0,0,1,0,0,1,6840,2926
2022/03/16 12:51:44,12.9,27.5,24.3,25.5,55.6,52.0,0,0,0,0,1,0,0,1,6840,2926
2022/03/16 12:53:44,12.9,27.5,24.3,25.5,55.5,52.0,0,0,0,0,1,0,0,1,6840,2926
2022/03/16 12:55:43,12.9,27.5,24.2,25.5,55.4,52.0,0,0,0,0,1,0,0,1,6840,2926
2022/03/16 12:57:42,12.9,27.4,24.2,25.5,55.3,52.0,0,0,0,0,1,0,0,1,6840,2926
2022/03/16 12:59:40,13.0,27.4,24.1,24.9,55.3,52.0,0,0,0,0,1,0,0,1,6840,2926
2022/03/16 13:01:40,13.0,27.4,24.1,24.9,55.2,52.0,0,0,0,0,1,0,0,1,6840,2926
2022/03/16 13:03:39,13.0,27.3,24.0,24.9,55.1,52.0,0,0,0,0,1,0,0,1,6840,2926
2022/03/16 13:05:37,13.0,27.3,24.0,24.9,55.0,52.0,0,0,0,0,1,0,0,1,6840,2926
2022/03/16 13:07:37,13.0,27.2,23.9,24.9,54.9,52.0,0,0,0,0,1,0,0,1,6840,2926
2022/03/16 13:09:35,13.0,27.2,23.9,24.9,54.9,52.0,0,0,0,0,1,0,0,1,6840,2926
2022/03/16 13:11:33,13.0,27.2,23.8,24.9,54.8,52.0,0,0,0,0,1,0,0,1,6840,2926
2022/03/16 13:13:31,13.0,27.1,23.8,24.9,54.7,52.0,0,0,0,0,1,0,0,1,6840,2926
2022/03/16 13:15:30,13.0,27.1,23.8,24.9,54.7,52.0,0,0,0,0,1,0,0,1,6840,2926
2022/03/16 13:17:28,13.0,27.1,23.7,24.9,54.6,52.0,0,0,0,0,1,0,0,1,6840,2926
2022/03/16 13:19:28,13.1,27.0,23.7,24.9,54.5,52.0,0,0,0,0,1,0,0,1,6840,2926
2022/03/16 13:21:26,13.1,27.0,23.6,24.9,54.4,52.0,0,0,0,0,1,0,0,1,6840,2926
2022/03/16 13:23:24,13.1,27.0,23.6,24.9,54.4,52.0,0,0,0,0,1,0,0,1,6840,2926
2022/03/16 13:25:23,13.1,27.0,23.6,24.9,54.3,52.0,0,0,0,0,1,0,0,1,6840,2926
2022/03/16 13:27:22,13.2,26.9,23.5,24.9,54.2,52.0,0,0,0,0,1,0,0,1,6840,2926
2022/03/16 13:29:20,13.2,26.9,23.5,24.9,54.1,52.0,0,0,0,0,1,0,0,1,6840,2926
2022/03/16 13:31:18,13.3,26.9,23.4,24.9,54.1,52.0,0,0,0,0,1,0,0,1,6840,2926
2022/03/16 13:33:17,13.3,26.8,23.4,24.9,54.0,52.0,0,0,0,0,1,0,0,1,6840,2926
2022/03/16 13:35:15,13.3,26.8,23.4,24.9,53.9,52.0,0,0,0,0,1,0,0,1,6840,2926
2022/03/16 13:37:15,13.4,26.8,23.3,24.9,53.8,52.0,0,0,0,0,1,0,0,1,6840,2926
2022/03/16 13:39:14,13.4,26.8,23.3,24.9,53.8,52.0,0,0,0,0,1,0,0,1,6840,2926
2022/03/16 13:41:13,13.5,26.7,23.3,24.9,53.7,52.0,0,0,0,0,1,0,0,1,6840,2926
2022/03/16 13:43:11,13.5,26.7,23.2,24.9,53.6,52.0,0,0,0,0,1,0,0,1,6840,2926
2022/03/16 13:45:09,13.5,26.7,23.2,24.9,53.5,52.0,0,0,0,0,1,0,0,1,6840,2926
2022/03/16 13:47:09,13.5,26.7,23.2,24.9,53.5,52.0,0,0,0,0,1,0,0,1,6840,2926
2022/03/16 13:49:08,13.5,26.6,23.1,24.9,53.4,52.0,0,0,0,0,1,0,0,1,6840,2926
2022/03/16 13:51:06,13.6,26.6,23.1,24.9,53.3,52.0,0,0,0,0,1,0,0,1,6840,2926
2022/03/16 13:53:05,13.6,26.6,23.1,24.9,53.2,52.0,0,0,0,0,1,0,0,1,6840,2926
2022/03/16 13:55:04,13.6,26.6,23.1,24.9,53.2,52.0,0,0,0,0,1,0,0,1,6840,2926
2022/03/16 13:57:02,13.6,26.5,23.0,24.9,53.1,52.0,0,0,0,0,1,0,0,1,6840,2926
2022/03/16 13:59:00,13.6,26.5,23.0,24.9,53.0,52.0,0,0,0,0,1,0,0,1,6840,2926
2022/03/16 14:00:59,13.6,26.5,23.0,24.9,52.9,52.0,0,0,0,0,1,0,0,1,6840,2926
2022/03/16 14:02:58,13.7,26.5,22.9,24.9,52.9,52.0,0,0,0,0,1,0,0,1,6840,2926
2022/03/16 14:04:57,13.7,26.4,22.9,24.9,52.8,52.0,0,0,0,0,1,0,0,1,6840,2926
2022/03/16 14:06:56,13.7,26.4,22.9,24.9,52.7,52.0,0,0,0,0,1,0,0,1,6840,2926
2022/03/16 14:09:54,13.7,26.4,22.9,24.9,52.6,52.0,0,0,0,0,1,0,0,1,6840,2926
2022/03/16 14:11:52,13.8,26.4,22.8,24.9,52.6,52.0,0,0,0,0,1,0,0,1,6840,2926
2022/03/16 14:13:51,13.8,26.3,22.8,24.9,52.5,52.0,0,0,0,0,1,0,0,1,6840,2926
2022/03/16 14:15:50,13.8,26.3,22.8,24.9,52.4,52.0,0,0,0,0,1,0,0,1,6840,2926
2022/03/16 14:17:49,13.9,26.3,22.7,24.9,52.3,52.0,0,0,0,0,1,0,0,1,6840,2926
2022/03/16 14:19:49,13.9,26.3,22.7,24.9,52.3,52.0,0,0,0,0,1,0,0,1,6840,2926
2022/03/16 14:21:48,14.0,26.2,22.7,24.2,52.2,52.0,0,0,0,0,1,0,0,1,6840,2926
2022/03/16 14:23:46,14.0,26.2,22.7,24.2,52.1,52.0,0,0,0,0,1,0,0,1,6840,2926
2022/03/16 14:25:45,14.0,26.2,22.6,24.2,52.0,52.0,0,0,0,0,1,0,0,1,6840,2926
2022/03/16 14:27:43,14.1,26.2,22.6,24.2,52.0,52.0,0,0,0,0,1,0,0,1,6840,2926
2022/03/16 14:29:41,14.1,26.2,22.6,24.2,51.9,52.0,0,0,0,0,1,0,0,1,6840,2926
2022/03/16 14:31:37,14.1,26.1,22.6,24.2,51.8,52.0,0,0,0,0,1,0,0,1,6840,2926
2022/03/16 14:33:37,14.1,26.1,22.6,24.2,51.7,52.0,0,0,0,0,1,0,0,1,6840,2926
2022/03/16 14:35:36,14.1,26.1,22.5,24.2,51.7,52.0,0,0,0,0,1,0,0,1,6840,2926
2022/03/16 14:37:34,14.1,26.1,22.5,24.2,51.6,52.0,0,0,0,0,1,0,0,1,6840,2926
2022/03/16 14:39:33,14.1,26.0,22.5,24.2,51.5,52.0,0,0,0,0,1,0,0,1,6840,2926
2022/03/16 14:41:32,14.2,26.0,22.5,24.2,51.4,52.0,0,0,0,0,1,0,0,1,6840,2926
2022/03/16 14:43:31,14.2,26.0,22.4,24.2,51.3,52.0,0,0,0,0,1,0,0,1,6840,2926
2022/03/16 14:45:27,14.2,26.0,22.4,24.2,51.3,52.0,0,0,0,0,1,0,0,1,6840,2926
2022/03/16 14:47:26,14.2,26.0,22.4,24.2,51.2,52.0,0,0,0,0,1,0,0,1,6840,2926
2022/03/16 14:49:26,14.2,25.9,22.4,24.2,51.1,52.0,0,0,0,0,1,0,0,1,6840,2926
2022/03/16 14:51:26,14.2,25.9,22.4,24.2,51.0,52.0,0,0,0,0,1,0,0,0,6840,2926
2022/03/16 14:53:25,14.2,25.9,22.3,24.2,51.0,52.0,0,0,0,0,1,0,0,0,6840,2926
2022/03/16 14:55:24,14.2,25.9,22.3,24.2,50.9,52.0,0,0,0,0,1,0,0,0,6840,2926
2022/03/16 14:57:23,14.2,25.8,22.3,24.2,50.8,52.0,0,0,0,0,1,0,0,0,6840,2926
2022/03/16 14:59:22,14.2,25.8,22.3,24.2,50.7,52.0,0,0,0,0,1,0,0,0,6840,2926
2022/03/16 15:01:20,14.2,25.8,22.3,24.2,50.6,52.0,0,0,0,0,1,0,0,0,6840,2926
2022/03/16 15:03:19,14.2,25.8,22.2,24.2,50.6,52.0,0,0,0,0,1,0,0,0,6840,2926
2022/03/16 15:05:17,14.2,25.7,22.2,24.2,50.5,52.0,0,0,0,0,1,0,0,0,6840,2926
2022/03/16 15:07:16,14.2,25.7,22.2,24.2,50.4,52.0,0,0,0,0,1,0,0,0,6840,2926
2022/03/16 15:09:16,14.2,25.7,22.2,24.2,50.3,52.0,0,0,0,0,1,0,0,0,6840,2926
2022/03/16 15:11:14,14.2,25.7,22.2,24.2,50.3,52.0,0,0,0,0,1,0,0,0,6840,2926
2022/03/16 15:13:13,14.2,25.7,22.2,24.2,50.2,52.0,0,0,0,0,1,0,0,0,6840,2926
2022/03/16 15:15:12,14.2,25.6,22.1,24.2,50.1,52.0,0,0,0,0,1,0,0,0,6840,2926
2022/03/16 15:17:10,14.2,25.6,22.1,24.2,50.0,52.0,0,0,0,0,1,0,0,0,6840,2926
2022/03/16 15:19:10,14.2,25.6,22.1,24.2,50.0,52.0,0,0,0,0,1,0,0,0,6840,2926
2022/03/16 15:21:08,14.2,25.6,22.1,24.2,49.9,52.0,0,0,0,0,1,0,0,0,6840,2926
2022/03/16 15:23:07,14.2,25.5,22.1,24.2,49.8,52.0,0,0,0,0,1,0,0,0,6840,2926
2022/03/16 15:25:06,14.2,25.5,22.1,24.2,49.8,52.0,0,0,0,0,1,0,0,0,6840,2926
2022/03/16 15:27:05,14.2,25.5,22.0,24.2,49.7,52.0,0,0,0,0,1,0,0,0,6840,2926
2022/03/16 15:29:04,14.2,25.5,22.0,24.2,49.6,52.0,0,0,0,0,1,0,0,0,6840,2926
2022/03/16 15:31:03,14.2,25.4,22.0,24.2,49.6,52.0,0,0,0,0,1,0,0,0,6840,2926
2022/03/16 15:33:02,14.2,25.4,22.0,24.2,49.5,52.0,0,0,0,0,1,0,0,0,6840,2926
2022/03/16 15:35:00,14.2,25.4,22.0,24.2,49.5,52.0,0,0,0,0,1,0,0,0,6840,2926
2022/03/16 15:36:59,14.2,25.4,22.0,24.2,49.4,52.0,0,0,0,0,1,0,0,0,6840,2926
2022/03/16 15:38:59,14.2,25.4,21.9,24.2,49.3,52.0,0,0,0,0,1,0,0,0,6840,2926
2022/03/16 15:40:58,14.2,25.3,21.9,24.2,49.3,52.0,0,0,0,0,1,0,0,0,6840,2926
2022/03/16 15:42:58,14.2,25.3,21.9,24.2,49.2,52.0,0,0,0,0,1,0,0,0,6840,2926
2022/03/16 15:44:57,14.2,25.3,21.9,24.2,49.1,52.0,0,0,0,0,1,0,0,0,6840,2926
2022/03/16 15:46:56,14.2,25.3,21.9,24.2,49.1,52.0,0,0,0,0,1,0,0,0,6840,2926
2022/03/16 15:48:55,14.2,25.2,21.9,24.2,49.0,52.0,0,0,0,0,1,0,0,0,6840,2926
2022/03/16 15:51:55,14.2,25.2,21.8,24.2,49.0,52.0,0,0,0,0,1,0,0,0,6840,2926
2022/03/16 15:53:53,14.2,25.2,21.8,24.2,48.9,52.0,0,0,0,0,1,0,0,0,6840,2926
2022/03/16 15:55:51,14.2,25.2,21.8,24.2,48.8,52.0,0,0,0,0,1,0,0,0,6840,2926
2022/03/16 15:57:49,14.2,25.2,21.8,24.2,48.8,52.0,0,0,0,0,1,0,0,0,6840,2926
2022/03/16 15:59:48,14.2,25.1,21.8,24.2,48.7,52.0,0,0,0,0,1,0,0,0,6840,2926
2022/03/16 16:01:47,14.2,25.1,21.8,24.2,48.6,52.0,0,0,0,0,1,0,0,0,6840,2926
2022/03/16 16:03:46,14.2,25.1,21.8,24.2,48.6,52.0,0,0,0,0,1,0,0,0,6840,2926
2022/03/16 16:05:44,14.2,25.1,21.7,24.2,48.5,52.0,0,0,0,0,1,0,0,0,6840,2926
2022/03/16 16:07:40,14.2,25.0,21.7,24.2,48.5,52.0,0,0,0,0,1,0,0,0,6840,2926
2022/03/16 16:09:38,14.2,25.0,21.7,24.2,48.4,52.0,0,0,0,0,1,0,0,0,6840,2926
2022/03/16 16:11:36,14.2,25.0,21.7,24.2,48.3,52.0,0,0,0,0,1,0,0,0,6840,2926
2022/03/16 16:13:35,14.2,25.0,21.7,24.2,48.2,52.0,0,0,0,0,1,0,0,0,6840,2926
2022/03/16 16:15:34,14.1,25.0,21.7,24.2,48.2,52.0,0,0,0,0,1,0,0,0,6840,2926
2022/03/16 16:17:32,14.1,25.0,21.7,24.2,48.1,52.0,0,0,0,0,1,0,0,0,6840,2926
2022/03/16 16:19:31,14.1,24.9,21.6,24.2,48.0,52.0,0,0,0,0,1,0,0,0,6840,2926
2022/03/16 16:21:30,14.1,24.9,21.6,24.2,48.0,52.0,0,0,0,0,1,0,0,0,6840,2926
2022/03/16 16:23:29,14.1,24.9,21.6,24.2,47.9,52.0,0,0,0,0,1,0,0,0,6840,2926
2022/03/16 16:25:27,14.0,24.9,21.6,24.2,47.9,52.0,0,0,0,0,1,0,0,0,6840,2926
2022/03/16 16:27:23,14.0,24.9,21.6,24.2,47.8,52.0,0,0,0,0,1,0,0,0,6840,2926
2022/03/16 16:29:22,14.0,24.8,21.6,24.2,47.7,52.0,0,0,0,0,1,0,0,0,6840,2926
2022/03/16 16:31:20,14.0,24.8,21.6,24.2,47.7,52.0,0,0,0,0,1,0,0,0,6840,2926
2022/03/16 16:33:19,14.0,24.8,21.5,24.2,47.6,52.0,0,0,0,0,1,0,0,0,6840,2926
2022/03/16 16:35:18,13.9,24.8,21.5,24.9,47.5,52.0,0,0,0,0,1,0,0,0,6840,2926
2022/03/16 16:37:17,13.9,24.8,21.5,24.9,47.5,52.0,0,0,0,0,1,0,0,0,6840,2926
2022/03/16 16:39:15,13.9,24.7,21.5,24.9,47.4,52.0,0,0,0,0,1,0,0,0,6840,2926
2022/03/16 16:41:14,13.9,24.7,21.5,24.9,47.3,52.0,0,0,0,0,1,0,0,0,6840,2926
2022/03/16 16:43:13,13.9,24.7,21.5,24.9,47.3,52.0,0,0,0,0,1,0,0,0,6840,2926
2022/03/16 16:45:12,13.9,24.7,21.5,24.9,47.2,52.0,0,0,0,0,1,0,0,0,6840,2926
2022/03/16 16:47:11,13.9,24.7,21.5,24.9,47.1,52.0,0,0,0,0,1,0,0,0,6840,2926
2022/03/16 16:49:09,13.8,24.7,21.4,24.9,47.1,52.0,0,0,0,0,1,0,0,0,6840,2926
2022/03/16 16:51:09,13.8,24.6,21.4,24.9,47.0,52.0,0,0,0,0,1,0,0,0,6840,2926
2022/03/16 16:53:08,13.8,24.6,21.4,24.9,46.9,52.0,0,0,0,0,1,0,0,0,6840,2926
2022/03/16 16:55:07,13.8,24.6,21.4,24.9,46.9,52.0,0,0,0,0,1,0,0,0,6840,2926
2022/03/16 16:57:05,13.8,24.6,21.4,24.9,46.8,52.0,0,0,0,0,1,0,0,0,6840,2926
2022/03/16 16:59:03,13.8,24.6,21.4,24.9,46.7,52.0,0,0,0,0,1,0,0,0,6840,2926
2022/03/16 17:01:02,13.7,24.6,21.4,24.9,46.7,52.0,0,0,0,0,1,0,0,0,6840,2926
2022/03/16 17:03:01,13.7,24.5,21.4,24.9,46.6,52.0,0,0,0,0,1,0,0,0,6840,2926
2022/03/16 17:05:01,13.7,24.5,21.3,24.9,46.5,52.0,0,0,0,0,1,0,0,0,6840,2926
2022/03/16 17:07:00,13.6,24.5,21.3,24.9,46.5,52.0,0,0,0,0,1,0,0,0,6840,2926
2022/03/16 17:08:59,13.6,24.5,21.3,24.9,46.4,52.0,0,0,0,0,1,0,0,0,6840,2926
2022/03/16 17:10:58,13.6,24.5,21.3,24.9,46.3,52.0,0,0,0,0,1,0,0,0,6840,2926
2022/03/16 17:12:56,13.5,24.5,21.3,24.9,46.3,52.0,0,0,0,0,1,0,0,0,6840,2926
2022/03/16 17:15:54,13.5,24.4,21.3,24.9,46.2,52.0,0,0,0,0,1,0,0,0,6840,2926
2022/03/16 17:17:53,13.5,24.4,21.3,24.9,46.2,52.0,0,0,0,0,1,0,0,0,6840,2926
2022/03/16 17:19:52,13.5,24.4,21.3,24.9,46.1,52.0,0,0,0,0,1,0,0,0,6840,2926
2022/03/16 17:21:51,13.4,24.4,21.2,24.9,46.0,52.0,0,0,0,0,1,0,0,0,6840,2926
2022/03/16 17:23:50,13.4,24.4,21.2,24.9,46.0,52.0,0,0,0,0,1,0,0,0,6840,2926
2022/03/16 17:25:48,13.4,24.4,21.2,24.9,45.9,52.0,0,0,0,0,1,0,0,0,6840,2926
2022/03/16 17:27:46,13.3,24.3,21.2,24.9,45.8,52.0,0,0,0,0,1,0,0,0,6840,2926
2022/03/16 17:29:45,13.3,24.3,21.2,24.9,45.7,52.0,0,0,0,0,1,0,0,0,6840,2926
2022/03/16 17:31:43,13.2,24.3,21.2,24.9,45.6,52.0,0,0,0,0,1,0,0,0,6840,2926
2022/03/16 17:33:42,13.2,23.1,22.3,24.9,45.5,52.0,0,0,1,0,1,0,1,0,6840,2926
2022/03/16 17:35:41,13.2,25.2,22.3,24.9,45.5,52.0,1,0,1,0,1,0,1,0,6841,2926
2022/03/16 17:37:40,13.2,25.5,22.4,24.9,45.4,52.0,1,0,1,0,1,0,1,0,6842,2926
2022/03/16 17:39:39,13.1,25.9,22.6,24.9,45.3,52.0,1,0,1,0,1,0,1,0,6843,2926
2022/03/16 17:41:38,13.1,26.3,22.8,24.9,45.3,52.0,1,0,1,0,1,0,1,0,6843,2926
2022/03/16 17:43:37,13.1,26.7,23.1,24.9,45.2,52.0,1,0,1,0,1,0,1,0,6844,2926
2022/03/16 17:45:36,13.0,27.0,23.3,24.9,45.1,52.0,1,0,1,0,1,0,1,0,6845,2926
2022/03/16 17:47:35,13.0,27.3,23.5,24.9,45.1,52.0,1,0,1,0,1,0,1,0,6846,2926
2022/03/16 17:49:34,12.9,27.6,23.8,25.5,45.0,52.0,1,0,1,0,1,0,1,0,6847,2926
2022/03/16 17:51:33,12.9,27.9,24.0,25.5,45.0,52.0,1,0,1,0,1,0,1,0,6848,2926
2022/03/16 17:53:33,12.9,28.2,24.3,25.5,44.9,52.0,1,0,1,0,1,0,1,0,6848,2926
2022/03/16 17:55:31,12.9,28.4,24.5,25.5,44.9,52.0,1,0,1,0,1,0,1,0,6849,2926
2022/03/16 17:57:30,12.8,28.7,24.8,25.5,44.8,52.0,1,0,1,0,1,0,1,0,6850,2926
2022/03/16 17:59:30,12.8,29.0,25.1,25.5,44.7,52.0,1,0,1,0,1,0,1,0,6851,2926
2022/03/16 18:01:29,12.8,29.3,25.4,25.5,44.7,52.0,1,0,1,0,1,0,1,0,6852,2926
2022/03/16 18:03:26,12.7,29.5,25.6,25.5,44.6,52.0,1,0,1,0,1,0,1,0,6853,2926
2022/03/16 18:05:26,12.7,29.7,25.9,25.5,44.6,52.0,1,0,1,0,1,0,1,0,6853,2926
2022/03/16 18:07:25,12.7,29.9,26.1,25.5,44.5,52.0,1,0,1,0,1,0,1,0,6854,2926
2022/03/16 18:09:23,12.6,30.1,26.2,25.5,44.5,52.0,1,0,1,0,1,0,1,0,6855,2926
2022/03/16 18:11:23,12.6,30.4,26.6,25.5,44.4,52.0,1,0,1,0,1,0,1,0,6856,2926
2022/03/16 18:13:22,12.6,30.6,26.7,25.5,44.3,52.0,1,0,1,0,1,0,1,0,6857,2926
2022/03/16 18:15:20,12.5,30.9,27.0,25.5,44.3,52.0,1,0,1,0,1,0,1,0,6857,2926
2022/03/16 18:17:19,12.5,31.0,27.2,25.5,44.2,52.0,1,0,1,0,1,0,1,0,6858,2926
2022/03/16 18:19:17,12.4,31.3,27.4,25.5,44.2,52.0,1,0,1,0,1,0,1,0,6859,2926
2022/03/16 18:21:16,12.4,29.2,27.7,25.5,44.1,52.0,0,0,0,0,1,0,1,0,6859,2926
2022/03/16 18:23:16,12.4,29.2,27.9,25.5,44.1,52.0,0,0,0,0,1,0,0,0,6859,2926
2022/03/16 18:25:14,12.3,29.1,27.8,25.5,44.0,52.0,0,0,1,0,0,1,1,0,6859,2926
2022/03/16 18:27:14,12.3,38.0,36.3,25.5,43.7,52.0,0,1,1,0,0,1,1,0,6859,2927
2022/03/16 18:29:14,12.2,41.3,38.1,25.5,43.3,52.0,0,1,1,0,0,1,1,0,6859,2928
2022/03/16 18:31:12,12.2,44.1,40.4,25.5,43.3,52.0,0,1,1,0,0,1,1,0,6859,2928
2022/03/16 18:33:12,12.2,45.6,41.7,25.5,43.4,52.0,0,1,1,0,0,1,1,0,6859,2929
2022/03/16 18:35:11,12.1,46.7,42.6,25.5,43.7,52.0,0,1,1,0,0,1,1,0,6859,2930
2022/03/16 18:37:10,12.1,47.6,43.3,25.5,44.2,52.0,0,1,1,0,0,1,1,0,6859,2930
2022/03/16 18:39:09,12.1,48.3,43.9,25.5,44.6,52.0,0,1,1,0,0,1,1,0,6859,2931
2022/03/16 18:41:07,12.0,48.9,44.3,25.5,45.0,52.0,0,1,1,0,0,1,1,0,6859,2932
2022/03/16 18:43:07,12.0,49.4,44.8,25.5,45.6,52.0,0,1,1,0,0,1,1,0,6859,2933
2022/03/16 18:45:05,12.0,49.9,45.3,25.5,46.1,52.0,0,1,1,0,0,1,1,0,6859,2933
2022/03/16 18:47:04,12.0,50.4,45.9,25.5,46.7,52.0,0,1,1,0,0,1,1,0,6859,2934
2022/03/16 18:49:03,12.0,51.0,46.3,25.5,47.1,52.0,0,1,1,0,0,1,1,0,6859,2935
2022/03/16 18:51:01,12.0,51.6,46.8,25.5,47.6,52.0,0,1,1,0,0,1,1,0,6859,2935
2022/03/16 18:53:01,12.0,52.0,47.2,25.5,48.1,52.0,0,1,1,0,0,1,1,0,6859,2936
2022/03/16 18:55:00,11.9,52.5,47.7,25.5,48.6,52.0,0,1,1,0,0,1,1,0,6859,2937
2022/03/16 18:56:58,11.9,53.0,48.1,26.1,49.1,52.0,0,1,1,0,0,1,1,0,6859,2937
2022/03/16 18:58:57,11.9,53.4,48.5,26.1,49.5,52.0,0,1,1,0,0,1,1,0,6859,2938
2022/03/16 19:00:56,11.9,53.8,48.9,26.1,50.0,52.0,0,1,1,0,0,1,1,0,6859,2939
2022/03/16 19:03:54,11.9,54.1,49.2,26.1,50.5,52.0,0,1,1,0,0,1,1,0,6859,2939
2022/03/16 19:05:54,11.9,54.3,49.3,26.1,51.0,52.0,0,1,1,0,0,1,1,0,6859,2940
2022/03/16 19:07:52,11.9,54.3,49.3,26.1,51.5,52.0,0,1,1,0,0,1,1,0,6859,2941
2022/03/16 19:09:51,11.8,54.3,49.3,26.1,51.9,52.0,0,1,1,0,0,1,1,0,6859,2941
2022/03/16 19:11:50,11.8,37.7,32.6,26.1,52.3,52.0,0,0,0,0,1,0,1,0,6859,2941
2022/03/16 19:13:50,11.8,31.6,29.1,26.1,52.4,52.0,0,0,0,0,1,0,0,0,6859,2941
2022/03/16 19:15:49,11.8,31.1,28.5,26.1,52.4,52.0,0,0,0,0,1,0,0,0,6859,2941
2022/03/16 19:17:48,11.7,30.6,28.1,26.1,52.4,52.0,0,0,0,0,1,0,0,0,6859,2941
2022/03/16 19:19:47,11.7,30.1,27.8,26.1,52.3,52.0,0,0,0,0,1,0,0,0,6859,2941
2022/03/16 19:21:45,11.7,29.8,27.5,26.1,52.2,52.0,0,0,0,0,1,0,0,0,6859,2941
2022/03/16 19:23:44,11.6,29.5,27.2,26.1,52.1,52.0,0,0,0,0,1,0,0,0,6859,2941
2022/03/16 19:25:42,11.6,29.3,27.0,26.1,52.0,52.0,0,0,0,0,1,0,0,0,6859,2941
2022/03/16 19:27:41,11.5,29.1,26.7,26.1,51.9,52.0,0,0,0,0,1,0,0,0,6859,2941
2022/03/16 19:29:40,11.5,29.0,26.5,26.1,51.8,52.0,0,0,0,0,1,0,0,0,6859,2941
2022/03/16 19:31:39,11.4,28.9,26.4,26.1,51.7,52.0,0,0,0,0,1,0,0,0,6859,2941
2022/03/16 19:33:37,11.4,28.8,26.2,26.1,51.6,52.0,0,0,0,0,1,0,0,0,6859,2941
2022/03/16 19:35:37,11.4,28.7,26.1,26.1,51.5,52.0,0,0,0,0,1,0,0,0,6859,2941
2022/03/16 19:37:35,11.4,28.6,25.9,26.1,51.4,52.0,0,0,0,0,1,0,0,0,6859,2941
2022/03/16 19:39:34,11.4,28.5,25.8,26.1,51.3,52.0,0,0,0,0,1,0,0,0,6859,2941
2022/03/16 19:41:32,11.3,28.4,25.7,26.1,51.2,52.0,0,0,0,0,1,0,0,0,6859,2941
2022/03/16 19:43:28,11.3,28.3,25.6,26.1,51.2,52.0,0,0,0,0,1,0,0,0,6859,2941
2022/03/16 19:45:28,11.3,28.3,25.5,26.1,51.1,52.0,0,0,0,0,1,0,0,0,6859,2941
2022/03/16 19:47:26,11.2,28.2,25.4,26.1,51.0,52.0,0,0,0,0,1,0,0,0,6859,2941
2022/03/16 19:49:25,11.2,28.1,25.3,26.1,50.9,52.0,0,0,0,0,1,0,0,0,6859,2941
2022/03/16 19:51:23,11.2,28.1,25.2,26.1,50.8,52.0,0,0,0,0,1,0,0,0,6859,2941
2022/03/16 19:53:22,11.1,28.0,25.2,26.1,50.7,52.0,0,0,0,0,1,0,0,0,6859,2941
2022/03/16 19:55:20,11.1,27.9,25.1,26.1,50.6,52.0,0,0,0,0,1,0,0,0,6859,2941
2022/03/16 19:57:18,11.0,27.9,25.0,26.1,50.5,52.0,0,0,0,0,1,0,0,0,6859,2941
2022/03/16 19:59:17,11.0,27.8,24.9,26.1,50.5,52.0,0,0,0,0,1,0,0,0,6859,2941
2022/03/16 20:01:15,10.9,27.7,24.8,26.8,50.3,52.0,0,0,0,0,1,0,0,0,6859,2941
2022/03/16 20:03:14,10.9,27.7,24.8,26.8,50.3,52.0,0,0,0,0,1,0,0,0,6859,2941
2022/03/16 20:05:13,10.8,27.6,24.7,26.8,50.1,52.0,0,0,0,0,1,0,0,0,6859,2941
2022/03/16 20:07:12,10.8,27.6,24.6,26.8,50.0,52.0,0,0,0,0,1,0,0,0,6859,2941
2022/03/16 20:09:11,10.7,27.5,24.5,26.8,50.0,52.0,0,0,0,0,1,0,0,0,6859,2941
2022/03/16 20:11:11,10.7,27.5,24.5,26.8,49.9,52.0,0,0,0,0,1,0,0,0,6859,2941
2022/03/16 20:13:10,10.7,27.4,24.4,26.8,49.8,52.0,0,0,0,0,1,0,0,0,6859,2941
2022/03/16 20:15:09,10.6,27.4,24.3,26.8,49.7,52.0,0,0,0,0,1,0,0,0,6859,2941
2022/03/16 20:17:08,10.6,27.3,24.3,26.8,49.7,52.0,0,0,0,0,1,0,0,0,6859,2941
2022/03/16 20:19:07,10.5,27.3,24.2,26.8,49.6,52.0,0,0,0,0,1,0,0,0,6859,2941
2022/03/16 20:21:05,10.5,27.2,24.1,26.8,49.5,52.0,0,0,0,0,1,0,0,0,6859,2941
2022/03/16 20:23:04,10.4,27.2,24.1,26.8,49.4,52.0,0,0,0,0,1,0,0,0,6859,2941
2022/03/16 20:25:03,10.4,27.1,24.0,26.8,49.4,52.0,0,0,0,0,1,0,0,0,6859,2941
2022/03/16 20:27:00,10.3,27.1,24.0,26.8,49.3,52.0,0,0,0,0,1,0,0,0,6859,2941
2022/03/16 20:28:59,10.3,27.0,23.9,26.8,49.2,52.0,0,0,0,0,1,0,0,0,6859,2941
2022/03/16 20:30:59,10.3,27.0,23.8,26.8,49.1,52.0,0,0,0,0,1,0,0,0,6859,2941
2022/03/16 20:32:57,10.2,27.0,23.8,26.8,49.1,52.0,0,0,0,0,1,0,0,0,6859,2941
2022/03/16 20:34:57,10.2,26.9,23.7,26.8,49.0,52.0,0,0,0,0,1,0,0,0,6859,2941
2022/03/16 20:36:56,10.1,26.9,23.6,26.8,48.9,52.0,0,0,0,0,1,0,0,0,6859,2941
2022/03/16 20:39:55,10.1,26.8,23.6,26.8,48.9,52.0,0,0,0,0,1,0,0,0,6859,2941
2022/03/16 20:41:54,10.0,26.8,23.5,26.8,48.8,52.0,0,0,0,0,1,0,0,0,6859,2941
2022/03/16 20:43:53,10.0,26.8,23.5,26.8,48.7,52.0,0,0,0,0,1,0,0,0,6859,2941
2022/03/16 20:45:52,10.0,26.7,23.4,26.8,48.6,52.0,0,0,0,0,1,0,0,0,6859,2941
2022/03/16 20:47:47,9.9,26.7,23.4,27.4,48.5,52.0,0,0,0,0,1,0,0,0,6859,2941
2022/03/16 20:49:47,9.9,25.0,24.1,27.4,48.4,52.0,0,0,1,0,1,0,1,0,6859,2941
2022/03/16 20:51:45,9.8,27.3,24.1,27.4,48.4,52.0,1,0,1,0,1,0,1,0,6860,2941
2022/03/16 20:53:45,9.8,27.6,24.2,27.4,48.3,52.0,1,0,1,0,1,0,1,0,6861,2941
2022/03/16 20:55:44,9.7,27.8,24.2,27.4,48.2,52.0,1,0,1,0,1,0,1,0,6862,2941
2022/03/16 20:57:44,9.7,28.0,24.3,27.4,48.1,52.0,1,0,1,0,1,0,1,0,6862,2941
2022/03/16 20:59:42,9.6,28.2,24.4,27.4,48.0,52.0,1,0,1,0,1,0,1,0,6863,2941
2022/03/16 21:01:41,9.6,28.4,24.6,27.4,47.9,52.0,1,0,1,0,1,0,1,0,6864,2941
2022/03/16 21:03:39,9.5,28.6,24.7,27.4,47.8,52.0,1,0,1,0,1,0,1,0,6865,2941
2022/03/16 21:05:38,9.5,28.8,24.9,27.4,47.8,52.0,1,0,1,0,1,0,1,0,6866,2941
2022/03/16 21:07:36,9.4,29.1,25.2,27.4,47.7,52.0,1,0,1,0,1,0,1,0,6867,2941
2022/03/16 21:09:34,9.4,29.3,25.4,27.4,47.6,52.0,1,0,1,0,1,0,1,0,6867,2941
2022/03/16 21:11:33,9.3,29.4,25.6,27.4,47.5,52.0,1,0,1,0,1,0,1,0,6868,2941
2022/03/16 21:13:32,9.3,29.6,25.8,27.4,47.4,52.0,1,0,1,0,1,0,1,0,6869,2941
2022/03/16 21:15:30,9.3,29.8,26.0,27.4,47.3,52.0,1,0,1,0,1,0,1,0,6870,2941
2022/03/16 21:17:30,9.3,30.0,26.2,27.4,47.2,52.0,1,0,1,0,1,0,1,0,6871,2941
2022/03/16 21:19:29,9.3,30.2,26.4,27.4,47.1,52.0,1,0,1,0,1,0,1,0,6872,2941
2022/03/16 21:21:27,9.2,30.4,26.6,27.4,47.0,52.0,1,0,1,0,1,0,1,0,6872,2941
2022/03/16 21:23:26,9.2,30.6,26.7,27.4,46.9,52.0,1,0,1,0,1,0,1,0,6873,2941
2022/03/16 21:25:25,9.2,30.8,26.9,27.4,46.8,52.0,1,0,1,0,1,0,1,0,6874,2941
2022/03/16 21:27:23,9.2,31.0,27.1,27.4,46.7,52.0,1,0,1,0,1,0,1,0,6875,2941
2022/03/16 21:29:22,9.1,31.1,27.2,27.4,46.6,52.0,1,0,1,0,1,0,1,0,6876,2941
2022/03/16 21:31:21,9.1,31.3,27.4,27.4,46.5,52.0,1,0,1,0,1,0,1,0,6876,2941
2022/03/16 21:33:19,9.1,31.6,27.7,27.4,46.4,52.0,1,0,1,0,1,0,1,0,6877,2941
2022/03/16 21:35:18,9.1,31.8,27.8,27.4,46.3,52.0,1,0,1,0,1,0,1,0,6878,2941
2022/03/16 21:37:17,9.0,32.0,28.0,27.4,46.2,52.0,1,0,1,0,1,0,1,0,6879,2941
2022/03/16 21:39:15,9.0,32.2,28.2,27.4,46.1,52.0,1,0,1,0,1,0,1,0,6880,2941
2022/03/16 21:41:15,9.0,32.4,28.4,27.4,46.0,52.0,1,0,1,0,1,0,1,0,6880,2941
2022/03/16 21:43:14,9.0,32.7,28.6,27.4,45.9,52.0,1,0,1,0,1,0,1,0,6881,2941
2022/03/16 21:45:13,8.9,32.8,28.8,28.0,45.8,52.0,1,0,1,0,1,0,1,0,6882,2941
2022/03/16 21:47:11,8.9,33.1,29.0,28.0,45.7,52.0,1,0,1,0,1,0,1,0,6883,2941
2022/03/16 21:49:10,8.9,33.3,29.2,28.0,45.6,52.0,1,0,1,0,1,0,1,0,6884,2941
2022/03/16 21:51:09,8.9,33.5,29.4,28.0,45.5,52.0,1,0,1,0,1,0,1,0,6884,2941
2022/03/16 21:53:08,8.9,33.7,29.7,28.0,45.4,52.0,1,0,1,0,1,0,1,0,6885,2941
2022/03/16 21:55:07,8.8,33.8,29.8,28.0,45.3,52.0,1,0,1,0,1,0,1,0,6886,2941
2022/03/16 21:57:07,8.8,32.6,30.0,28.0,45.2,52.0,0,0,1,0,1,0,1,0,6886,2941
2022/03/16 21:59:06,8.8,31.8,30.3,28.0,45.1,52.0,0,0,0,0,1,0,1,0,6886,2941
2022/03/16 22:01:05,8.7,31.7,30.0,28.0,45.0,10.0,0,0,0,0,1,0,0,0,6886,2941
2022/03/16 22:03:04,8.7,31.4,29.7,28.0,45.0,10.0,0,0,0,0,1,0,0,0,6886,2941
2022/03/16 22:05:03,8.7,31.1,29.5,28.0,45.0,10.0,0,0,0,0,1,0,0,0,6886,2941
2022/03/16 22:07:01,8.7,30.9,29.3,28.0,45.0,10.0,0,0,0,0,1,0,0,0,6886,2941
2022/03/16 22:09:01,8.7,30.7,29.2,28.0,45.0,10.0,0,0,0,0,1,0,0,0,6886,2941
2022/03/16 22:10:58,8.7,30.6,29.0,28.0,45.0,10.0,0,0,0,0,1,0,0,0,6886,2941
2022/03/16 22:12:57,8.6,30.4,28.8,28.0,45.0,10.0,0,0,0,0,1,0,0,0,6886,2941
2022/03/16 22:15:56,8.6,30.3,28.6,28.0,45.0,10.0,0,0,0,0,1,0,0,0,6886,2941
2022/03/16 22:17:55,8.6,30.2,28.5,28.0,45.0,10.0,0,0,0,0,1,0,0,0,6886,2941
2022/03/16 22:19:54,8.6,30.1,28.3,28.0,45.0,10.0,0,0,0,0,1,0,0,0,6886,2941
2022/03/16 22:21:52,8.6,30.0,28.2,28.0,45.0,10.0,0,0,0,0,1,0,0,0,6886,2941
2022/03/16 22:23:50,8.6,30.0,28.0,28.0,45.0,10.0,0,0,0,0,1,0,0,0,6886,2941
2022/03/16 22:25:49,8.6,29.9,27.9,28.0,45.0,10.0,0,0,0,0,1,0,0,0,6886,2941
2022/03/16 22:27:48,8.5,29.8,27.7,28.0,45.0,10.0,0,0,0,0,1,0,0,0,6886,2941
2022/03/16 22:29:47,8.5,29.8,27.6,28.0,45.0,10.0,0,0,0,0,1,0,0,0,6886,2941
2022/03/16 22:31:46,8.5,29.7,27.4,28.0,44.9,10.0,0,0,0,0,1,0,0,0,6886,2941
2022/03/16 22:33:46,8.5,29.7,27.3,28.0,44.9,10.0,0,0,0,0,1,0,0,0,6886,2941
2022/03/16 22:35:45,8.5,29.6,27.1,28.0,44.9,10.0,0,0,0,0,1,0,0,0,6886,2941
2022/03/16 22:37:43,8.5,29.6,27.0,28.0,44.9,10.0,0,0,0,0,1,0,0,0,6886,2941
2022/03/16 22:39:42,8.4,29.5,26.9,28.0,44.9,10.0,0,0,0,0,1,0,0,0,6886,2941
2022/03/16 22:41:40,8.4,29.5,26.7,28.0,44.9,10.0,0,0,0,0,1,0,0,0,6886,2941
2022/03/16 22:43:39,8.4,29.4,26.6,28.0,44.9,10.0,0,0,0,0,1,0,0,0,6886,2941
2022/03/16 22:45:38,8.4,29.4,26.5,28.0,44.9,10.0,0,0,0,0,1,0,0,0,6886,2941
2022/03/16 22:47:38,8.3,29.3,26.3,28.0,44.8,10.0,0,0,0,0,1,0,0,0,6886,2941
2022/03/16 22:49:37,8.3,29.3,26.2,28.0,44.8,10.0,0,0,0,0,1,0,0,0,6886,2941
2022/03/16 22:51:35,8.3,29.3,26.1,28.0,44.8,10.0,0,0,0,0,1,0,0,0,6886,2941
2022/03/16 22:53:34,8.2,29.2,25.9,28.0,44.8,10.0,0,0,0,0,1,0,0,0,6886,2941
2022/03/16 22:55:33,8.2,29.2,25.8,28.0,44.8,10.0,0,0,0,0,1,0,0,0,6886,2941
2022/03/16 22:57:33,8.2,29.2,25.7,28.0,44.8,10.0,0,0,0,0,1,0,0,0,6886,2941
2022/03/16 22:59:32,8.2,29.1,25.6,28.0,44.8,10.0,0,0,0,0,1,0,0,0,6886,2941
2022/03/16 23:01:31,8.2,29.1,25.5,28.0,44.7,10.0,0,0,0,0,1,0,0,0,6886,2941
2022/03/16 23:03:29,8.1,29.1,25.3,28.0,44.7,10.0,0,0,0,0,1,0,0,0,6886,2941
2022/03/16 23:05:28,8.1,29.0,25.2,28.0,44.7,10.0,0,0,0,0,1,0,0,0,6886,2941
2022/03/16 23:07:27,8.1,29.0,25.1,28.0,44.7,10.0,0,0,0,0,1,0,0,0,6886,2941
2022/03/16 23:09:26,8.1,29.0,25.0,28.0,44.7,10.0,0,0,0,0,1,0,0,0,6886,2941
2022/03/16 23:11:24,8.1,28.9,25.0,28.0,44.7,10.0,0,0,0,0,1,0,0,0,6886,2941
2022/03/16 23:13:23,8.0,28.9,24.9,28.0,44.7,10.0,0,0,0,0,1,0,0,0,6886,2941
2022/03/16 23:15:22,8.0,28.9,24.8,28.0,44.6,10.0,0,0,0,0,1,0,0,0,6886,2941
2022/03/16 23:17:20,8.0,28.8,24.7,28.0,44.6,10.0,0,0,0,0,1,0,0,0,6886,2941
2022/03/16 23:19:17,8.0,28.8,24.7,28.0,44.6,10.0,0,0,0,0,1,0,0,0,6886,2941
2022/03/16 23:21:17,8.0,28.8,24.6,28.0,44.6,10.0,0,0,0,0,1,0,0,0,6886,2941
2022/03/16 23:23:16,8.0,28.7,24.5,28.0,44.6,10.0,0,0,0,0,1,0,0,0,6886,2941
2022/03/16 23:25:15,7.9,28.7,24.5,28.6,44.6,10.0,0,0,0,0,1,0,0,0,6886,2941
2022/03/16 23:27:15,7.9,28.6,24.4,28.6,44.5,10.0,0,0,0,0,1,0,0,0,6886,2941
2022/03/16 23:29:14,7.9,28.6,24.4,28.6,44.5,10.0,0,0,0,0,1,0,0,0,6886,2941
2022/03/16 23:31:13,7.9,28.6,24.3,28.6,44.5,10.0,0,0,0,0,1,0,0,0,6886,2941
2022/03/16 23:33:11,7.9,28.5,24.2,28.6,44.5,10.0,0,0,0,0,1,0,0,0,6886,2941
2022/03/16 23:35:10,7.9,28.5,24.2,28.6,44.5,10.0,0,0,0,0,1,0,0,0,6886,2941
2022/03/16 23:37:08,7.9,28.4,24.1,28.6,44.4,10.0,0,0,0,0,1,0,0,0,6886,2941
2022/03/16 23:39:07,7.8,28.4,24.1,28.6,44.4,10.0,0,0,0,0,1,0,0,0,6886,2941
2022/03/16 23:41:06,7.8,28.4,24.0,28.6,44.4,10.0,0,0,0,0,1,0,0,0,6886,2941
2022/03/16 23:43:05,7.8,28.3,24.0,28.6,44.4,10.0,0,0,0,0,1,0,0,0,6886,2941
2022/03/16 23:45:03,7.8,28.3,23.9,28.6,44.4,10.0,0,0,0,0,1,0,0,0,6886,2941
2022/03/16 23:47:02,7.8,28.3,23.8,28.6,44.4,10.0,0,0,0,0,1,0,0,0,6886,2941
2022/03/16 23:49:01,7.8,28.2,23.8,28.6,44.3,10.0,0,0,0,0,1,0,0,0,6886,2941
2022/03/16 23:51:00,7.8,28.2,23.7,28.6,44.3,10.0,0,0,0,0,1,0,0,0,6886,2941
2022/03/16 23:52:59,7.8,28.1,23.7,28.6,44.3,10.0,0,0,0,0,1,0,0,0,6886,2941
2022/03/16 23:54:57,7.8,28.1,23.7,28.6,44.3,10.0,0,0,0,0,1,0,0,0,6886,2941
2022/03/16 23:56:57,7.7,28.0,23.6,28.6,44.3,10.0,0,0,0,0,1,0,0,0,6886,2941
2022/03/16 23:58:56,7.7,28.0,23.6,28.6,44.2,10.0,0,0,0,0,1,0,0,0,6886,2941
