Type,Analog,Analog,Analog,Analog,Analog,Analog,Digital,Digital,Digital,Digital,Digital,Digital,Digital,Digital
Index,1,5,2,53,3,58,41,42,43,44,45,46,49,50
Name,R1,R9,R2,R2 Solltemperatur,R3,R3 Solltemperatur,M1,M3,M2/M11,E10,M13,M18,M16,E9
Description,Variable 1,Variable 2,Variable 3,Variable 4,Variable 5,Variable 6,Variable 7,Variable 8,Variable 9,Variable 10,Variable 11,Variable 12,Variable 13,Variable 14
2021/10/27 00:01:57,5.8,30.9,27.9,29.7,45.1,10.0,0,0,0,0,1,0,0,0
2021/10/27 00:03:52,5.8,30.9,27.8,29.7,45.0,10.0,0,0,0,0,1,0,0,0
2021/10/27 00:06:49,5.8,30.8,27.7,29.7,45.0,10.0,0,0,0,0,1,0,0,0
2021/10/27 00:08:42,5.7,30.8,27.6,29.7,45.0,10.0,0,0,0,0,1,0,0,0
2021/10/27 00:10:36,5.7,30.8,27.5,29.7,45.0,10.0,0,0,0,0,1,0,0,0
2021/10/27 00:12:33,5.7,30.7,27.5,29.7,45.0,10.0,0,0,0,0,1,0,0,0
2021/10/27 00:14:31,5.7,30.7,27.4,29.7,45.0,10.0,0,0,0,0,1,0,0,0
2021/10/27 00:16:26,5.6,30.6,27.3,29.7,44.9,10.0,0,0,0,0,1,0,0,0
2021/10/27 00:18:22,5.6,30.6,27.2,29.7,44.9,10.0,0,0,0,0,1,0,0,0
2021/10/27 00:20:16,5.6,30.6,27.2,29.7,44.9,10.0,0,0,0,0,1,0,0,0
2021/10/27 00:22:10,5.5,30.5,27.1,29.7,44.9,10.0,0,0,0,0,1,0,0,0
2021/10/27 00:24:05,5.5,30.5,27.0,29.7,44.9,10.0,0,0,0,0,1,0,0,0
2021/10/27 00:26:00,5.5,30.5,26.9,29.7,44.8,10.0,0,0,0,0,1,0,0,0
2021/10/27 00:27:55,5.5,30.4,26.9,29.7,44.8,10.0,0,0,0,0,1,0,0,0
2021/10/27 00:29:52,5.5,30.4,26.8,29.7,44.8,10.0,0,0,0,0,1,0,0,0
2021/10/27 00:32:46,5.5,30.3,26.7,29.7,44.8,10.0,0,0,0,0,1,0,0,0
2021/10/27 00:34:41,5.5,30.3,26.7,29.7,44.8,10.0,0,0,0,0,1,0,0,0
2021/10/27 00:36:38,5.5,30.3,26.6,29.7,44.8,10.0,0,0,0,0,1,0,0,0
2021/10/27 00:38:34,5.5,30.2,26.5,29.7,44.7,10.0,0,0,0,0,1,0,0,0
2021/10/27 00:40:30,5.5,30.2,26.5,29.7,44.7,10.0,0,0,0,0,1,0,0,0
2021/10/27 00:42:26,5.5,30.1,26.4,29.7,44.7,10.0,0,0,0,0,1,0,0,0
2021/10/27 00:44:22,5.5,30.1,26.4,29.7,44.7,10.0,0,0,0,0,1,0,0,0
2021/10/27 00:46:17,5.5,30.0,26.3,29.7,44.7,10.0,0,0,0,0,1,0,0,0
2021/10/27 00:48:09,5.5,30.0,26.3,29.7,44.7,10.0,0,0,0,0,1,0,0,0
2021/10/27 00:50:04,5.5,30.0,26.2,29.7,44.6,10.0,0,0,0,0,1,0,0,0
2021/10/27 00:52:02,5.5,29.9,26.1,29.7,44.6,10.0,0,0,0,0,1,0,0,0
2021/10/27 00:53:58,5.5,29.9,26.1,29.7,44.6,10.0,0,0,0,0,1,0,0,0
2021/10/27 00:55:54,5.5,29.9,26.0,29.7,44.6,10.0,0,0,0,0,1,0,0,0
2021/10/27 00:58:48,5.5,29.8,26.0,29.7,44.6,10.0,0,0,0,0,1,0,0,0
2021/10/27 01:00:41,5.5,29.8,25.9,29.7,44.6,10.0,0,0,0,0,1,0,0,0
2021/10/27 01:02:35,5.5,29.8,25.9,29.7,44.5,10.0,0,0,0,0,1,0,0,0
2021/10/27 01:04:33,5.5,29.7,25.8,29.7,44.5,10.0,0,0,0,0,1,0,0,0
2021/10/27 01:06:29,5.6,29.7,25.8,29.7,44.5,10.0,0,0,0,0,1,0,0,0
2021/10/27 01:08:20,5.6,29.7,25.7,29.7,44.5,10.0,0,0,0,0,1,0,0,0
2021/10/27 01:10:11,5.7,29.6,25.7,29.7,44.5,10.0,0,0,0,0,1,0,0,0
2021/10/27 01:12:06,5.7,29.6,25.6,29.7,44.4,10.0,0,0,0,0,1,0,0,0
2021/10/27 01:14:01,5.7,29.5,25.6,29.7,44.4,10.0,0,0,0,0,1,0,0,0
2021/10/27 01:16:00,5.7,29.5,25.6,29.7,44.4,10.0,0,0,0,0,1,0,0,0
2021/10/27 01:17:54,5.7,29.5,25.5,29.7,44.4,10.0,0,0,0,0,1,0,0,0
2021/10/27 01:20:50,5.7,29.4,25.5,29.7,44.4,10.0,0,0,0,0,1,0,0,0
2021/10/27 01:22:42,5.7,29.4,25.4,29.7,44.4,10.0,0,0,0,0,1,0,0,0
2021/10/27 01:24:37,5.7,29.4,25.4,29.7,44.3,10.0,0,0,0,0,1,0,0,0
2021/10/27 01:26:31,5.6,29.3,25.3,29.7,44.3,10.0,0,0,0,0,1,0,0,0
2021/10/27 01:28:25,5.6,29.3,25.3,29.7,44.3,10.0,0,0,0,0,1,0,0,0
2021/10/27 01:30:22,5.5,29.3,25.3,29.7,44.3,10.0,0,0,0,0,1,0,0,0
2021/10/27 01:32:13,5.5,29.2,25.2,29.7,44.3,10.0,0,0,0,0,1,0,0,0
2021/10/27 01:34:11,5.4,29.2,25.2,29.7,44.2,10.0,0,0,0,0,1,0,0,0
2021/10/27 01:36:08,5.4,29.2,25.2,29.7,44.2,10.0,0,0,0,0,1,0,0,0
2021/10/27 01:38:04,5.4,29.1,25.1,29.7,44.2,10.0,0,0,0,0,1,0,0,0
2021/10/27 01:40:03,5.3,29.1,25.1,29.7,44.2,10.0,0,0,0,0,1,0,0,0
2021/10/27 01:42:00,5.3,29.1,25.1,29.7,44.2,10.0,0,0,0,0,1,0,0,0
2021/10/27 01:44:00,5.2,29.0,25.0,29.7,44.2,10.0,0,0,0,0,1,0,0,0
2021/10/27 01:45:53,5.2,29.0,25.0,29.7,44.1,10.0,0,0,0,0,1,0,0,0
2021/10/27 01:48:48,5.2,29.0,25.0,29.7,44.1,10.0,0,0,0,0,1,0,0,0
2021/10/27 01:50:40,5.1,28.9,24.9,29.7,44.1,10.0,0,0,0,0,1,0,0,0
2021/10/27 01:52:34,5.1,28.9,24.9,29.7,44.1,10.0,0,0,0,0,1,0,0,0
2021/10/27 01:54:26,5.0,28.9,24.9,29.7,44.1,10.0,0,0,0,0,1,0,0,0
2021/10/27 01:56:22,5.0,28.8,24.9,29.7,44.0,10.0,0,0,0,0,1,0,0,0
2021/10/27 01:58:18,4.9,28.8,24.8,30.3,44.0,10.0,0,0,0,0,1,0,0,0
2021/10/27 02:00:10,4.9,28.8,24.8,30.3,44.0,10.0,0,0,0,0,1,0,0,0
2021/10/27 02:02:06,4.9,28.7,24.8,30.3,44.0,10.0,0,0,0,0,1,0,0,0
2021/10/27 02:04:00,4.9,28.7,24.8,30.3,44.0,10.0,0,0,0,0,1,0,0,0
2021/10/27 02:05:59,4.9,28.7,24.7,30.3,44.0,10.0,0,0,0,0,1,0,0,0
2021/10/27 02:07:58,4.9,28.6,24.7,30.3,43.9,10.0,0,0,0,0,1,0,0,0
2021/10/27 02:09:52,4.9,27.8,26.6,30.3,43.9,10.0,0,0,1,0,1,0,1,0
2021/10/27 02:12:49,4.9,29.9,26.8,30.3,43.9,10.0,0,1,1,0,1,0,1,0
2021/10/27 02:14:46,4.9,30.4,27.1,30.3,43.9,10.0,0,1,1,0,1,0,1,0
2021/10/27 02:16:45,4.9,30.7,27.2,30.3,43.9,10.0,0,1,1,0,1,0,1,0
2021/10/27 02:18:43,4.8,31.1,27.5,30.3,43.9,10.0,0,1,1,0,1,0,1,0
2021/10/27 02:20:39,4.8,31.4,27.6,30.3,43.8,10.0,0,1,1,0,1,0,1,0
2021/10/27 02:22:38,4.8,31.7,27.9,30.3,43.8,10.0,0,1,1,0,1,0,1,0
2021/10/27 02:24:37,4.8,32.2,28.3,30.3,43.8,10.0,0,1,1,0,1,0,1,0
2021/10/27 02:26:31,4.8,32.4,28.5,30.3,43.8,10.0,0,1,1,0,1,0,1,0
2021/10/27 02:28:27,4.7,32.8,28.8,30.3,43.8,10.0,0,1,1,0,1,0,1,0
2021/10/27 02:30:24,4.7,33.2,29.2,30.3,43.7,10.0,0,1,1,0,1,0,1,0
2021/10/27 02:32:22,4.7,33.5,29.4,30.3,43.7,10.0,0,1,1,0,1,0,1,0
2021/10/27 02:34:16,4.7,33.8,29.7,30.3,43.7,10.0,0,1,1,0,1,0,1,0
2021/10/27 02:36:14,4.7,34.1,30.0,30.3,43.7,10.0,0,1,1,0,1,0,1,0
2021/10/27 02:38:11,4.7,34.8,30.3,30.3,43.7,10.0,0,1,1,0,1,0,1,0
2021/10/27 02:40:06,4.6,34.8,30.2,30.3,43.6,10.0,0,1,1,0,1,0,1,0
2021/10/27 02:42:02,4.6,34.9,30.5,30.3,43.6,10.0,0,1,1,0,1,0,1,0
2021/10/27 02:43:59,4.6,35.4,30.9,30.3,43.6,10.0,0,1,1,0,1,0,1,0
2021/10/27 02:45:55,4.6,35.7,31.2,30.3,43.6,10.0,0,1,1,0,1,0,1,0
2021/10/27 02:48:50,4.6,36.0,31.5,30.3,43.6,10.0,0,1,1,0,1,0,1,0
2021/10/27 02:50:44,4.6,36.3,31.8,30.3,43.6,10.0,0,1,1,0,1,0,1,0
2021/10/27 02:52:40,4.6,36.6,32.0,30.3,43.5,10.0,0,1,1,0,1,0,1,0
2021/10/27 02:54:36,4.6,35.0,32.4,30.3,43.5,10.0,0,0,1,0,1,0,1,0
2021/10/27 02:56:33,4.6,34.4,32.9,30.3,43.5,10.0,0,0,0,0,1,0,1,0
2021/10/27 02:58:26,4.6,34.4,32.7,30.3,43.5,10.0,0,0,0,0,1,0,0,0
2021/10/27 03:00:22,4.6,34.0,32.3,30.3,43.5,10.0,0,0,0,0,1,0,0,0
2021/10/27 03:02:18,4.5,33.8,32.1,30.3,43.4,10.0,0,0,0,0,1,0,0,0
2021/10/27 03:04:12,4.5,33.6,31.8,30.3,43.4,10.0,0,0,0,0,1,0,0,0
2021/10/27 03:06:08,4.5,33.4,31.6,30.3,43.4,10.0,0,0,0,0,1,0,0,0
2021/10/27 03:08:07,4.5,33.3,31.4,30.3,43.4,10.0,0,0,0,0,1,0,0,0
2021/10/27 03:10:04,4.5,33.1,31.2,30.3,43.4,10.0,0,0,0,0,1,0,0,0
2021/10/27 03:12:00,4.5,33.0,31.1,30.3,43.4,10.0,0,0,0,0,1,0,0,0
2021/10/27 03:14:00,4.5,32.9,30.9,30.3,43.3,10.0,0,0,0,0,1,0,0,0
2021/10/27 03:15:57,4.5,32.9,30.7,30.3,43.3,10.0,0,0,0,0,1,0,0,0
2021/10/27 03:17:52,4.5,32.8,30.5,30.3,43.3,10.0,0,0,0,0,1,0,0,0
2021/10/27 03:20:48,4.6,32.7,30.4,30.3,43.3,10.0,0,0,0,0,1,0,0,0
2021/10/27 03:22:43,4.6,32.6,30.2,30.3,43.3,10.0,0,0,0,0,1,0,0,0
2021/10/27 03:24:36,4.6,32.6,30.1,30.3,43.2,10.0,0,0,0,0,1,0,0,0
2021/10/27 03:26:32,4.6,32.5,30.0,30.3,43.2,10.0,0,0,0,0,1,0,0,0
2021/10/27 03:28:25,4.6,32.5,29.9,30.3,43.2,10.0,0,0,0,0,1,0,0,0
2021/10/27 03:30:20,4.6,32.4,29.8,30.3,43.2,10.0,0,0,0,0,1,0,0,0
2021/10/27 03:32:13,4.6,32.4,29.7,30.3,43.2,10.0,0,0,0,0,1,0,0,0
2021/10/27 03:34:07,4.5,32.3,29.6,30.3,43.2,10.0,0,0,0,0,1,0,0,0
2021/10/27 03:36:03,4.5,32.3,29.5,30.3,43.1,10.0,0,0,0,0,1,0,0,0
2021/10/27 03:38:00,4.5,32.2,29.3,30.3,43.1,10.0,0,0,0,0,1,0,0,0
2021/10/27 03:39:53,4.5,32.2,29.2,30.3,43.1,10.0,0,0,0,0,1,0,0,0
2021/10/27 03:42:48,4.5,32.1,29.1,30.3,43.1,10.0,0,0,0,0,1,0,0,0
2021/10/27 03:44:41,4.5,32.1,29.0,30.3,43.1,10.0,0,0,0,0,1,0,0,0
2021/10/27 03:46:38,4.4,31.8,29.9,30.3,43.0,52.0,0,0,1,0,0,1,1,0
2021/10/27 03:48:36,4.4,36.0,33.2,30.3,42.5,52.0,1,0,1,0,0,1,1,0
2021/10/27 03:50:34,4.4,38.6,34.7,30.3,41.7,52.0,1,0,1,0,0,1,1,0
2021/10/27 03:52:30,4.4,40.6,36.7,30.3,41.4,52.0,1,0,1,0,0,1,1,0
2021/10/27 03:54:25,4.3,42.0,37.9,30.3,41.4,52.0,1,0,1,0,0,1,1,0
2021/10/27 03:56:23,4.3,43.1,38.8,30.3,41.8,52.0,1,0,1,0,0,1,1,0
2021/10/27 03:58:20,4.3,44.0,39.6,30.3,42.3,52.0,1,0,1,0,0,1,1,0
2021/10/27 04:00:17,4.3,44.7,40.4,30.3,42.8,52.0,1,0,1,0,0,1,1,0
2021/10/27 04:02:14,4.3,45.5,41.1,30.3,43.3,52.0,1,0,1,0,0,1,1,0
2021/10/27 04:04:09,4.2,46.2,41.7,30.3,43.7,52.0,1,0,1,0,0,1,1,0
2021/10/27 04:06:06,4.2,46.8,42.3,30.3,44.1,52.0,1,0,1,0,0,1,1,0
2021/10/27 04:08:04,4.2,50.2,43.9,30.3,44.4,52.0,1,1,1,0,0,1,1,0
2021/10/27 04:10:00,4.2,52.5,45.4,30.3,45.0,52.0,1,1,1,0,0,1,1,0
2021/10/27 04:11:59,4.2,53.8,46.8,30.3,46.0,52.0,1,1,1,0,0,1,1,0
2021/10/27 04:13:57,4.2,54.9,47.8,30.3,47.1,52.0,1,1,1,0,0,1,1,0
2021/10/27 04:15:55,4.2,56.1,48.9,30.3,48.2,52.0,1,1,1,0,0,1,1,0
2021/10/27 04:18:51,4.2,57.0,49.7,30.3,49.1,52.0,1,1,1,0,0,1,1,0
2021/10/27 04:20:47,4.1,58.0,50.7,30.3,50.1,52.0,1,1,1,0,0,1,1,0
2021/10/27 04:22:45,4.1,59.0,51.9,30.3,51.3,52.0,1,1,1,0,0,1,1,0
2021/10/27 04:24:41,4.1,56.1,52.7,30.3,52.4,52.0,0,0,1,0,1,0,1,0
2021/10/27 04:26:39,4.1,34.9,32.3,30.3,53.3,52.0,0,0,0,0,1,0,1,0
2021/10/27 04:28:35,4.0,34.0,31.4,30.3,53.6,52.0,0,0,0,0,1,0,0,0
2021/10/27 04:30:29,4.0,33.6,31.0,30.3,53.7,52.0,0,0,0,0,1,0,0,0
2021/10/27 04:32:23,4.0,33.2,30.7,30.3,53.8,52.0,0,0,0,0,1,0,0,0
2021/10/27 04:34:17,4.0,32.9,30.3,30.3,53.8,52.0,0,0,0,0,1,0,0,0
2021/10/27 04:36:13,4.0,32.6,30.1,30.3,53.8,52.0,0,0,0,0,1,0,0,0
2021/10/27 04:38:10,4.0,32.4,29.9,30.3,53.7,52.0,0,0,0,0,1,0,0,0
2021/10/27 04:40:06,4.0,32.2,29.7,30.3,53.7,52.0,0,0,0,0,1,0,0,0
2021/10/27 04:42:02,4.1,32.0,29.5,30.3,53.6,52.0,0,0,0,0,1,0,0,0
2021/10/27 04:43:58,4.1,31.9,29.4,30.3,53.6,52.0,0,0,0,0,1,0,0,0
2021/10/27 04:46:52,4.1,31.8,29.2,30.3,53.6,52.0,0,0,0,0,1,0,0,0
2021/10/27 04:48:50,4.1,31.7,29.1,30.3,53.5,52.0,0,0,0,0,1,0,0,0
2021/10/27 04:50:46,4.1,31.6,29.0,30.3,53.5,52.0,0,0,0,0,1,0,0,0
2021/10/27 04:52:44,4.2,31.5,29.0,30.3,53.4,52.0,0,0,0,0,1,0,0,0
2021/10/27 04:54:40,4.2,31.4,28.9,30.3,53.4,52.0,0,0,0,0,1,0,0,0
2021/10/27 04:56:36,4.2,31.3,28.8,30.3,53.4,52.0,0,0,0,0,1,0,0,0
2021/10/27 04:58:32,4.3,31.2,28.7,30.3,53.3,52.0,0,0,0,0,1,0,0,0
2021/10/27 05:00:25,4.3,31.2,28.7,30.3,53.3,52.0,0,0,0,0,1,0,0,0
2021/10/27 05:02:22,4.3,31.1,28.6,30.3,53.3,52.0,0,0,0,0,1,0,0,0
2021/10/27 05:04:17,4.3,31.0,28.5,30.3,53.3,52.0,0,0,0,0,1,0,0,0
2021/10/27 05:06:13,4.3,31.0,28.5,30.3,53.2,52.0,0,0,0,0,1,0,0,0
2021/10/27 05:08:10,4.3,30.9,28.4,30.3,53.2,52.0,0,0,0,0,1,0,0,0
2021/10/27 05:10:05,4.3,30.8,28.3,30.3,53.2,52.0,0,0,0,0,1,0,0,0
2021/10/27 05:12:03,4.3,30.8,28.3,30.3,53.1,52.0,0,0,0,0,1,0,0,0
2021/10/27 05:14:02,4.3,30.7,28.2,30.3,53.1,52.0,0,0,0,0,1,0,0,0
2021/10/27 05:15:56,4.3,30.6,28.1,30.3,53.1,52.0,0,0,0,0,1,0,0,0
2021/10/27 05:18:51,4.2,30.6,28.1,30.3,53.1,52.0,0,0,0,0,1,0,0,0
2021/10/27 05:20:42,4.2,30.5,28.0,30.3,53.0,52.0,0,0,0,0,1,0,0,0
2021/10/27 05:22:40,4.2,30.5,27.9,30.3,53.0,52.0,0,0,0,0,1,0,0,0
2021/10/27 05:24:35,4.2,30.4,27.9,30.3,53.0,52.0,0,0,0,0,1,0,0,0
2021/10/27 05:26:29,4.1,30.4,27.8,30.3,52.9,52.0,0,0,0,0,1,0,0,0
2021/10/27 05:28:25,4.1,30.3,27.7,30.3,52.9,52.0,0,0,0,0,1,0,0,0
2021/10/27 05:30:17,4.1,30.3,27.7,30.3,52.8,52.0,0,0,0,0,1,0,0,0
2021/10/27 05:32:15,4.0,30.2,27.6,30.3,51.8,52.0,0,0,0,0,1,0,0,0
2021/10/27 05:34:11,4.0,30.2,27.6,30.3,50.8,52.0,0,0,0,0,1,0,0,0
2021/10/27 05:36:06,4.0,30.2,27.5,30.3,50.3,52.0,0,0,0,0,1,0,0,0
2021/10/27 05:38:01,4.0,30.1,27.5,30.3,50.1,52.0,0,0,0,0,1,0,0,0
2021/10/27 05:40:01,3.9,30.1,27.4,30.8,49.9,52.0,0,0,0,0,1,0,0,0
2021/10/27 05:41:57,3.9,28.5,27.7,30.8,49.8,52.0,0,0,1,0,1,0,1,0
2021/10/27 05:43:56,3.9,30.9,27.8,30.8,49.7,52.0,1,0,1,0,1,0,1,0
2021/10/27 05:45:55,3.9,31.3,28.0,30.8,49.6,52.0,1,0,1,0,1,0,1,0
2021/10/27 05:47:52,3.9,31.5,28.0,30.8,49.5,52.0,1,0,1,0,1,0,1,0
2021/10/27 05:50:51,3.9,31.9,28.3,30.8,49.4,52.0,1,0,1,0,1,0,1,0
2021/10/27 05:52:47,3.9,32.1,28.4,30.8,49.3,52.0,1,0,1,0,1,0,1,0
2021/10/27 05:54:44,3.9,32.3,28.6,30.8,49.2,52.0,1,0,1,0,1,0,1,0
2021/10/27 05:56:40,3.9,32.6,28.8,30.8,49.1,52.0,1,0,1,0,1,0,1,0
2021/10/27 05:58:33,3.9,33.0,29.1,30.8,49.0,52.0,1,0,1,0,1,0,1,0
2021/10/27 06:00:29,3.9,33.3,29.3,30.8,48.9,52.0,1,0,1,0,1,0,1,0
2021/10/27 06:02:24,3.9,33.5,29.5,30.8,48.8,52.0,1,0,1,0,1,0,1,0
2021/10/27 06:04:20,4.0,33.8,29.8,30.3,48.8,52.0,1,0,1,0,1,0,1,0
2021/10/27 06:06:19,4.0,33.7,29.7,30.3,48.7,52.0,1,0,1,0,1,0,1,0
2021/10/27 06:08:16,4.0,33.7,29.6,30.3,48.6,52.0,1,0,1,0,1,0,1,0
2021/10/27 06:10:14,4.0,33.7,29.7,30.3,48.5,52.0,1,0,1,0,1,0,1,0
2021/10/27 06:12:13,4.0,34.0,29.9,30.3,48.5,52.0,1,0,1,0,1,0,1,0
2021/10/27 06:14:09,4.0,34.0,30.0,30.3,48.4,52.0,1,0,1,0,1,0,1,0
2021/10/27 06:16:04,4.0,34.5,30.2,30.3,48.3,52.0,1,0,1,0,1,0,1,0
2021/10/27 06:18:02,4.0,34.6,30.0,30.3,48.2,52.0,1,0,1,0,1,0,1,0
2021/10/27 06:19:58,3.9,34.4,30.2,30.8,48.2,52.0,1,0,1,0,1,0,1,0
2021/10/27 06:21:54,3.9,34.8,30.4,30.8,48.1,52.0,1,0,1,0,1,0,1,0
2021/10/27 06:24:49,3.9,34.8,30.3,30.8,48.0,52.0,1,0,1,0,1,0,1,0
2021/10/27 06:26:43,3.9,34.9,30.4,30.8,47.9,52.0,1,0,1,0,1,0,1,0
2021/10/27 06:28:39,3.9,35.0,30.6,30.8,47.9,52.0,1,0,1,0,1,0,1,0
2021/10/27 06:30:36,3.8,35.2,30.7,30.8,47.8,52.0,1,0,1,0,1,0,1,0
2021/10/27 06:32:29,3.8,35.4,31.0,30.8,47.8,52.0,1,0,1,0,1,0,1,0
2021/10/27 06:34:24,3.7,35.5,31.0,30.8,47.7,52.0,1,0,1,0,1,0,1,0
2021/10/27 06:36:22,3.7,35.6,31.1,30.8,47.6,52.0,1,0,1,0,1,0,1,0
2021/10/27 06:38:18,3.7,35.7,31.2,30.8,47.6,52.0,1,0,1,0,1,0,1,0
2021/10/27 06:40:14,3.7,35.9,31.4,30.8,47.5,52.0,1,0,1,0,1,0,1,0
2021/10/27 06:42:11,3.7,36.1,31.5,30.8,47.4,52.0,1,0,1,0,1,0,1,0
2021/10/27 06:44:05,3.7,36.1,31.6,30.8,47.3,52.0,1,0,1,0,1,0,1,0
2021/10/27 06:46:03,3.7,36.3,31.8,30.8,47.3,52.0,1,0,1,0,1,0,1,0
2021/10/27 06:47:58,3.7,36.4,31.8,30.8,47.2,52.0,1,0,1,0,1,0,1,0
2021/10/27 06:49:52,3.8,36.6,32.0,30.8,47.1,52.0,1,0,1,0,1,0,1,0
2021/10/27 06:52:49,3.8,36.6,32.0,30.8,47.0,52.0,1,0,1,0,1,0,1,0
2021/10/27 06:54:43,3.8,36.8,32.2,30.8,46.9,52.0,1,0,1,0,1,0,1,0
2021/10/27 06:56:39,3.9,36.8,32.2,30.8,46.9,52.0,1,0,1,0,1,0,1,0
2021/10/27 06:58:37,3.9,37.0,32.4,30.8,46.8,52.0,1,0,1,0,1,0,1,0
2021/10/27 07:00:32,3.9,37.1,32.5,30.8,46.7,52.0,1,0,1,0,1,0,1,0
2021/10/27 07:02:30,3.9,37.2,32.6,30.8,46.6,52.0,1,0,1,0,1,0,1,0
2021/10/27 07:04:28,3.9,37.2,32.6,30.8,46.6,52.0,1,0,1,0,1,0,1,0
2021/10/27 07:06:27,4.0,35.0,32.8,30.3,46.5,52.0,0,0,1,0,1,0,1,0
2021/10/27 07:08:24,4.0,34.9,33.4,30.3,46.4,52.0,0,0,0,0,1,0,1,0
2021/10/27 07:10:21,3.9,34.8,33.0,30.8,46.3,52.0,0,0,0,0,1,0,0,0
2021/10/27 07:12:21,3.9,34.4,32.7,30.8,46.2,52.0,0,0,0,0,1,0,0,0
2021/10/27 07:14:16,3.9,34.2,32.4,30.8,46.1,52.0,0,0,0,0,1,0,0,0
2021/10/27 07:16:12,3.9,34.0,32.2,30.8,46.0,52.0,0,0,0,0,1,0,0,0
2021/10/27 07:18:10,3.9,33.8,32.0,30.8,45.9,52.0,0,0,0,0,1,0,0,0
2021/10/27 07:20:07,3.9,33.7,31.8,30.8,45.9,52.0,0,0,0,0,1,0,0,0
2021/10/27 07:22:04,3.9,33.5,31.6,30.8,45.7,52.0,0,0,0,0,1,0,0,0
2021/10/27 07:24:00,3.9,33.4,31.4,30.8,45.6,52.0,0,0,0,0,1,0,0,0
2021/10/27 07:25:54,3.9,33.3,31.2,30.8,45.5,52.0,0,0,0,0,1,0,0,0
2021/10/27 07:28:48,3.9,33.3,30.9,30.8,45.4,52.0,0,0,0,0,1,0,0,0
2021/10/27 07:30:44,3.9,33.2,30.7,30.8,45.3,52.0,0,0,0,0,1,0,0,0
2021/10/27 07:32:39,3.9,33.1,30.5,30.8,45.3,52.0,0,0,0,0,1,0,0,0
2021/10/27 07:34:38,3.9,33.1,30.3,30.8,45.2,52.0,0,0,0,0,1,0,0,0
2021/10/27 07:36:32,3.9,33.0,30.1,30.8,45.1,52.0,0,0,0,0,1,0,0,0
2021/10/27 07:38:27,3.9,32.9,29.9,30.8,45.0,52.0,0,0,0,0,1,0,0,0
2021/10/27 07:40:25,3.9,32.9,29.8,30.8,45.0,52.0,0,0,0,0,1,0,0,0
2021/10/27 07:42:23,3.9,32.8,29.6,30.8,44.9,52.0,0,0,0,0,1,0,0,0
2021/10/27 07:44:22,3.8,32.8,29.4,30.8,44.8,52.0,0,0,0,0,1,0,0,0
2021/10/27 07:46:20,3.8,32.7,29.3,30.8,44.8,52.0,0,0,0,0,1,0,0,0
2021/10/27 07:48:15,3.8,32.7,29.1,30.8,44.7,52.0,0,0,0,0,1,0,0,0
2021/10/27 07:50:14,3.8,32.6,29.0,30.8,44.6,52.0,0,0,0,0,1,0,0,0
2021/10/27 07:52:10,3.8,32.6,28.9,30.8,44.6,52.0,0,0,0,0,1,0,0,0
2021/10/27 07:54:06,3.8,32.5,28.7,30.8,44.5,52.0,0,0,0,0,1,0,0,0
2021/10/27 07:56:03,3.8,32.5,28.6,30.8,44.4,52.0,0,0,0,0,1,0,0,0
2021/10/27 07:57:59,3.8,32.5,28.4,30.8,44.3,52.0,0,0,0,0,1,0,0,0
2021/10/27 08:00:51,3.8,32.4,28.3,30.8,44.3,52.0,0,0,0,0,1,0,0,0
2021/10/27 08:02:49,3.8,32.4,28.2,30.8,44.2,52.0,0,0,0,0,1,0,0,0
2021/10/27 08:04:41,3.8,32.3,28.0,30.8,44.1,52.0,0,0,0,0,1,0,0,0
2021/10/27 08:06:38,3.8,32.3,27.9,30.8,44.1,52.0,0,0,0,0,1,0,0,0
2021/10/27 08:08:36,3.8,32.0,34.0,30.8,43.9,52.0,0,1,1,0,0,1,1,0
2021/10/27 08:10:34,3.7,38.8,34.8,30.8,43.2,52.0,0,1,1,0,0,1,1,0
2021/10/27 08:12:31,3.7,41.7,38.0,30.8,43.0,52.0,0,1,1,0,0,1,1,0
2021/10/27 08:14:27,3.7,43.4,39.3,30.8,43.0,52.0,0,1,1,0,0,1,1,0
2021/10/27 08:16:26,3.6,44.4,40.2,30.8,43.2,52.0,0,1,1,0,0,1,1,0
2021/10/27 08:18:20,3.6,45.3,41.0,30.8,43.5,52.0,0,1,1,0,0,1,1,0
2021/10/27 08:20:16,3.6,46.0,41.7,30.8,43.9,52.0,0,1,1,0,0,1,1,0
2021/10/27 08:22:14,3.6,46.7,42.2,30.8,44.1,52.0,0,1,1,0,0,1,1,0
2021/10/27 08:24:13,3.6,47.3,42.7,30.8,44.4,52.0,0,1,1,0,0,1,1,0
2021/10/27 08:26:11,3.6,47.8,43.2,30.8,44.8,52.0,0,1,1,0,0,1,1,0
2021/10/27 08:28:10,3.6,49.3,43.7,30.8,45.2,52.0,1,1,1,0,0,1,1,0
2021/10/27 08:30:08,3.6,52.3,45.3,30.8,45.7,52.0,1,1,1,0,0,1,1,0
2021/10/27 08:32:06,3.6,53.9,46.9,30.8,46.3,52.0,1,1,1,0,0,1,1,0
2021/10/27 08:34:02,3.6,55.0,48.0,30.8,47.3,52.0,1,1,1,0,0,1,1,0
2021/10/27 08:36:00,3.6,56.1,48.9,30.8,48.2,52.0,1,1,1,0,0,1,1,0
2021/10/27 08:37:56,3.6,57.1,49.7,30.8,49.0,52.0,1,1,1,0,0,1,1,0
2021/10/27 08:39:55,3.6,58.0,50.7,30.8,49.9,52.0,1,1,1,0,0,1,1,0
2021/10/27 08:42:51,3.6,58.9,51.7,30.8,50.9,52.0,1,1,1,0,0,1,1,0
2021/10/27 08:44:49,3.6,59.7,52.5,30.8,52.0,52.0,1,0,1,0,1,1,1,0
2021/10/27 08:46:48,3.6,37.9,31.6,30.8,52.8,52.0,1,0,1,0,1,0,1,0
2021/10/27 08:48:46,3.6,34.2,29.2,30.8,53.2,52.0,1,0,1,0,1,0,1,0
2021/10/27 08:50:45,3.6,33.3,28.5,30.8,53.3,52.0,1,0,1,0,1,0,1,0
2021/10/27 08:52:44,3.6,32.6,28.0,30.8,53.3,52.0,1,0,1,0,1,0,1,0
2021/10/27 08:54:43,3.6,32.6,28.1,30.8,53.2,52.0,1,0,1,0,1,0,1,0
2021/10/27 08:56:38,3.6,32.6,28.3,30.8,53.1,52.0,1,0,1,0,1,0,1,0
2021/10/27 08:58:36,3.6,32.7,28.5,30.8,53.0,52.0,1,0,1,0,1,0,1,0
2021/10/27 09:00:32,3.6,32.8,28.7,30.8,52.9,52.0,1,0,1,0,1,0,1,0
2021/10/27 09:02:29,3.7,32.9,28.8,30.8,52.8,52.0,1,0,1,0,1,0,1,0
2021/10/27 09:04:26,3.7,32.9,28.8,30.8,52.7,52.0,1,0,1,0,1,0,1,0
2021/10/27 09:06:23,3.7,32.9,28.9,30.8,52.6,52.0,1,0,1,0,1,0,1,0
2021/10/27 09:08:21,3.7,33.0,29.0,30.8,52.5,52.0,1,0,1,0,1,0,1,0
2021/10/27 09:10:19,3.8,33.1,29.0,30.8,52.4,52.0,1,0,1,0,1,0,1,0
2021/10/27 09:12:15,3.8,33.2,29.2,30.8,52.3,52.0,1,0,1,0,1,0,1,0
2021/10/27 09:14:12,3.8,33.3,29.3,30.8,52.2,52.0,1,0,1,0,1,0,1,0
2021/10/27 09:16:10,3.9,33.4,29.3,30.8,52.1,52.0,1,0,1,0,1,0,1,0
2021/10/27 09:18:07,3.9,33.5,29.4,30.8,52.0,52.0,1,0,1,0,1,0,1,0
2021/10/27 09:20:02,4.0,33.6,29.5,30.3,51.9,52.0,1,0,1,0,1,0,1,0
2021/10/27 09:22:00,4.0,33.7,29.6,30.3,51.8,52.0,1,0,1,0,1,0,1,0
2021/10/27 09:23:57,4.1,33.8,29.7,30.3,51.7,52.0,1,0,1,0,1,0,1,0
2021/10/27 09:26:51,4.1,33.9,29.8,30.3,51.7,52.0,1,0,1,0,1,0,1,0
2021/10/27 09:28:48,4.1,34.0,29.9,30.3,51.6,52.0,1,0,1,0,1,0,1,0
2021/10/27 09:30:41,4.2,34.1,30.0,30.3,51.5,52.0,1,0,1,0,1,0,1,0
2021/10/27 09:32:40,4.2,34.6,30.2,30.3,51.4,52.0,1,0,1,0,1,0,1,0
2021/10/27 09:34:35,4.2,34.8,30.3,30.3,51.3,52.0,1,0,1,0,1,0,1,0
2021/10/27 09:36:30,4.3,34.8,30.3,30.3,51.2,52.0,1,0,1,0,1,0,1,0
2021/10/27 09:38:26,4.3,34.9,30.4,30.3,51.2,52.0,1,0,1,0,1,0,1,0
2021/10/27 09:40:18,4.3,34.9,30.4,30.3,51.1,52.0,1,0,1,0,1,0,1,0
2021/10/27 09:42:14,4.4,35.0,30.5,30.3,51.0,52.0,1,0,1,0,1,0,1,0
2021/10/27 09:44:13,4.4,35.1,30.6,30.3,50.9,52.0,1,0,1,0,1,0,1,0
2021/10/27 09:46:10,4.5,35.1,30.7,30.3,50.9,52.0,1,0,1,0,1,0,1,0
2021/10/27 09:48:06,4.6,35.3,30.9,30.3,50.8,52.0,1,0,1,0,1,0,1,0
2021/10/27 09:50:04,4.6,35.6,31.1,30.3,50.7,52.0,1,0,1,0,1,0,1,0
2021/10/27 09:52:02,4.7,35.7,31.2,30.3,50.6,52.0,1,0,1,0,1,0,1,0
2021/10/27 09:53:57,4.7,35.8,31.3,30.3,50.6,52.0,1,0,1,0,1,0,1,0
2021/10/27 09:55:53,4.8,36.0,31.4,30.3,50.5,52.0,1,0,1,0,1,0,1,0
2021/10/27 09:58:50,4.9,36.0,31.4,30.3,50.4,52.0,1,0,1,0,1,0,1,0
2021/10/27 10:00:45,4.9,36.1,31.5,30.3,50.3,52.0,1,0,1,0,1,0,1,0
2021/10/27 10:02:41,5.1,34.2,31.8,29.7,50.2,52.0,0,0,1,0,1,0,1,0
2021/10/27 10:04:39,5.1,33.9,32.4,29.7,50.2,52.0,0,0,0,0,1,0,1,0
2021/10/27 10:06:35,5.2,33.9,32.2,29.7,50.1,52.0,0,0,0,0,1,0,0,0
2021/10/27 10:08:31,5.3,33.6,31.9,29.7,50.0,52.0,0,0,0,0,1,0,0,0
2021/10/27 10:10:27,5.3,33.4,31.7,29.7,50.0,52.0,0,0,0,0,1,0,0,0
2021/10/27 10:12:23,5.4,33.2,31.4,29.7,49.9,52.0,0,0,0,0,1,0,0,0
2021/10/27 10:14:17,5.5,33.0,31.3,29.7,49.9,52.0,0,0,0,0,1,0,0,0
2021/10/27 10:16:12,5.5,32.9,31.1,29.7,49.8,52.0,0,0,0,0,1,0,0,0
2021/10/27 10:18:09,5.6,32.8,30.9,29.7,49.7,52.0,0,0,0,0,1,0,0,0
2021/10/27 10:20:06,5.7,32.7,30.7,29.7,49.7,52.0,0,0,0,0,1,0,0,0
2021/10/27 10:22:00,5.8,32.6,30.6,29.7,49.6,52.0,0,0,0,0,1,0,0,0
2021/10/27 10:23:57,5.8,32.5,30.4,29.7,49.6,52.0,0,0,0,0,1,0,0,0
2021/10/27 10:25:54,5.9,32.4,30.2,29.7,49.5,52.0,0,0,0,0,1,0,0,0
2021/10/27 10:28:48,6.0,32.3,30.1,29.1,49.4,52.0,0,0,0,0,1,0,0,0
2021/10/27 10:30:45,6.1,32.3,29.9,29.1,49.4,52.0,0,0,0,0,1,0,0,0
2021/10/27 10:32:41,6.2,32.2,29.8,29.1,49.3,52.0,0,0,0,0,1,0,0,0
2021/10/27 10:34:35,6.2,32.2,29.7,29.1,49.3,52.0,0,0,0,0,1,0,0,0
2021/10/27 10:36:30,6.3,32.1,29.5,29.1,49.2,52.0,0,0,0,0,1,0,0,0
2021/10/27 10:38:25,6.4,32.1,29.4,29.1,49.1,52.0,0,0,0,0,1,0,0,0
2021/10/27 10:40:22,6.4,32.0,29.3,29.1,49.1,52.0,0,0,0,0,1,0,0,0
2021/10/27 10:42:13,6.5,32.0,29.2,29.1,49.0,52.0,0,0,0,0,1,0,0,0
2021/10/27 10:44:09,6.6,31.9,29.1,29.1,49.0,52.0,0,0,0,0,1,0,0,0
2021/10/27 10:46:02,6.6,31.9,29.0,29.1,48.9,52.0,0,0,0,0,1,0,0,0
2021/10/27 10:48:00,6.7,31.9,28.8,29.1,48.8,52.0,0,0,0,0,1,0,0,0
2021/10/27 10:49:53,6.8,31.8,28.7,29.1,48.8,52.0,0,0,0,0,1,0,0,0
2021/10/27 10:52:47,6.8,31.8,28.6,29.1,48.7,52.0,0,0,0,0,1,0,0,0
2021/10/27 10:54:44,6.8,31.7,28.5,29.1,48.7,52.0,0,0,0,0,1,0,0,0
2021/10/27 10:56:40,6.9,31.7,28.4,29.1,48.6,52.0,0,0,0,0,1,0,0,0
2021/10/27 10:58:33,7.0,31.7,28.3,29.1,48.6,52.0,0,0,0,0,1,0,0,0
2021/10/27 11:00:33,7.0,31.6,28.2,28.6,48.5,52.0,0,0,0,0,1,0,0,0
2021/10/27 11:02:29,7.1,31.6,28.2,28.6,48.4,52.0,0,0,0,0,1,0,0,0
2021/10/27 11:04:24,7.1,31.6,28.1,28.6,48.4,52.0,0,0,0,0,1,0,0,0
2021/10/27 11:06:18,7.2,31.5,28.0,28.6,48.3,52.0,0,0,0,0,1,0,0,0
2021/10/27 11:08:11,7.3,31.5,27.9,28.6,48.3,52.0,0,0,0,0,1,0,0,0
2021/10/27 11:10:09,7.3,31.5,27.8,28.6,48.2,52.0,0,0,0,0,1,0,0,0
2021/10/27 11:12:05,7.4,31.4,27.7,28.6,48.1,52.0,0,0,0,0,1,0,0,0
2021/10/27 11:14:01,7.5,31.4,27.7,28.6,48.1,52.0,0,0,0,0,1,0,0,0
2021/10/27 11:15:59,7.6,31.4,27.6,28.6,48.0,52.0,0,0,0,0,1,0,0,0
2021/10/27 11:18:52,7.7,31.3,27.5,28.6,48.0,52.0,0,0,0,0,1,0,0,0
2021/10/27 11:20:48,7.7,31.3,27.4,28.6,47.9,52.0,0,0,0,0,1,0,0,0
2021/10/27 11:22:46,7.7,31.2,27.4,28.6,47.9,52.0,0,0,0,0,1,0,0,0
2021/10/27 11:24:45,7.8,31.2,27.3,28.6,47.8,52.0,0,0,0,0,1,0,0,0
2021/10/27 11:26:40,7.8,31.2,27.2,28.6,47.7,52.0,0,0,0,0,1,0,0,0
2021/10/27 11:28:37,7.8,31.1,27.2,28.6,47.7,52.0,0,0,0,0,1,0,0,0
2021/10/27 11:30:30,7.8,31.1,27.1,28.6,47.6,52.0,0,0,0,0,1,0,0,0
2021/10/27 11:32:23,8.0,31.1,27.0,28.0,47.6,52.0,0,0,0,0,1,0,0,0
2021/10/27 11:34:15,8.1,31.0,26.9,28.0,47.5,52.0,0,0,0,0,1,0,0,0
2021/10/27 11:36:10,8.2,31.0,26.9,28.0,47.4,52.0,0,0,0,0,1,0,0,0
2021/10/27 11:38:07,8.3,30.9,26.8,28.0,47.4,52.0,0,0,0,0,1,0,0,0
2021/10/27 11:40:00,8.4,30.9,26.7,28.0,47.3,52.0,0,0,0,0,1,0,0,0
2021/10/27 11:42:00,8.5,30.9,26.7,28.0,47.3,52.0,0,0,0,0,1,0,0,0
2021/10/27 11:43:55,8.5,30.8,26.6,28.0,47.2,52.0,0,0,0,0,1,0,0,0
2021/10/27 11:46:51,8.5,30.8,26.5,28.0,47.2,52.0,0,0,0,0,1,0,0,0
2021/10/27 11:48:45,8.5,30.8,26.5,28.0,47.1,52.0,0,0,0,0,1,0,0,0
2021/10/27 11:50:43,8.5,30.7,26.4,28.0,47.0,52.0,0,0,0,0,1,0,0,0
2021/10/27 11:52:37,8.5,30.7,26.4,28.0,47.0,52.0,0,0,0,0,1,0,0,0
2021/10/27 11:54:33,8.5,30.6,26.3,28.0,46.9,52.0,0,0,0,0,1,0,0,0
2021/10/27 11:56:29,8.5,30.6,26.3,28.0,46.8,52.0,0,0,0,0,1,0,0,0
2021/10/27 11:58:25,8.5,30.5,26.2,28.0,46.8,52.0,0,0,0,0,1,0,0,0
2021/10/27 12:00:23,8.5,30.5,26.1,28.0,46.7,52.0,0,0,0,0,1,0,0,0
2021/10/27 12:02:18,8.5,30.5,26.1,28.0,46.6,52.0,0,0,0,0,1,0,0,0
2021/10/27 12:04:16,8.5,30.4,26.0,28.0,46.5,52.0,0,0,0,0,1,0,0,0
2021/10/27 12:06:09,8.5,30.4,25.9,28.0,46.4,52.0,0,0,0,0,1,0,0,0
2021/10/27 12:08:02,8.6,30.3,25.9,28.0,46.4,52.0,0,0,0,0,1,0,0,0
2021/10/27 12:10:00,8.6,30.3,25.8,28.0,46.3,52.0,0,0,0,0,1,0,0,0
2021/10/27 12:11:57,8.7,30.3,25.7,28.0,46.2,52.0,0,0,0,0,1,0,0,0
2021/10/27 12:14:49,8.7,30.2,25.6,28.0,46.1,52.0,0,0,0,0,1,0,0,0
2021/10/27 12:16:44,8.8,30.2,25.6,28.0,46.0,52.0,0,0,0,0,1,0,0,0
2021/10/27 12:18:41,8.8,30.2,25.5,28.0,45.9,52.0,0,0,0,0,1,0,0,0
2021/10/27 12:20:34,8.8,30.1,25.4,28.0,45.9,52.0,0,0,0,0,1,0,0,0
2021/10/27 12:22:30,8.8,30.1,25.4,28.0,45.8,52.0,0,0,0,0,1,0,0,0
2021/10/27 12:24:28,8.9,30.0,25.3,28.0,45.6,52.0,0,0,0,0,1,0,0,0
2021/10/27 12:26:22,8.9,30.0,25.2,28.0,45.5,52.0,0,0,0,0,1,0,0,0
2021/10/27 12:28:20,9.0,30.0,25.2,27.4,45.5,52.0,0,0,0,0,1,0,0,0
2021/10/27 12:30:15,9.0,29.9,25.1,27.4,45.5,52.0,0,0,0,0,1,0,0,0
2021/10/27 12:32:13,9.0,29.9,25.0,27.4,45.6,52.0,0,0,0,0,1,0,0,0
2021/10/27 12:34:09,9.1,29.9,25.0,27.4,45.8,52.0,0,0,0,0,1,0,0,0
2021/10/27 12:36:04,9.1,29.9,25.0,27.4,45.8,52.0,0,0,0,0,1,0,0,0
2021/10/27 12:38:02,9.2,29.8,24.9,27.4,45.9,52.0,0,0,0,0,1,0,0,0
2021/10/27 12:39:57,9.2,29.8,24.9,27.4,46.1,52.0,0,0,0,0,1,0,0,0
2021/10/27 12:41:53,9.2,29.8,24.8,27.4,46.2,52.0,0,0,0,0,1,0,0,0
2021/10/27 12:44:50,9.2,29.7,24.8,27.4,46.2,52.0,0,0,0,0,1,0,0,0
2021/10/27 12:46:46,9.2,29.7,24.7,27.4,46.2,52.0,0,0,0,0,1,0,0,0
2021/10/27 12:48:40,9.3,29.7,24.7,27.4,46.1,52.0,0,0,0,0,1,0,0,0
2021/10/27 12:50:36,9.3,29.6,24.7,27.4,46.0,52.0,0,0,0,0,1,0,0,0
2021/10/27 12:52:27,9.4,29.6,24.6,27.4,45.9,52.0,0,0,0,0,1,0,0,0
2021/10/27 12:54:26,9.5,29.5,24.6,27.4,45.8,52.0,0,0,0,0,1,0,0,0
2021/10/27 12:56:24,9.6,29.5,24.5,27.4,45.7,52.0,0,0,0,0,1,0,0,0
2021/10/27 12:58:22,9.6,25.7,24.5,27.4,45.7,52.0,0,0,1,0,1,0,1,0
2021/10/27 13:00:20,9.7,27.9,24.5,27.4,45.6,52.0,0,1,1,0,1,0,1,0
2021/10/27 13:02:18,9.7,27.9,24.4,27.4,45.5,52.0,0,1,1,0,1,0,1,0
2021/10/27 13:04:16,9.7,28.0,24.4,27.4,45.4,52.0,0,1,1,0,1,0,1,0
2021/10/27 13:06:13,9.7,28.2,24.4,27.4,45.3,52.0,0,1,1,0,1,0,1,0
2021/10/27 13:08:10,9.7,28.5,24.5,27.4,45.2,52.0,0,1,1,0,1,0,1,0
2021/10/27 13:10:08,9.8,28.6,24.7,27.4,45.1,52.0,0,1,1,0,1,0,1,0
2021/10/27 13:12:05,9.8,28.8,24.9,27.4,45.1,52.0,0,1,1,0,1,0,1,0
2021/10/27 13:14:00,9.8,29.1,25.1,27.4,45.0,52.0,0,1,1,0,1,0,1,0
2021/10/27 13:15:59,9.8,29.3,25.3,27.4,44.9,52.0,0,1,1,0,1,0,1,0
2021/10/27 13:17:56,9.8,29.5,25.6,27.4,44.9,52.0,0,1,1,0,1,0,1,0
2021/10/27 13:20:50,9.8,29.7,25.8,27.4,44.8,52.0,0,1,1,0,1,0,1,0
2021/10/27 13:22:44,9.8,29.9,26.0,27.4,44.7,52.0,0,1,1,0,1,0,1,0
2021/10/27 13:24:41,9.8,30.1,26.2,27.4,44.6,52.0,0,1,1,0,1,0,1,0
2021/10/27 13:26:41,9.9,30.3,26.4,27.4,44.6,52.0,0,1,1,0,1,0,1,0
2021/10/27 13:28:34,9.9,30.5,26.6,27.4,44.5,52.0,0,1,1,0,1,0,1,0
2021/10/27 13:30:31,9.9,30.7,26.8,27.4,44.4,52.0,0,1,1,0,1,0,1,0
2021/10/27 13:32:28,9.9,30.9,26.9,27.4,44.4,52.0,0,1,1,0,1,0,1,0
2021/10/27 13:34:24,9.9,31.1,27.1,27.4,44.3,52.0,0,1,1,0,1,0,1,0
2021/10/27 13:36:21,9.9,31.3,27.3,27.4,44.3,52.0,0,1,1,0,1,0,1,0
2021/10/27 13:38:16,10.0,31.5,27.5,26.8,44.2,52.0,0,1,1,0,1,0,1,0
2021/10/27 13:40:12,10.0,31.7,27.7,26.8,44.1,52.0,0,1,1,0,1,0,1,0
2021/10/27 13:42:11,10.1,31.9,27.9,26.8,44.1,52.0,0,1,1,0,1,0,1,0
2021/10/27 13:44:10,10.2,39.5,34.9,26.8,44.0,52.0,1,1,1,0,0,1,1,0
2021/10/27 13:46:08,10.2,45.0,38.8,26.8,43.8,52.0,1,1,1,0,0,1,1,0
2021/10/27 13:48:03,10.2,49.0,42.4,26.8,43.9,52.0,1,1,1,0,0,1,1,0
2021/10/27 13:50:01,10.1,51.0,44.2,26.8,44.3,52.0,1,1,1,0,0,1,1,0
2021/10/27 13:52:00,10.1,52.5,45.3,26.8,45.0,52.0,1,1,1,0,0,1,1,0
2021/10/27 13:53:58,10.1,53.6,46.3,26.8,46.0,52.0,1,1,1,0,0,1,1,0
2021/10/27 13:55:54,10.0,54.5,47.3,26.8,46.9,52.0,1,1,1,0,0,1,1,0
2021/10/27 13:58:52,10.0,55.5,48.3,26.8,47.9,52.0,1,1,1,0,0,1,1,0
2021/10/27 14:00:48,9.9,56.6,49.2,27.4,48.8,52.0,1,1,1,0,0,1,1,1
2021/10/27 14:02:45,9.9,57.6,50.2,27.4,49.7,52.0,1,1,1,0,0,1,1,1
2021/10/27 14:04:40,9.9,58.6,51.3,27.4,50.6,52.0,1,1,1,0,0,1,1,1
2021/10/27 14:06:34,9.9,59.5,52.3,27.4,51.7,52.0,1,1,1,0,0,1,1,1
2021/10/27 14:08:33,9.9,60.5,53.3,27.4,53.0,52.0,1,1,1,0,0,1,1,1
2021/10/27 14:10:29,9.9,61.6,54.3,27.4,54.1,52.0,1,1,1,0,0,1,1,1
2021/10/27 14:12:27,9.9,59.5,54.4,27.4,55.0,52.0,1,0,1,0,0,1,1,1
2021/10/27 14:14:20,10.0,59.3,54.4,26.8,55.9,52.0,1,0,1,0,0,1,1,1
2021/10/27 14:16:16,10.0,59.7,54.7,26.8,56.4,52.0,1,0,1,0,0,1,1,1
2021/10/27 14:18:11,10.0,60.0,55.1,26.8,56.8,52.0,1,0,1,0,0,1,1,1
2021/10/27 14:20:09,10.0,60.5,55.6,26.8,57.2,52.0,1,0,1,0,0,1,1,1
2021/10/27 14:22:08,10.0,61.0,56.1,26.8,57.7,52.0,1,0,1,0,0,1,1,1
2021/10/27 14:24:04,10.0,61.3,56.4,26.8,58.1,52.0,1,0,1,0,1,0,1,1
2021/10/27 14:26:02,10.0,37.3,31.8,26.8,58.4,52.0,1,0,1,0,1,0,1,1
2021/10/27 14:28:00,10.0,35.5,30.4,26.8,58.5,52.0,1,0,1,0,1,0,1,1
2021/10/27 14:29:56,10.0,34.5,29.9,26.8,58.5,52.0,1,0,1,0,1,0,1,1
2021/10/27 14:31:55,10.0,32.8,30.8,26.8,58.5,52.0,0,0,0,0,1,0,1,1
2021/10/27 14:33:53,10.0,32.9,31.1,26.8,58.4,52.0,0,0,0,0,1,0,0,1
2021/10/27 14:36:48,10.1,32.7,30.7,26.8,58.3,52.0,0,0,0,0,1,0,0,1
2021/10/27 14:38:46,10.1,32.4,30.4,26.8,58.2,52.0,0,0,0,0,1,0,0,1
2021/10/27 14:40:43,10.1,32.2,30.2,26.8,58.1,52.0,0,0,0,0,1,0,0,1
2021/10/27 14:42:41,10.1,32.0,30.0,26.8,58.0,52.0,0,0,0,0,1,0,0,1
2021/10/27 14:44:33,10.1,31.8,29.9,26.8,57.9,52.0,0,0,0,0,1,0,0,1
2021/10/27 14:46:29,10.1,31.6,29.8,26.8,57.8,52.0,0,0,0,0,1,0,0,1
2021/10/27 14:48:21,10.1,31.5,29.6,26.8,57.7,52.0,0,0,0,0,1,0,0,1
2021/10/27 14:50:17,10.1,31.4,29.5,26.8,57.7,52.0,0,0,0,0,1,0,0,1
2021/10/27 14:52:16,10.2,31.3,29.4,26.8,57.6,52.0,0,0,0,0,1,0,0,1
2021/10/27 14:54:12,10.2,31.2,29.3,26.8,57.5,52.0,0,0,0,0,1,0,0,1
2021/10/27 14:56:04,10.2,31.1,29.2,26.8,57.4,52.0,0,0,0,0,1,0,0,1
2021/10/27 14:58:02,10.2,31.0,29.1,26.8,57.3,52.0,0,0,0,0,1,0,0,1
2021/10/27 14:59:56,10.2,31.0,29.1,26.8,57.2,52.0,0,0,0,0,1,0,0,1
2021/10/27 15:02:52,10.2,30.9,29.0,26.8,57.1,52.0,0,0,0,0,1,0,0,1
2021/10/27 15:04:47,10.2,30.9,28.9,26.8,57.1,52.0,0,0,0,0,1,0,0,1
2021/10/27 15:06:43,10.2,30.8,28.8,26.8,57.0,52.0,0,0,0,0,1,0,0,1
2021/10/27 15:08:39,10.1,30.8,28.8,26.8,56.9,52.0,0,0,0,0,1,0,0,1
2021/10/27 15:10:33,10.1,30.7,28.7,26.8,56.8,52.0,0,0,0,0,1,0,0,1
2021/10/27 15:12:26,10.1,30.6,28.6,26.8,56.7,52.0,0,0,0,0,1,0,0,1
2021/10/27 15:14:24,10.1,30.6,28.5,26.8,56.6,52.0,0,0,0,0,1,0,0,1
2021/10/27 15:16:15,10.1,30.6,28.5,26.8,56.6,52.0,0,0,0,0,1,0,0,1
2021/10/27 15:18:09,10.1,30.5,28.4,26.8,56.5,52.0,0,0,0,0,1,0,0,1
2021/10/27 15:20:03,10.1,30.5,28.3,26.8,56.4,52.0,0,0,0,0,1,0,0,1
2021/10/27 15:22:01,10.1,30.4,28.3,26.8,56.3,52.0,0,0,0,0,1,0,0,1
2021/10/27 15:23:56,10.1,30.4,28.2,26.8,56.3,52.0,0,0,0,0,1,0,0,1
2021/10/27 15:26:52,10.2,30.3,28.1,26.8,56.2,52.0,0,0,0,0,1,0,0,1
2021/10/27 15:28:49,10.2,30.3,28.1,26.8,56.1,52.0,0,0,0,0,1,0,0,1
2021/10/27 15:30:44,10.2,30.3,28.0,26.8,56.0,52.0,0,0,0,0,1,0,0,1
2021/10/27 15:32:39,10.2,30.2,27.9,26.8,55.9,52.0,0,0,0,0,1,0,0,1
2021/10/27 15:34:36,10.2,30.2,27.9,26.8,55.8,52.0,0,0,0,0,1,0,0,1
2021/10/27 15:36:33,10.2,30.2,27.8,26.8,55.8,52.0,0,0,0,0,1,0,0,1
2021/10/27 15:38:28,10.2,30.1,27.7,26.8,55.7,52.0,0,0,0,0,1,0,0,1
2021/10/27 15:40:24,10.3,30.1,27.7,26.8,55.6,52.0,0,0,0,0,1,0,0,1
2021/10/27 15:42:21,10.4,30.1,27.6,26.8,55.5,52.0,0,0,0,0,1,0,0,1
2021/10/27 15:44:16,10.4,30.1,27.6,26.8,55.4,52.0,0,0,0,0,1,0,0,1
2021/10/27 15:46:13,10.4,30.0,27.5,26.8,55.4,52.0,0,0,0,0,1,0,0,1
2021/10/27 15:48:11,10.4,30.0,27.4,26.8,55.3,52.0,0,0,0,0,1,0,0,1
2021/10/27 15:50:07,10.4,30.0,27.4,26.8,55.2,52.0,0,0,0,0,1,0,0,1
2021/10/27 15:52:05,10.4,30.0,27.3,26.8,55.1,52.0,0,0,0,0,1,0,0,1
2021/10/27 15:54:00,10.4,29.9,27.3,26.8,55.1,52.0,0,0,0,0,1,0,0,1
2021/10/27 15:55:58,10.3,29.9,27.2,26.8,55.0,52.0,0,0,0,0,1,0,0,1
2021/10/27 15:58:50,10.2,29.9,27.1,26.8,54.9,52.0,0,0,0,0,1,0,0,1
2021/10/27 16:00:46,10.1,29.9,27.1,26.8,54.9,52.0,0,0,0,0,1,0,0,1
2021/10/27 16:02:44,10.1,29.8,27.0,26.8,54.8,52.0,0,0,0,0,1,0,0,1
2021/10/27 16:04:39,10.0,29.8,27.0,26.8,54.7,52.0,0,0,0,0,1,0,0,1
2021/10/27 16:06:31,10.0,29.8,26.9,26.8,54.7,52.0,0,0,0,0,1,0,0,1
2021/10/27 16:08:23,10.0,29.8,26.9,26.8,54.6,52.0,0,0,0,0,1,0,0,1
2021/10/27 16:10:21,10.0,29.8,26.8,26.8,54.5,52.0,0,0,0,0,1,0,0,1
2021/10/27 16:12:16,10.0,29.7,26.8,26.8,54.5,52.0,0,0,0,0,1,0,0,1
2021/10/27 16:14:15,10.0,29.7,26.7,26.8,54.4,52.0,0,0,0,0,1,0,0,1
2021/10/27 16:16:11,10.0,29.7,26.7,26.8,54.3,52.0,0,0,0,0,1,0,0,1
2021/10/27 16:18:07,10.0,29.7,26.7,26.8,54.3,52.0,0,0,0,0,1,0,0,1
2021/10/27 16:20:04,10.0,29.7,26.6,26.8,54.2,52.0,0,0,0,0,1,0,0,1
2021/10/27 16:22:01,10.0,29.6,26.6,26.8,54.1,52.0,0,0,0,0,1,0,0,1
2021/10/27 16:24:00,10.0,29.6,26.5,26.8,54.1,52.0,0,0,0,0,1,0,0,1
2021/10/27 16:25:56,10.0,29.6,26.5,26.8,54.0,52.0,0,0,0,0,1,0,0,1
2021/10/27 16:28:51,10.0,29.6,26.4,26.8,54.0,52.0,0,0,0,0,1,0,0,1
2021/10/27 16:30:46,10.1,29.5,26.4,26.8,53.9,52.0,0,0,0,0,1,0,0,1
2021/10/27 16:32:43,10.1,29.5,26.4,26.8,53.8,52.0,0,0,0,0,1,0,0,1
2021/10/27 16:34:37,10.1,29.5,26.3,26.8,53.7,52.0,0,0,0,0,1,0,0,1
2021/10/27 16:36:33,10.1,29.5,26.3,26.8,53.7,52.0,0,0,0,0,1,0,0,1
2021/10/27 16:38:29,10.1,29.5,26.2,26.8,53.6,52.0,0,0,0,0,1,0,0,1
2021/10/27 16:40:26,10.1,29.4,26.2,26.8,53.6,52.0,0,0,0,0,1,0,0,1
2021/10/27 16:42:20,10.1,29.4,26.2,26.8,53.5,52.0,0,0,0,0,1,0,0,1
2021/10/27 16:44:19,10.1,29.4,26.1,26.8,53.4,52.0,0,0,0,0,1,0,0,1
2021/10/27 16:46:12,10.1,29.4,26.1,26.8,53.4,52.0,0,0,0,0,1,0,0,1
2021/10/27 16:48:06,10.1,29.4,26.1,26.8,53.3,52.0,0,0,0,0,1,0,0,1
2021/10/27 16:50:01,10.1,29.3,26.0,26.8,53.2,52.0,0,0,0,0,1,0,0,1
2021/10/27 16:52:00,10.1,29.3,26.0,26.8,53.2,52.0,0,0,0,0,1,0,0,1
2021/10/27 16:53:55,10.1,29.3,25.9,26.8,53.1,52.0,0,0,0,0,1,0,0,1
2021/10/27 16:56:52,10.1,29.3,25.9,26.8,53.0,52.0,0,0,0,0,1,0,0,1
2021/10/27 16:58:47,10.1,29.3,25.9,26.8,53.0,52.0,0,0,0,0,1,0,0,1
2021/10/27 17:00:41,10.1,29.2,25.8,26.8,52.9,52.0,0,0,0,0,1,0,0,1
2021/10/27 17:02:37,10.1,29.2,25.8,26.8,52.8,52.0,0,0,0,0,1,0,0,1
2021/10/27 17:04:35,10.1,29.2,25.8,26.8,52.7,52.0,0,0,0,0,1,0,0,1
2021/10/27 17:06:29,10.1,29.2,25.7,26.8,52.7,52.0,0,0,0,0,1,0,0,1
2021/10/27 17:08:22,10.1,29.2,25.7,26.8,52.6,52.0,0,0,0,0,1,0,0,1
2021/10/27 17:10:15,10.1,29.1,25.7,26.8,52.6,52.0,0,0,0,0,1,0,0,1
2021/10/27 17:12:12,10.1,29.1,25.6,26.8,52.5,52.0,0,0,0,0,1,0,0,1
2021/10/27 17:14:08,10.0,29.1,25.6,26.8,52.4,52.0,0,0,0,0,1,0,0,1
2021/10/27 17:16:06,10.0,29.1,25.5,26.8,52.4,52.0,0,0,0,0,1,0,0,1
2021/10/27 17:18:00,10.0,29.1,25.5,26.8,52.3,52.0,0,0,0,0,1,0,0,1
2021/10/27 17:19:59,10.0,29.0,25.5,26.8,52.2,52.0,0,0,0,0,1,0,0,1
2021/10/27 17:22:51,9.9,29.0,25.4,26.8,52.2,52.0,0,0,0,0,1,0,0,1
2021/10/27 17:24:47,9.9,29.0,25.4,27.4,52.1,52.0,0,0,0,0,1,0,0,1
2021/10/27 17:26:42,9.9,27.5,25.4,27.4,52.0,52.0,0,0,0,0,1,0,1,1
2021/10/27 17:28:41,9.8,27.1,24.8,27.4,52.0,52.0,0,1,1,0,1,0,1,1
2021/10/27 17:30:40,9.8,28.2,24.8,27.4,51.9,52.0,0,1,1,0,1,0,1,1
2021/10/27 17:32:39,9.8,28.2,24.7,27.4,51.8,52.0,0,1,1,0,1,0,1,1
2021/10/27 17:34:38,9.7,28.4,24.7,27.4,51.8,52.0,0,1,1,0,1,0,1,1
2021/10/27 17:36:35,9.7,28.6,24.8,27.4,51.7,52.0,0,1,1,0,1,0,1,1
2021/10/27 17:38:34,9.6,28.8,24.9,27.4,51.6,52.0,0,1,1,0,1,0,1,1
2021/10/27 17:40:32,9.6,28.9,25.0,27.4,51.6,52.0,0,1,1,0,1,0,1,1
2021/10/27 17:42:32,9.6,29.2,25.2,27.4,51.5,52.0,0,1,1,0,1,0,1,1
2021/10/27 17:44:28,9.5,29.3,25.5,27.4,51.4,52.0,0,1,1,0,1,0,1,1
2021/10/27 17:46:24,9.5,29.6,25.7,27.4,51.4,52.0,0,1,1,0,1,0,1,1
2021/10/27 17:48:21,9.4,29.8,25.9,27.4,51.3,52.0,0,1,1,0,1,0,1,1
2021/10/27 17:50:20,9.4,30.0,26.1,27.4,51.2,52.0,0,1,1,0,1,0,1,1
2021/10/27 17:52:19,9.4,30.2,26.3,27.4,51.2,52.0,0,1,1,0,1,0,1,1
2021/10/27 17:54:12,9.4,30.4,26.5,27.4,51.1,52.0,0,1,1,0,1,0,1,1
2021/10/27 17:56:10,9.4,30.6,26.7,27.4,51.1,52.0,0,1,1,0,1,0,1,1
2021/10/27 17:58:08,9.3,30.8,26.9,27.4,51.0,52.0,0,1,1,0,1,0,1,1
2021/10/27 18:00:04,9.3,31.0,27.1,27.4,50.9,52.0,0,1,1,0,1,0,1,1
2021/10/27 18:02:02,9.2,31.3,27.3,27.4,50.9,52.0,0,1,1,0,1,0,1,0
2021/10/27 18:03:53,9.2,31.5,27.5,27.4,50.8,52.0,0,1,1,0,1,0,1,0
2021/10/27 18:06:49,9.1,31.7,27.7,27.4,50.7,52.0,0,1,1,0,1,0,1,0
2021/10/27 18:08:46,9.1,32.0,27.9,27.4,50.7,52.0,0,1,1,0,1,0,1,0
2021/10/27 18:10:41,9.1,32.1,28.0,27.4,50.6,52.0,0,1,1,0,1,0,1,0
2021/10/27 18:12:37,9.0,32.3,28.3,27.4,50.5,52.0,0,1,1,0,1,0,1,0
2021/10/27 18:14:34,9.0,32.6,28.5,27.4,50.4,52.0,0,1,1,0,1,0,1,0
2021/10/27 18:16:29,8.9,32.8,28.7,28.0,50.4,52.0,0,1,1,0,1,0,1,0
2021/10/27 18:18:27,8.9,33.1,29.0,28.0,50.3,52.0,0,1,1,0,1,0,1,0
2021/10/27 18:20:25,8.8,33.3,29.2,28.0,50.2,52.0,0,1,1,0,1,0,1,0
2021/10/27 18:22:18,8.8,33.5,29.3,28.0,50.2,52.0,0,1,1,0,1,0,1,0
2021/10/27 18:24:13,8.8,33.7,29.6,28.0,50.1,52.0,0,1,1,0,1,0,1,0
2021/10/27 18:26:07,8.7,33.9,29.7,28.0,50.0,52.0,0,1,1,0,1,0,1,0
2021/10/27 18:28:06,8.7,34.0,29.9,28.0,50.0,52.0,0,1,1,0,1,0,1,0
2021/10/27 18:30:04,8.7,32.2,30.1,28.0,49.9,52.0,0,0,0,0,1,0,1,0
2021/10/27 18:32:03,8.7,32.0,30.5,28.0,49.8,52.0,0,0,0,0,1,0,0,0
2021/10/27 18:33:58,8.6,31.8,30.0,28.0,49.8,52.0,0,0,0,0,1,0,0,0
2021/10/27 18:35:54,8.6,31.6,29.8,28.0,49.7,52.0,0,0,0,0,1,0,0,0
2021/10/27 18:38:49,8.5,31.4,29.6,28.0,49.7,52.0,0,0,0,0,1,0,0,0
2021/10/27 18:40:46,8.5,31.2,29.4,28.0,49.6,52.0,0,0,0,0,1,0,0,0
2021/10/27 18:42:41,8.4,31.0,29.3,28.0,49.5,52.0,0,0,0,0,1,0,0,0
2021/10/27 18:44:35,8.3,30.9,29.1,28.0,49.5,52.0,0,0,0,0,1,0,0,0
2021/10/27 18:46:31,8.3,30.8,29.0,28.0,49.4,52.0,0,0,0,0,1,0,0,0
2021/10/27 18:48:26,8.2,30.7,28.8,28.0,49.4,52.0,0,0,0,0,1,0,0,0
2021/10/27 18:50:22,8.1,30.6,28.7,28.0,49.3,52.0,0,0,0,0,1,0,0,0
2021/10/27 18:52:20,8.1,30.5,28.6,28.0,49.2,52.0,0,0,0,0,1,0,0,0
2021/10/27 18:54:14,8.0,30.4,28.4,28.0,49.2,52.0,0,0,0,0,1,0,0,0
2021/10/27 18:56:08,8.0,30.4,28.3,28.0,49.1,52.0,0,0,0,0,1,0,0,0
2021/10/27 18:58:05,7.9,30.3,28.2,28.6,49.0,52.0,0,0,0,0,1,0,0,0
2021/10/27 19:00:00,7.9,30.3,28.1,28.6,49.0,52.0,0,0,0,0,1,0,0,0
2021/10/27 19:01:56,7.9,30.2,28.0,28.6,48.9,52.0,0,0,0,0,1,0,0,0
2021/10/27 19:04:52,7.8,30.2,27.9,28.6,48.9,52.0,0,0,0,0,1,0,0,0
2021/10/27 19:06:44,7.8,30.1,27.8,28.6,48.8,52.0,0,0,0,0,1,0,0,0
2021/10/27 19:08:41,7.8,30.1,27.7,28.6,48.7,52.0,0,0,0,0,1,0,0,0
2021/10/27 19:10:38,7.7,30.0,27.6,28.6,48.6,52.0,0,0,0,0,1,0,0,0
2021/10/27 19:12:31,7.7,30.0,27.5,28.6,48.6,52.0,0,0,0,0,1,0,0,0
2021/10/27 19:14:26,7.7,29.9,27.4,28.6,48.5,52.0,0,0,0,0,1,0,0,0
2021/10/27 19:16:22,7.6,29.9,27.3,28.6,48.4,52.0,0,0,0,0,1,0,0,0
2021/10/27 19:18:19,7.6,29.9,27.2,28.6,48.4,52.0,0,0,0,0,1,0,0,0
2021/10/27 19:20:14,7.6,29.8,27.1,28.6,48.3,52.0,0,0,0,0,1,0,0,0
2021/10/27 19:22:09,7.6,29.8,27.0,28.6,48.2,52.0,0,0,0,0,1,0,0,0
2021/10/27 19:24:04,7.5,29.8,27.0,28.6,48.1,52.0,0,0,0,0,1,0,0,0
2021/10/27 19:26:03,7.5,29.7,26.9,28.6,48.1,52.0,0,0,0,0,1,0,0,0
2021/10/27 19:27:57,7.4,29.7,26.8,28.6,48.0,52.0,0,0,0,0,1,0,0,0
2021/10/27 19:30:51,7.4,29.7,26.7,28.6,47.9,52.0,0,0,0,0,1,0,0,0
2021/10/27 19:32:47,7.4,29.6,26.6,28.6,47.8,52.0,0,0,0,0,1,0,0,0
2021/10/27 19:34:43,7.3,29.6,26.5,28.6,47.8,52.0,0,0,0,0,1,0,0,0
2021/10/27 19:36:36,7.2,29.6,26.5,28.6,47.7,52.0,0,0,0,0,1,0,0,0
2021/10/27 19:38:32,7.2,29.5,26.4,28.6,47.6,52.0,0,0,0,0,1,0,0,0
2021/10/27 19:40:29,7.1,29.5,26.3,28.6,47.5,52.0,0,0,0,0,1,0,0,0
2021/10/27 19:42:21,7.1,29.5,26.2,28.6,47.4,52.0,0,0,0,0,1,0,0,0
2021/10/27 19:44:15,7.0,29.5,26.1,28.6,47.4,52.0,0,0,0,0,1,0,0,0
2021/10/27 19:46:12,7.0,29.4,26.1,28.6,47.3,52.0,0,0,0,0,1,0,0,0
2021/10/27 19:48:09,7.0,29.4,26.0,28.6,47.2,52.0,0,0,0,0,1,0,0,0
2021/10/27 19:50:05,7.0,29.4,25.9,28.6,47.1,52.0,0,0,0,0,1,0,0,0
2021/10/27 19:52:00,7.0,29.4,25.8,28.6,47.1,52.0,0,0,0,0,1,0,0,0
2021/10/27 19:53:53,6.9,29.3,25.7,29.1,47.0,52.0,0,0,0,0,1,0,0,0
2021/10/27 19:56:47,6.9,29.3,25.6,29.1,46.9,52.0,0,0,0,0,1,0,0,0
2021/10/27 19:58:44,6.9,29.3,25.5,29.1,46.8,52.0,0,0,0,0,1,0,0,0
2021/10/27 20:00:36,6.8,29.3,25.5,29.1,46.7,52.0,0,0,0,0,1,0,1,0
2021/10/27 20:02:33,6.8,26.7,25.6,29.1,46.7,52.0,1,0,1,0,1,0,1,0
2021/10/27 20:04:31,6.8,29.0,25.6,29.1,46.6,52.0,1,0,1,0,1,0,1,0
2021/10/27 20:06:30,6.7,29.0,25.6,29.1,46.5,52.0,1,0,1,0,1,0,1,0
2021/10/27 20:08:28,6.7,29.2,25.6,29.1,46.4,52.0,1,0,1,0,1,0,1,0
2021/10/27 20:10:25,6.6,29.3,25.6,29.1,46.3,52.0,1,0,1,0,1,0,1,0
2021/10/27 20:12:23,6.5,29.5,25.7,29.1,46.3,52.0,1,0,1,0,1,0,1,0
2021/10/27 20:14:17,6.5,29.7,25.8,29.1,46.2,52.0,1,0,1,0,1,0,1,0
2021/10/27 20:16:14,6.4,29.9,26.0,29.1,46.1,52.0,1,0,1,0,1,0,1,0
2021/10/27 20:18:11,6.4,30.1,26.3,29.1,46.0,52.0,1,0,1,0,1,0,1,0
2021/10/27 20:20:10,6.3,30.3,26.5,29.1,45.9,52.0,1,0,1,0,1,0,1,0
2021/10/27 20:22:06,6.2,30.5,26.7,29.1,45.8,52.0,1,0,1,0,1,0,1,0
2021/10/27 20:24:04,6.2,30.8,26.8,29.1,45.7,52.0,1,0,1,0,1,0,1,0
2021/10/27 20:26:00,6.1,31.0,27.0,29.1,45.6,52.0,1,0,1,0,1,0,1,0
2021/10/27 20:27:57,6.0,31.1,27.2,29.1,45.5,52.0,1,0,1,0,1,0,1,0
2021/10/27 20:29:55,6.0,31.3,27.4,29.1,45.4,52.0,1,0,1,0,1,0,1,0
2021/10/27 20:32:49,6.0,31.5,27.5,29.1,45.4,52.0,1,0,1,0,1,0,1,0
2021/10/27 20:34:45,5.9,31.7,27.7,29.7,45.3,52.0,1,0,1,0,1,0,1,0
2021/10/27 20:36:45,5.9,31.9,27.9,29.7,45.2,52.0,1,0,1,0,1,0,1,0
2021/10/27 20:38:42,5.9,32.0,28.0,29.7,45.1,52.0,1,0,1,0,1,0,1,0
2021/10/27 20:40:39,5.9,32.2,28.2,29.7,45.1,52.0,1,0,1,0,1,0,1,0
2021/10/27 20:42:36,5.9,32.3,28.3,29.7,45.0,52.0,1,0,1,0,1,0,1,0
2021/10/27 20:44:34,5.8,32.5,28.4,29.7,44.9,52.0,1,0,1,0,1,0,1,0
2021/10/27 20:46:30,5.8,32.6,28.6,29.7,44.8,52.0,1,0,1,0,1,0,1,0
2021/10/27 20:48:28,5.7,32.8,28.7,29.7,44.8,52.0,1,0,1,0,1,0,1,0
2021/10/27 20:50:24,5.7,32.9,28.8,29.7,44.7,52.0,1,0,1,0,1,0,1,0
2021/10/27 20:52:20,5.6,33.1,29.0,29.7,44.6,52.0,1,0,1,0,1,0,1,0
2021/10/27 20:54:19,5.6,33.2,29.1,29.7,44.6,52.0,1,0,1,0,1,0,1,0
2021/10/27 20:56:16,5.5,33.4,29.3,29.7,44.5,52.0,1,0,1,0,1,0,1,0
2021/10/27 20:58:13,5.5,33.6,29.4,29.7,44.4,52.0,1,0,1,0,1,0,1,0
2021/10/27 21:00:10,5.5,33.8,29.6,29.7,44.4,52.0,1,0,1,0,1,0,1,0
2021/10/27 21:02:09,5.5,33.8,29.7,29.7,44.3,52.0,1,0,1,0,1,0,1,0
2021/10/27 21:04:08,5.4,33.9,29.8,29.7,44.2,52.0,1,0,1,0,1,0,1,0
2021/10/27 21:06:04,5.4,34.0,29.9,29.7,44.1,52.0,1,0,1,0,1,0,1,0
2021/10/27 21:08:00,5.4,34.6,30.2,29.7,44.1,52.0,1,0,1,0,1,0,1,0
2021/10/27 21:10:00,5.4,36.9,29.2,29.7,44.0,52.0,1,1,1,0,0,1,1,0
2021/10/27 21:11:59,5.3,44.9,38.6,29.7,43.9,52.0,1,1,1,0,0,1,1,0
2021/10/27 21:13:56,5.3,48.3,41.8,29.7,43.8,52.0,1,1,1,0,0,1,1,0
2021/10/27 21:16:53,5.3,50.4,43.7,29.7,44.3,52.0,1,1,1,0,0,1,1,0
2021/10/27 21:18:52,5.3,52.0,44.9,29.7,44.9,52.0,1,1,1,0,0,1,1,0
2021/10/27 21:20:50,5.2,53.3,46.1,29.7,45.8,52.0,1,1,1,0,0,1,1,0
2021/10/27 21:22:46,5.2,54.3,47.1,29.7,46.7,52.0,1,1,1,0,0,1,1,0
2021/10/27 21:24:43,5.2,55.3,48.0,29.7,47.7,52.0,1,1,1,0,0,1,1,0
2021/10/27 21:26:40,5.2,56.3,49.0,29.7,48.5,52.0,1,1,1,0,0,1,1,0
2021/10/27 21:28:37,5.2,57.3,49.8,29.7,49.5,52.0,1,1,1,0,0,1,1,0
2021/10/27 21:30:32,5.1,58.1,50.7,29.7,50.3,52.0,1,1,1,0,0,1,1,0
2021/10/27 21:32:27,5.1,59.0,51.8,29.7,51.3,52.0,1,1,1,0,0,1,1,0
2021/10/27 21:34:25,5.1,58.6,52.4,29.7,52.2,52.0,0,1,1,0,1,0,1,0
2021/10/27 21:36:24,5.1,39.2,33.6,29.7,53.1,52.0,0,1,1,0,1,0,1,0
2021/10/27 21:38:22,5.1,37.9,32.5,29.7,53.3,52.0,0,1,1,0,1,0,1,0
2021/10/27 21:40:18,5.1,36.9,31.6,29.7,53.4,52.0,0,1,1,0,1,0,1,0
2021/10/27 21:42:18,5.1,36.5,31.8,29.7,53.4,52.0,0,0,1,0,1,0,1,0
2021/10/27 21:44:14,5.0,33.9,32.2,29.7,53.3,52.0,0,0,0,0,1,0,1,0
2021/10/27 21:46:11,5.0,34.3,32.3,29.7,53.2,52.0,0,0,0,0,1,0,0,0
2021/10/27 21:48:05,4.9,34.0,31.9,30.3,53.1,52.0,0,0,0,0,1,0,0,0
2021/10/27 21:50:00,4.9,33.7,31.6,30.3,53.0,52.0,0,0,0,0,1,0,0,0
2021/10/27 21:51:56,4.9,33.5,31.4,30.3,52.9,52.0,0,0,0,0,1,0,0,0
2021/10/27 21:54:49,4.8,33.3,31.2,30.3,52.8,52.0,0,0,0,0,1,0,0,0
2021/10/27 21:56:45,4.8,33.1,31.1,30.3,52.7,52.0,0,0,0,0,1,0,0,0
2021/10/27 21:58:40,4.8,33.0,30.9,30.3,52.6,52.0,0,0,0,0,1,0,0,0
2021/10/27 22:00:33,4.8,32.9,30.8,30.3,52.5,10.0,0,0,0,0,1,0,0,0
2021/10/27 22:02:29,4.8,32.8,30.6,30.3,52.5,10.0,0,0,0,0,1,0,0,0
2021/10/27 22:04:22,4.8,32.7,30.5,30.3,52.5,10.0,0,0,0,0,1,0,0,0
2021/10/27 22:06:17,4.8,32.6,30.3,30.3,52.5,10.0,0,0,0,0,1,0,0,0
2021/10/27 22:08:15,4.8,32.5,30.2,30.3,52.5,10.0,0,0,0,0,1,0,0,0
2021/10/27 22:10:11,4.8,32.5,30.1,30.3,52.5,10.0,0,0,0,0,1,0,0,0
2021/10/27 22:12:09,4.8,32.4,29.9,30.3,52.5,10.0,0,0,0,0,1,0,0,0
2021/10/27 22:14:03,4.7,32.3,29.8,30.3,52.5,10.0,0,0,0,0,1,0,0,0
2021/10/27 22:15:58,4.7,32.3,29.7,30.3,52.5,10.0,0,0,0,0,1,0,0,0
2021/10/27 22:17:54,4.7,32.2,29.6,30.3,52.5,10.0,0,0,0,0,1,0,0,0
2021/10/27 22:20:50,4.7,32.2,29.5,30.3,52.4,10.0,0,0,0,0,1,0,0,0
2021/10/27 22:22:48,4.7,32.1,29.4,30.3,52.4,10.0,0,0,0,0,1,0,0,0
2021/10/27 22:24:47,4.6,32.1,29.3,30.3,52.4,10.0,0,0,0,0,1,0,0,0
2021/10/27 22:26:42,4.6,32.0,29.2,30.3,52.4,10.0,0,0,0,0,1,0,0,0
2021/10/27 22:28:35,4.6,32.0,29.1,30.3,52.4,10.0,0,0,0,0,1,0,0,0
2021/10/27 22:30:31,4.5,31.9,28.9,30.3,52.4,10.0,0,0,0,0,1,0,0,0
2021/10/27 22:32:29,4.5,31.9,28.8,30.3,52.4,10.0,0,0,0,0,1,0,0,0
2021/10/27 22:34:23,4.5,31.8,28.7,30.3,52.4,10.0,0,0,0,0,1,0,0,0
2021/10/27 22:36:20,4.5,31.8,28.6,30.3,52.4,10.0,0,0,0,0,1,0,0,0
2021/10/27 22:38:18,4.4,31.8,28.5,30.3,52.4,10.0,0,0,0,0,1,0,0,0
2021/10/27 22:40:13,4.4,31.7,28.4,30.3,52.4,10.0,0,0,0,0,1,0,0,0
2021/10/27 22:42:10,4.4,31.7,28.3,30.3,52.3,10.0,0,0,0,0,1,0,0,0
2021/10/27 22:44:06,4.4,31.7,28.1,30.3,52.3,10.0,0,0,0,0,1,0,0,0
2021/10/27 22:46:00,4.4,31.6,28.0,30.3,52.3,10.0,0,0,0,0,1,0,0,0
2021/10/27 22:47:57,4.3,31.6,27.9,30.3,52.3,10.0,0,0,0,0,1,0,0,0
2021/10/27 22:50:51,4.3,31.6,27.8,30.3,52.3,10.0,0,0,0,0,1,0,0,0
2021/10/27 22:52:42,4.3,31.5,27.7,30.3,52.3,10.0,0,0,0,0,1,0,0,0
2021/10/27 22:54:37,4.3,31.5,27.6,30.3,52.3,10.0,0,0,0,0,1,0,0,0
2021/10/27 22:56:27,4.3,31.5,27.5,30.3,52.3,10.0,0,0,0,0,1,0,0,0
2021/10/27 22:58:24,4.3,31.4,27.3,30.3,52.2,10.0,0,0,0,0,1,0,0,0
2021/10/27 23:00:19,4.3,28.7,27.3,30.3,52.2,10.0,0,0,1,0,1,0,1,0
2021/10/27 23:02:17,4.3,29.8,27.1,30.3,52.2,10.0,1,0,1,0,1,0,1,0
2021/10/27 23:04:15,4.3,30.3,27.0,30.3,52.2,10.0,1,0,1,0,1,0,1,0
2021/10/27 23:06:11,4.3,30.3,26.9,30.3,52.2,10.0,1,0,1,0,1,0,1,0
2021/10/27 23:08:09,4.3,30.4,26.9,30.3,52.2,10.0,1,0,1,0,1,0,1,0
2021/10/27 23:10:06,4.3,30.7,26.9,30.3,52.2,10.0,1,0,1,0,1,0,1,0
2021/10/27 23:12:02,4.3,30.8,27.1,30.3,52.1,10.0,1,0,1,0,1,0,1,0
2021/10/27 23:14:01,4.3,31.1,27.3,30.3,52.1,10.0,1,0,1,0,1,0,1,0
2021/10/27 23:16:00,4.3,31.3,27.5,30.3,52.1,10.0,1,0,1,0,1,0,1,0
2021/10/27 23:17:55,4.3,31.6,27.8,30.3,52.1,10.0,1,0,1,0,1,0,1,0
2021/10/27 23:20:53,4.3,31.9,28.1,30.3,52.1,10.0,1,0,1,0,1,0,1,0
2021/10/27 23:22:50,4.3,32.4,28.5,30.3,52.0,10.0,1,0,1,0,1,0,1,0
2021/10/27 23:24:47,4.3,32.7,28.8,30.3,52.0,10.0,1,0,1,0,1,0,1,0
2021/10/27 23:26:43,4.3,33.0,29.0,30.3,52.0,10.0,1,0,1,0,1,0,1,0
2021/10/27 23:28:38,4.3,33.3,29.3,30.3,52.0,10.0,1,0,1,0,1,0,1,0
2021/10/27 23:30:36,4.3,33.7,29.6,30.3,52.0,10.0,1,0,1,0,1,0,1,0
2021/10/27 23:32:31,4.3,34.0,30.0,30.3,51.9,10.0,1,0,1,0,1,0,1,0
2021/10/27 23:34:28,4.4,34.7,30.3,30.3,51.9,10.0,1,0,1,0,1,0,1,0
2021/10/27 23:36:25,4.4,34.7,30.2,30.3,51.9,10.0,1,0,1,0,1,0,1,0
2021/10/27 23:38:20,4.4,34.9,30.5,30.3,51.9,10.0,1,0,1,0,1,0,1,0
2021/10/27 23:40:16,4.4,35.3,30.9,30.3,51.9,10.0,1,0,1,0,1,0,1,0
2021/10/27 23:42:10,4.4,35.6,31.1,30.3,51.9,10.0,1,0,1,0,1,0,1,0
2021/10/27 23:44:06,4.4,36.0,31.5,30.3,51.8,10.0,1,0,1,0,1,0,1,0
2021/10/27 23:46:03,4.4,36.3,31.8,30.3,51.8,10.0,1,0,1,0,1,0,1,0
2021/10/27 23:48:01,4.4,36.6,32.1,30.3,51.8,10.0,1,0,1,0,1,0,1,0
2021/10/27 23:49:59,4.4,34.4,32.4,30.3,51.8,10.0,0,0,1,0,1,0,1,0
2021/10/27 23:51:57,4.4,34.6,33.1,30.3,51.7,10.0,0,0,0,0,1,0,1,0
2021/10/27 23:54:54,4.4,34.2,32.5,30.3,51.7,10.0,0,0,0,0,1,0,0,0
2021/10/27 23:56:48,4.5,33.9,32.2,30.3,51.7,10.0,0,0,0,0,1,0,0,0
2021/10/27 23:58:44,4.5,33.7,31.9,30.3,51.7,10.0,0,0,0,0,1,0,0,0
