2023-03-31 06:00:47,419 [INFO] Converting data for elektroautarchy
2023-03-31 06:00:47,421 [INFO] loading/fetching data of type=elektroautarchy looking in directory=/data/sel-data/raw 2019-12-01 - 2023-03-31
2023-03-31 06:02:00,620 [INFO] fetching endpoint: consumption/watthours/autarchy/639B7BB1-2475-4484-85C4-7041DF3415CC from: 2023-03-30T00:00:00+0200 to: 2023-03-30T23:58:59+0200 -> https://api.sel.energy/api_v1/consumption/watthours/autarchy/639B7BB1-2475-4484-85C4-7041DF3415CC?debug=True&from=2023-03-30T00%3A00%3A00%2B0200&to=2023-03-30T23%3A58%3A59%2B0200)
2023-03-31 06:02:00,635 [INFO] request 'https://api.sel.energy/api_v1/consumption/watthours/autarchy/639B7BB1-2475-4484-85C4-7041DF3415CC?debug=True&from=2023-03-30T00%3A00%3A00%2B0200&to=2023-03-30T23%3A58%3A59%2B0200'
2023-03-31 06:02:00,891 [INFO] fetching endpoint: consumption/watthours/autarchy/ED8050A3-EE7E-4515-B9C7-22BBB01AF9B1 from: 2023-03-30T00:00:00+0200 to: 2023-03-30T23:58:59+0200 -> https://api.sel.energy/api_v1/consumption/watthours/autarchy/ED8050A3-EE7E-4515-B9C7-22BBB01AF9B1?debug=True&from=2023-03-30T00%3A00%3A00%2B0200&to=2023-03-30T23%3A58%3A59%2B0200)
2023-03-31 06:02:00,895 [INFO] request 'https://api.sel.energy/api_v1/consumption/watthours/autarchy/ED8050A3-EE7E-4515-B9C7-22BBB01AF9B1?debug=True&from=2023-03-30T00%3A00%3A00%2B0200&to=2023-03-30T23%3A58%3A59%2B0200'
2023-03-31 06:02:01,067 [INFO] fetching endpoint: consumption/watthours/autarchy/8CDF2CCB-E9A0-4C25-A876-70C89CCF8BC5 from: 2023-03-30T00:00:00+0200 to: 2023-03-30T23:58:59+0200 -> https://api.sel.energy/api_v1/consumption/watthours/autarchy/8CDF2CCB-E9A0-4C25-A876-70C89CCF8BC5?debug=True&from=2023-03-30T00%3A00%3A00%2B0200&to=2023-03-30T23%3A58%3A59%2B0200)
2023-03-31 06:02:01,070 [INFO] request 'https://api.sel.energy/api_v1/consumption/watthours/autarchy/8CDF2CCB-E9A0-4C25-A876-70C89CCF8BC5?debug=True&from=2023-03-30T00%3A00%3A00%2B0200&to=2023-03-30T23%3A58%3A59%2B0200'
2023-03-31 06:02:01,075 [INFO] fetching endpoint: consumption/watthours/autarchy/9331D39C-70F1-47AA-8586-6B2655C0ABAB from: 2023-03-30T00:00:00+0200 to: 2023-03-30T23:58:59+0200 -> https://api.sel.energy/api_v1/consumption/watthours/autarchy/9331D39C-70F1-47AA-8586-6B2655C0ABAB?debug=True&from=2023-03-30T00%3A00%3A00%2B0200&to=2023-03-30T23%3A58%3A59%2B0200)
2023-03-31 06:02:01,078 [INFO] request 'https://api.sel.energy/api_v1/consumption/watthours/autarchy/9331D39C-70F1-47AA-8586-6B2655C0ABAB?debug=True&from=2023-03-30T00%3A00%3A00%2B0200&to=2023-03-30T23%3A58%3A59%2B0200'
2023-03-31 06:02:01,101 [INFO] fetching endpoint: consumption/watthours/autarchy/506EE311-AE7E-4B80-B30C-6A9043FF6815 from: 2023-03-30T00:00:00+0200 to: 2023-03-30T23:58:59+0200 -> https://api.sel.energy/api_v1/consumption/watthours/autarchy/506EE311-AE7E-4B80-B30C-6A9043FF6815?debug=True&from=2023-03-30T00%3A00%3A00%2B0200&to=2023-03-30T23%3A58%3A59%2B0200)
2023-03-31 06:02:01,133 [INFO] request 'https://api.sel.energy/api_v1/consumption/watthours/autarchy/506EE311-AE7E-4B80-B30C-6A9043FF6815?debug=True&from=2023-03-30T00%3A00%3A00%2B0200&to=2023-03-30T23%3A58%3A59%2B0200'
2023-03-31 06:02:01,177 [INFO] fetching endpoint: consumption/watthours/autarchy/D7F6364A-52BE-40FE-84A7-214AF04B97CF from: 2023-03-30T00:00:00+0200 to: 2023-03-30T23:58:59+0200 -> https://api.sel.energy/api_v1/consumption/watthours/autarchy/D7F6364A-52BE-40FE-84A7-214AF04B97CF?debug=True&from=2023-03-30T00%3A00%3A00%2B0200&to=2023-03-30T23%3A58%3A59%2B0200)
2023-03-31 06:02:01,187 [INFO] request 'https://api.sel.energy/api_v1/consumption/watthours/autarchy/D7F6364A-52BE-40FE-84A7-214AF04B97CF?debug=True&from=2023-03-30T00%3A00%3A00%2B0200&to=2023-03-30T23%3A58%3A59%2B0200'
2023-03-31 06:02:01,211 [INFO] fetching endpoint: consumption/watthours/autarchy/05D78C27-192D-4D61-BBFF-C3F4FDA8CA6D from: 2023-03-30T00:00:00+0200 to: 2023-03-30T23:58:59+0200 -> https://api.sel.energy/api_v1/consumption/watthours/autarchy/05D78C27-192D-4D61-BBFF-C3F4FDA8CA6D?debug=True&from=2023-03-30T00%3A00%3A00%2B0200&to=2023-03-30T23%3A58%3A59%2B0200)
2023-03-31 06:02:01,214 [INFO] request 'https://api.sel.energy/api_v1/consumption/watthours/autarchy/05D78C27-192D-4D61-BBFF-C3F4FDA8CA6D?debug=True&from=2023-03-30T00%3A00%3A00%2B0200&to=2023-03-30T23%3A58%3A59%2B0200'
2023-03-31 06:02:01,215 [INFO] fetching endpoint: consumption/watthours/autarchy/2F739EE1-1003-45F0-A2BE-7DFBF631BC51 from: 2023-03-30T00:00:00+0200 to: 2023-03-30T23:58:59+0200 -> https://api.sel.energy/api_v1/consumption/watthours/autarchy/2F739EE1-1003-45F0-A2BE-7DFBF631BC51?debug=True&from=2023-03-30T00%3A00%3A00%2B0200&to=2023-03-30T23%3A58%3A59%2B0200)
2023-03-31 06:02:01,227 [INFO] request 'https://api.sel.energy/api_v1/consumption/watthours/autarchy/2F739EE1-1003-45F0-A2BE-7DFBF631BC51?debug=True&from=2023-03-30T00%3A00%3A00%2B0200&to=2023-03-30T23%3A58%3A59%2B0200'
2023-03-31 06:02:01,292 [INFO] fetching endpoint: consumption/watthours/autarchy/3c9ee05b-15b6-4ad1-bf13-7d818c9ed425 from: 2023-03-30T00:00:00+0200 to: 2023-03-30T23:58:59+0200 -> https://api.sel.energy/api_v1/consumption/watthours/autarchy/3c9ee05b-15b6-4ad1-bf13-7d818c9ed425?debug=True&from=2023-03-30T00%3A00%3A00%2B0200&to=2023-03-30T23%3A58%3A59%2B0200)
2023-03-31 06:02:01,296 [INFO] request 'https://api.sel.energy/api_v1/consumption/watthours/autarchy/3c9ee05b-15b6-4ad1-bf13-7d818c9ed425?debug=True&from=2023-03-30T00%3A00%3A00%2B0200&to=2023-03-30T23%3A58%3A59%2B0200'
2023-03-31 06:02:01,305 [INFO] fetching endpoint: consumption/watthours/autarchy/ED8050A3-EE7E-4515-B9C7-22BBB01AF9B1 from: 2023-03-28T00:00:00+0200 to: 2023-03-28T23:58:59+0200 -> https://api.sel.energy/api_v1/consumption/watthours/autarchy/ED8050A3-EE7E-4515-B9C7-22BBB01AF9B1?debug=True&from=2023-03-28T00%3A00%3A00%2B0200&to=2023-03-28T23%3A58%3A59%2B0200)
2023-03-31 06:02:01,308 [INFO] request 'https://api.sel.energy/api_v1/consumption/watthours/autarchy/ED8050A3-EE7E-4515-B9C7-22BBB01AF9B1?debug=True&from=2023-03-28T00%3A00%3A00%2B0200&to=2023-03-28T23%3A58%3A59%2B0200'
2023-03-31 06:02:01,384 [INFO] fetching endpoint: consumption/watthours/autarchy/B2777187-FCC4-4AF2-AB8A-E25D1453F8DF from: 2023-03-30T00:00:00+0200 to: 2023-03-30T23:58:59+0200 -> https://api.sel.energy/api_v1/consumption/watthours/autarchy/B2777187-FCC4-4AF2-AB8A-E25D1453F8DF?debug=True&from=2023-03-30T00%3A00%3A00%2B0200&to=2023-03-30T23%3A58%3A59%2B0200)
2023-03-31 06:02:01,391 [INFO] request 'https://api.sel.energy/api_v1/consumption/watthours/autarchy/B2777187-FCC4-4AF2-AB8A-E25D1453F8DF?debug=True&from=2023-03-30T00%3A00%3A00%2B0200&to=2023-03-30T23%3A58%3A59%2B0200'
2023-03-31 06:02:01,405 [INFO] fetching endpoint: consumption/watthours/autarchy/E5767203-CF98-4F89-90BF-B617DB23F913 from: 2023-03-30T00:00:00+0200 to: 2023-03-30T23:58:59+0200 -> https://api.sel.energy/api_v1/consumption/watthours/autarchy/E5767203-CF98-4F89-90BF-B617DB23F913?debug=True&from=2023-03-30T00%3A00%3A00%2B0200&to=2023-03-30T23%3A58%3A59%2B0200)
2023-03-31 06:02:01,411 [INFO] request 'https://api.sel.energy/api_v1/consumption/watthours/autarchy/E5767203-CF98-4F89-90BF-B617DB23F913?debug=True&from=2023-03-30T00%3A00%3A00%2B0200&to=2023-03-30T23%3A58%3A59%2B0200'
2023-03-31 06:02:01,415 [INFO] fetching endpoint: consumption/watthours/autarchy/B5183F58-F21D-4213-8B11-AE58D6531E12 from: 2023-03-30T00:00:00+0200 to: 2023-03-30T23:58:59+0200 -> https://api.sel.energy/api_v1/consumption/watthours/autarchy/B5183F58-F21D-4213-8B11-AE58D6531E12?debug=True&from=2023-03-30T00%3A00%3A00%2B0200&to=2023-03-30T23%3A58%3A59%2B0200)
2023-03-31 06:02:01,422 [INFO] request 'https://api.sel.energy/api_v1/consumption/watthours/autarchy/B5183F58-F21D-4213-8B11-AE58D6531E12?debug=True&from=2023-03-30T00%3A00%3A00%2B0200&to=2023-03-30T23%3A58%3A59%2B0200'
2023-03-31 06:02:01,467 [INFO] fetching endpoint: consumption/watthours/autarchy/506EE311-AE7E-4B80-B30C-6A9043FF6815 from: 2023-03-29T00:00:00+0200 to: 2023-03-29T23:58:59+0200 -> https://api.sel.energy/api_v1/consumption/watthours/autarchy/506EE311-AE7E-4B80-B30C-6A9043FF6815?debug=True&from=2023-03-29T00%3A00%3A00%2B0200&to=2023-03-29T23%3A58%3A59%2B0200)
2023-03-31 06:02:01,473 [INFO] request 'https://api.sel.energy/api_v1/consumption/watthours/autarchy/506EE311-AE7E-4B80-B30C-6A9043FF6815?debug=True&from=2023-03-29T00%3A00%3A00%2B0200&to=2023-03-29T23%3A58%3A59%2B0200'
2023-03-31 06:02:01,492 [INFO] fetching endpoint: consumption/watthours/autarchy/95E97A88-161E-474E-AF81-1BEA63D6A4AA from: 2023-03-30T00:00:00+0200 to: 2023-03-30T23:58:59+0200 -> https://api.sel.energy/api_v1/consumption/watthours/autarchy/95E97A88-161E-474E-AF81-1BEA63D6A4AA?debug=True&from=2023-03-30T00%3A00%3A00%2B0200&to=2023-03-30T23%3A58%3A59%2B0200)
2023-03-31 06:02:01,495 [INFO] request 'https://api.sel.energy/api_v1/consumption/watthours/autarchy/95E97A88-161E-474E-AF81-1BEA63D6A4AA?debug=True&from=2023-03-30T00%3A00%3A00%2B0200&to=2023-03-30T23%3A58%3A59%2B0200'
2023-03-31 06:02:20,468 [INFO] Response Status: 200
2023-03-31 06:02:20,481 [INFO] Response Status: 200
2023-03-31 06:02:20,485 [INFO] Response Status: 200
2023-03-31 06:02:20,490 [INFO] Creating directory: /data/sel-data/raw/elektroautarchy/3c9ee05b-15b6-4ad1-bf13-7d818c9ed425/2023-03-30
2023-03-31 06:02:20,486 [INFO] Response Status: 200
2023-03-31 06:02:20,494 [INFO] Writing file: /data/sel-data/raw/elektroautarchy/3c9ee05b-15b6-4ad1-bf13-7d818c9ed425/2023-03-30/raw_elektroautarchy_3c9ee05b-15b6-4ad1-bf13-7d818c9ed425_2023-03-30.json ...
2023-03-31 06:02:20,495 [INFO] Response Status: 200
2023-03-31 06:02:20,495 [INFO] Response Status: 200
2023-03-31 06:02:20,500 [INFO] Creating directory: /data/sel-data/raw/elektroautarchy/B2777187-FCC4-4AF2-AB8A-E25D1453F8DF/2023-03-30
2023-03-31 06:02:20,491 [INFO] Response Status: 200
2023-03-31 06:02:20,504 [INFO] Creating directory: /data/sel-data/raw/elektroautarchy/05D78C27-192D-4D61-BBFF-C3F4FDA8CA6D/2023-03-30
2023-03-31 06:02:20,504 [INFO] Creating directory: /data/sel-data/raw/elektroautarchy/D7F6364A-52BE-40FE-84A7-214AF04B97CF/2023-03-30
2023-03-31 06:02:20,505 [INFO] Creating directory: /data/sel-data/raw/elektroautarchy/506EE311-AE7E-4B80-B30C-6A9043FF6815/2023-03-29
2023-03-31 06:02:20,506 [INFO] Writing file: /data/sel-data/raw/elektroautarchy/05D78C27-192D-4D61-BBFF-C3F4FDA8CA6D/2023-03-30/raw_elektroautarchy_05D78C27-192D-4D61-BBFF-C3F4FDA8CA6D_2023-03-30.json ...
2023-03-31 06:02:20,507 [INFO] Writing file: /data/sel-data/raw/elektroautarchy/506EE311-AE7E-4B80-B30C-6A9043FF6815/2023-03-29/raw_elektroautarchy_506EE311-AE7E-4B80-B30C-6A9043FF6815_2023-03-29.json ...
2023-03-31 06:02:20,508 [INFO] Creating directory: /data/sel-data/raw/elektroautarchy/2F739EE1-1003-45F0-A2BE-7DFBF631BC51/2023-03-30
2023-03-31 06:02:20,509 [INFO] Creating directory: /data/sel-data/raw/elektroautarchy/B5183F58-F21D-4213-8B11-AE58D6531E12/2023-03-30
2023-03-31 06:02:20,509 [INFO] Writing file: /data/sel-data/raw/elektroautarchy/B2777187-FCC4-4AF2-AB8A-E25D1453F8DF/2023-03-30/raw_elektroautarchy_B2777187-FCC4-4AF2-AB8A-E25D1453F8DF_2023-03-30.json ...
2023-03-31 06:02:20,510 [INFO] Writing file: /data/sel-data/raw/elektroautarchy/2F739EE1-1003-45F0-A2BE-7DFBF631BC51/2023-03-30/raw_elektroautarchy_2F739EE1-1003-45F0-A2BE-7DFBF631BC51_2023-03-30.json ...
2023-03-31 06:02:20,506 [INFO] Writing file: /data/sel-data/raw/elektroautarchy/D7F6364A-52BE-40FE-84A7-214AF04B97CF/2023-03-30/raw_elektroautarchy_D7F6364A-52BE-40FE-84A7-214AF04B97CF_2023-03-30.json ...
2023-03-31 06:02:20,512 [INFO] Writing file: /data/sel-data/raw/elektroautarchy/B5183F58-F21D-4213-8B11-AE58D6531E12/2023-03-30/raw_elektroautarchy_B5183F58-F21D-4213-8B11-AE58D6531E12_2023-03-30.json ...
2023-03-31 06:02:20,676 [INFO] Response Status: 200
2023-03-31 06:02:20,678 [INFO] Response Status: 200
2023-03-31 06:02:20,686 [INFO] Creating directory: /data/sel-data/raw/elektroautarchy/506EE311-AE7E-4B80-B30C-6A9043FF6815/2023-03-30
2023-03-31 06:02:20,683 [INFO] Response Status: 200
2023-03-31 06:02:20,689 [INFO] Writing file: /data/sel-data/raw/elektroautarchy/506EE311-AE7E-4B80-B30C-6A9043FF6815/2023-03-30/raw_elektroautarchy_506EE311-AE7E-4B80-B30C-6A9043FF6815_2023-03-30.json ...
2023-03-31 06:02:20,690 [INFO] Creating directory: /data/sel-data/raw/elektroautarchy/ED8050A3-EE7E-4515-B9C7-22BBB01AF9B1/2023-03-30
2023-03-31 06:02:20,693 [INFO] Writing file: /data/sel-data/raw/elektroautarchy/ED8050A3-EE7E-4515-B9C7-22BBB01AF9B1/2023-03-30/raw_elektroautarchy_ED8050A3-EE7E-4515-B9C7-22BBB01AF9B1_2023-03-30.json ...
2023-03-31 06:02:20,698 [INFO] Response Status: 200
2023-03-31 06:02:20,703 [INFO] Response Status: 200
2023-03-31 06:02:20,676 [INFO] Response Status: 200
2023-03-31 06:02:20,694 [INFO] Creating directory: /data/sel-data/raw/elektroautarchy/E5767203-CF98-4F89-90BF-B617DB23F913/2023-03-30
2023-03-31 06:02:20,712 [INFO] Writing file: /data/sel-data/raw/elektroautarchy/E5767203-CF98-4F89-90BF-B617DB23F913/2023-03-30/raw_elektroautarchy_E5767203-CF98-4F89-90BF-B617DB23F913_2023-03-30.json ...
2023-03-31 06:02:20,713 [INFO] Creating directory: /data/sel-data/raw/elektroautarchy/9331D39C-70F1-47AA-8586-6B2655C0ABAB/2023-03-30
2023-03-31 06:02:20,716 [INFO] Creating directory: /data/sel-data/raw/elektroautarchy/8CDF2CCB-E9A0-4C25-A876-70C89CCF8BC5/2023-03-30
2023-03-31 06:02:20,706 [INFO] Response Status: 200
2023-03-31 06:02:20,722 [INFO] Creating directory: /data/sel-data/raw/elektroautarchy/639B7BB1-2475-4484-85C4-7041DF3415CC/2023-03-30
2023-03-31 06:02:20,724 [INFO] Creating directory: /data/sel-data/raw/elektroautarchy/95E97A88-161E-474E-AF81-1BEA63D6A4AA/2023-03-30
2023-03-31 06:02:20,727 [INFO] Writing file: /data/sel-data/raw/elektroautarchy/8CDF2CCB-E9A0-4C25-A876-70C89CCF8BC5/2023-03-30/raw_elektroautarchy_8CDF2CCB-E9A0-4C25-A876-70C89CCF8BC5_2023-03-30.json ...
2023-03-31 06:02:20,722 [INFO] Response Status: 200
2023-03-31 06:02:20,733 [INFO] Writing file: /data/sel-data/raw/elektroautarchy/639B7BB1-2475-4484-85C4-7041DF3415CC/2023-03-30/raw_elektroautarchy_639B7BB1-2475-4484-85C4-7041DF3415CC_2023-03-30.json ...
2023-03-31 06:02:20,734 [INFO] Writing file: /data/sel-data/raw/elektroautarchy/9331D39C-70F1-47AA-8586-6B2655C0ABAB/2023-03-30/raw_elektroautarchy_9331D39C-70F1-47AA-8586-6B2655C0ABAB_2023-03-30.json ...
2023-03-31 06:02:20,737 [INFO] Creating directory: /data/sel-data/raw/elektroautarchy/ED8050A3-EE7E-4515-B9C7-22BBB01AF9B1/2023-03-28
2023-03-31 06:02:20,740 [INFO] Writing file: /data/sel-data/raw/elektroautarchy/ED8050A3-EE7E-4515-B9C7-22BBB01AF9B1/2023-03-28/raw_elektroautarchy_ED8050A3-EE7E-4515-B9C7-22BBB01AF9B1_2023-03-28.json ...
2023-03-31 06:02:20,733 [INFO] Writing file: /data/sel-data/raw/elektroautarchy/95E97A88-161E-474E-AF81-1BEA63D6A4AA/2023-03-30/raw_elektroautarchy_95E97A88-161E-474E-AF81-1BEA63D6A4AA_2023-03-30.json ...
2023-03-31 06:02:21,936 [INFO] converting for elektroautarchy
2023-03-31 06:04:51,910 [INFO] Summing Waschgruppen
2023-03-31 06:05:05,063 [INFO] Subtracting Wärmepumpe und Waschgruppen von Allegemein
2023-03-31 06:05:05,064 [INFO] Energieverbrauch Elektro - Total [kWh]
2023-03-31 06:29:35,495 [INFO] Energieverbrauch Elektro - Solar [kWh]
2023-03-31 06:54:39,942 [INFO] years: [2019 2020 2021 2022 2023]
2023-03-31 06:54:39,944 [INFO] writing rolling for year 2019 to /data/sel-data/converted/elektroautarchy/elektroautarchy_2019_rolling.csv
2023-03-31 06:54:40,801 [INFO] writing rolling for year 2020 to /data/sel-data/converted/elektroautarchy/elektroautarchy_2020_rolling.csv
2023-03-31 06:55:00,995 [INFO] writing rolling for year 2021 to /data/sel-data/converted/elektroautarchy/elektroautarchy_2021_rolling.csv
2023-03-31 06:55:23,343 [INFO] writing rolling for year 2022 to /data/sel-data/converted/elektroautarchy/elektroautarchy_2022_rolling.csv
2023-03-31 06:55:48,486 [INFO] writing rolling for year 2023 to /data/sel-data/converted/elektroautarchy/elektroautarchy_2023_rolling.csv
2023-03-31 06:56:05,261 [INFO] Converting data for elektroenergie
2023-03-31 06:56:05,264 [INFO] loading/fetching data of type=elektroenergie looking in directory=/data/sel-data/raw 2019-12-01 - 2023-03-31
2023-03-31 06:57:09,906 [INFO] fetching endpoint: timeseries/05D78C27-192D-4D61-BBFF-C3F4FDA8CA6D/Active%20Energy%20Import from: 2023-03-30T00:00:00+0200 to: 2023-03-30T23:58:59+0200 -> https://api.sel.energy/api_v1/timeseries/05D78C27-192D-4D61-BBFF-C3F4FDA8CA6D/Active%20Energy%20Import?debug=True&from=2023-03-30T00%3A00%3A00%2B0200&to=2023-03-30T23%3A58%3A59%2B0200)
2023-03-31 06:57:09,909 [INFO] fetching endpoint: timeseries/D7F6364A-52BE-40FE-84A7-214AF04B97CF/Active%20Energy%20Import from: 2023-03-30T00:00:00+0200 to: 2023-03-30T23:58:59+0200 -> https://api.sel.energy/api_v1/timeseries/D7F6364A-52BE-40FE-84A7-214AF04B97CF/Active%20Energy%20Import?debug=True&from=2023-03-30T00%3A00%3A00%2B0200&to=2023-03-30T23%3A58%3A59%2B0200)
2023-03-31 06:57:09,912 [INFO] fetching endpoint: timeseries/9331D39C-70F1-47AA-8586-6B2655C0ABAB/Active%20Energy%20Import from: 2023-03-30T00:00:00+0200 to: 2023-03-30T23:58:59+0200 -> https://api.sel.energy/api_v1/timeseries/9331D39C-70F1-47AA-8586-6B2655C0ABAB/Active%20Energy%20Import?debug=True&from=2023-03-30T00%3A00%3A00%2B0200&to=2023-03-30T23%3A58%3A59%2B0200)
2023-03-31 06:57:09,914 [INFO] fetching endpoint: timeseries/E5767203-CF98-4F89-90BF-B617DB23F913/Active%20Energy%20Import from: 2023-03-30T00:00:00+0200 to: 2023-03-30T23:58:59+0200 -> https://api.sel.energy/api_v1/timeseries/E5767203-CF98-4F89-90BF-B617DB23F913/Active%20Energy%20Import?debug=True&from=2023-03-30T00%3A00%3A00%2B0200&to=2023-03-30T23%3A58%3A59%2B0200)
2023-03-31 06:57:09,909 [INFO] fetching endpoint: timeseries/639B7BB1-2475-4484-85C4-7041DF3415CC/Active%20Energy%20Import from: 2023-03-30T00:00:00+0200 to: 2023-03-30T23:58:59+0200 -> https://api.sel.energy/api_v1/timeseries/639B7BB1-2475-4484-85C4-7041DF3415CC/Active%20Energy%20Import?debug=True&from=2023-03-30T00%3A00%3A00%2B0200&to=2023-03-30T23%3A58%3A59%2B0200)
2023-03-31 06:57:09,926 [INFO] fetching endpoint: timeseries/3c9ee05b-15b6-4ad1-bf13-7d818c9ed425/Active%20Energy%20Import from: 2023-03-30T00:00:00+0200 to: 2023-03-30T23:58:59+0200 -> https://api.sel.energy/api_v1/timeseries/3c9ee05b-15b6-4ad1-bf13-7d818c9ed425/Active%20Energy%20Import?debug=True&from=2023-03-30T00%3A00%3A00%2B0200&to=2023-03-30T23%3A58%3A59%2B0200)
2023-03-31 06:57:09,911 [INFO] fetching endpoint: timeseries/8CDF2CCB-E9A0-4C25-A876-70C89CCF8BC5/Active%20Energy%20Import from: 2023-03-30T00:00:00+0200 to: 2023-03-30T23:58:59+0200 -> https://api.sel.energy/api_v1/timeseries/8CDF2CCB-E9A0-4C25-A876-70C89CCF8BC5/Active%20Energy%20Import?debug=True&from=2023-03-30T00%3A00%3A00%2B0200&to=2023-03-30T23%3A58%3A59%2B0200)
2023-03-31 06:57:09,912 [INFO] fetching endpoint: timeseries/ED8050A3-EE7E-4515-B9C7-22BBB01AF9B1/Active%20Energy%20Import from: 2023-03-30T00:00:00+0200 to: 2023-03-30T23:58:59+0200 -> https://api.sel.energy/api_v1/timeseries/ED8050A3-EE7E-4515-B9C7-22BBB01AF9B1/Active%20Energy%20Import?debug=True&from=2023-03-30T00%3A00%3A00%2B0200&to=2023-03-30T23%3A58%3A59%2B0200)
2023-03-31 06:57:09,934 [INFO] fetching endpoint: timeseries/B5183F58-F21D-4213-8B11-AE58D6531E12/Active%20Energy%20Import from: 2023-03-30T00:00:00+0200 to: 2023-03-30T23:58:59+0200 -> https://api.sel.energy/api_v1/timeseries/B5183F58-F21D-4213-8B11-AE58D6531E12/Active%20Energy%20Import?debug=True&from=2023-03-30T00%3A00%3A00%2B0200&to=2023-03-30T23%3A58%3A59%2B0200)
2023-03-31 06:57:09,946 [INFO] request 'https://api.sel.energy/api_v1/timeseries/D7F6364A-52BE-40FE-84A7-214AF04B97CF/Active%20Energy%20Import?debug=True&from=2023-03-30T00%3A00%3A00%2B0200&to=2023-03-30T23%3A58%3A59%2B0200'
2023-03-31 06:57:09,946 [INFO] request 'https://api.sel.energy/api_v1/timeseries/05D78C27-192D-4D61-BBFF-C3F4FDA8CA6D/Active%20Energy%20Import?debug=True&from=2023-03-30T00%3A00%3A00%2B0200&to=2023-03-30T23%3A58%3A59%2B0200'
2023-03-31 06:57:09,946 [INFO] request 'https://api.sel.energy/api_v1/timeseries/E5767203-CF98-4F89-90BF-B617DB23F913/Active%20Energy%20Import?debug=True&from=2023-03-30T00%3A00%3A00%2B0200&to=2023-03-30T23%3A58%3A59%2B0200'
2023-03-31 06:57:09,948 [INFO] request 'https://api.sel.energy/api_v1/timeseries/9331D39C-70F1-47AA-8586-6B2655C0ABAB/Active%20Energy%20Import?debug=True&from=2023-03-30T00%3A00%3A00%2B0200&to=2023-03-30T23%3A58%3A59%2B0200'
2023-03-31 06:57:09,950 [INFO] request 'https://api.sel.energy/api_v1/timeseries/8CDF2CCB-E9A0-4C25-A876-70C89CCF8BC5/Active%20Energy%20Import?debug=True&from=2023-03-30T00%3A00%3A00%2B0200&to=2023-03-30T23%3A58%3A59%2B0200'
2023-03-31 06:57:09,953 [INFO] request 'https://api.sel.energy/api_v1/timeseries/3c9ee05b-15b6-4ad1-bf13-7d818c9ed425/Active%20Energy%20Import?debug=True&from=2023-03-30T00%3A00%3A00%2B0200&to=2023-03-30T23%3A58%3A59%2B0200'
2023-03-31 06:57:09,953 [INFO] request 'https://api.sel.energy/api_v1/timeseries/ED8050A3-EE7E-4515-B9C7-22BBB01AF9B1/Active%20Energy%20Import?debug=True&from=2023-03-30T00%3A00%3A00%2B0200&to=2023-03-30T23%3A58%3A59%2B0200'
2023-03-31 06:57:09,956 [INFO] request 'https://api.sel.energy/api_v1/timeseries/B5183F58-F21D-4213-8B11-AE58D6531E12/Active%20Energy%20Import?debug=True&from=2023-03-30T00%3A00%3A00%2B0200&to=2023-03-30T23%3A58%3A59%2B0200'
2023-03-31 06:57:09,959 [INFO] request 'https://api.sel.energy/api_v1/timeseries/639B7BB1-2475-4484-85C4-7041DF3415CC/Active%20Energy%20Import?debug=True&from=2023-03-30T00%3A00%3A00%2B0200&to=2023-03-30T23%3A58%3A59%2B0200'
2023-03-31 06:57:09,932 [INFO] fetching endpoint: timeseries/506EE311-AE7E-4B80-B30C-6A9043FF6815/Active%20Energy%20Import from: 2023-03-30T00:00:00+0200 to: 2023-03-30T23:58:59+0200 -> https://api.sel.energy/api_v1/timeseries/506EE311-AE7E-4B80-B30C-6A9043FF6815/Active%20Energy%20Import?debug=True&from=2023-03-30T00%3A00%3A00%2B0200&to=2023-03-30T23%3A58%3A59%2B0200)
2023-03-31 06:57:09,934 [INFO] fetching endpoint: timeseries/2F739EE1-1003-45F0-A2BE-7DFBF631BC51/Active%20Energy%20Import from: 2023-03-30T00:00:00+0200 to: 2023-03-30T23:58:59+0200 -> https://api.sel.energy/api_v1/timeseries/2F739EE1-1003-45F0-A2BE-7DFBF631BC51/Active%20Energy%20Import?debug=True&from=2023-03-30T00%3A00%3A00%2B0200&to=2023-03-30T23%3A58%3A59%2B0200)
2023-03-31 06:57:09,973 [INFO] request 'https://api.sel.energy/api_v1/timeseries/506EE311-AE7E-4B80-B30C-6A9043FF6815/Active%20Energy%20Import?debug=True&from=2023-03-30T00%3A00%3A00%2B0200&to=2023-03-30T23%3A58%3A59%2B0200'
2023-03-31 06:57:09,984 [INFO] request 'https://api.sel.energy/api_v1/timeseries/2F739EE1-1003-45F0-A2BE-7DFBF631BC51/Active%20Energy%20Import?debug=True&from=2023-03-30T00%3A00%3A00%2B0200&to=2023-03-30T23%3A58%3A59%2B0200'
2023-03-31 06:57:09,939 [INFO] fetching endpoint: timeseries/95E97A88-161E-474E-AF81-1BEA63D6A4AA/Active%20Energy%20Import from: 2023-03-30T00:00:00+0200 to: 2023-03-30T23:58:59+0200 -> https://api.sel.energy/api_v1/timeseries/95E97A88-161E-474E-AF81-1BEA63D6A4AA/Active%20Energy%20Import?debug=True&from=2023-03-30T00%3A00%3A00%2B0200&to=2023-03-30T23%3A58%3A59%2B0200)
2023-03-31 06:57:09,988 [INFO] request 'https://api.sel.energy/api_v1/timeseries/95E97A88-161E-474E-AF81-1BEA63D6A4AA/Active%20Energy%20Import?debug=True&from=2023-03-30T00%3A00%3A00%2B0200&to=2023-03-30T23%3A58%3A59%2B0200'
2023-03-31 06:57:09,952 [INFO] fetching endpoint: timeseries/B2777187-FCC4-4AF2-AB8A-E25D1453F8DF/Active%20Energy%20Import from: 2023-03-30T00:00:00+0200 to: 2023-03-30T23:58:59+0200 -> https://api.sel.energy/api_v1/timeseries/B2777187-FCC4-4AF2-AB8A-E25D1453F8DF/Active%20Energy%20Import?debug=True&from=2023-03-30T00%3A00%3A00%2B0200&to=2023-03-30T23%3A58%3A59%2B0200)
2023-03-31 06:57:10,020 [INFO] request 'https://api.sel.energy/api_v1/timeseries/B2777187-FCC4-4AF2-AB8A-E25D1453F8DF/Active%20Energy%20Import?debug=True&from=2023-03-30T00%3A00%3A00%2B0200&to=2023-03-30T23%3A58%3A59%2B0200'
2023-03-31 06:57:42,013 [INFO] Response Status: 200
2023-03-31 06:57:42,021 [INFO] Creating directory: /data/sel-data/raw/elektroenergie/8CDF2CCB-E9A0-4C25-A876-70C89CCF8BC5/2023-03-30
2023-03-31 06:57:42,028 [INFO] Writing file: /data/sel-data/raw/elektroenergie/8CDF2CCB-E9A0-4C25-A876-70C89CCF8BC5/2023-03-30/raw_elektroenergie_8CDF2CCB-E9A0-4C25-A876-70C89CCF8BC5_2023-03-30.json ...
2023-03-31 06:57:43,610 [INFO] converting for elektroenergie
2023-03-31 07:00:32,352 [INFO] years: [2019 2020 2021 2022 2023]
2023-03-31 07:00:32,353 [INFO] writing rolling for year 2019 to /data/sel-data/converted/elektroenergie/elektroenergie_2019_rolling.csv
2023-03-31 07:00:33,029 [INFO] writing rolling for year 2020 to /data/sel-data/converted/elektroenergie/elektroenergie_2020_rolling.csv
2023-03-31 07:00:51,995 [INFO] writing rolling for year 2021 to /data/sel-data/converted/elektroenergie/elektroenergie_2021_rolling.csv
2023-03-31 07:01:10,895 [INFO] writing rolling for year 2022 to /data/sel-data/converted/elektroenergie/elektroenergie_2022_rolling.csv
2023-03-31 07:01:38,169 [INFO] writing rolling for year 2023 to /data/sel-data/converted/elektroenergie/elektroenergie_2023_rolling.csv
2023-03-31 07:01:47,987 [INFO] Converting data for warmwasser
2023-03-31 07:01:47,989 [INFO] loading/fetching data of type=warmwasser looking in directory=/data/sel-data/raw 2019-12-01 - 2023-03-31
2023-03-31 07:03:08,745 [INFO] fetching endpoint: timeseries/0A9191D8-058C-40B1-95AA-95B005652B42/Volume from: 2023-03-30T00:00:00+0200 to: 2023-03-30T23:58:59+0200 -> https://api.sel.energy/api_v1/timeseries/0A9191D8-058C-40B1-95AA-95B005652B42/Volume?debug=True&from=2023-03-30T00%3A00%3A00%2B0200&to=2023-03-30T23%3A58%3A59%2B0200)
2023-03-31 07:03:08,746 [INFO] fetching endpoint: timeseries/9F01DBB5-DB6F-4A8B-BAE2-10FBA1E54881/Volume from: 2023-03-30T00:00:00+0200 to: 2023-03-30T23:58:59+0200 -> https://api.sel.energy/api_v1/timeseries/9F01DBB5-DB6F-4A8B-BAE2-10FBA1E54881/Volume?debug=True&from=2023-03-30T00%3A00%3A00%2B0200&to=2023-03-30T23%3A58%3A59%2B0200)
2023-03-31 07:03:08,744 [INFO] fetching endpoint: timeseries/75EB885B-BF4C-455A-ABE9-8511413A1A13/Volume from: 2023-03-30T00:00:00+0200 to: 2023-03-30T23:58:59+0200 -> https://api.sel.energy/api_v1/timeseries/75EB885B-BF4C-455A-ABE9-8511413A1A13/Volume?debug=True&from=2023-03-30T00%3A00%3A00%2B0200&to=2023-03-30T23%3A58%3A59%2B0200)
2023-03-31 07:03:08,743 [INFO] fetching endpoint: timeseries/11FD4664-E7F4-46A2-819A-0431E72DFA65/Volume from: 2023-03-30T00:00:00+0200 to: 2023-03-30T23:58:59+0200 -> https://api.sel.energy/api_v1/timeseries/11FD4664-E7F4-46A2-819A-0431E72DFA65/Volume?debug=True&from=2023-03-30T00%3A00%3A00%2B0200&to=2023-03-30T23%3A58%3A59%2B0200)
2023-03-31 07:03:08,751 [INFO] fetching endpoint: timeseries/7225C5B7-D65E-45CB-B669-09907938CB11/Volume from: 2023-03-30T00:00:00+0200 to: 2023-03-30T23:58:59+0200 -> https://api.sel.energy/api_v1/timeseries/7225C5B7-D65E-45CB-B669-09907938CB11/Volume?debug=True&from=2023-03-30T00%3A00%3A00%2B0200&to=2023-03-30T23%3A58%3A59%2B0200)
2023-03-31 07:03:08,751 [INFO] fetching endpoint: timeseries/47E3846E-E256-4EB4-BB0E-5DFE07AF3A8E/Volume from: 2023-03-30T00:00:00+0200 to: 2023-03-30T23:58:59+0200 -> https://api.sel.energy/api_v1/timeseries/47E3846E-E256-4EB4-BB0E-5DFE07AF3A8E/Volume?debug=True&from=2023-03-30T00%3A00%3A00%2B0200&to=2023-03-30T23%3A58%3A59%2B0200)
2023-03-31 07:03:08,752 [INFO] fetching endpoint: timeseries/0B88AF4C-056E-4F93-B05A-F313722815F5/Volume from: 2023-03-30T00:00:00+0200 to: 2023-03-30T23:58:59+0200 -> https://api.sel.energy/api_v1/timeseries/0B88AF4C-056E-4F93-B05A-F313722815F5/Volume?debug=True&from=2023-03-30T00%3A00%3A00%2B0200&to=2023-03-30T23%3A58%3A59%2B0200)
2023-03-31 07:03:08,757 [INFO] fetching endpoint: timeseries/07109866-5FD8-4640-93E0-4B366963B38B/Volume from: 2023-03-30T00:00:00+0200 to: 2023-03-30T23:58:59+0200 -> https://api.sel.energy/api_v1/timeseries/07109866-5FD8-4640-93E0-4B366963B38B/Volume?debug=True&from=2023-03-30T00%3A00%3A00%2B0200&to=2023-03-30T23%3A58%3A59%2B0200)
2023-03-31 07:03:08,757 [INFO] request 'https://api.sel.energy/api_v1/timeseries/9F01DBB5-DB6F-4A8B-BAE2-10FBA1E54881/Volume?debug=True&from=2023-03-30T00%3A00%3A00%2B0200&to=2023-03-30T23%3A58%3A59%2B0200'
2023-03-31 07:03:08,750 [INFO] fetching endpoint: timeseries/180E3F34-98B4-4946-B051-7E948F19C1F0/Volume from: 2023-03-30T00:00:00+0200 to: 2023-03-30T23:58:59+0200 -> https://api.sel.energy/api_v1/timeseries/180E3F34-98B4-4946-B051-7E948F19C1F0/Volume?debug=True&from=2023-03-30T00%3A00%3A00%2B0200&to=2023-03-30T23%3A58%3A59%2B0200)
2023-03-31 07:03:08,760 [INFO] request 'https://api.sel.energy/api_v1/timeseries/0B88AF4C-056E-4F93-B05A-F313722815F5/Volume?debug=True&from=2023-03-30T00%3A00%3A00%2B0200&to=2023-03-30T23%3A58%3A59%2B0200'
2023-03-31 07:03:08,756 [INFO] request 'https://api.sel.energy/api_v1/timeseries/0A9191D8-058C-40B1-95AA-95B005652B42/Volume?debug=True&from=2023-03-30T00%3A00%3A00%2B0200&to=2023-03-30T23%3A58%3A59%2B0200'
2023-03-31 07:03:08,757 [INFO] request 'https://api.sel.energy/api_v1/timeseries/11FD4664-E7F4-46A2-819A-0431E72DFA65/Volume?debug=True&from=2023-03-30T00%3A00%3A00%2B0200&to=2023-03-30T23%3A58%3A59%2B0200'
2023-03-31 07:03:08,761 [INFO] request 'https://api.sel.energy/api_v1/timeseries/180E3F34-98B4-4946-B051-7E948F19C1F0/Volume?debug=True&from=2023-03-30T00%3A00%3A00%2B0200&to=2023-03-30T23%3A58%3A59%2B0200'
2023-03-31 07:03:08,743 [INFO] fetching endpoint: timeseries/054BA1AF-D396-4E21-AE2C-1216D186A850/Volume from: 2023-03-30T00:00:00+0200 to: 2023-03-30T23:58:59+0200 -> https://api.sel.energy/api_v1/timeseries/054BA1AF-D396-4E21-AE2C-1216D186A850/Volume?debug=True&from=2023-03-30T00%3A00%3A00%2B0200&to=2023-03-30T23%3A58%3A59%2B0200)
2023-03-31 07:03:08,757 [INFO] request 'https://api.sel.energy/api_v1/timeseries/75EB885B-BF4C-455A-ABE9-8511413A1A13/Volume?debug=True&from=2023-03-30T00%3A00%3A00%2B0200&to=2023-03-30T23%3A58%3A59%2B0200'
2023-03-31 07:03:08,752 [INFO] fetching endpoint: timeseries/62FB6214-4293-4559-A74D-647C54556E15/Volume from: 2023-03-30T00:00:00+0200 to: 2023-03-30T23:58:59+0200 -> https://api.sel.energy/api_v1/timeseries/62FB6214-4293-4559-A74D-647C54556E15/Volume?debug=True&from=2023-03-30T00%3A00%3A00%2B0200&to=2023-03-30T23%3A58%3A59%2B0200)
2023-03-31 07:03:08,762 [INFO] request 'https://api.sel.energy/api_v1/timeseries/07109866-5FD8-4640-93E0-4B366963B38B/Volume?debug=True&from=2023-03-30T00%3A00%3A00%2B0200&to=2023-03-30T23%3A58%3A59%2B0200'
2023-03-31 07:03:08,763 [INFO] request 'https://api.sel.energy/api_v1/timeseries/054BA1AF-D396-4E21-AE2C-1216D186A850/Volume?debug=True&from=2023-03-30T00%3A00%3A00%2B0200&to=2023-03-30T23%3A58%3A59%2B0200'
2023-03-31 07:03:08,763 [INFO] request 'https://api.sel.energy/api_v1/timeseries/62FB6214-4293-4559-A74D-647C54556E15/Volume?debug=True&from=2023-03-30T00%3A00%3A00%2B0200&to=2023-03-30T23%3A58%3A59%2B0200'
2023-03-31 07:03:08,756 [INFO] request 'https://api.sel.energy/api_v1/timeseries/47E3846E-E256-4EB4-BB0E-5DFE07AF3A8E/Volume?debug=True&from=2023-03-30T00%3A00%3A00%2B0200&to=2023-03-30T23%3A58%3A59%2B0200'
2023-03-31 07:03:08,756 [INFO] request 'https://api.sel.energy/api_v1/timeseries/7225C5B7-D65E-45CB-B669-09907938CB11/Volume?debug=True&from=2023-03-30T00%3A00%3A00%2B0200&to=2023-03-30T23%3A58%3A59%2B0200'
2023-03-31 07:03:12,785 [INFO] Response Status: 200
2023-03-31 07:03:12,807 [INFO] Creating directory: /data/sel-data/raw/warmwasser/47E3846E-E256-4EB4-BB0E-5DFE07AF3A8E/2023-03-30
2023-03-31 07:03:12,810 [INFO] Writing file: /data/sel-data/raw/warmwasser/47E3846E-E256-4EB4-BB0E-5DFE07AF3A8E/2023-03-30/raw_warmwasser_47E3846E-E256-4EB4-BB0E-5DFE07AF3A8E_2023-03-30.json ...
2023-03-31 07:03:14,264 [INFO] Response Status: 200
2023-03-31 07:03:14,266 [INFO] Response Status: 200
2023-03-31 07:03:15,006 [INFO] Response Status: 200
2023-03-31 07:03:15,227 [INFO] Response Status: 200
2023-03-31 07:03:15,229 [INFO] Response Status: 200
2023-03-31 07:03:15,249 [INFO] Response Status: 200
2023-03-31 07:03:15,481 [INFO] Response Status: 200
2023-03-31 07:03:15,487 [INFO] Response Status: 200
2023-03-31 07:03:23,226 [INFO] Creating directory: /data/sel-data/raw/warmwasser/62FB6214-4293-4559-A74D-647C54556E15/2023-03-30
2023-03-31 07:03:15,496 [INFO] Response Status: 200
2023-03-31 07:03:23,230 [INFO] Creating directory: /data/sel-data/raw/warmwasser/180E3F34-98B4-4946-B051-7E948F19C1F0/2023-03-30
2023-03-31 07:03:23,230 [INFO] Creating directory: /data/sel-data/raw/warmwasser/7225C5B7-D65E-45CB-B669-09907938CB11/2023-03-30
2023-03-31 07:03:23,230 [INFO] Creating directory: /data/sel-data/raw/warmwasser/11FD4664-E7F4-46A2-819A-0431E72DFA65/2023-03-30
2023-03-31 07:03:23,232 [INFO] Creating directory: /data/sel-data/raw/warmwasser/0B88AF4C-056E-4F93-B05A-F313722815F5/2023-03-30
2023-03-31 07:03:23,233 [INFO] Creating directory: /data/sel-data/raw/warmwasser/054BA1AF-D396-4E21-AE2C-1216D186A850/2023-03-30
2023-03-31 07:03:23,234 [INFO] Creating directory: /data/sel-data/raw/warmwasser/0A9191D8-058C-40B1-95AA-95B005652B42/2023-03-30
2023-03-31 07:03:23,234 [INFO] Creating directory: /data/sel-data/raw/warmwasser/07109866-5FD8-4640-93E0-4B366963B38B/2023-03-30
2023-03-31 07:03:23,231 [INFO] Creating directory: /data/sel-data/raw/warmwasser/75EB885B-BF4C-455A-ABE9-8511413A1A13/2023-03-30
2023-03-31 07:03:23,248 [INFO] Writing file: /data/sel-data/raw/warmwasser/11FD4664-E7F4-46A2-819A-0431E72DFA65/2023-03-30/raw_warmwasser_11FD4664-E7F4-46A2-819A-0431E72DFA65_2023-03-30.json ...
2023-03-31 07:03:23,249 [INFO] Writing file: /data/sel-data/raw/warmwasser/7225C5B7-D65E-45CB-B669-09907938CB11/2023-03-30/raw_warmwasser_7225C5B7-D65E-45CB-B669-09907938CB11_2023-03-30.json ...
2023-03-31 07:03:23,248 [INFO] Writing file: /data/sel-data/raw/warmwasser/180E3F34-98B4-4946-B051-7E948F19C1F0/2023-03-30/raw_warmwasser_180E3F34-98B4-4946-B051-7E948F19C1F0_2023-03-30.json ...
2023-03-31 07:03:23,248 [INFO] Writing file: /data/sel-data/raw/warmwasser/62FB6214-4293-4559-A74D-647C54556E15/2023-03-30/raw_warmwasser_62FB6214-4293-4559-A74D-647C54556E15_2023-03-30.json ...
2023-03-31 07:03:23,256 [INFO] Writing file: /data/sel-data/raw/warmwasser/0A9191D8-058C-40B1-95AA-95B005652B42/2023-03-30/raw_warmwasser_0A9191D8-058C-40B1-95AA-95B005652B42_2023-03-30.json ...
2023-03-31 07:03:23,261 [INFO] Writing file: /data/sel-data/raw/warmwasser/0B88AF4C-056E-4F93-B05A-F313722815F5/2023-03-30/raw_warmwasser_0B88AF4C-056E-4F93-B05A-F313722815F5_2023-03-30.json ...
2023-03-31 07:03:23,263 [INFO] Writing file: /data/sel-data/raw/warmwasser/054BA1AF-D396-4E21-AE2C-1216D186A850/2023-03-30/raw_warmwasser_054BA1AF-D396-4E21-AE2C-1216D186A850_2023-03-30.json ...
2023-03-31 07:03:23,262 [INFO] Writing file: /data/sel-data/raw/warmwasser/07109866-5FD8-4640-93E0-4B366963B38B/2023-03-30/raw_warmwasser_07109866-5FD8-4640-93E0-4B366963B38B_2023-03-30.json ...
2023-03-31 07:03:23,268 [INFO] Writing file: /data/sel-data/raw/warmwasser/75EB885B-BF4C-455A-ABE9-8511413A1A13/2023-03-30/raw_warmwasser_75EB885B-BF4C-455A-ABE9-8511413A1A13_2023-03-30.json ...
2023-03-31 07:03:23,303 [INFO] Response Status: 200
2023-03-31 07:03:23,307 [INFO] Creating directory: /data/sel-data/raw/warmwasser/9F01DBB5-DB6F-4A8B-BAE2-10FBA1E54881/2023-03-30
2023-03-31 07:03:23,309 [INFO] Writing file: /data/sel-data/raw/warmwasser/9F01DBB5-DB6F-4A8B-BAE2-10FBA1E54881/2023-03-30/raw_warmwasser_9F01DBB5-DB6F-4A8B-BAE2-10FBA1E54881_2023-03-30.json ...
2023-03-31 07:03:24,130 [INFO] converting for warmwasser
2023-03-31 07:05:15,044 [INFO] years: [2020 2021 2022 2023]
2023-03-31 07:05:15,045 [INFO] writing rolling for year 2020 to /data/sel-data/converted/warmwasser/warmwasser_2020_rolling.csv
2023-03-31 07:05:30,627 [INFO] writing rolling for year 2021 to /data/sel-data/converted/warmwasser/warmwasser_2021_rolling.csv
2023-03-31 07:05:50,239 [INFO] writing rolling for year 2022 to /data/sel-data/converted/warmwasser/warmwasser_2022_rolling.csv
2023-03-31 07:05:57,202 [INFO] writing rolling for year 2023 to /data/sel-data/converted/warmwasser/warmwasser_2023_rolling.csv
2023-03-31 07:06:00,967 [INFO] Converting data for heizenergie
2023-03-31 07:06:00,968 [INFO] loading/fetching data of type=heizenergie looking in directory=/data/sel-data/raw 2019-12-01 - 2023-03-31
2023-03-31 07:06:56,384 [INFO] fetching endpoint: timeseries/F22D876C-5752-40A6-A9D8-0AA6E9C3A7CB/Energy from: 2023-03-30T00:00:00+0200 to: 2023-03-30T23:58:59+0200 -> https://api.sel.energy/api_v1/timeseries/F22D876C-5752-40A6-A9D8-0AA6E9C3A7CB/Energy?debug=True&from=2023-03-30T00%3A00%3A00%2B0200&to=2023-03-30T23%3A58%3A59%2B0200)
2023-03-31 07:06:56,381 [INFO] fetching endpoint: timeseries/F61F1518-4E7A-4A40-8508-F0281F1EDE03/Energy from: 2023-03-30T00:00:00+0200 to: 2023-03-30T23:58:59+0200 -> https://api.sel.energy/api_v1/timeseries/F61F1518-4E7A-4A40-8508-F0281F1EDE03/Energy?debug=True&from=2023-03-30T00%3A00%3A00%2B0200&to=2023-03-30T23%3A58%3A59%2B0200)
2023-03-31 07:06:56,390 [INFO] fetching endpoint: timeseries/290BE3E3-C8FF-4D46-8574-F8D921AB25BE/Energy from: 2023-03-30T00:00:00+0200 to: 2023-03-30T23:58:59+0200 -> https://api.sel.energy/api_v1/timeseries/290BE3E3-C8FF-4D46-8574-F8D921AB25BE/Energy?debug=True&from=2023-03-30T00%3A00%3A00%2B0200&to=2023-03-30T23%3A58%3A59%2B0200)
2023-03-31 07:06:56,390 [INFO] fetching endpoint: timeseries/5B8C6D12-F30E-42C6-8405-4B3DA00924FB/Energy from: 2023-03-30T00:00:00+0200 to: 2023-03-30T23:58:59+0200 -> https://api.sel.energy/api_v1/timeseries/5B8C6D12-F30E-42C6-8405-4B3DA00924FB/Energy?debug=True&from=2023-03-30T00%3A00%3A00%2B0200&to=2023-03-30T23%3A58%3A59%2B0200)
2023-03-31 07:06:56,390 [INFO] fetching endpoint: timeseries/23040763-3118-4D88-92DB-8401043E9FAA/Energy from: 2023-03-30T00:00:00+0200 to: 2023-03-30T23:58:59+0200 -> https://api.sel.energy/api_v1/timeseries/23040763-3118-4D88-92DB-8401043E9FAA/Energy?debug=True&from=2023-03-30T00%3A00%3A00%2B0200&to=2023-03-30T23%3A58%3A59%2B0200)
2023-03-31 07:06:56,394 [INFO] request 'https://api.sel.energy/api_v1/timeseries/F61F1518-4E7A-4A40-8508-F0281F1EDE03/Energy?debug=True&from=2023-03-30T00%3A00%3A00%2B0200&to=2023-03-30T23%3A58%3A59%2B0200'
2023-03-31 07:06:56,394 [INFO] request 'https://api.sel.energy/api_v1/timeseries/5B8C6D12-F30E-42C6-8405-4B3DA00924FB/Energy?debug=True&from=2023-03-30T00%3A00%3A00%2B0200&to=2023-03-30T23%3A58%3A59%2B0200'
2023-03-31 07:06:56,382 [INFO] fetching endpoint: timeseries/B3D47CFC-93CE-4509-B5E6-EC52F7CE8596/Energy from: 2023-03-30T00:00:00+0200 to: 2023-03-30T23:58:59+0200 -> https://api.sel.energy/api_v1/timeseries/B3D47CFC-93CE-4509-B5E6-EC52F7CE8596/Energy?debug=True&from=2023-03-30T00%3A00%3A00%2B0200&to=2023-03-30T23%3A58%3A59%2B0200)
2023-03-31 07:06:56,381 [INFO] fetching endpoint: timeseries/DCF994C0-3841-4AEB-B45E-09F335457F33/Energy from: 2023-03-30T00:00:00+0200 to: 2023-03-30T23:58:59+0200 -> https://api.sel.energy/api_v1/timeseries/DCF994C0-3841-4AEB-B45E-09F335457F33/Energy?debug=True&from=2023-03-30T00%3A00%3A00%2B0200&to=2023-03-30T23%3A58%3A59%2B0200)
2023-03-31 07:06:56,378 [INFO] fetching endpoint: timeseries/FE1622D9-0C47-47E5-8DB8-E68C5FBC16EC/Energy from: 2023-03-30T00:00:00+0200 to: 2023-03-30T23:58:59+0200 -> https://api.sel.energy/api_v1/timeseries/FE1622D9-0C47-47E5-8DB8-E68C5FBC16EC/Energy?debug=True&from=2023-03-30T00%3A00%3A00%2B0200&to=2023-03-30T23%3A58%3A59%2B0200)
2023-03-31 07:06:56,401 [INFO] request 'https://api.sel.energy/api_v1/timeseries/B3D47CFC-93CE-4509-B5E6-EC52F7CE8596/Energy?debug=True&from=2023-03-30T00%3A00%3A00%2B0200&to=2023-03-30T23%3A58%3A59%2B0200'
2023-03-31 07:06:56,402 [INFO] request 'https://api.sel.energy/api_v1/timeseries/FE1622D9-0C47-47E5-8DB8-E68C5FBC16EC/Energy?debug=True&from=2023-03-30T00%3A00%3A00%2B0200&to=2023-03-30T23%3A58%3A59%2B0200'
2023-03-31 07:06:56,401 [INFO] request 'https://api.sel.energy/api_v1/timeseries/DCF994C0-3841-4AEB-B45E-09F335457F33/Energy?debug=True&from=2023-03-30T00%3A00%3A00%2B0200&to=2023-03-30T23%3A58%3A59%2B0200'
2023-03-31 07:06:56,381 [INFO] fetching endpoint: timeseries/77737469-2CA0-4B27-905A-9772592735CD/Energy from: 2023-03-30T00:00:00+0200 to: 2023-03-30T23:58:59+0200 -> https://api.sel.energy/api_v1/timeseries/77737469-2CA0-4B27-905A-9772592735CD/Energy?debug=True&from=2023-03-30T00%3A00%3A00%2B0200&to=2023-03-30T23%3A58%3A59%2B0200)
2023-03-31 07:06:56,381 [INFO] fetching endpoint: timeseries/C58B07B2-988F-4D3E-8F77-9D57F6868C81/Energy from: 2023-03-30T00:00:00+0200 to: 2023-03-30T23:58:59+0200 -> https://api.sel.energy/api_v1/timeseries/C58B07B2-988F-4D3E-8F77-9D57F6868C81/Energy?debug=True&from=2023-03-30T00%3A00%3A00%2B0200&to=2023-03-30T23%3A58%3A59%2B0200)
2023-03-31 07:06:56,404 [INFO] request 'https://api.sel.energy/api_v1/timeseries/77737469-2CA0-4B27-905A-9772592735CD/Energy?debug=True&from=2023-03-30T00%3A00%3A00%2B0200&to=2023-03-30T23%3A58%3A59%2B0200'
2023-03-31 07:06:56,404 [INFO] request 'https://api.sel.energy/api_v1/timeseries/C58B07B2-988F-4D3E-8F77-9D57F6868C81/Energy?debug=True&from=2023-03-30T00%3A00%3A00%2B0200&to=2023-03-30T23%3A58%3A59%2B0200'
2023-03-31 07:06:56,394 [INFO] request 'https://api.sel.energy/api_v1/timeseries/290BE3E3-C8FF-4D46-8574-F8D921AB25BE/Energy?debug=True&from=2023-03-30T00%3A00%3A00%2B0200&to=2023-03-30T23%3A58%3A59%2B0200'
2023-03-31 07:06:56,394 [INFO] request 'https://api.sel.energy/api_v1/timeseries/23040763-3118-4D88-92DB-8401043E9FAA/Energy?debug=True&from=2023-03-30T00%3A00%3A00%2B0200&to=2023-03-30T23%3A58%3A59%2B0200'
2023-03-31 07:06:56,410 [INFO] request 'https://api.sel.energy/api_v1/timeseries/F22D876C-5752-40A6-A9D8-0AA6E9C3A7CB/Energy?debug=True&from=2023-03-30T00%3A00%3A00%2B0200&to=2023-03-30T23%3A58%3A59%2B0200'
2023-03-31 07:07:15,222 [INFO] Response Status: 200
2023-03-31 07:07:15,222 [INFO] Response Status: 200
2023-03-31 07:07:15,229 [INFO] Response Status: 200
2023-03-31 07:07:15,229 [INFO] Creating directory: /data/sel-data/raw/heizenergie/DCF994C0-3841-4AEB-B45E-09F335457F33/2023-03-30
2023-03-31 07:07:15,232 [INFO] Writing file: /data/sel-data/raw/heizenergie/DCF994C0-3841-4AEB-B45E-09F335457F33/2023-03-30/raw_heizenergie_DCF994C0-3841-4AEB-B45E-09F335457F33_2023-03-30.json ...
2023-03-31 07:07:15,232 [INFO] Creating directory: /data/sel-data/raw/heizenergie/290BE3E3-C8FF-4D46-8574-F8D921AB25BE/2023-03-30
2023-03-31 07:07:15,234 [INFO] Writing file: /data/sel-data/raw/heizenergie/290BE3E3-C8FF-4D46-8574-F8D921AB25BE/2023-03-30/raw_heizenergie_290BE3E3-C8FF-4D46-8574-F8D921AB25BE_2023-03-30.json ...
2023-03-31 07:07:15,240 [INFO] Creating directory: /data/sel-data/raw/heizenergie/B3D47CFC-93CE-4509-B5E6-EC52F7CE8596/2023-03-30
2023-03-31 07:07:15,242 [INFO] Writing file: /data/sel-data/raw/heizenergie/B3D47CFC-93CE-4509-B5E6-EC52F7CE8596/2023-03-30/raw_heizenergie_B3D47CFC-93CE-4509-B5E6-EC52F7CE8596_2023-03-30.json ...
2023-03-31 07:07:15,439 [INFO] Response Status: 200
2023-03-31 07:07:15,446 [INFO] Creating directory: /data/sel-data/raw/heizenergie/F22D876C-5752-40A6-A9D8-0AA6E9C3A7CB/2023-03-30
2023-03-31 07:07:15,466 [INFO] Response Status: 200
2023-03-31 07:07:15,470 [INFO] Creating directory: /data/sel-data/raw/heizenergie/FE1622D9-0C47-47E5-8DB8-E68C5FBC16EC/2023-03-30
2023-03-31 07:07:15,474 [INFO] Writing file: /data/sel-data/raw/heizenergie/FE1622D9-0C47-47E5-8DB8-E68C5FBC16EC/2023-03-30/raw_heizenergie_FE1622D9-0C47-47E5-8DB8-E68C5FBC16EC_2023-03-30.json ...
2023-03-31 07:07:15,469 [INFO] Writing file: /data/sel-data/raw/heizenergie/F22D876C-5752-40A6-A9D8-0AA6E9C3A7CB/2023-03-30/raw_heizenergie_F22D876C-5752-40A6-A9D8-0AA6E9C3A7CB_2023-03-30.json ...
2023-03-31 07:07:15,477 [INFO] Response Status: 200
2023-03-31 07:07:15,481 [INFO] Creating directory: /data/sel-data/raw/heizenergie/23040763-3118-4D88-92DB-8401043E9FAA/2023-03-30
2023-03-31 07:07:15,484 [INFO] Writing file: /data/sel-data/raw/heizenergie/23040763-3118-4D88-92DB-8401043E9FAA/2023-03-30/raw_heizenergie_23040763-3118-4D88-92DB-8401043E9FAA_2023-03-30.json ...
2023-03-31 07:07:15,485 [INFO] Response Status: 200
2023-03-31 07:07:15,489 [INFO] Creating directory: /data/sel-data/raw/heizenergie/77737469-2CA0-4B27-905A-9772592735CD/2023-03-30
2023-03-31 07:07:15,492 [INFO] Writing file: /data/sel-data/raw/heizenergie/77737469-2CA0-4B27-905A-9772592735CD/2023-03-30/raw_heizenergie_77737469-2CA0-4B27-905A-9772592735CD_2023-03-30.json ...
2023-03-31 07:07:15,495 [INFO] Response Status: 200
2023-03-31 07:07:15,498 [INFO] Creating directory: /data/sel-data/raw/heizenergie/C58B07B2-988F-4D3E-8F77-9D57F6868C81/2023-03-30
2023-03-31 07:07:15,500 [INFO] Writing file: /data/sel-data/raw/heizenergie/C58B07B2-988F-4D3E-8F77-9D57F6868C81/2023-03-30/raw_heizenergie_C58B07B2-988F-4D3E-8F77-9D57F6868C81_2023-03-30.json ...
2023-03-31 07:07:15,524 [INFO] Response Status: 200
2023-03-31 07:07:15,527 [INFO] Creating directory: /data/sel-data/raw/heizenergie/F61F1518-4E7A-4A40-8508-F0281F1EDE03/2023-03-30
2023-03-31 07:07:15,528 [INFO] Writing file: /data/sel-data/raw/heizenergie/F61F1518-4E7A-4A40-8508-F0281F1EDE03/2023-03-30/raw_heizenergie_F61F1518-4E7A-4A40-8508-F0281F1EDE03_2023-03-30.json ...
2023-03-31 07:07:15,670 [INFO] Response Status: 200
2023-03-31 07:07:15,673 [INFO] Creating directory: /data/sel-data/raw/heizenergie/5B8C6D12-F30E-42C6-8405-4B3DA00924FB/2023-03-30
2023-03-31 07:07:15,675 [INFO] Writing file: /data/sel-data/raw/heizenergie/5B8C6D12-F30E-42C6-8405-4B3DA00924FB/2023-03-30/raw_heizenergie_5B8C6D12-F30E-42C6-8405-4B3DA00924FB_2023-03-30.json ...
2023-03-31 07:07:16,467 [INFO] converting for heizenergie
2023-03-31 07:08:52,719 [INFO] years: [2020 2021 2022 2023]
2023-03-31 07:08:52,720 [INFO] writing rolling for year 2020 to /data/sel-data/converted/heizenergie/heizenergie_2020_rolling.csv
2023-03-31 07:09:08,334 [INFO] writing rolling for year 2021 to /data/sel-data/converted/heizenergie/heizenergie_2021_rolling.csv
2023-03-31 07:09:26,617 [INFO] writing rolling for year 2022 to /data/sel-data/converted/heizenergie/heizenergie_2022_rolling.csv
2023-03-31 07:09:31,191 [INFO] writing rolling for year 2023 to /data/sel-data/converted/heizenergie/heizenergie_2023_rolling.csv
