Type,Analog,Analog,Analog,Analog,Analog,Analog,Digital,Digital,Digital,Digital,Digital,Digital,Digital,Digital
Index,1,5,2,53,3,58,41,42,43,44,45,46,49,50
Name,R1,R9,R2,R2 Solltemperatur,R3,R3 Solltemperatur,M1,M3,M2/M11,E10,M13,M18,M16,E9
Description,Variable 1,Variable 2,Variable 3,Variable 4,Variable 5,Variable 6,Variable 7,Variable 8,Variable 9,Variable 10,Variable 11,Variable 12,Variable 13,Variable 14
2021/09/01 00:00:19,12.6,27.2,25.5,10.0,46.8,10.0,0,0,0,0,0,0,0,0
2021/09/01 00:02:12,12.6,27.2,25.5,10.0,46.8,10.0,0,0,0,0,0,0,0,0
2021/09/01 00:04:06,12.5,27.2,25.5,10.0,46.8,10.0,0,0,0,0,0,0,0,0
2021/09/01 00:06:04,12.5,27.2,25.5,10.0,46.8,10.0,0,0,0,0,0,0,0,0
2021/09/01 00:07:59,12.4,27.2,25.5,10.0,46.7,10.0,0,0,0,0,0,0,0,0
2021/09/01 00:09:51,12.4,27.2,25.5,10.0,46.7,10.0,0,0,0,0,0,0,0,0
2021/09/01 00:12:46,12.4,27.2,25.5,10.0,46.7,10.0,0,0,0,0,0,0,0,0
2021/09/01 00:14:45,12.4,27.2,25.5,10.0,46.7,10.0,0,0,0,0,0,0,0,0
2021/09/01 00:16:39,12.3,27.2,25.5,10.0,46.7,10.0,0,0,0,0,0,0,0,0
2021/09/01 00:18:35,12.3,27.2,25.5,10.0,46.7,10.0,0,0,0,0,0,0,0,0
2021/09/01 00:20:29,12.2,27.2,25.5,10.0,46.6,10.0,0,0,0,0,0,0,0,0
2021/09/01 00:22:22,12.2,27.2,25.5,10.0,46.6,10.0,0,0,0,0,0,0,0,0
2021/09/01 00:24:18,12.2,27.2,25.5,10.0,46.6,10.0,0,0,0,0,0,0,0,0
2021/09/01 00:26:14,12.2,27.2,25.5,10.0,46.6,10.0,0,0,0,0,0,0,0,0
2021/09/01 00:28:10,12.1,27.2,25.5,10.0,46.6,10.0,0,0,0,0,0,0,0,0
2021/09/01 00:30:07,12.1,27.2,25.5,10.0,46.6,10.0,0,0,0,0,0,0,0,0
2021/09/01 00:32:04,12.1,27.2,25.5,10.0,46.5,10.0,0,0,0,0,0,0,0,0
2021/09/01 00:34:01,12.0,27.1,25.5,10.0,46.5,10.0,0,0,0,0,0,0,0,0
2021/09/01 00:35:57,12.0,27.1,25.4,10.0,46.5,10.0,0,0,0,0,0,0,0,0
2021/09/01 00:37:54,12.0,27.1,25.4,10.0,46.5,10.0,0,0,0,0,0,0,0,0
2021/09/01 00:39:50,12.0,27.1,25.4,10.0,46.5,10.0,0,0,0,0,0,0,0,0
2021/09/01 00:42:47,12.0,27.1,25.4,10.0,46.4,10.0,0,0,0,0,0,0,0,0
2021/09/01 00:44:41,12.0,27.1,25.4,10.0,46.4,10.0,0,0,0,0,0,0,0,0
2021/09/01 00:46:35,11.9,27.1,25.4,10.0,46.4,10.0,0,0,0,0,0,0,0,0
2021/09/01 00:48:28,11.9,27.1,25.4,10.0,46.4,10.0,0,0,0,0,0,0,0,0
2021/09/01 00:50:24,11.9,27.1,25.4,10.0,46.4,10.0,0,0,0,0,0,0,0,0
2021/09/01 00:52:22,11.9,27.1,25.4,10.0,46.3,10.0,0,0,0,0,0,0,0,0
2021/09/01 00:54:17,11.9,27.1,25.4,10.0,46.3,10.0,0,0,0,0,0,0,0,0
2021/09/01 00:56:11,12.0,27.1,25.4,10.0,46.3,10.0,0,0,0,0,0,0,0,0
2021/09/01 00:58:07,12.0,27.1,25.4,10.0,46.3,10.0,0,0,0,0,0,0,0,0
2021/09/01 01:00:00,12.0,27.1,25.4,10.0,46.2,10.0,0,0,0,0,0,0,0,0
2021/09/01 01:01:59,12.0,27.1,25.4,10.0,46.2,10.0,0,0,0,0,0,0,0,0
2021/09/01 01:03:58,12.0,27.1,25.4,10.0,46.2,10.0,0,0,0,0,0,0,0,0
2021/09/01 01:05:49,12.0,27.1,25.4,10.0,46.2,10.0,0,0,0,0,0,0,0,0
2021/09/01 01:08:41,12.0,27.1,25.4,10.0,46.2,10.0,0,0,0,0,0,0,0,0
2021/09/01 01:10:35,12.0,27.1,25.4,10.0,46.1,10.0,0,0,0,0,0,0,0,0
2021/09/01 01:12:33,11.9,27.1,25.4,10.0,46.1,10.0,0,0,0,0,0,0,0,0
2021/09/01 01:14:31,11.9,27.1,25.4,10.0,46.1,10.0,0,0,0,0,0,0,0,0
2021/09/01 01:16:28,11.9,27.1,25.4,10.0,46.1,10.0,0,0,0,0,0,0,0,0
2021/09/01 01:18:22,11.9,27.0,25.4,10.0,46.1,10.0,0,0,0,0,0,0,0,0
2021/09/01 01:20:17,11.8,27.0,25.4,10.0,46.0,10.0,0,0,0,0,0,0,0,0
2021/09/01 01:22:10,11.8,27.0,25.4,10.0,46.0,10.0,0,0,0,0,0,0,0,0
2021/09/01 01:24:06,11.8,27.0,25.4,10.0,46.0,10.0,0,0,0,0,0,0,0,0
2021/09/01 01:26:04,11.8,27.0,25.4,10.0,46.0,10.0,0,0,0,0,0,0,0,0
2021/09/01 01:27:54,11.7,27.0,25.4,10.0,46.0,10.0,0,0,0,0,0,0,0,0
2021/09/01 01:29:48,11.7,27.0,25.4,10.0,45.9,10.0,0,0,0,0,0,0,0,0
2021/09/01 01:32:40,11.7,27.0,25.4,10.0,45.9,10.0,0,0,0,0,0,0,0,0
2021/09/01 01:34:36,11.7,27.0,25.4,10.0,45.9,10.0,0,0,0,0,0,0,0,0
2021/09/01 01:36:32,11.7,27.0,25.4,10.0,45.9,10.0,0,0,0,0,0,0,0,0
2021/09/01 01:38:28,11.6,27.0,25.4,10.0,45.9,10.0,0,0,0,0,0,0,0,0
2021/09/01 01:40:21,11.6,27.0,25.4,10.0,45.8,10.0,0,0,0,0,0,0,0,0
2021/09/01 01:42:17,11.6,27.0,25.4,10.0,45.8,10.0,0,0,0,0,0,0,0,0
2021/09/01 01:44:15,11.6,27.0,25.4,10.0,45.7,10.0,0,0,0,0,0,0,0,0
2021/09/01 01:46:13,11.5,27.0,25.4,10.0,45.7,10.0,0,0,0,0,0,0,0,0
2021/09/01 01:48:11,11.5,27.0,25.4,10.0,45.7,10.0,0,0,0,0,0,0,0,0
2021/09/01 01:50:07,11.4,27.0,25.4,10.0,45.7,10.0,0,0,0,0,0,0,0,0
2021/09/01 01:52:01,11.4,27.0,25.4,10.0,45.6,10.0,0,0,0,0,0,0,0,0
2021/09/01 01:53:58,11.4,27.0,25.4,10.0,45.6,10.0,0,0,0,0,0,0,0,0
2021/09/01 01:55:52,11.4,27.0,25.4,10.0,45.6,10.0,0,0,0,0,0,0,0,0
2021/09/01 01:58:47,11.4,27.0,25.4,10.0,45.6,10.0,0,0,0,0,0,0,0,0
2021/09/01 02:00:40,11.4,27.0,25.4,10.0,45.5,10.0,0,0,0,0,0,0,0,0
2021/09/01 02:02:33,11.4,27.0,25.3,10.0,45.5,10.0,0,0,0,0,0,0,0,0
2021/09/01 02:04:29,11.4,27.0,25.3,10.0,45.5,10.0,0,0,0,0,0,0,0,0
2021/09/01 02:06:24,11.4,26.9,25.3,10.0,45.5,10.0,0,0,0,0,0,0,0,0
2021/09/01 02:08:19,11.3,26.9,25.3,10.0,45.5,10.0,0,0,0,0,0,0,0,0
2021/09/01 02:10:15,11.3,26.9,25.3,10.0,45.4,10.0,0,0,0,0,0,0,0,0
2021/09/01 02:12:08,11.3,26.9,25.3,10.0,45.4,10.0,0,0,0,0,0,0,0,0
2021/09/01 02:14:02,11.3,26.9,25.3,10.0,45.4,10.0,0,0,0,0,0,0,0,0
2021/09/01 02:15:59,11.3,26.9,25.3,10.0,45.4,10.0,0,0,0,0,0,0,0,0
2021/09/01 02:17:55,11.2,26.9,25.3,10.0,45.4,10.0,0,0,0,0,0,0,0,0
2021/09/01 02:19:48,11.2,26.9,25.3,10.0,45.3,10.0,0,0,0,0,0,0,0,0
2021/09/01 02:22:43,11.2,26.9,25.3,10.0,45.3,10.0,0,0,0,0,0,0,0,0
2021/09/01 02:24:39,11.2,26.9,25.3,10.0,45.3,10.0,0,0,0,0,0,0,0,0
2021/09/01 02:26:33,11.2,26.9,25.3,10.0,45.3,10.0,0,0,0,0,0,0,0,0
2021/09/01 02:28:26,11.2,26.9,25.3,10.0,45.3,10.0,0,0,0,0,0,0,0,0
2021/09/01 02:30:21,11.2,26.9,25.3,10.0,45.2,10.0,0,0,0,0,0,0,0,0
2021/09/01 02:32:14,11.2,26.9,25.3,10.0,45.2,10.0,0,0,0,0,0,0,0,0
2021/09/01 02:34:09,11.1,26.9,25.3,10.0,45.2,10.0,0,0,0,0,0,0,0,0
2021/09/01 02:36:05,11.1,26.9,25.3,10.0,45.2,10.0,0,0,0,0,0,0,0,0
2021/09/01 02:38:01,11.1,26.9,25.3,10.0,45.2,10.0,0,0,0,0,0,0,0,0
2021/09/01 02:39:55,11.1,26.9,25.3,10.0,45.1,10.0,0,0,0,0,0,0,0,0
2021/09/01 02:41:50,11.1,26.9,25.3,10.0,45.1,10.0,0,0,0,0,0,0,0,0
2021/09/01 02:44:46,11.0,26.9,25.3,10.0,45.1,10.0,0,0,0,0,0,0,0,0
2021/09/01 02:46:40,11.0,26.9,25.3,10.0,45.1,10.0,0,0,0,0,0,0,0,0
2021/09/01 02:48:37,11.0,26.9,25.3,10.0,45.1,10.0,0,0,0,0,0,0,0,0
2021/09/01 02:50:30,11.0,26.9,25.3,10.0,45.0,10.0,0,0,0,0,0,0,0,0
2021/09/01 02:52:26,11.0,26.9,25.3,10.0,45.0,10.0,0,0,0,0,0,0,0,0
2021/09/01 02:54:22,11.0,26.9,25.3,10.0,45.0,10.0,0,0,0,0,0,0,0,0
2021/09/01 02:56:19,11.0,26.9,25.3,10.0,45.0,10.0,0,0,0,0,0,0,0,0
2021/09/01 02:58:16,11.0,26.9,25.3,10.0,45.0,10.0,0,0,0,0,0,0,0,0
2021/09/01 03:00:08,11.0,26.9,25.3,10.0,45.0,10.0,0,0,0,0,0,0,0,0
2021/09/01 03:02:03,11.0,26.8,25.3,10.0,44.9,10.0,0,0,0,0,0,0,0,0
2021/09/01 03:04:00,11.0,26.8,25.3,10.0,44.9,10.0,0,0,0,0,0,0,0,0
2021/09/01 03:05:54,11.0,26.8,25.3,10.0,44.9,10.0,0,0,0,0,0,0,0,0
2021/09/01 03:08:48,11.0,26.8,25.3,10.0,44.9,10.0,0,0,0,0,0,0,0,0
2021/09/01 03:10:42,11.0,26.8,25.3,10.0,44.9,10.0,0,0,0,0,0,0,0,0
2021/09/01 03:12:36,10.9,26.8,25.3,10.0,44.9,10.0,0,0,0,0,0,0,0,0
2021/09/01 03:14:29,10.9,26.8,25.3,10.0,44.8,10.0,0,0,0,0,0,0,0,0
2021/09/01 03:16:25,10.9,26.8,25.3,10.0,44.8,10.0,0,0,0,0,0,0,0,0
2021/09/01 03:18:22,10.9,26.8,25.3,10.0,44.8,10.0,0,0,0,0,0,0,0,0
2021/09/01 03:20:17,10.9,26.8,25.3,10.0,44.8,10.0,0,0,0,0,0,0,0,0
2021/09/01 03:22:11,10.9,26.8,25.3,10.0,44.8,10.0,0,0,0,0,0,0,0,0
2021/09/01 03:24:08,10.9,26.8,25.3,10.0,44.8,10.0,0,0,0,0,0,0,0,0
2021/09/01 03:26:01,10.9,26.8,25.3,10.0,44.7,10.0,0,0,0,0,0,0,0,0
2021/09/01 03:27:59,10.9,26.8,25.3,10.0,44.7,10.0,0,0,0,0,0,0,0,0
2021/09/01 03:29:54,10.9,26.8,25.3,10.0,44.7,10.0,0,0,0,0,0,0,0,0
2021/09/01 03:32:44,10.8,26.8,25.3,10.0,44.7,10.0,0,0,0,0,0,0,0,0
2021/09/01 03:34:36,10.8,26.8,25.3,10.0,44.7,10.0,0,0,0,0,0,0,0,0
2021/09/01 03:36:34,10.8,26.8,25.3,10.0,44.7,10.0,0,0,0,0,0,0,0,0
2021/09/01 03:38:30,10.8,26.8,25.3,10.0,44.6,10.0,0,0,0,0,0,0,0,0
2021/09/01 03:40:27,10.8,26.8,25.3,10.0,44.6,10.0,0,0,0,0,0,0,0,0
2021/09/01 03:42:21,10.8,26.8,25.3,10.0,44.6,10.0,0,0,0,0,0,0,0,0
2021/09/01 03:44:15,10.8,26.8,25.3,10.0,44.6,10.0,0,0,0,0,0,0,0,0
2021/09/01 03:46:09,10.8,26.8,25.2,10.0,44.6,52.0,0,0,0,0,0,0,0,0
2021/09/01 03:48:04,10.8,26.8,25.2,10.0,44.6,52.0,0,0,0,0,0,0,0,0
2021/09/01 03:50:00,10.8,26.8,25.2,10.0,44.6,52.0,0,0,0,0,0,0,0,0
2021/09/01 03:51:56,10.8,26.8,25.2,10.0,44.5,52.0,0,0,0,0,0,0,0,0
2021/09/01 03:53:50,10.8,26.8,25.2,10.0,44.5,52.0,0,0,0,0,0,0,0,0
2021/09/01 03:56:45,10.8,26.8,25.2,10.0,44.5,52.0,0,0,0,0,0,0,0,0
2021/09/01 03:58:37,10.8,26.8,25.2,10.0,44.5,52.0,0,0,0,0,0,0,0,0
2021/09/01 04:00:32,10.8,26.8,25.2,10.0,44.5,52.0,0,0,0,0,0,0,0,0
2021/09/01 04:02:28,10.7,26.8,25.2,10.0,44.5,52.0,0,0,0,0,0,0,0,0
2021/09/01 04:04:25,10.7,26.7,25.2,10.0,44.4,52.0,0,0,0,0,0,0,0,0
2021/09/01 04:06:22,10.7,26.7,25.2,10.0,44.4,52.0,0,0,0,0,0,0,0,0
2021/09/01 04:08:15,10.7,26.7,25.2,10.0,44.4,52.0,0,0,0,0,0,0,0,0
2021/09/01 04:10:10,10.6,26.7,25.2,10.0,44.4,52.0,0,0,0,0,0,0,0,0
2021/09/01 04:12:05,10.6,26.7,25.2,10.0,44.4,52.0,0,0,0,0,0,0,0,0
2021/09/01 04:14:02,10.5,26.7,25.2,10.0,44.4,52.0,0,0,0,0,0,0,0,0
2021/09/01 04:15:57,10.5,26.7,25.2,10.0,44.3,52.0,0,0,0,0,0,0,0,0
2021/09/01 04:17:54,10.5,26.7,25.2,10.0,44.3,52.0,0,0,0,0,0,0,0,0
2021/09/01 04:19:49,10.5,26.7,25.2,10.0,44.3,52.0,0,0,0,0,0,0,0,0
2021/09/01 04:22:44,10.4,26.7,25.2,10.0,44.3,52.0,0,0,0,0,0,0,0,0
2021/09/01 04:24:37,10.4,26.7,25.2,10.0,44.3,52.0,0,0,0,0,0,0,0,0
2021/09/01 04:26:35,10.4,26.7,25.2,10.0,44.3,52.0,0,0,0,0,0,0,0,0
2021/09/01 04:28:28,10.4,26.7,25.2,10.0,44.2,52.0,0,0,0,0,0,0,0,0
2021/09/01 04:30:25,10.4,26.7,25.2,10.0,44.2,52.0,0,0,0,0,0,0,0,0
2021/09/01 04:32:20,10.3,26.7,25.2,10.0,44.2,52.0,0,0,0,0,0,0,0,0
2021/09/01 04:34:17,10.3,26.7,25.2,10.0,44.2,52.0,0,0,0,0,0,0,0,0
2021/09/01 04:36:16,10.3,26.7,25.2,10.0,44.2,52.0,0,0,0,0,0,0,0,0
2021/09/01 04:38:13,10.3,26.7,25.2,10.0,44.2,52.0,0,0,0,0,0,0,0,0
2021/09/01 04:40:09,10.3,26.7,25.2,10.0,44.1,52.0,0,0,0,0,0,0,0,0
2021/09/01 04:42:05,10.3,26.7,25.2,10.0,44.1,52.0,0,0,0,0,0,0,0,0
2021/09/01 04:44:04,10.3,26.7,25.2,10.0,44.1,52.0,0,0,0,0,0,0,0,0
2021/09/01 04:46:00,10.2,26.7,25.2,10.0,44.1,52.0,0,0,0,0,0,0,0,0
2021/09/01 04:47:54,10.2,26.7,25.2,10.0,44.1,52.0,0,0,0,0,0,0,0,0
2021/09/01 04:49:51,10.2,26.7,25.2,10.0,44.1,52.0,0,0,0,0,0,0,0,0
2021/09/01 04:52:46,10.2,26.7,25.2,10.0,44.1,52.0,0,0,0,0,0,0,0,0
2021/09/01 04:54:43,10.2,26.7,25.2,10.0,44.1,52.0,0,0,0,0,0,0,0,0
2021/09/01 04:56:37,10.2,26.7,25.2,10.0,44.0,52.0,0,0,1,0,0,1,1,0
2021/09/01 04:58:35,10.2,35.5,32.0,10.0,43.6,52.0,0,1,1,0,0,1,1,0
2021/09/01 05:00:33,10.2,37.9,34.9,10.0,42.5,52.0,0,1,1,0,0,1,1,0
2021/09/01 05:02:32,10.2,40.2,36.6,10.0,41.9,52.0,0,1,1,0,0,1,1,0
2021/09/01 05:04:30,10.2,41.8,38.0,10.0,41.8,52.0,0,1,1,0,0,1,1,0
2021/09/01 05:06:27,10.1,43.0,38.9,10.0,42.0,52.0,0,1,1,0,0,1,1,0
2021/09/01 05:08:20,10.1,44.0,39.8,10.0,42.5,52.0,0,1,1,0,0,1,1,0
2021/09/01 05:10:14,10.1,44.8,40.7,10.0,43.1,52.0,0,1,1,0,0,1,1,0
2021/09/01 05:12:12,10.1,45.7,41.5,10.0,43.7,52.0,0,1,1,0,0,1,1,0
2021/09/01 05:14:10,10.1,46.5,42.1,10.0,44.1,52.0,0,1,1,0,0,1,1,0
2021/09/01 05:16:05,10.1,47.3,42.8,10.0,44.6,52.0,0,1,1,0,0,1,1,0
2021/09/01 05:18:03,10.1,47.9,43.4,10.0,45.0,52.0,0,1,1,0,0,1,1,0
2021/09/01 05:20:02,10.1,48.6,44.0,10.0,45.5,52.0,0,1,1,0,0,1,1,0
2021/09/01 05:21:57,10.1,49.2,44.5,10.0,46.0,52.0,0,1,1,0,0,1,1,0
2021/09/01 05:23:54,10.1,49.8,45.1,10.0,46.5,52.0,0,1,1,0,0,1,1,0
2021/09/01 05:25:51,10.1,50.4,45.7,10.0,47.0,52.0,0,1,1,0,0,1,1,0
2021/09/01 05:27:49,10.0,51.0,46.4,10.0,47.5,52.0,0,1,1,0,0,1,1,0
2021/09/01 05:30:47,10.0,51.8,46.9,10.0,48.0,52.0,0,1,1,0,0,1,1,0
2021/09/01 05:32:45,10.0,51.9,47.0,10.0,48.0,52.0,0,1,1,0,0,1,1,0
2021/09/01 05:34:42,10.0,52.0,47.1,10.0,47.9,52.0,0,1,1,0,0,1,1,0
2021/09/01 05:36:35,10.1,52.4,47.5,10.0,48.1,52.0,0,1,1,0,0,1,1,0
2021/09/01 05:38:31,10.1,52.8,47.8,10.0,48.4,52.0,0,1,1,0,0,1,1,0
2021/09/01 05:40:25,10.2,53.3,48.3,10.0,48.8,52.0,0,1,1,0,0,1,1,0
2021/09/01 05:42:19,10.3,53.6,48.6,10.0,49.2,52.0,0,1,1,0,0,1,1,0
2021/09/01 05:44:16,10.3,54.0,49.1,10.0,49.6,52.0,0,1,1,0,0,1,1,0
2021/09/01 05:46:11,10.4,54.4,49.4,10.0,50.1,52.0,0,1,1,0,0,1,1,0
2021/09/01 05:48:08,10.4,54.9,49.9,10.0,50.6,52.0,0,1,1,0,0,1,1,0
2021/09/01 05:50:00,10.5,55.3,50.3,10.0,51.2,52.0,0,1,1,0,0,1,1,0
2021/09/01 05:51:59,10.5,55.8,50.7,10.0,51.7,52.0,0,1,1,0,0,1,1,0
2021/09/01 05:53:56,10.6,53.9,51.4,10.0,52.1,52.0,0,0,1,0,0,0,1,0
2021/09/01 05:55:55,10.6,37.2,34.8,10.0,52.5,52.0,0,0,0,0,0,0,1,0
2021/09/01 05:57:53,10.7,36.6,34.0,10.0,52.6,52.0,0,0,0,0,0,0,0,0
2021/09/01 05:59:49,10.7,36.2,33.6,10.0,52.6,52.0,0,0,0,0,0,0,0,0
2021/09/01 06:02:43,10.8,35.7,33.3,10.0,52.5,52.0,0,0,0,0,0,0,0,0
2021/09/01 06:04:40,10.8,35.4,33.0,10.0,52.4,52.0,0,0,0,0,0,0,0,0
2021/09/01 06:06:30,10.9,35.1,32.7,10.0,52.3,52.0,0,0,0,0,0,0,0,0
2021/09/01 06:08:29,10.9,34.8,32.5,10.0,52.2,52.0,0,0,0,0,0,0,0,0
2021/09/01 06:10:22,11.0,34.7,32.3,10.0,52.1,52.0,0,0,0,0,0,0,0,0
2021/09/01 06:12:21,11.0,34.5,32.1,10.0,52.0,52.0,0,0,0,0,0,0,0,0
2021/09/01 06:14:18,11.0,34.4,31.9,10.0,51.9,52.0,0,0,0,0,0,0,0,0
2021/09/01 06:16:13,11.0,34.3,31.8,10.0,51.9,52.0,0,0,0,0,0,0,0,0
2021/09/01 06:18:09,11.1,34.2,31.6,10.0,51.8,52.0,0,0,0,0,0,0,0,0
2021/09/01 06:20:05,11.1,34.1,31.5,10.0,51.7,52.0,0,0,0,0,0,0,0,0
2021/09/01 06:22:03,11.1,34.0,31.4,10.0,51.6,52.0,0,0,0,0,0,0,0,0
2021/09/01 06:24:01,11.1,34.0,31.3,10.0,51.5,52.0,0,0,0,0,0,0,0,0
2021/09/01 06:26:00,11.1,33.9,31.2,10.0,51.4,52.0,0,0,0,0,0,0,0,0
2021/09/01 06:27:54,11.0,33.8,31.1,10.0,51.4,52.0,0,0,0,0,0,0,0,0
2021/09/01 06:29:48,11.0,33.7,31.0,10.0,51.3,52.0,0,0,0,0,0,0,0,0
2021/09/01 06:32:44,10.9,33.7,30.9,10.0,51.2,52.0,0,0,0,0,0,0,0,0
2021/09/01 06:34:40,10.9,33.6,30.9,10.0,51.1,52.0,0,0,0,0,0,0,0,0
2021/09/01 06:36:38,10.9,33.5,30.8,10.0,51.0,52.0,0,0,0,0,0,0,0,0
2021/09/01 06:38:37,10.8,33.4,30.7,10.0,50.9,52.0,0,0,0,0,0,0,0,0
2021/09/01 06:40:27,10.8,33.4,30.6,10.0,50.8,52.0,0,0,0,0,0,0,0,0
2021/09/01 06:42:24,10.8,33.3,30.5,10.0,50.8,52.0,0,0,0,0,0,0,0,0
2021/09/01 06:44:21,10.7,33.3,30.5,10.0,50.7,52.0,0,0,0,0,0,0,0,0
2021/09/01 06:46:17,10.7,33.2,30.4,10.0,50.6,52.0,0,0,0,0,0,0,0,0
2021/09/01 06:48:13,10.6,33.1,30.3,10.0,50.5,52.0,0,0,0,0,0,0,0,0
2021/09/01 06:50:05,10.6,33.1,30.2,10.0,50.4,52.0,0,0,0,0,0,0,0,0
2021/09/01 06:52:00,10.6,33.1,30.2,10.0,50.3,52.0,0,0,0,0,0,0,0,0
2021/09/01 06:53:57,10.5,33.0,30.1,10.0,50.2,52.0,0,0,0,0,0,0,0,0
2021/09/01 06:55:53,10.5,33.0,30.0,10.0,50.2,52.0,0,0,0,0,0,0,0,0
2021/09/01 06:57:52,10.4,32.9,30.0,10.0,50.1,52.0,0,0,0,0,0,0,0,0
2021/09/01 07:00:48,10.4,32.9,29.9,10.0,50.0,52.0,0,0,0,0,0,0,0,0
2021/09/01 07:02:43,10.4,32.8,29.9,10.0,49.9,52.0,0,0,0,0,0,0,0,0
2021/09/01 07:04:38,10.4,32.8,29.8,10.0,49.8,52.0,0,0,0,0,0,0,0,0
2021/09/01 07:06:30,10.3,32.7,29.8,10.0,49.8,52.0,0,0,0,0,0,0,0,0
2021/09/01 07:08:27,10.3,32.7,29.7,10.0,49.7,52.0,0,0,0,0,0,0,0,0
2021/09/01 07:10:22,10.3,32.7,29.7,10.0,49.6,52.0,0,0,0,0,0,0,0,0
2021/09/01 07:12:17,10.2,32.6,29.6,10.0,49.5,52.0,0,0,0,0,0,0,0,0
2021/09/01 07:14:11,10.2,32.6,29.6,10.0,49.5,52.0,0,0,0,0,0,0,0,0
2021/09/01 07:16:04,10.2,32.6,29.5,10.0,49.4,52.0,0,0,0,0,0,0,0,0
2021/09/01 07:18:00,10.2,32.5,29.5,10.0,49.3,52.0,0,0,0,0,0,0,0,0
2021/09/01 07:19:52,10.2,32.5,29.4,10.0,49.2,52.0,0,0,0,0,0,0,0,0
2021/09/01 07:22:47,10.2,32.4,29.4,10.0,49.2,52.0,0,0,0,0,0,0,0,0
2021/09/01 07:24:43,10.3,32.4,29.3,10.0,49.1,52.0,0,0,0,0,0,0,0,0
2021/09/01 07:26:37,10.5,32.4,29.3,10.0,49.0,52.0,0,0,0,0,0,0,0,0
2021/09/01 07:28:32,10.7,32.4,29.2,10.0,48.9,52.0,0,0,0,0,0,0,0,0
2021/09/01 07:30:26,11.0,32.3,29.2,10.0,48.8,52.0,0,0,0,0,0,0,0,0
2021/09/01 07:32:20,11.3,32.3,29.2,10.0,48.8,52.0,0,0,0,0,0,0,0,0
2021/09/01 07:34:15,11.5,32.3,29.1,10.0,48.7,52.0,0,0,0,0,0,0,0,0
2021/09/01 07:36:10,11.8,32.2,29.1,10.0,48.6,52.0,0,0,0,0,0,0,0,0
2021/09/01 07:38:06,12.0,32.2,29.1,10.0,48.5,52.0,0,0,0,0,0,0,0,0
2021/09/01 07:40:03,12.2,32.2,29.0,10.0,48.4,52.0,0,0,0,0,0,0,0,0
2021/09/01 07:42:02,12.3,32.1,29.0,10.0,48.4,52.0,0,0,0,0,0,0,0,0
2021/09/01 07:43:59,12.3,32.1,28.9,10.0,48.3,52.0,0,0,0,0,0,0,0,0
2021/09/01 07:45:55,12.4,32.1,28.9,10.0,48.2,52.0,0,0,0,0,0,0,0,0
2021/09/01 07:48:48,12.5,32.1,28.9,10.0,48.1,52.0,0,0,0,0,0,0,0,0
2021/09/01 07:50:43,12.6,32.0,28.8,10.0,48.0,52.0,0,0,0,0,0,0,0,0
2021/09/01 07:52:40,12.6,32.0,28.8,10.0,47.9,52.0,0,0,0,0,0,0,0,0
2021/09/01 07:54:32,12.6,32.0,28.8,10.0,47.8,52.0,0,0,0,0,0,0,0,0
2021/09/01 07:56:30,12.6,31.9,28.7,10.0,47.8,52.0,0,0,0,0,0,0,0,0
2021/09/01 07:58:24,12.5,31.9,28.7,10.0,47.7,52.0,0,0,0,0,0,0,0,0
2021/09/01 08:00:17,12.4,31.9,28.6,10.0,47.6,52.0,0,0,0,0,0,0,0,0
2021/09/01 08:02:11,12.4,31.9,28.6,10.0,47.5,52.0,0,0,0,0,0,0,0,0
2021/09/01 08:04:09,12.3,31.8,28.6,10.0,47.4,52.0,0,0,0,0,0,0,0,0
2021/09/01 08:06:03,12.3,31.8,28.5,10.0,47.3,52.0,0,0,0,0,0,0,0,0
2021/09/01 08:08:00,12.3,31.8,28.5,10.0,47.2,52.0,0,0,0,0,0,0,0,0
2021/09/01 08:09:55,12.3,31.7,28.5,10.0,47.1,52.0,0,0,0,0,0,0,0,0
2021/09/01 08:11:52,12.4,31.7,28.4,10.0,47.1,52.0,0,0,0,0,0,0,0,0
2021/09/01 08:14:46,12.4,31.7,28.4,10.0,47.0,52.0,0,0,0,0,0,0,0,0
2021/09/01 08:16:39,12.5,31.7,28.4,10.0,46.9,52.0,0,0,0,0,0,0,0,0
2021/09/01 08:18:35,12.6,31.6,28.3,10.0,46.8,52.0,0,0,0,0,0,0,0,0
2021/09/01 08:20:31,12.7,31.6,28.3,10.0,46.7,52.0,0,0,0,0,0,0,0,0
2021/09/01 08:22:26,12.8,31.6,28.3,10.0,46.6,52.0,0,0,0,0,0,0,0,0
2021/09/01 08:24:22,12.9,31.5,28.3,10.0,46.5,52.0,0,0,0,0,0,0,0,0
2021/09/01 08:26:16,13.0,31.5,28.2,10.0,46.5,52.0,0,0,0,0,0,0,0,0
2021/09/01 08:28:11,13.1,31.5,28.2,10.0,46.4,52.0,0,0,0,0,0,0,0,0
2021/09/01 08:30:07,13.1,31.4,28.2,10.0,46.3,52.0,0,0,0,0,0,0,0,0
2021/09/01 08:32:03,13.2,31.4,28.1,10.0,46.2,52.0,0,0,0,0,0,0,0,0
2021/09/01 08:33:58,13.3,31.4,28.1,10.0,46.1,52.0,0,0,0,0,0,0,0,0
2021/09/01 08:35:51,13.4,31.4,28.1,10.0,46.0,52.0,0,0,0,0,0,0,0,0
2021/09/01 08:38:45,13.5,31.3,28.0,10.0,46.0,52.0,0,0,0,0,0,0,0,0
2021/09/01 08:40:40,13.6,31.3,28.0,10.0,45.9,52.0,0,0,0,0,0,0,0,0
2021/09/01 08:42:37,13.7,31.3,28.0,10.0,45.7,52.0,0,0,0,0,0,0,0,0
2021/09/01 08:44:32,13.8,31.2,28.0,10.0,45.6,52.0,0,0,0,0,0,0,0,0
2021/09/01 08:46:28,13.9,31.2,27.9,10.0,45.6,52.0,0,0,0,0,0,0,0,0
2021/09/01 08:48:23,14.0,31.2,27.9,10.0,45.5,52.0,0,0,0,0,0,0,0,0
2021/09/01 08:50:18,14.0,31.2,27.9,10.0,45.4,52.0,0,0,0,0,0,0,0,0
2021/09/01 08:52:14,14.1,31.1,27.8,10.0,45.3,52.0,0,0,0,0,0,0,0,0
2021/09/01 08:54:10,14.2,31.1,27.8,10.0,45.2,52.0,0,0,0,0,0,0,0,0
2021/09/01 08:56:02,14.2,31.1,27.8,10.0,45.1,52.0,0,0,0,0,0,0,0,0
2021/09/01 08:58:01,14.3,31.0,27.7,10.0,45.1,52.0,0,0,0,0,0,0,0,0
2021/09/01 08:59:54,14.4,31.0,27.7,10.0,45.0,52.0,0,0,0,0,0,0,0,0
2021/09/01 09:01:50,14.4,31.0,27.7,10.0,44.9,52.0,0,0,0,0,0,0,0,0
2021/09/01 09:04:48,14.5,31.0,27.6,10.0,44.8,52.0,0,0,0,0,0,0,0,0
2021/09/01 09:06:43,14.5,30.9,27.6,10.0,44.8,52.0,0,0,0,0,0,0,0,0
2021/09/01 09:08:40,14.6,30.9,27.6,10.0,44.7,52.0,0,0,0,0,0,0,0,0
2021/09/01 09:10:32,14.6,30.9,27.5,10.0,44.7,52.0,0,0,0,0,0,0,0,0
2021/09/01 09:12:26,14.7,30.9,27.5,10.0,44.6,52.0,0,0,0,0,0,0,0,0
2021/09/01 09:14:23,14.7,30.8,27.5,10.0,44.5,52.0,0,0,0,0,0,0,0,0
2021/09/01 09:16:21,14.8,30.8,27.5,10.0,44.4,52.0,0,0,0,0,0,0,0,0
2021/09/01 09:18:16,14.9,30.8,27.4,10.0,44.4,52.0,0,0,0,0,0,0,0,0
2021/09/01 09:20:09,14.9,30.8,27.4,10.0,44.3,52.0,0,0,0,0,0,0,0,0
2021/09/01 09:22:06,15.0,30.7,27.4,10.0,44.2,52.0,0,0,0,0,0,0,0,0
2021/09/01 09:24:04,15.1,30.7,27.4,10.0,44.2,52.0,0,0,0,0,0,0,0,0
2021/09/01 09:26:00,15.2,30.7,27.4,10.0,44.1,52.0,0,0,0,0,0,0,0,0
2021/09/01 09:27:57,15.3,30.6,27.3,10.0,44.1,52.0,0,0,0,0,0,0,0,0
2021/09/01 09:29:52,15.4,38.6,35.8,10.0,43.8,52.0,1,0,1,0,0,1,1,0
2021/09/01 09:31:50,15.5,42.1,38.8,10.0,43.6,52.0,1,0,1,0,0,1,1,0
2021/09/01 09:33:50,15.5,44.8,41.0,10.0,43.6,52.0,1,0,1,0,0,1,1,0
2021/09/01 09:36:48,15.5,46.4,42.4,10.0,43.7,52.0,1,0,1,0,0,1,1,0
2021/09/01 09:38:45,15.6,47.4,43.3,10.0,44.1,52.0,1,0,1,0,0,1,1,0
2021/09/01 09:40:39,15.6,48.3,44.0,10.0,44.5,52.0,1,0,1,0,0,1,1,0
2021/09/01 09:42:32,15.6,49.0,44.5,10.0,45.0,52.0,1,0,1,0,0,1,1,0
2021/09/01 09:44:31,15.6,49.6,45.1,10.0,45.5,52.0,1,0,1,0,0,1,1,0
2021/09/01 09:46:26,15.6,50.2,45.7,10.0,46.1,52.0,1,0,1,0,0,1,1,0
2021/09/01 09:48:23,15.6,50.8,46.3,10.0,46.6,52.0,1,0,1,0,0,1,1,0
2021/09/01 09:50:18,15.6,51.6,46.8,10.0,47.2,52.0,1,0,1,0,0,1,1,0
2021/09/01 09:52:12,15.6,52.2,47.4,10.0,47.7,52.0,1,0,1,0,0,1,1,0
2021/09/01 09:54:11,15.5,52.6,47.8,10.0,48.4,52.0,1,0,1,0,0,1,1,0
2021/09/01 09:56:07,15.5,53.2,48.4,10.0,48.8,52.0,1,0,1,0,0,1,1,0
2021/09/01 09:58:06,15.5,53.7,48.8,10.0,49.3,52.0,1,0,1,0,0,1,1,0
2021/09/01 10:00:02,15.5,54.1,49.3,10.0,49.8,52.0,1,0,1,0,0,1,1,0
2021/09/01 10:02:00,15.6,54.6,49.7,10.0,50.4,52.0,1,0,1,0,0,1,1,0
2021/09/01 10:03:59,15.7,55.0,50.2,10.0,51.2,52.0,1,0,1,0,0,1,1,0
2021/09/01 10:05:56,15.8,55.6,50.7,10.0,51.5,52.0,1,0,1,0,0,1,1,0
2021/09/01 10:07:51,15.9,54.6,51.4,10.0,52.1,52.0,0,0,1,0,0,0,1,0
2021/09/01 10:09:50,16.0,38.3,35.9,10.0,52.5,52.0,0,0,0,0,0,0,1,0
2021/09/01 10:12:47,16.0,37.4,35.0,10.0,52.7,52.0,0,0,0,0,0,0,0,0
2021/09/01 10:14:42,16.1,37.0,34.6,10.0,52.7,52.0,0,0,0,0,0,0,0,0
2021/09/01 10:16:35,16.2,36.5,34.3,10.0,52.7,52.0,0,0,0,0,0,0,0,0
2021/09/01 10:18:30,16.3,36.2,34.0,10.0,52.9,52.0,0,0,0,0,0,0,0,0
2021/09/01 10:20:26,16.4,35.8,33.7,10.0,53.1,52.0,0,0,0,0,0,0,0,0
2021/09/01 10:22:21,16.4,35.6,33.5,10.0,53.2,52.0,0,0,0,0,0,0,0,0
2021/09/01 10:24:14,16.6,35.3,33.2,10.0,53.4,52.0,0,0,0,0,0,0,0,0
2021/09/01 10:26:10,16.7,35.2,33.1,10.0,53.6,52.0,0,0,0,0,0,0,0,0
2021/09/01 10:28:07,16.8,35.0,32.9,10.0,53.9,52.0,0,0,0,0,0,0,0,0
2021/09/01 10:30:00,16.8,35.0,32.7,10.0,54.0,52.0,0,0,0,0,0,0,0,0
2021/09/01 10:31:58,16.9,34.9,32.6,10.0,54.2,52.0,0,0,0,0,0,0,0,0
2021/09/01 10:33:55,16.9,34.8,32.5,10.0,54.3,52.0,0,0,0,0,0,0,0,0
2021/09/01 10:35:52,16.9,34.7,32.4,10.0,54.5,52.0,0,0,0,0,0,0,0,0
2021/09/01 10:38:48,16.9,34.6,32.3,10.0,54.7,52.0,0,0,0,0,0,0,0,0
2021/09/01 10:40:43,16.9,34.5,32.2,10.0,54.8,52.0,0,0,0,0,0,0,0,0
2021/09/01 10:42:37,16.9,34.4,32.1,10.0,54.9,52.0,0,0,0,0,0,0,0,0
2021/09/01 10:44:32,16.9,34.4,32.0,10.0,54.9,52.0,0,0,0,0,0,0,0,0
2021/09/01 10:46:28,16.9,34.3,31.9,10.0,54.9,52.0,0,0,0,0,0,0,0,0
2021/09/01 10:48:24,16.9,34.2,31.8,10.0,54.8,52.0,0,0,0,0,0,0,0,0
2021/09/01 10:50:22,16.9,34.2,31.7,10.0,54.8,52.0,0,0,0,0,0,0,0,0
2021/09/01 10:52:16,17.0,34.1,31.6,10.0,54.8,52.0,0,0,0,0,0,0,0,0
2021/09/01 10:54:15,17.1,34.0,31.6,10.0,54.9,52.0,0,0,0,0,0,0,0,0
2021/09/01 10:56:11,17.1,34.0,31.5,10.0,55.1,52.0,0,0,0,0,0,0,0,0
2021/09/01 10:58:08,17.1,33.9,31.4,10.0,55.3,52.0,0,0,0,0,0,0,0,0
2021/09/01 11:00:06,17.2,33.9,31.3,10.0,55.5,52.0,0,0,0,0,0,0,0,0
2021/09/01 11:02:03,17.3,33.9,31.3,10.0,55.7,52.0,0,0,0,0,0,0,0,0
2021/09/01 11:04:01,17.4,33.8,31.2,10.0,56.0,52.0,0,0,0,0,0,0,0,0
2021/09/01 11:05:54,17.4,33.8,31.1,10.0,56.2,52.0,0,0,0,0,0,0,0,0
2021/09/01 11:08:47,17.5,33.7,31.0,10.0,56.4,52.0,0,0,0,0,0,0,0,0
2021/09/01 11:10:46,17.6,33.7,31.0,10.0,56.6,52.0,0,0,0,0,0,0,0,0
2021/09/01 11:12:42,17.7,33.6,30.9,10.0,56.8,52.0,0,0,0,0,0,0,0,0
2021/09/01 11:14:38,17.8,33.6,30.8,10.0,57.0,52.0,0,0,0,0,0,0,0,0
2021/09/01 11:16:35,17.8,33.6,30.8,10.0,57.1,52.0,0,0,0,0,0,0,0,0
2021/09/01 11:18:32,17.8,33.5,30.7,10.0,57.3,52.0,0,0,0,0,0,0,0,0
2021/09/01 11:20:26,17.8,33.5,30.7,10.0,57.5,52.0,0,0,0,0,0,0,0,0
2021/09/01 11:22:22,17.8,33.5,30.6,10.0,57.5,52.0,0,0,0,0,0,0,0,0
2021/09/01 11:24:20,17.7,33.4,30.5,10.0,57.5,52.0,0,0,0,0,0,0,0,0
2021/09/01 11:26:18,17.7,33.4,30.5,10.0,57.3,52.0,0,0,0,0,0,0,0,0
2021/09/01 11:28:12,17.6,33.4,30.4,10.0,57.2,52.0,0,0,0,0,0,0,0,0
2021/09/01 11:30:08,17.6,33.3,30.4,10.0,57.2,52.0,0,0,0,0,0,0,0,0
2021/09/01 11:32:05,17.6,33.3,30.3,10.0,57.1,52.0,0,0,0,0,0,0,0,0
2021/09/01 11:34:02,17.6,33.3,30.3,10.0,56.9,52.0,0,0,0,0,0,0,0,0
2021/09/01 11:36:01,17.7,33.2,30.2,10.0,56.9,52.0,0,0,0,0,0,0,0,0
2021/09/01 11:37:55,17.8,33.2,30.1,10.0,56.8,52.0,0,0,0,0,0,0,0,0
2021/09/01 11:39:50,17.8,33.2,30.1,10.0,56.7,52.0,0,0,0,0,0,0,0,0
2021/09/01 11:42:43,17.9,33.2,30.1,10.0,56.7,52.0,0,0,0,0,0,0,0,0
2021/09/01 11:44:38,17.9,33.1,30.0,10.0,56.8,52.0,0,0,0,0,0,0,0,0
2021/09/01 11:46:34,18.0,33.1,30.0,10.0,56.9,52.0,0,0,0,0,0,0,0,0
2021/09/01 11:48:29,18.1,33.1,29.9,10.0,57.1,52.0,0,0,0,0,0,0,0,0
2021/09/01 11:50:21,18.1,33.1,29.9,10.0,57.3,52.0,0,0,0,0,0,0,0,0
2021/09/01 11:52:18,18.2,33.0,29.8,10.0,57.5,52.0,0,0,0,0,0,0,0,0
2021/09/01 11:54:16,18.2,33.0,29.8,10.0,57.7,52.0,0,0,0,0,0,0,0,0
2021/09/01 11:56:12,18.3,33.0,29.8,10.0,57.9,52.0,0,0,0,0,0,0,0,0
2021/09/01 11:58:05,18.3,33.0,29.7,10.0,58.1,52.0,0,0,0,0,0,0,0,0
2021/09/01 12:00:00,18.3,32.9,29.7,10.0,58.2,52.0,0,0,0,0,0,0,0,0
2021/09/01 12:01:56,18.3,32.9,29.6,10.0,58.4,52.0,0,0,0,0,0,0,0,0
2021/09/01 12:04:48,18.4,32.9,29.6,10.0,58.5,52.0,0,0,0,0,0,0,0,0
2021/09/01 12:06:43,18.4,32.8,29.6,10.0,58.8,52.0,0,0,0,0,0,0,0,0
2021/09/01 12:08:39,18.4,32.8,29.5,10.0,58.9,52.0,0,0,0,0,0,0,0,0
2021/09/01 12:10:38,18.5,32.8,29.5,10.0,59.1,52.0,0,0,0,0,0,0,0,0
2021/09/01 12:12:32,18.5,32.8,29.4,10.0,59.3,52.0,0,0,0,0,0,0,0,0
2021/09/01 12:14:28,18.5,32.7,29.4,10.0,59.4,52.0,0,0,0,0,0,0,0,0
2021/09/01 12:16:23,18.6,32.7,29.4,10.0,59.5,52.0,0,0,0,0,0,0,0,0
2021/09/01 12:18:19,18.6,32.7,29.3,10.0,59.7,52.0,0,0,0,0,0,0,0,0
2021/09/01 12:20:12,18.6,32.7,29.3,10.0,59.8,52.0,0,0,0,0,0,0,0,0
2021/09/01 12:22:09,18.7,32.6,29.3,10.0,59.9,52.0,0,0,0,0,0,0,0,0
2021/09/01 12:24:04,18.7,32.6,29.2,10.0,59.9,52.0,0,0,0,0,0,0,0,0
2021/09/01 12:26:04,18.7,32.6,29.2,10.0,59.9,52.0,0,0,0,0,0,0,0,0
2021/09/01 12:27:58,18.7,32.5,29.2,10.0,59.9,52.0,0,0,0,0,0,0,0,0
2021/09/01 12:29:53,18.7,32.5,29.1,10.0,59.8,52.0,0,0,0,0,0,0,0,0
2021/09/01 12:32:48,18.7,32.5,29.1,10.0,59.7,52.0,0,0,0,0,0,0,0,0
2021/09/01 12:34:41,18.8,32.4,29.1,10.0,59.6,52.0,0,0,0,0,0,0,0,0
2021/09/01 12:36:35,18.8,32.4,29.0,10.0,59.5,52.0,0,0,0,0,0,0,0,0
2021/09/01 12:38:34,18.8,32.4,29.0,10.0,59.4,52.0,0,0,0,0,0,0,0,0
2021/09/01 12:40:29,18.8,32.4,29.0,10.0,59.3,52.0,0,0,0,0,0,0,0,0
2021/09/01 12:42:24,18.9,32.3,28.9,10.0,59.2,52.0,0,0,0,0,0,0,0,0
2021/09/01 12:44:17,18.9,32.3,28.9,10.0,59.1,52.0,0,0,0,0,0,0,0,0
2021/09/01 12:46:10,18.9,32.3,28.9,10.0,59.0,52.0,0,0,0,0,0,0,0,0
2021/09/01 12:48:07,19.0,32.2,28.9,10.0,59.0,52.0,0,0,0,0,0,0,0,0
2021/09/01 12:50:05,19.0,32.2,28.8,10.0,58.9,52.0,0,0,0,0,0,0,0,0
2021/09/01 12:52:01,19.1,32.2,28.8,10.0,58.8,58.4,0,0,0,0,0,0,0,0
2021/09/01 12:53:55,19.1,32.2,28.8,10.0,58.7,58.4,0,0,0,0,0,0,0,0
2021/09/01 12:56:49,19.1,32.1,28.7,10.0,58.6,58.4,0,0,0,0,0,0,0,0
2021/09/01 12:58:46,19.2,32.1,28.7,10.0,58.5,58.4,0,0,0,0,0,0,0,0
2021/09/01 13:00:43,19.2,32.1,28.7,10.0,58.5,58.4,0,0,0,0,0,0,0,0
2021/09/01 13:02:38,19.3,32.0,28.7,10.0,58.4,58.4,0,0,0,0,0,0,0,0
2021/09/01 13:04:33,19.3,32.0,28.6,10.0,58.3,58.4,0,0,0,0,0,0,0,0
2021/09/01 13:06:28,19.4,32.0,28.6,10.0,58.2,58.4,0,0,0,0,0,0,0,0
2021/09/01 13:08:20,19.4,32.0,28.6,10.0,58.1,58.4,0,0,0,0,0,0,0,0
2021/09/01 13:10:12,19.4,31.9,28.6,10.0,58.0,58.4,0,0,0,0,0,0,0,0
2021/09/01 13:12:08,19.5,31.9,28.5,10.0,57.9,58.4,0,0,0,0,0,0,0,0
2021/09/01 13:14:03,19.5,31.9,28.5,10.0,57.8,58.4,0,0,0,0,0,0,0,0
2021/09/01 13:16:00,19.6,31.9,28.5,10.0,57.7,58.4,0,0,0,0,0,0,0,0
2021/09/01 13:17:58,19.6,31.8,28.4,10.0,57.7,58.4,0,0,0,0,0,0,0,0
2021/09/01 13:19:54,19.7,31.8,28.4,10.0,57.6,58.4,0,0,0,0,0,0,0,0
2021/09/01 13:21:53,19.7,31.8,28.4,10.0,57.5,58.4,0,0,0,0,0,0,0,0
2021/09/01 13:23:52,19.7,31.8,28.4,10.0,57.4,58.4,0,0,0,0,0,0,0,0
2021/09/01 13:26:46,19.8,31.7,28.3,10.0,57.3,58.4,0,0,0,0,0,0,0,0
2021/09/01 13:28:40,19.8,31.7,28.3,10.0,57.2,58.4,0,0,0,0,0,0,0,0
2021/09/01 13:30:36,19.9,31.7,28.3,10.0,57.1,58.4,0,0,0,0,0,0,0,0
2021/09/01 13:32:34,19.9,31.7,28.3,10.0,57.0,58.4,0,0,0,0,0,0,0,0
2021/09/01 13:34:30,19.9,31.6,28.3,10.0,57.0,58.4,0,0,0,0,0,0,0,0
2021/09/01 13:36:24,19.9,31.6,28.2,10.0,56.9,58.4,0,0,0,0,0,0,0,0
2021/09/01 13:38:20,19.9,31.6,28.2,10.0,56.8,58.4,0,0,0,0,0,0,0,0
2021/09/01 13:40:15,19.9,31.5,28.2,10.0,56.7,58.4,0,0,0,0,0,0,0,0
2021/09/01 13:42:08,19.9,31.5,28.2,10.0,56.6,58.4,0,0,0,0,0,0,0,0
2021/09/01 13:44:04,19.9,31.5,28.1,10.0,56.5,58.4,0,0,0,0,0,0,0,0
2021/09/01 13:46:01,19.9,31.5,28.1,10.0,56.4,58.4,0,0,0,0,0,0,0,0
2021/09/01 13:47:58,20.0,31.4,28.1,10.0,56.3,58.4,0,0,0,0,0,0,0,0
2021/09/01 13:49:56,20.0,31.4,28.1,10.0,56.2,58.4,0,0,0,0,0,0,0,0
2021/09/01 13:51:50,20.1,31.4,28.1,10.0,56.2,58.4,0,0,0,0,0,0,0,0
2021/09/01 13:54:45,20.1,31.4,28.0,10.0,56.1,58.4,0,0,0,0,0,0,0,0
2021/09/01 13:56:40,20.2,31.3,28.0,10.0,56.0,58.4,0,0,0,0,0,0,0,0
2021/09/01 13:58:36,20.2,31.3,28.0,10.0,55.9,58.4,0,0,0,0,0,0,0,0
2021/09/01 14:00:33,20.3,31.3,28.0,10.0,55.8,58.4,0,0,0,0,0,0,0,1
2021/09/01 14:02:27,20.3,31.3,28.0,10.0,55.7,58.4,0,0,0,0,0,0,0,1
2021/09/01 14:04:20,20.4,31.2,27.9,10.0,55.6,58.4,0,0,0,0,0,0,0,1
2021/09/01 14:06:17,20.4,31.2,27.9,10.0,55.6,58.4,0,0,0,0,0,0,0,1
2021/09/01 14:08:12,20.4,31.2,27.9,10.0,55.5,58.4,0,0,0,0,0,0,0,1
2021/09/01 14:10:07,20.4,31.2,27.9,10.0,55.4,58.4,0,0,0,0,0,0,0,1
2021/09/01 14:12:01,20.4,31.1,27.9,10.0,55.3,58.4,0,0,0,0,0,0,0,1
2021/09/01 14:13:59,20.4,31.1,27.9,10.0,55.2,58.4,0,0,0,0,0,0,0,1
2021/09/01 14:15:56,20.4,31.1,27.8,10.0,55.1,58.4,0,0,0,0,0,0,0,1
2021/09/01 14:17:50,20.5,31.1,27.8,10.0,55.0,58.4,0,0,0,0,0,0,0,1
2021/09/01 14:19:50,20.5,31.0,27.8,10.0,54.9,58.4,0,0,0,0,0,0,0,1
2021/09/01 14:22:46,20.5,31.0,27.8,10.0,54.9,58.4,0,0,0,0,0,0,0,1
2021/09/01 14:24:39,20.5,31.0,27.8,10.0,54.8,58.4,0,0,0,0,0,0,0,1
2021/09/01 14:26:37,20.5,31.0,27.7,10.0,54.7,58.4,0,0,0,0,0,0,0,1
2021/09/01 14:28:33,20.6,31.0,27.7,10.0,54.7,58.4,0,0,0,0,0,0,0,1
2021/09/01 14:30:30,20.6,30.9,27.7,10.0,54.6,58.4,0,0,0,0,0,0,0,1
2021/09/01 14:32:26,20.7,30.9,27.7,10.0,54.5,58.4,0,0,0,0,0,0,0,1
2021/09/01 14:34:21,20.7,30.9,27.7,10.0,54.4,58.4,0,0,0,0,0,0,0,1
2021/09/01 14:36:14,20.7,30.9,27.7,10.0,54.4,58.4,0,0,0,0,0,0,0,1
2021/09/01 14:38:09,20.7,30.8,27.7,10.0,54.3,58.4,0,0,0,0,0,0,0,1
2021/09/01 14:40:02,20.8,30.8,27.6,10.0,54.2,58.4,0,0,0,0,0,0,0,1
2021/09/01 14:42:00,20.8,30.8,27.6,10.0,54.1,58.4,0,0,0,0,0,0,0,1
2021/09/01 14:43:56,20.9,30.8,27.6,10.0,54.1,58.4,0,0,0,0,0,0,0,1
2021/09/01 14:45:53,20.9,30.8,27.6,10.0,54.0,58.4,0,0,0,0,0,0,0,1
2021/09/01 14:48:48,21.0,30.7,27.6,10.0,53.9,58.4,0,0,0,0,0,0,0,1
2021/09/01 14:50:42,21.0,30.7,27.6,10.0,53.8,58.4,0,0,0,0,0,0,0,1
2021/09/01 14:52:36,21.0,30.7,27.5,10.0,53.8,58.4,0,0,0,0,0,0,0,1
2021/09/01 14:54:33,21.0,30.7,27.5,10.0,53.7,58.4,0,0,0,0,0,0,0,1
2021/09/01 14:56:32,21.0,30.6,27.5,10.0,53.6,58.4,0,0,0,0,0,0,0,1
2021/09/01 14:58:25,21.0,30.6,27.5,10.0,53.5,58.4,0,0,0,0,0,0,0,1
2021/09/01 15:00:22,21.0,30.6,27.5,10.0,53.5,58.4,0,0,0,0,0,0,0,1
2021/09/01 15:02:16,21.0,30.6,27.5,10.0,53.4,58.4,0,0,0,0,0,0,0,1
2021/09/01 15:04:11,21.0,30.5,27.5,10.0,53.3,58.4,0,0,0,0,0,0,0,1
2021/09/01 15:06:09,21.1,30.5,27.4,10.0,53.3,58.4,0,0,0,0,0,0,0,1
2021/09/01 15:08:06,21.2,30.5,27.4,10.0,53.2,58.4,0,0,0,0,0,0,0,1
2021/09/01 15:10:00,21.2,30.5,27.4,10.0,53.1,58.4,0,0,0,0,0,0,0,1
2021/09/01 15:11:56,21.2,30.5,27.4,10.0,53.1,58.4,0,0,0,0,0,0,0,1
2021/09/01 15:13:51,21.3,30.4,27.4,10.0,53.1,58.4,0,0,0,0,0,0,0,1
2021/09/01 15:16:49,21.3,30.4,27.4,10.0,53.3,58.4,0,0,0,0,0,0,0,1
2021/09/01 15:18:48,21.3,30.4,27.4,10.0,53.6,58.4,0,0,0,0,0,0,0,1
2021/09/01 15:20:43,21.4,30.4,27.4,10.0,53.7,58.4,0,0,0,0,0,0,0,1
2021/09/01 15:22:35,21.4,30.4,27.3,10.0,53.9,58.4,0,0,0,0,0,0,0,1
2021/09/01 15:24:32,21.4,30.3,27.3,10.0,54.0,58.4,0,0,0,0,0,0,0,1
2021/09/01 15:26:27,21.4,30.3,27.3,10.0,54.2,58.4,0,0,0,0,0,0,0,1
2021/09/01 15:28:18,21.4,30.3,27.3,10.0,54.4,58.4,0,0,0,0,0,0,0,1
2021/09/01 15:30:15,21.4,30.3,27.3,10.0,54.7,58.4,0,0,0,0,0,0,0,1
2021/09/01 15:32:11,21.4,30.3,27.3,10.0,54.8,58.4,0,0,0,0,0,0,0,1
2021/09/01 15:34:06,21.4,30.2,27.3,10.0,55.0,58.4,0,0,0,0,0,0,0,1
2021/09/01 15:36:01,21.4,30.2,27.3,10.0,55.2,58.4,0,0,0,0,0,0,0,1
2021/09/01 15:37:59,21.4,30.2,27.2,10.0,55.4,58.4,0,0,0,0,0,0,0,1
2021/09/01 15:39:54,21.4,30.2,27.2,10.0,55.6,58.4,0,0,0,0,0,0,0,1
2021/09/01 15:41:50,21.5,30.2,27.2,10.0,55.8,58.4,0,0,0,0,0,0,0,1
2021/09/01 15:44:45,21.5,30.1,27.2,10.0,56.1,58.4,0,0,0,0,0,0,0,1
2021/09/01 15:46:39,21.5,30.1,27.2,10.0,56.2,58.4,0,0,0,0,0,0,0,1
2021/09/01 15:48:36,21.5,30.1,27.2,10.0,56.5,58.4,0,0,0,0,0,0,0,1
2021/09/01 15:50:31,21.5,30.1,27.2,10.0,56.7,58.4,0,0,0,0,0,0,0,1
2021/09/01 15:52:28,21.5,30.1,27.2,10.0,56.8,58.4,0,0,0,0,0,0,0,1
2021/09/01 15:54:26,21.5,30.0,27.2,10.0,57.0,58.4,0,0,0,0,0,0,0,1
2021/09/01 15:56:20,21.5,30.0,27.1,10.0,57.1,58.4,0,0,0,0,0,0,0,1
2021/09/01 15:58:16,21.5,30.0,27.1,10.0,57.3,58.4,0,0,0,0,0,0,0,1
2021/09/01 16:00:10,21.5,30.0,27.1,10.0,57.5,58.4,0,0,0,0,0,0,0,1
2021/09/01 16:02:06,21.5,30.0,27.1,10.0,57.7,58.4,0,0,0,0,0,0,0,1
2021/09/01 16:04:01,21.5,30.0,27.1,10.0,57.9,58.4,0,0,0,0,0,0,0,1
2021/09/01 16:05:59,21.5,29.9,27.1,10.0,58.0,58.4,0,0,0,0,0,0,0,1
2021/09/01 16:07:55,21.5,29.9,27.1,10.0,58.3,58.4,0,0,0,0,0,0,0,1
2021/09/01 16:09:52,21.5,29.9,27.1,10.0,58.4,58.4,0,0,0,0,0,0,0,1
2021/09/01 16:12:48,21.5,29.9,27.1,10.0,58.6,58.4,0,0,0,0,0,0,0,1
2021/09/01 16:14:46,21.5,29.9,27.0,10.0,58.7,58.4,0,0,0,0,0,0,0,1
2021/09/01 16:16:41,21.5,29.9,27.0,10.0,59.0,58.4,0,0,0,0,0,0,0,1
2021/09/01 16:18:37,21.5,29.9,27.0,10.0,59.1,58.4,0,0,0,0,0,0,0,1
2021/09/01 16:20:33,21.5,29.8,27.0,10.0,59.3,58.4,0,0,0,0,0,0,0,1
2021/09/01 16:22:26,21.5,29.8,27.0,10.0,59.5,58.4,0,0,0,0,0,0,0,1
2021/09/01 16:24:22,21.5,29.8,27.0,10.0,59.6,58.4,0,0,0,0,0,0,0,1
2021/09/01 16:26:19,21.5,29.8,27.0,10.0,59.8,58.4,0,0,0,0,0,0,0,1
2021/09/01 16:28:16,21.5,29.8,27.0,10.0,60.1,58.4,0,0,0,0,0,0,0,0
2021/09/01 16:30:08,21.5,29.8,27.0,10.0,60.1,58.4,0,0,0,0,0,0,0,0
2021/09/01 16:32:04,21.5,29.8,27.0,10.0,60.3,58.4,0,0,0,0,0,0,0,0
2021/09/01 16:33:59,21.5,29.7,27.0,10.0,60.3,58.4,0,0,0,0,0,0,0,0
2021/09/01 16:35:53,21.5,29.7,26.9,10.0,60.3,58.4,0,0,0,0,0,0,0,0
2021/09/01 16:38:48,21.5,29.7,26.9,10.0,60.2,58.4,0,0,0,0,0,0,0,0
2021/09/01 16:40:45,21.5,29.7,26.9,10.0,60.1,58.4,0,0,0,0,0,0,0,0
2021/09/01 16:42:39,21.5,29.7,26.9,10.0,60.0,58.4,0,0,0,0,0,0,0,0
2021/09/01 16:44:33,21.5,29.7,26.9,10.0,59.9,58.4,0,0,0,0,0,0,0,0
2021/09/01 16:46:28,21.5,29.7,26.9,10.0,59.8,58.4,0,0,0,0,0,0,0,0
2021/09/01 16:48:22,21.5,29.6,26.9,10.0,59.8,58.4,0,0,0,0,0,0,0,0
2021/09/01 16:50:15,21.5,29.6,26.9,10.0,59.7,58.4,0,0,0,0,0,0,0,0
2021/09/01 16:52:10,21.5,29.6,26.9,10.0,59.6,58.4,0,0,0,0,0,0,0,0
2021/09/01 16:54:04,21.5,29.6,26.9,10.0,59.5,58.4,0,0,0,0,0,0,0,0
2021/09/01 16:56:03,21.5,29.6,26.9,10.0,59.4,58.4,0,0,0,0,0,0,0,0
2021/09/01 16:57:56,21.5,29.6,26.8,10.0,59.3,58.4,0,0,0,0,0,0,0,0
2021/09/01 16:59:51,21.5,29.5,26.8,10.0,59.2,58.4,0,0,0,0,0,0,0,0
2021/09/01 17:02:44,21.5,29.5,26.8,10.0,59.1,58.4,0,0,0,0,0,0,0,0
2021/09/01 17:04:38,21.5,29.5,26.8,10.0,59.1,58.4,0,0,0,0,0,0,0,0
2021/09/01 17:06:33,21.5,29.5,26.8,10.0,59.0,58.4,0,0,0,0,0,0,0,0
2021/09/01 17:08:28,21.5,29.5,26.8,10.0,58.9,58.4,0,0,0,0,0,0,0,0
2021/09/01 17:10:22,21.5,29.5,26.8,10.0,58.8,58.4,0,0,0,0,0,0,0,0
2021/09/01 17:12:17,21.5,29.5,26.8,10.0,58.7,58.4,0,0,0,0,0,0,0,0
2021/09/01 17:14:12,21.5,29.5,26.8,10.0,58.6,58.4,0,0,0,0,0,0,0,0
2021/09/01 17:16:08,21.5,29.4,26.8,10.0,58.6,58.4,0,0,0,0,0,0,0,0
2021/09/01 17:18:02,21.5,29.4,26.8,10.0,58.5,58.4,0,0,0,0,0,0,0,0
2021/09/01 17:20:00,21.5,29.4,26.8,10.0,58.4,58.4,0,0,0,0,0,0,0,0
2021/09/01 17:21:57,21.5,29.4,26.8,10.0,58.3,58.4,0,0,0,0,0,0,0,0
2021/09/01 17:23:51,21.4,29.4,26.7,10.0,58.2,58.4,0,0,0,0,0,0,0,0
2021/09/01 17:26:47,21.4,29.4,26.7,10.0,58.2,58.4,0,0,0,0,0,0,0,0
2021/09/01 17:28:42,21.4,29.4,26.7,10.0,58.1,58.4,0,0,0,0,0,0,0,0
2021/09/01 17:30:38,21.4,29.3,26.7,10.0,58.0,58.4,0,0,0,0,0,0,0,0
2021/09/01 17:32:32,21.4,29.3,26.7,10.0,57.9,58.4,0,0,0,0,0,0,0,0
2021/09/01 17:34:27,21.4,29.3,26.7,10.0,57.8,58.4,0,0,0,0,0,0,0,0
2021/09/01 17:36:20,21.4,29.3,26.7,10.0,57.7,58.4,0,0,0,0,0,0,0,0
2021/09/01 17:38:14,21.4,29.3,26.7,10.0,57.7,58.4,0,0,0,0,0,0,0,0
2021/09/01 17:40:09,21.3,29.3,26.7,10.0,57.6,58.4,0,0,0,0,0,0,0,0
2021/09/01 17:42:01,21.3,29.3,26.7,10.0,57.5,58.4,0,0,0,0,0,0,0,0
2021/09/01 17:43:56,21.2,29.3,26.7,10.0,57.4,58.4,0,0,0,0,0,0,0,0
2021/09/01 17:45:49,21.2,29.2,26.7,10.0,57.3,58.4,0,0,0,0,0,0,0,0
2021/09/01 17:48:45,21.2,29.2,26.7,10.0,57.3,58.4,0,0,0,0,0,0,0,0
2021/09/01 17:50:39,21.1,29.2,26.7,10.0,57.2,58.4,0,0,0,0,0,0,0,0
2021/09/01 17:52:35,21.1,29.2,26.6,10.0,57.1,58.4,0,0,0,0,0,0,0,0
2021/09/01 17:54:31,21.1,29.2,26.6,10.0,57.0,58.4,0,0,0,0,0,0,0,0
2021/09/01 17:56:27,21.0,29.2,26.6,10.0,56.9,58.4,0,0,0,0,0,0,0,0
2021/09/01 17:58:19,21.0,29.2,26.6,10.0,56.8,58.4,0,0,0,0,0,0,0,0
2021/09/01 18:00:17,20.9,29.2,26.6,10.0,56.8,58.4,0,0,0,0,0,0,0,0
2021/09/01 18:02:13,20.9,29.2,26.6,10.0,56.7,58.4,0,0,0,0,0,0,0,0
2021/09/01 18:04:12,20.9,29.1,26.6,10.0,56.6,58.4,0,0,0,0,0,0,0,0
2021/09/01 18:06:09,20.9,29.1,26.6,10.0,56.5,58.4,0,0,0,0,0,0,0,0
2021/09/01 18:08:02,20.8,29.1,26.6,10.0,56.4,58.4,0,0,0,0,0,0,0,0
2021/09/01 18:10:00,20.8,29.1,26.6,10.0,56.3,58.4,0,0,0,0,0,0,0,0
2021/09/01 18:11:55,20.8,29.1,26.6,10.0,56.3,58.4,0,0,0,0,0,0,0,0
2021/09/01 18:13:50,20.8,29.1,26.6,10.0,56.2,58.4,0,0,0,0,0,0,0,0
2021/09/01 18:16:45,20.8,29.1,26.6,10.0,56.1,58.4,0,0,0,0,0,0,0,0
2021/09/01 18:18:42,20.8,29.1,26.6,10.0,56.0,58.4,0,0,0,0,0,0,0,0
2021/09/01 18:20:40,20.7,29.1,26.6,10.0,55.9,58.4,0,0,0,0,0,0,0,0
2021/09/01 18:22:35,20.7,29.0,26.5,10.0,55.9,58.4,0,0,0,0,0,0,0,0
2021/09/01 18:24:30,20.6,29.0,26.5,10.0,55.8,58.4,0,0,0,0,0,0,0,0
2021/09/01 18:26:25,20.6,29.0,26.5,10.0,55.7,58.4,0,0,0,0,0,0,0,0
2021/09/01 18:28:23,20.6,29.0,26.5,10.0,55.6,58.4,0,0,0,0,0,0,0,0
2021/09/01 18:30:21,20.5,29.0,26.5,10.0,55.5,58.4,0,0,0,0,0,0,0,0
2021/09/01 18:32:18,20.5,29.0,26.5,10.0,55.4,58.4,0,0,0,0,0,0,0,0
2021/09/01 18:34:14,20.5,29.0,26.5,10.0,55.3,58.4,0,0,0,0,0,0,0,0
2021/09/01 18:36:09,20.5,29.0,26.5,10.0,55.2,58.4,0,0,0,0,0,0,0,0
2021/09/01 18:38:04,20.4,29.0,26.5,10.0,55.1,58.4,0,0,0,0,0,0,0,0
2021/09/01 18:40:01,20.4,28.9,26.5,10.0,55.0,58.4,0,0,0,0,0,0,0,0
2021/09/01 18:41:58,20.4,28.9,26.5,10.0,55.0,58.4,0,0,0,0,0,0,0,0
2021/09/01 18:43:49,20.4,28.9,26.5,10.0,54.9,58.4,0,0,0,0,0,0,0,0
2021/09/01 18:46:48,20.3,28.9,26.5,10.0,54.8,58.4,0,0,0,0,0,0,0,0
2021/09/01 18:48:42,20.3,28.9,26.5,10.0,54.8,58.4,0,0,0,0,0,0,0,0
2021/09/01 18:50:35,20.3,28.9,26.5,10.0,54.7,58.4,0,0,0,0,0,0,0,0
2021/09/01 18:52:30,20.3,28.9,26.5,10.0,54.6,58.4,0,0,0,0,0,0,0,0
2021/09/01 18:54:27,20.2,28.9,26.4,10.0,54.5,58.4,0,0,0,0,0,0,0,0
2021/09/01 18:56:23,20.2,28.9,26.4,10.0,54.5,58.4,0,0,0,0,0,0,0,0
2021/09/01 18:58:15,20.2,28.8,26.4,10.0,54.4,58.4,0,0,0,0,0,0,0,0
2021/09/01 19:00:12,20.1,28.8,26.4,10.0,54.3,58.4,0,0,0,0,0,0,0,0
2021/09/01 19:02:06,20.1,28.8,26.4,10.0,54.3,58.4,0,0,0,0,0,0,0,0
2021/09/01 19:04:01,20.0,28.8,26.4,10.0,54.2,58.4,0,0,0,0,0,0,0,0
2021/09/01 19:05:56,20.0,28.8,26.4,10.0,54.1,58.4,0,0,0,0,0,0,0,0
2021/09/01 19:07:51,20.0,28.8,26.4,10.0,54.0,58.4,0,0,0,0,0,0,0,0
2021/09/01 19:10:47,19.9,28.8,26.4,10.0,54.0,58.4,0,0,0,0,0,0,0,0
2021/09/01 19:12:43,19.9,28.8,26.4,10.0,53.9,58.4,0,0,0,0,0,0,0,0
2021/09/01 19:14:39,19.8,28.8,26.4,10.0,53.8,58.4,0,0,0,0,0,0,0,0
2021/09/01 19:16:38,19.8,28.7,26.4,10.0,53.7,58.4,0,0,0,0,0,0,0,0
2021/09/01 19:18:33,19.8,28.7,26.4,10.0,53.7,58.4,0,0,0,0,0,0,0,0
2021/09/01 19:20:26,19.7,28.7,26.4,10.0,53.6,58.4,0,0,0,0,0,0,0,0
2021/09/01 19:22:19,19.7,28.7,26.4,10.0,53.5,58.4,0,0,0,0,0,0,0,0
2021/09/01 19:24:16,19.6,28.7,26.4,10.0,53.4,58.4,0,0,0,0,0,0,0,0
2021/09/01 19:26:16,19.6,28.7,26.4,10.0,53.3,58.4,0,0,0,0,0,0,0,0
2021/09/01 19:28:10,19.5,28.7,26.3,10.0,53.3,58.4,0,0,0,0,0,0,0,0
2021/09/01 19:30:08,19.5,28.7,26.3,10.0,53.2,58.4,0,0,0,0,0,0,0,0
2021/09/01 19:32:03,19.4,28.7,26.3,10.0,53.2,58.4,0,0,0,0,0,0,0,0
2021/09/01 19:34:00,19.4,28.7,26.3,10.0,53.2,58.4,0,0,0,0,0,0,0,0
2021/09/01 19:35:57,19.3,28.6,26.3,10.0,53.2,58.4,0,0,0,0,0,0,0,0
2021/09/01 19:37:51,19.2,28.6,26.3,10.0,53.1,58.4,0,0,0,0,0,0,0,0
2021/09/01 19:40:43,19.2,28.6,26.3,10.0,53.0,58.4,0,0,0,0,0,0,0,0
2021/09/01 19:42:37,19.1,28.6,26.3,10.0,53.0,58.4,0,0,0,0,0,0,0,0
2021/09/01 19:44:31,19.1,28.6,26.3,10.0,52.9,52.0,0,0,0,0,0,0,0,0
2021/09/01 19:46:28,19.1,28.6,26.3,10.0,52.9,52.0,0,0,0,0,0,0,0,0
2021/09/01 19:48:25,19.1,28.6,26.3,10.0,53.0,52.0,0,0,0,0,0,0,0,0
2021/09/01 19:50:17,19.1,28.6,26.3,10.0,53.1,52.0,0,0,0,0,0,0,0,0
2021/09/01 19:52:09,19.0,28.6,26.3,10.0,53.3,52.0,0,0,0,0,0,0,0,0
2021/09/01 19:54:06,18.9,28.6,26.3,10.0,53.4,52.0,0,0,0,0,0,0,0,0
2021/09/01 19:56:01,18.9,28.5,26.3,10.0,53.6,52.0,0,0,0,0,0,0,0,0
2021/09/01 19:57:56,18.8,28.5,26.3,10.0,53.7,52.0,0,0,0,0,0,0,0,0
2021/09/01 19:59:51,18.7,28.5,26.3,10.0,54.0,52.0,0,0,0,0,0,0,0,0
2021/09/01 20:02:44,18.7,28.5,26.3,10.0,54.0,52.0,0,0,0,0,0,0,0,0
2021/09/01 20:04:38,18.6,28.5,26.3,10.0,54.0,52.0,0,0,0,0,0,0,0,0
2021/09/01 20:06:30,18.6,28.5,26.2,10.0,54.0,52.0,0,0,0,0,0,0,0,0
2021/09/01 20:08:24,18.5,28.5,26.2,10.0,53.9,52.0,0,0,0,0,0,0,0,0
2021/09/01 20:10:15,18.5,28.5,26.2,10.0,53.8,52.0,0,0,0,0,0,0,0,0
2021/09/01 20:12:08,18.4,28.5,26.2,10.0,53.8,52.0,0,0,0,0,0,0,0,0
2021/09/01 20:14:07,18.3,28.5,26.2,10.0,53.7,52.0,0,0,0,0,0,0,0,0
2021/09/01 20:16:05,18.3,28.4,26.2,10.0,53.6,52.0,0,0,0,0,0,0,0,0
2021/09/01 20:18:03,18.2,28.4,26.2,10.0,53.5,52.0,0,0,0,0,0,0,0,0
2021/09/01 20:19:59,18.2,28.4,26.2,10.0,53.5,52.0,0,0,0,0,0,0,0,0
2021/09/01 20:21:56,18.1,28.4,26.2,10.0,53.4,52.0,0,0,0,0,0,0,0,0
2021/09/01 20:23:51,18.1,28.4,26.2,10.0,53.3,52.0,0,0,0,0,0,0,0,0
2021/09/01 20:26:48,18.0,28.4,26.2,10.0,53.2,52.0,0,0,0,0,0,0,0,0
2021/09/01 20:28:42,18.0,28.4,26.2,10.0,53.1,52.0,0,0,0,0,0,0,0,0
2021/09/01 20:30:35,17.9,28.4,26.2,10.0,53.1,52.0,0,0,0,0,0,0,0,0
2021/09/01 20:32:28,17.9,28.4,26.2,10.0,53.0,52.0,0,0,0,0,0,0,0,0
2021/09/01 20:34:23,17.8,28.4,26.2,10.0,52.9,52.0,0,0,0,0,0,0,0,0
2021/09/01 20:36:20,17.7,28.4,26.2,10.0,52.8,52.0,0,0,0,0,0,0,0,0
2021/09/01 20:38:15,17.6,28.3,26.2,10.0,52.7,52.0,0,0,0,0,0,0,0,0
2021/09/01 20:40:10,17.5,28.3,26.2,10.0,52.6,52.0,0,0,0,0,0,0,0,0
2021/09/01 20:42:07,17.5,28.3,26.2,10.0,52.6,52.0,0,0,0,0,0,0,0,0
2021/09/01 20:44:03,17.4,28.3,26.1,10.0,52.5,52.0,0,0,0,0,0,0,0,0
2021/09/01 20:46:01,17.3,28.3,26.1,10.0,52.4,52.0,0,0,0,0,0,0,0,0
2021/09/01 20:47:57,17.2,28.3,26.1,10.0,52.3,52.0,0,0,0,0,0,0,0,0
2021/09/01 20:49:53,17.1,28.3,26.1,10.0,52.2,52.0,0,0,0,0,0,0,0,0
2021/09/01 20:52:48,17.0,28.3,26.1,10.0,52.1,52.0,0,0,0,0,0,0,0,0
2021/09/01 20:54:43,17.0,28.3,26.1,10.0,52.1,52.0,0,0,0,0,0,0,0,0
2021/09/01 20:56:42,16.9,28.3,26.1,10.0,52.0,52.0,0,0,0,0,0,0,0,0
2021/09/01 20:58:40,16.9,28.3,26.1,10.0,51.9,52.0,0,0,0,0,0,0,0,0
2021/09/01 21:00:36,16.8,28.2,26.1,10.0,51.8,52.0,0,0,0,0,0,0,0,0
2021/09/01 21:02:33,16.7,28.2,26.1,10.0,51.7,52.0,0,0,0,0,0,0,0,0
2021/09/01 21:04:26,16.7,28.2,26.1,10.0,51.6,52.0,0,0,0,0,0,0,0,0
2021/09/01 21:06:18,16.6,28.2,26.1,10.0,51.5,52.0,0,0,0,0,0,0,0,0
2021/09/01 21:08:09,16.6,28.2,26.1,10.0,51.4,52.0,0,0,0,0,0,0,0,0
2021/09/01 21:10:07,16.5,28.2,26.1,10.0,51.3,52.0,0,0,0,0,0,0,0,0
2021/09/01 21:12:02,16.5,28.2,26.1,10.0,51.3,52.0,0,0,0,0,0,0,0,0
2021/09/01 21:14:00,16.4,28.2,26.1,10.0,51.2,52.0,0,0,0,0,0,0,0,0
2021/09/01 21:15:59,16.4,28.2,26.1,10.0,51.1,52.0,0,0,0,0,0,0,0,0
2021/09/01 21:17:55,16.3,28.2,26.1,10.0,51.0,52.0,0,0,0,0,0,0,0,0
2021/09/01 21:19:51,16.3,28.2,26.1,10.0,50.9,52.0,0,0,0,0,0,0,0,0
2021/09/01 21:22:49,16.2,28.2,26.1,10.0,50.8,52.0,0,0,0,0,0,0,0,0
2021/09/01 21:24:43,16.2,28.1,26.1,10.0,50.8,52.0,0,0,0,0,0,0,0,0
2021/09/01 21:26:40,16.1,28.1,26.1,10.0,50.7,52.0,0,0,0,0,0,0,0,0
2021/09/01 21:28:37,16.0,28.1,26.0,10.0,50.6,52.0,0,0,0,0,0,0,0,0
2021/09/01 21:30:34,16.0,28.1,26.0,10.0,50.5,52.0,0,0,0,0,0,0,0,0
2021/09/01 21:32:30,15.9,28.1,26.0,10.0,50.4,52.0,0,0,0,0,0,0,0,0
2021/09/01 21:34:20,15.8,28.1,26.0,10.0,50.3,52.0,0,0,0,0,0,0,0,0
2021/09/01 21:36:18,15.8,28.1,26.0,10.0,50.3,52.0,0,0,0,0,0,0,0,0
2021/09/01 21:38:13,15.7,28.1,26.0,10.0,50.2,52.0,0,0,0,0,0,0,0,0
2021/09/01 21:40:10,15.6,28.1,26.0,10.0,50.1,52.0,0,0,0,0,0,0,0,0
2021/09/01 21:42:07,15.6,28.1,26.0,10.0,50.0,52.0,0,0,0,0,0,0,0,0
2021/09/01 21:44:05,15.5,28.0,26.0,10.0,49.9,52.0,0,0,0,0,0,0,0,0
2021/09/01 21:46:02,15.4,28.0,26.0,10.0,49.8,52.0,0,0,0,0,0,0,0,0
2021/09/01 21:47:54,15.4,28.0,26.0,10.0,49.8,52.0,0,0,0,0,0,0,0,0
2021/09/01 21:50:49,15.3,28.0,26.0,10.0,49.7,52.0,0,0,0,0,0,0,0,0
2021/09/01 21:52:41,15.2,28.0,26.0,10.0,49.6,52.0,0,0,0,0,0,0,0,0
2021/09/01 21:54:39,15.1,28.0,26.0,10.0,49.5,52.0,0,0,0,0,0,0,0,0
2021/09/01 21:56:33,15.0,28.0,26.0,10.0,49.5,52.0,0,0,0,0,0,0,0,0
2021/09/01 21:58:27,14.9,28.0,26.0,10.0,49.4,52.0,0,0,0,0,0,0,0,0
2021/09/01 22:00:23,14.9,28.0,26.0,10.0,49.3,10.0,0,0,0,0,0,0,0,0
2021/09/01 22:02:20,14.8,28.0,26.0,10.0,49.3,10.0,0,0,0,0,0,0,0,0
2021/09/01 22:04:17,14.8,28.0,26.0,10.0,49.3,10.0,0,0,0,0,0,0,0,0
2021/09/01 22:06:12,14.8,28.0,26.0,10.0,49.3,10.0,0,0,0,0,0,0,0,0
2021/09/01 22:08:06,14.7,28.0,26.0,10.0,49.3,10.0,0,0,0,0,0,0,0,0
2021/09/01 22:10:00,14.7,27.9,26.0,10.0,49.3,10.0,0,0,0,0,0,0,0,0
2021/09/01 22:11:58,14.7,27.9,26.0,10.0,49.3,10.0,0,0,0,0,0,0,0,0
2021/09/01 22:13:53,14.6,27.9,26.0,10.0,49.3,10.0,0,0,0,0,0,0,0,0
2021/09/01 22:16:47,14.6,27.9,26.0,10.0,49.3,10.0,0,0,0,0,0,0,0,0
2021/09/01 22:18:42,14.6,27.9,25.9,10.0,49.3,10.0,0,0,0,0,0,0,0,0
2021/09/01 22:20:37,14.5,27.9,25.9,10.0,49.3,10.0,0,0,0,0,0,0,0,0
2021/09/01 22:22:32,14.5,27.9,25.9,10.0,49.3,10.0,0,0,0,0,0,0,0,0
2021/09/01 22:24:28,14.4,27.9,25.9,10.0,49.3,10.0,0,0,0,0,0,0,0,0
2021/09/01 22:26:25,14.4,27.9,25.9,10.0,49.3,10.0,0,0,0,0,0,0,0,0
2021/09/01 22:28:20,14.4,27.9,25.9,10.0,49.3,10.0,0,0,0,0,0,0,0,0
2021/09/01 22:30:15,14.3,27.9,25.9,10.0,49.2,10.0,0,0,0,0,0,0,0,0
2021/09/01 22:32:09,14.3,27.9,25.9,10.0,49.2,10.0,0,0,0,0,0,0,0,0
2021/09/01 22:34:03,14.3,27.9,25.9,10.0,49.2,10.0,0,0,0,0,0,0,0,0
2021/09/01 22:35:59,14.3,27.9,25.9,10.0,49.2,10.0,0,0,0,0,0,0,0,0
2021/09/01 22:37:55,14.2,27.8,25.9,10.0,49.2,10.0,0,0,0,0,0,0,0,0
2021/09/01 22:40:50,14.2,27.8,25.9,10.0,49.2,10.0,0,0,0,0,0,0,0,0
2021/09/01 22:42:43,14.2,27.8,25.9,10.0,49.2,10.0,0,0,0,0,0,0,0,0
2021/09/01 22:44:40,14.2,27.8,25.9,10.0,49.2,10.0,0,0,0,0,0,0,0,0
2021/09/01 22:46:31,14.2,27.8,25.9,10.0,49.2,10.0,0,0,0,0,0,0,0,0
2021/09/01 22:48:23,14.1,27.8,25.9,10.0,49.2,10.0,0,0,0,0,0,0,0,0
2021/09/01 22:50:18,14.1,27.8,25.9,10.0,49.2,10.0,0,0,0,0,0,0,0,0
2021/09/01 22:52:14,14.1,27.8,25.9,10.0,49.1,10.0,0,0,0,0,0,0,0,0
2021/09/01 22:54:05,14.0,27.8,25.9,10.0,49.1,10.0,0,0,0,0,0,0,0,0
2021/09/01 22:56:00,14.0,27.8,25.9,10.0,49.1,10.0,0,0,0,0,0,0,0,0
2021/09/01 22:57:58,14.0,27.8,25.9,10.0,49.1,10.0,0,0,0,0,0,0,0,0
2021/09/01 22:59:52,14.0,27.8,25.9,10.0,49.1,10.0,0,0,0,0,0,0,0,0
2021/09/01 23:02:46,14.0,27.8,25.9,10.0,49.1,10.0,0,0,0,0,0,0,0,0
2021/09/01 23:04:42,14.0,27.8,25.9,10.0,49.1,10.0,0,0,0,0,0,0,0,0
2021/09/01 23:06:39,13.9,27.7,25.9,10.0,49.1,10.0,0,0,0,0,0,0,0,0
2021/09/01 23:08:34,13.9,27.7,25.9,10.0,49.1,10.0,0,0,0,0,0,0,0,0
2021/09/01 23:10:30,13.9,27.7,25.8,10.0,49.0,10.0,0,0,0,0,0,0,0,0
2021/09/01 23:12:25,13.9,27.7,25.8,10.0,49.0,10.0,0,0,0,0,0,0,0,0
2021/09/01 23:14:21,13.9,27.7,25.8,10.0,49.0,10.0,0,0,0,0,0,0,0,0
2021/09/01 23:16:18,13.8,27.7,25.8,10.0,49.0,10.0,0,0,0,0,0,0,0,0
2021/09/01 23:18:13,13.8,27.7,25.8,10.0,49.0,10.0,0,0,0,0,0,0,0,0
2021/09/01 23:20:09,13.8,27.7,25.8,10.0,49.0,10.0,0,0,0,0,0,0,0,0
2021/09/01 23:22:04,13.8,27.7,25.8,10.0,49.0,10.0,0,0,0,0,0,0,0,0
2021/09/01 23:24:02,13.7,27.7,25.8,10.0,49.0,10.0,0,0,0,0,0,0,0,0
2021/09/01 23:26:01,13.7,27.7,25.8,10.0,48.9,10.0,0,0,0,0,0,0,0,0
2021/09/01 23:27:56,13.7,27.7,25.8,10.0,48.9,10.0,0,0,0,0,0,0,0,0
2021/09/01 23:29:51,13.6,27.7,25.8,10.0,48.9,10.0,0,0,0,0,0,0,0,0
2021/09/01 23:32:46,13.6,27.7,25.8,10.0,48.9,10.0,0,0,0,0,0,0,0,0
2021/09/01 23:34:37,13.6,27.6,25.8,10.0,48.9,10.0,0,0,0,0,0,0,0,0
2021/09/01 23:36:34,13.6,27.6,25.8,10.0,48.9,10.0,0,0,0,0,0,0,0,0
2021/09/01 23:38:29,13.5,27.6,25.8,10.0,48.8,10.0,0,0,0,0,0,0,0,0
2021/09/01 23:40:22,13.5,27.6,25.8,10.0,48.8,10.0,0,0,0,0,0,0,0,0
2021/09/01 23:42:21,13.5,27.6,25.8,10.0,48.8,10.0,0,0,0,0,0,0,0,0
2021/09/01 23:44:19,13.5,27.6,25.8,10.0,48.8,10.0,0,0,0,0,0,0,0,0
2021/09/01 23:46:14,13.4,27.6,25.8,10.0,48.8,10.0,0,0,0,0,0,0,0,0
2021/09/01 23:48:10,13.4,27.6,25.8,10.0,48.8,10.0,0,0,0,0,0,0,0,0
2021/09/01 23:50:05,13.4,27.6,25.8,10.0,48.8,10.0,0,0,0,0,0,0,0,0
2021/09/01 23:52:02,13.3,27.6,25.8,10.0,48.7,10.0,0,0,0,0,0,0,0,0
2021/09/01 23:53:58,13.3,27.6,25.8,10.0,48.7,10.0,0,0,0,0,0,0,0,0
2021/09/01 23:55:50,13.3,27.6,25.8,10.0,48.7,10.0,0,0,0,0,0,0,0,0
2021/09/01 23:58:49,13.3,27.6,25.8,10.0,48.7,10.0,0,0,0,0,0,0,0,0
