Type,Analog,Analog,Analog,Analog,Analog,Analog,Digital,Digital,Digital,Digital,Digital,Digital,Digital,Digital
Index,1,5,2,53,3,58,41,42,43,44,45,46,49,50
Name,R1,R9,R2,R2 Solltemperatur,R3,R3 Solltemperatur,M1,M3,M2/M11,E10,M13,M18,M16,E9
Description,Variable 1,Variable 2,Variable 3,Variable 4,Variable 5,Variable 6,Variable 7,Variable 8,Variable 9,Variable 10,Variable 11,Variable 12,Variable 13,Variable 14
2021/09/26 00:00:52,17.5,29.0,26.7,10.0,44.4,10.0,0,0,0,0,0,0,0,0
2021/09/26 00:02:46,17.4,29.0,26.7,10.0,44.4,10.0,0,0,0,0,0,0,0,0
2021/09/26 00:04:42,17.4,29.0,26.7,10.0,44.4,10.0,0,0,0,0,0,0,0,0
2021/09/26 00:07:38,17.4,29.0,26.7,10.0,44.4,10.0,0,0,0,0,0,0,0,0
2021/09/26 00:09:36,17.4,28.9,26.7,10.0,44.4,10.0,0,0,0,0,0,0,0,0
2021/09/26 00:11:32,17.3,28.9,26.7,10.0,44.4,10.0,0,0,0,0,0,0,0,0
2021/09/26 00:13:26,17.3,28.9,26.7,10.0,44.4,10.0,0,0,0,0,0,0,0,0
2021/09/26 00:15:20,17.3,28.9,26.7,10.0,44.4,10.0,0,0,0,0,0,0,0,0
2021/09/26 00:17:14,17.3,28.9,26.7,10.0,44.3,10.0,0,0,0,0,0,0,0,0
2021/09/26 00:19:12,17.3,28.9,26.6,10.0,44.3,10.0,0,0,0,0,0,0,0,0
2021/09/26 00:21:09,17.2,28.9,26.6,10.0,44.3,10.0,0,0,0,0,0,0,0,0
2021/09/26 00:23:07,17.2,28.8,26.6,10.0,44.3,10.0,0,0,0,0,0,0,0,0
2021/09/26 00:25:00,17.2,28.8,26.6,10.0,44.3,10.0,0,0,0,0,0,0,0,0
2021/09/26 00:26:58,17.1,28.8,26.6,10.0,44.3,10.0,0,0,0,0,0,0,0,0
2021/09/26 00:28:54,17.1,28.8,26.6,10.0,44.3,10.0,0,0,0,0,0,0,0,0
2021/09/26 00:30:52,17.1,28.8,26.6,10.0,44.3,10.0,0,0,0,0,0,0,0,0
2021/09/26 00:32:49,17.1,28.8,26.6,10.0,44.2,10.0,0,0,0,0,0,0,0,0
2021/09/26 00:34:43,17.1,28.8,26.6,10.0,44.2,10.0,0,0,0,0,0,0,0,0
2021/09/26 00:37:39,17.0,28.7,26.6,10.0,44.2,10.0,0,0,0,0,0,0,0,0
2021/09/26 00:39:30,17.0,28.7,26.6,10.0,44.2,10.0,0,0,0,0,0,0,0,0
2021/09/26 00:41:26,17.0,28.7,26.5,10.0,44.2,10.0,0,0,0,0,0,0,0,0
2021/09/26 00:43:24,17.0,28.7,26.5,10.0,44.2,10.0,0,0,0,0,0,0,0,0
2021/09/26 00:45:18,17.0,28.7,26.5,10.0,44.2,10.0,0,0,0,0,0,0,0,0
2021/09/26 00:47:16,17.0,28.7,26.5,10.0,44.2,10.0,0,0,0,0,0,0,0,0
2021/09/26 00:49:12,17.0,28.7,26.5,10.0,44.2,10.0,0,0,0,0,0,0,0,0
2021/09/26 00:51:06,16.9,28.7,26.5,10.0,44.1,10.0,0,0,0,0,0,0,0,0
2021/09/26 00:53:01,16.9,28.6,26.5,10.0,44.1,10.0,0,0,0,0,0,0,0,0
2021/09/26 00:54:58,16.9,28.6,26.5,10.0,44.1,10.0,0,0,0,0,0,0,0,0
2021/09/26 00:56:50,16.9,28.6,26.5,10.0,44.1,10.0,0,0,0,0,0,0,0,0
2021/09/26 00:58:46,16.9,28.6,26.5,10.0,44.1,10.0,0,0,0,0,0,0,0,0
2021/09/26 01:00:42,16.9,28.6,26.5,10.0,44.1,10.0,0,0,0,0,0,0,0,0
2021/09/26 01:03:38,16.9,28.6,26.5,10.0,44.1,10.0,0,0,0,0,0,0,0,0
2021/09/26 01:05:36,16.9,28.6,26.5,10.0,44.0,10.0,0,0,0,0,0,0,0,0
2021/09/26 01:07:29,16.9,28.6,26.5,10.0,44.0,10.0,0,0,0,0,0,0,0,0
2021/09/26 01:09:24,16.9,28.5,26.4,10.0,44.0,10.0,0,0,0,0,0,0,0,0
2021/09/26 01:11:14,16.8,28.5,26.4,10.0,44.0,10.0,0,0,0,0,0,0,0,0
2021/09/26 01:13:07,16.8,28.5,26.4,10.0,44.0,10.0,0,0,0,0,0,0,0,0
2021/09/26 01:15:01,16.7,28.5,26.4,10.0,44.0,10.0,0,0,0,0,0,0,0,0
2021/09/26 01:16:58,16.7,28.5,26.4,10.0,44.0,10.0,0,0,0,0,0,0,0,0
2021/09/26 01:18:52,16.7,28.5,26.4,10.0,44.0,10.0,0,0,0,0,0,0,0,0
2021/09/26 01:20:46,16.6,28.5,26.4,10.0,43.9,10.0,0,0,0,0,0,0,0,0
2021/09/26 01:23:42,16.6,28.5,26.4,10.0,43.9,10.0,0,0,0,0,0,0,0,0
2021/09/26 01:25:39,16.6,28.4,26.4,10.0,43.9,10.0,0,0,0,0,0,0,0,0
2021/09/26 01:27:35,16.6,28.4,26.4,10.0,43.9,10.0,0,0,0,0,0,0,0,0
2021/09/26 01:29:33,16.6,28.4,26.4,10.0,43.9,10.0,0,0,0,0,0,0,0,0
2021/09/26 01:31:27,16.6,28.4,26.4,10.0,43.9,10.0,0,0,0,0,0,0,0,0
2021/09/26 01:33:23,16.6,28.4,26.4,10.0,43.9,10.0,0,0,0,0,0,0,0,0
2021/09/26 01:35:18,16.6,28.4,26.4,10.0,43.9,10.0,0,0,0,0,0,0,0,0
2021/09/26 01:37:15,16.6,28.4,26.3,10.0,43.8,10.0,0,0,0,0,0,0,0,0
2021/09/26 01:39:14,16.5,28.4,26.3,10.0,43.8,10.0,0,0,0,0,0,0,0,0
2021/09/26 01:41:11,16.5,28.4,26.3,10.0,43.8,10.0,0,0,0,0,0,0,0,0
2021/09/26 01:43:04,16.5,28.3,26.3,10.0,43.8,10.0,0,0,0,0,0,0,0,0
2021/09/26 01:45:04,16.5,28.3,26.3,10.0,43.8,10.0,0,0,0,0,0,0,0,0
2021/09/26 01:46:56,16.4,28.3,26.3,10.0,43.8,10.0,0,0,0,0,0,0,0,0
2021/09/26 01:48:53,16.4,28.3,26.3,10.0,43.8,10.0,0,0,0,0,0,0,0,0
2021/09/26 01:50:49,16.4,28.3,26.3,10.0,43.8,10.0,0,0,0,0,0,0,0,0
2021/09/26 01:52:46,16.4,28.3,26.3,10.0,43.7,10.0,0,0,0,0,0,0,0,0
2021/09/26 01:54:42,16.4,28.3,26.3,10.0,43.7,10.0,0,0,0,0,0,0,0,0
2021/09/26 01:57:39,16.4,28.3,26.3,10.0,43.7,10.0,0,0,0,0,0,0,0,0
2021/09/26 01:59:33,16.4,28.3,26.3,10.0,43.7,10.0,0,0,0,0,0,0,0,0
2021/09/26 02:01:27,16.4,28.3,26.3,10.0,43.7,10.0,0,0,0,0,0,0,0,0
2021/09/26 02:03:22,16.4,28.2,26.3,10.0,43.7,10.0,0,0,0,0,0,0,0,0
2021/09/26 02:05:20,16.4,28.2,26.3,10.0,43.7,10.0,0,0,0,0,0,0,0,0
2021/09/26 02:07:16,16.4,28.2,26.2,10.0,43.6,10.0,0,0,0,0,0,0,0,0
2021/09/26 02:09:14,16.4,28.2,26.2,10.0,43.6,10.0,0,0,0,0,0,0,0,0
2021/09/26 02:11:09,16.3,28.2,26.2,10.0,43.6,10.0,0,0,0,0,0,0,0,0
2021/09/26 02:13:02,16.3,28.2,26.2,10.0,43.6,10.0,0,0,0,0,0,0,0,0
2021/09/26 02:15:00,16.3,28.2,26.2,10.0,43.6,10.0,0,0,0,0,0,0,0,0
2021/09/26 02:16:54,16.3,28.2,26.2,10.0,43.6,10.0,0,0,0,0,0,0,0,0
2021/09/26 02:18:48,16.3,28.2,26.2,10.0,43.6,10.0,0,0,0,0,0,0,0,0
2021/09/26 02:20:41,16.3,28.1,26.2,10.0,43.6,10.0,0,0,0,0,0,0,0,0
2021/09/26 02:23:37,16.2,28.1,26.2,10.0,43.5,10.0,0,0,0,0,0,0,0,0
2021/09/26 02:25:31,16.2,28.1,26.2,10.0,43.5,10.0,0,0,0,0,0,0,0,0
2021/09/26 02:27:28,16.1,28.1,26.2,10.0,43.5,10.0,0,0,0,0,0,0,0,0
2021/09/26 02:29:22,16.1,28.1,26.2,10.0,43.5,10.0,0,0,0,0,0,0,0,0
2021/09/26 02:31:17,16.1,28.1,26.2,10.0,43.5,10.0,0,0,0,0,0,0,0,0
2021/09/26 02:33:10,16.1,28.1,26.2,10.0,43.5,10.0,0,0,0,0,0,0,0,0
2021/09/26 02:35:04,16.1,28.1,26.2,10.0,43.5,10.0,0,0,0,0,0,0,0,0
2021/09/26 02:37:00,16.1,28.1,26.2,10.0,43.5,10.0,0,0,0,0,0,0,0,0
2021/09/26 02:38:55,16.1,28.0,26.1,10.0,43.4,10.0,0,0,0,0,0,0,0,0
2021/09/26 02:40:53,16.1,28.0,26.1,10.0,43.4,10.0,0,0,0,0,0,0,0,0
2021/09/26 02:42:49,16.1,28.0,26.1,10.0,43.4,10.0,0,0,0,0,0,0,0,0
2021/09/26 02:44:46,16.0,28.0,26.1,10.0,43.4,10.0,0,0,0,0,0,0,0,0
2021/09/26 02:46:43,16.0,28.0,26.1,10.0,43.4,10.0,0,0,0,0,0,0,0,0
2021/09/26 02:49:38,16.0,28.0,26.1,10.0,43.4,10.0,0,0,0,0,0,0,0,0
2021/09/26 02:51:35,16.0,28.0,26.1,10.0,43.4,10.0,0,0,0,0,0,0,0,0
2021/09/26 02:53:29,16.0,28.0,26.1,10.0,43.4,10.0,0,0,0,0,0,0,0,0
2021/09/26 02:55:26,16.0,28.0,26.1,10.0,43.3,10.0,0,0,0,0,0,0,0,0
2021/09/26 02:57:22,16.0,28.0,26.1,10.0,43.3,10.0,0,0,0,0,0,0,0,0
2021/09/26 02:59:20,16.0,28.0,26.1,10.0,43.3,10.0,0,0,0,0,0,0,0,0
2021/09/26 03:01:14,16.0,27.9,26.1,10.0,43.3,10.0,0,0,0,0,0,0,0,0
2021/09/26 03:03:13,16.1,27.9,26.1,10.0,43.3,10.0,0,0,0,0,0,0,0,0
2021/09/26 03:05:10,16.1,27.9,26.1,10.0,43.3,10.0,0,0,0,0,0,0,0,0
2021/09/26 03:07:04,16.1,27.9,26.1,10.0,43.3,10.0,0,0,0,0,0,0,0,0
2021/09/26 03:09:00,16.1,27.9,26.1,10.0,43.3,10.0,0,0,0,0,0,0,0,0
2021/09/26 03:10:58,16.1,27.9,26.1,10.0,43.2,10.0,0,0,0,0,0,0,0,0
2021/09/26 03:12:55,16.1,27.9,26.1,10.0,43.2,10.0,0,0,0,0,0,0,0,0
2021/09/26 03:14:51,16.1,27.9,26.0,10.0,43.2,10.0,0,0,0,0,0,0,0,0
2021/09/26 03:16:45,16.1,27.9,26.0,10.0,43.2,10.0,0,0,0,0,0,0,0,0
2021/09/26 03:19:40,16.1,27.9,26.0,10.0,43.2,10.0,0,0,0,0,0,0,0,0
2021/09/26 03:21:36,16.0,27.8,26.0,10.0,43.2,10.0,0,0,0,0,0,0,0,0
2021/09/26 03:23:32,16.0,27.8,26.0,10.0,43.2,10.0,0,0,0,0,0,0,0,0
2021/09/26 03:25:26,16.0,27.8,26.0,10.0,43.1,10.0,0,0,0,0,0,0,0,0
2021/09/26 03:27:20,16.0,27.8,26.0,10.0,43.1,10.0,0,0,0,0,0,0,0,0
2021/09/26 03:29:14,15.9,27.8,26.0,10.0,43.1,10.0,0,0,0,0,0,0,0,0
2021/09/26 03:31:11,15.9,27.8,26.0,10.0,43.1,10.0,0,0,0,0,0,0,0,0
2021/09/26 03:33:07,15.8,27.8,26.0,10.0,43.1,10.0,0,0,0,0,0,0,0,0
2021/09/26 03:35:03,15.8,27.8,26.0,10.0,43.1,10.0,0,0,0,0,0,0,0,0
2021/09/26 03:36:59,15.8,27.8,26.0,10.0,43.1,10.0,0,0,0,0,0,0,0,0
2021/09/26 03:38:53,15.8,27.8,26.0,10.0,43.1,10.0,0,0,0,0,0,0,0,0
2021/09/26 03:40:49,15.8,27.8,26.0,10.0,43.0,10.0,0,0,0,0,0,0,0,0
2021/09/26 03:42:44,15.7,27.8,26.0,10.0,43.0,10.0,0,0,0,0,0,0,0,0
2021/09/26 03:45:42,15.7,27.7,26.0,10.0,43.0,10.0,0,0,0,0,0,0,0,0
2021/09/26 03:47:41,15.7,37.4,35.6,10.0,43.0,52.0,0,1,1,0,0,1,1,0
2021/09/26 03:49:40,15.6,41.2,38.2,10.0,42.8,52.0,0,1,1,0,0,1,1,0
2021/09/26 03:51:37,15.6,44.4,40.8,10.0,42.8,52.0,0,1,1,0,0,1,1,0
2021/09/26 03:53:36,15.6,46.0,42.2,10.0,43.0,52.0,0,1,1,0,0,1,1,0
2021/09/26 03:55:32,15.6,47.2,43.2,10.0,43.5,52.0,0,1,1,0,0,1,1,0
2021/09/26 03:57:30,15.6,48.1,43.9,10.0,43.9,52.0,0,1,1,0,0,1,1,0
2021/09/26 03:59:25,15.6,48.8,44.4,10.0,44.5,52.0,0,1,1,0,0,1,1,0
2021/09/26 04:01:21,15.6,49.4,45.0,10.0,45.1,52.0,0,1,1,0,0,1,1,0
2021/09/26 04:03:17,15.5,50.0,45.6,10.0,45.7,52.0,0,1,1,0,0,1,1,0
2021/09/26 04:05:14,15.5,50.7,46.2,10.0,46.4,52.0,0,1,1,0,0,1,1,0
2021/09/26 04:07:12,15.5,51.5,46.8,10.0,47.1,52.0,0,1,1,0,0,1,1,0
2021/09/26 04:09:08,15.5,52.1,47.3,10.0,47.7,52.0,0,1,1,0,0,1,1,0
2021/09/26 04:11:01,15.4,52.7,47.8,10.0,48.3,52.0,0,1,1,0,0,1,1,0
2021/09/26 04:13:00,15.4,53.2,48.4,10.0,49.0,52.0,0,1,1,0,0,1,1,0
2021/09/26 04:14:59,15.4,53.8,48.9,10.0,49.5,52.0,0,1,1,0,0,1,1,0
2021/09/26 04:16:54,15.3,54.3,49.5,10.0,50.2,52.0,0,1,1,0,0,1,1,0
2021/09/26 04:18:52,15.3,54.8,49.9,10.0,50.8,52.0,0,1,1,0,0,1,1,0
2021/09/26 04:20:45,15.3,55.4,50.5,10.0,51.5,52.0,0,1,1,0,0,1,1,0
2021/09/26 04:23:42,15.2,54.6,51.2,10.0,52.1,52.0,0,0,1,0,0,0,1,0
2021/09/26 04:25:39,15.2,39.8,37.5,10.0,52.7,52.0,0,0,0,0,0,0,1,0
2021/09/26 04:27:37,15.2,39.3,36.8,10.0,52.9,52.0,0,0,0,0,0,0,0,0
2021/09/26 04:29:35,15.2,38.7,36.3,10.0,53.0,52.0,0,0,0,0,0,0,0,0
2021/09/26 04:31:30,15.2,38.3,35.9,10.0,53.0,52.0,0,0,0,0,0,0,0,0
2021/09/26 04:33:29,15.2,37.9,35.6,10.0,53.0,52.0,0,0,0,0,0,0,0,0
2021/09/26 04:35:23,15.2,37.6,35.2,10.0,53.0,52.0,0,0,0,0,0,0,0,0
2021/09/26 04:37:17,15.2,37.3,34.9,10.0,53.0,52.0,0,0,0,0,0,0,0,0
2021/09/26 04:39:11,15.2,37.2,34.7,10.0,53.0,52.0,0,0,0,0,0,0,0,0
2021/09/26 04:41:06,15.2,37.0,34.6,10.0,53.0,52.0,0,0,0,0,0,0,0,0
2021/09/26 04:43:01,15.2,36.9,34.4,10.0,52.9,52.0,0,0,0,0,0,0,0,0
2021/09/26 04:44:57,15.2,36.8,34.3,10.0,52.9,52.0,0,0,0,0,0,0,0,0
2021/09/26 04:46:54,15.2,36.7,34.2,10.0,52.9,52.0,0,0,0,0,0,0,0,0
2021/09/26 04:48:51,15.2,36.5,34.0,10.0,52.8,52.0,0,0,0,0,0,0,0,0
2021/09/26 04:50:43,15.2,36.4,33.9,10.0,52.8,52.0,0,0,0,0,0,0,0,0
2021/09/26 04:53:41,15.2,36.3,33.8,10.0,52.8,52.0,0,0,0,0,0,0,0,0
2021/09/26 04:55:38,15.2,36.2,33.7,10.0,52.7,52.0,0,0,0,0,0,0,0,0
2021/09/26 04:57:33,15.2,36.2,33.6,10.0,52.7,52.0,0,0,0,0,0,0,0,0
2021/09/26 04:59:31,15.2,36.1,33.5,10.0,52.7,52.0,0,0,0,0,0,0,0,0
2021/09/26 05:01:26,15.2,36.0,33.4,10.0,52.6,52.0,0,0,0,0,0,0,0,0
2021/09/26 05:03:20,15.1,35.9,33.3,10.0,52.6,52.0,0,0,0,0,0,0,0,0
2021/09/26 05:05:18,15.1,35.8,33.2,10.0,52.6,52.0,0,0,0,0,0,0,0,0
2021/09/26 05:07:14,15.1,35.8,33.1,10.0,52.6,52.0,0,0,0,0,0,0,0,0
2021/09/26 05:09:11,15.1,35.7,33.0,10.0,52.5,52.0,0,0,0,0,0,0,0,0
2021/09/26 05:11:09,15.1,35.6,32.9,10.0,52.5,52.0,0,0,0,0,0,0,0,0
2021/09/26 05:13:03,15.1,35.6,32.8,10.0,52.5,52.0,0,0,0,0,0,0,0,0
2021/09/26 05:15:00,15.0,35.5,32.7,10.0,52.5,52.0,0,0,0,0,0,0,0,0
2021/09/26 05:16:55,15.0,35.4,32.7,10.0,52.4,52.0,0,0,0,0,0,0,0,0
2021/09/26 05:18:54,15.0,35.4,32.6,10.0,52.4,52.0,0,0,0,0,0,0,0,0
2021/09/26 05:20:51,15.0,35.3,32.5,10.0,52.4,52.0,0,0,0,0,0,0,0,0
2021/09/26 05:22:48,15.0,35.3,32.4,10.0,52.4,52.0,0,0,0,0,0,0,0,0
2021/09/26 05:25:42,14.9,35.2,32.3,10.0,52.3,52.0,0,0,0,0,0,0,0,0
2021/09/26 05:27:35,14.9,35.2,32.2,10.0,52.3,52.0,0,0,0,0,0,0,0,0
2021/09/26 05:29:27,14.9,35.1,32.2,10.0,52.3,52.0,0,0,0,0,0,0,0,0
2021/09/26 05:31:17,14.9,35.1,32.1,10.0,51.8,52.0,0,0,0,0,0,0,0,0
2021/09/26 05:33:10,14.9,35.1,32.0,10.0,51.0,52.0,0,0,0,0,0,0,0,0
2021/09/26 05:35:08,14.9,35.0,31.9,10.0,50.3,52.0,0,0,0,0,0,0,0,0
2021/09/26 05:37:06,14.9,35.0,31.9,10.0,50.0,52.0,0,0,0,0,0,0,0,0
2021/09/26 05:39:00,14.9,35.0,31.8,10.0,49.8,52.0,0,0,0,0,0,0,0,0
2021/09/26 05:40:57,14.9,34.9,31.7,10.0,49.7,52.0,0,0,0,0,0,0,0,0
2021/09/26 05:42:53,14.9,34.9,31.7,10.0,49.6,52.0,0,0,0,0,0,0,0,0
2021/09/26 05:44:50,14.9,34.8,31.6,10.0,49.5,52.0,0,0,0,0,0,0,0,0
2021/09/26 05:46:44,14.9,34.8,31.5,10.0,49.4,52.0,0,0,0,0,0,0,0,0
2021/09/26 05:49:41,14.8,34.8,31.5,10.0,49.3,52.0,0,0,0,0,0,0,0,0
2021/09/26 05:51:34,14.8,34.7,31.4,10.0,49.2,52.0,0,0,0,0,0,0,0,0
2021/09/26 05:53:29,14.8,34.7,31.3,10.0,49.1,52.0,0,0,0,0,0,0,0,0
2021/09/26 05:55:23,14.8,34.7,31.2,10.0,49.0,52.0,0,0,0,0,0,0,0,0
2021/09/26 05:57:19,14.8,34.6,31.2,10.0,48.9,52.0,0,0,0,0,0,0,0,0
2021/09/26 05:59:13,14.8,34.6,31.1,10.0,48.9,52.0,0,0,0,0,0,0,0,0
2021/09/26 06:01:09,14.8,34.6,31.0,10.0,48.8,52.0,0,0,0,0,0,0,0,0
2021/09/26 06:03:04,14.8,34.5,31.0,10.0,48.7,52.0,0,0,0,0,0,0,0,0
2021/09/26 06:05:00,14.8,34.5,30.9,10.0,48.7,52.0,0,0,0,0,0,0,0,0
2021/09/26 06:06:56,14.8,34.4,30.8,10.0,48.6,52.0,0,0,0,0,0,0,0,0
2021/09/26 06:08:51,14.8,34.4,30.8,10.0,48.5,52.0,0,0,0,0,0,0,0,0
2021/09/26 06:10:45,14.8,34.4,30.7,10.0,48.5,52.0,0,0,0,0,0,0,0,0
2021/09/26 06:13:42,14.8,34.3,30.6,10.0,48.4,52.0,0,0,0,0,0,0,0,0
2021/09/26 06:15:35,14.7,34.3,30.6,10.0,48.3,52.0,0,0,0,0,0,0,0,0
2021/09/26 06:17:28,14.7,34.2,30.5,10.0,48.3,52.0,0,0,0,0,0,0,0,0
2021/09/26 06:19:22,14.7,34.2,30.5,10.0,48.2,52.0,0,0,0,0,0,0,0,0
2021/09/26 06:21:20,14.7,34.2,30.4,10.0,48.1,52.0,0,0,0,0,0,0,0,0
2021/09/26 06:23:14,14.7,34.1,30.3,10.0,48.1,52.0,0,0,0,0,0,0,0,0
2021/09/26 06:25:10,14.7,34.1,30.3,10.0,48.0,52.0,0,0,0,0,0,0,0,0
2021/09/26 06:27:06,14.7,34.0,30.2,10.0,48.0,52.0,0,0,0,0,0,0,0,0
2021/09/26 06:29:02,14.7,34.0,30.2,10.0,47.9,52.0,0,0,0,0,0,0,0,0
2021/09/26 06:30:57,14.7,34.0,30.1,10.0,47.8,52.0,0,0,0,0,0,0,0,0
2021/09/26 06:32:54,14.7,33.9,30.1,10.0,47.8,52.0,0,0,0,0,0,0,0,0
2021/09/26 06:34:51,14.7,33.9,30.0,10.0,47.7,52.0,0,0,0,0,0,0,0,0
2021/09/26 06:36:46,14.8,33.8,30.0,10.0,47.7,52.0,0,0,0,0,0,0,0,0
2021/09/26 06:38:43,14.8,33.8,29.9,10.0,47.6,52.0,0,0,0,0,0,0,0,0
2021/09/26 06:41:39,14.8,33.8,29.9,10.0,47.6,52.0,0,0,0,0,0,0,0,0
2021/09/26 06:43:31,14.8,33.7,29.8,10.0,47.5,52.0,0,0,0,0,0,0,0,0
2021/09/26 06:45:26,14.8,33.7,29.8,10.0,47.4,52.0,0,0,0,0,0,0,0,0
2021/09/26 06:47:20,14.8,33.6,29.8,10.0,47.4,52.0,0,0,0,0,0,0,0,0
2021/09/26 06:49:15,14.9,33.6,29.7,10.0,47.3,52.0,0,0,0,0,0,0,0,0
2021/09/26 06:51:12,14.9,33.5,29.7,10.0,47.3,52.0,0,0,0,0,0,0,0,0
2021/09/26 06:53:07,14.9,33.5,29.6,10.0,47.2,52.0,0,0,0,0,0,0,0,0
2021/09/26 06:55:01,14.9,33.5,29.6,10.0,47.2,52.0,0,0,0,0,0,0,0,0
2021/09/26 06:56:57,15.0,33.4,29.5,10.0,47.1,52.0,0,0,0,0,0,0,0,0
2021/09/26 06:58:55,15.1,33.4,29.5,10.0,47.0,52.0,0,0,0,0,0,0,0,0
2021/09/26 07:00:49,15.3,33.3,29.5,10.0,47.0,52.0,0,0,0,0,0,0,0,0
2021/09/26 07:02:45,15.4,33.3,29.4,10.0,46.9,52.0,0,0,0,0,0,0,0,0
2021/09/26 07:05:41,15.5,33.3,29.4,10.0,46.9,52.0,0,0,0,0,0,0,0,0
2021/09/26 07:07:37,15.6,33.2,29.4,10.0,46.8,52.0,0,0,0,0,0,0,0,0
2021/09/26 07:09:33,15.6,33.2,29.3,10.0,46.8,52.0,0,0,0,0,0,0,0,0
2021/09/26 07:11:27,15.7,33.2,29.3,10.0,46.7,52.0,0,0,0,0,0,0,0,0
2021/09/26 07:13:21,15.8,33.1,29.2,10.0,46.7,52.0,0,0,0,0,0,0,0,0
2021/09/26 07:15:16,15.9,33.1,29.2,10.0,46.6,52.0,0,0,0,0,0,0,0,0
2021/09/26 07:17:15,15.9,33.0,29.2,10.0,46.6,52.0,0,0,0,0,0,0,0,0
2021/09/26 07:19:09,16.0,33.0,29.1,10.0,46.5,52.0,0,0,0,0,0,0,0,0
2021/09/26 07:21:08,16.0,33.0,29.1,10.0,46.5,52.0,0,0,0,0,0,0,0,0
2021/09/26 07:23:02,16.0,32.9,29.1,10.0,46.4,52.0,0,0,0,0,0,0,0,0
2021/09/26 07:25:00,16.0,32.9,29.0,10.0,46.4,52.0,0,0,0,0,0,0,0,0
2021/09/26 07:26:55,16.0,32.8,29.0,10.0,46.3,52.0,0,0,0,0,0,0,0,0
2021/09/26 07:28:51,16.0,32.8,29.0,10.0,46.3,52.0,0,0,0,0,0,0,0,0
2021/09/26 07:30:46,16.0,32.8,29.0,10.0,46.2,52.0,0,0,0,0,0,0,0,0
2021/09/26 07:33:43,16.0,32.7,28.9,10.0,46.2,52.0,0,0,0,0,0,0,0,0
2021/09/26 07:35:39,16.0,32.7,28.9,10.0,46.1,52.0,0,0,0,0,0,0,0,0
2021/09/26 07:37:34,16.0,32.6,28.9,10.0,46.1,52.0,0,0,0,0,0,0,0,0
2021/09/26 07:39:31,15.9,32.6,28.8,10.0,46.0,52.0,0,0,0,0,0,0,0,0
2021/09/26 07:41:24,15.9,32.6,28.8,10.0,46.0,52.0,0,0,0,0,0,0,0,0
2021/09/26 07:43:20,15.9,32.5,28.8,10.0,45.9,52.0,0,0,0,0,0,0,0,0
2021/09/26 07:45:17,15.9,32.5,28.7,10.0,45.8,52.0,0,0,0,0,0,0,0,0
2021/09/26 07:47:08,15.8,32.5,28.7,10.0,45.7,52.0,0,0,0,0,0,0,0,0
2021/09/26 07:49:03,15.8,32.4,28.7,10.0,45.7,52.0,0,0,0,0,0,0,0,0
2021/09/26 07:51:02,15.8,32.4,28.7,10.0,45.6,52.0,0,0,0,0,0,0,0,0
2021/09/26 07:52:55,15.8,32.3,28.6,10.0,45.6,52.0,0,0,0,0,0,0,0,0
2021/09/26 07:54:46,15.8,32.3,28.6,10.0,45.5,52.0,0,0,0,0,0,0,0,0
2021/09/26 07:56:42,15.8,32.3,28.6,10.0,45.4,52.0,0,0,0,0,0,0,0,0
2021/09/26 07:59:36,15.8,32.2,28.5,10.0,45.4,52.0,0,0,0,0,0,0,0,0
2021/09/26 08:01:32,15.8,32.2,28.5,10.0,45.3,52.0,0,0,0,0,0,0,0,0
2021/09/26 08:03:27,15.9,32.2,28.5,10.0,45.3,52.0,0,0,0,0,0,0,0,0
2021/09/26 08:05:24,15.9,32.1,28.5,10.0,45.2,52.0,0,0,0,0,0,0,0,0
2021/09/26 08:07:22,15.9,32.1,28.4,10.0,45.2,52.0,0,0,0,0,0,0,0,0
2021/09/26 08:09:14,15.9,32.1,28.4,10.0,45.1,52.0,0,0,0,0,0,0,0,0
2021/09/26 08:11:09,15.9,32.0,28.4,10.0,45.1,52.0,0,0,0,0,0,0,0,0
2021/09/26 08:13:00,15.9,32.0,28.4,10.0,45.0,52.0,0,0,0,0,0,0,0,0
2021/09/26 08:14:58,15.9,31.9,28.3,10.0,45.0,52.0,0,0,0,0,0,0,0,0
2021/09/26 08:16:51,15.9,31.9,28.3,10.0,44.9,52.0,0,0,0,0,0,0,0,0
2021/09/26 08:18:48,15.9,31.9,28.3,10.0,44.9,52.0,0,0,0,0,0,0,0,0
2021/09/26 08:21:40,15.9,31.8,28.3,10.0,44.8,52.0,0,0,0,0,0,0,0,0
2021/09/26 08:23:38,15.9,31.8,28.2,10.0,44.8,52.0,0,0,0,0,0,0,0,0
2021/09/26 08:25:31,15.9,31.8,28.2,10.0,44.7,52.0,0,0,0,0,0,0,0,0
2021/09/26 08:27:28,15.9,31.7,28.2,10.0,44.7,52.0,0,0,0,0,0,0,0,0
2021/09/26 08:29:23,15.9,31.7,28.2,10.0,44.6,52.0,0,0,0,0,0,0,0,0
2021/09/26 08:31:19,15.9,31.7,28.1,10.0,44.6,52.0,0,0,0,0,0,0,0,0
2021/09/26 08:33:14,15.9,31.6,28.1,10.0,44.5,52.0,0,0,0,0,0,0,0,0
2021/09/26 08:35:09,15.9,31.6,28.1,10.0,44.5,52.0,0,0,0,0,0,0,0,0
2021/09/26 08:37:07,15.9,31.6,28.1,10.0,44.4,52.0,0,0,0,0,0,0,0,0
2021/09/26 08:39:04,15.9,31.5,28.0,10.0,44.4,52.0,0,0,0,0,0,0,0,0
2021/09/26 08:41:00,15.9,31.5,28.0,10.0,44.3,52.0,0,0,0,0,0,0,0,0
2021/09/26 08:42:58,15.9,31.5,28.0,10.0,44.3,52.0,0,0,0,0,0,0,0,0
2021/09/26 08:44:52,15.9,31.4,28.0,10.0,44.2,52.0,0,0,0,0,0,0,0,0
2021/09/26 08:46:45,15.9,31.4,28.0,10.0,44.2,52.0,0,0,0,0,0,0,0,0
2021/09/26 08:49:41,15.9,31.4,27.9,10.0,44.1,52.0,0,0,0,0,0,0,0,0
2021/09/26 08:51:39,15.9,31.3,27.9,10.0,44.1,52.0,0,0,0,0,0,0,0,0
2021/09/26 08:53:38,15.9,37.9,37.8,10.0,44.0,52.0,1,0,1,0,0,1,1,0
2021/09/26 08:55:36,15.9,42.9,39.4,10.0,43.8,52.0,1,0,1,0,0,1,1,0
2021/09/26 08:57:35,15.9,45.6,41.9,10.0,43.7,52.0,1,0,1,0,0,1,1,0
2021/09/26 08:59:34,15.9,47.2,43.2,10.0,43.9,52.0,1,0,1,0,0,1,1,0
2021/09/26 09:01:31,15.9,48.3,44.1,10.0,44.3,52.0,1,0,1,0,0,1,1,0
2021/09/26 09:03:27,15.9,49.0,44.7,10.0,44.8,52.0,1,0,1,0,0,1,1,0
2021/09/26 09:05:24,15.9,49.6,45.3,10.0,45.4,52.0,1,0,1,0,0,1,1,0
2021/09/26 09:07:21,15.9,50.2,45.7,10.0,46.0,52.0,1,0,1,0,0,1,1,0
2021/09/26 09:09:20,15.9,50.8,46.3,10.0,46.5,52.0,1,0,1,0,0,1,1,0
2021/09/26 09:11:19,15.9,51.5,46.8,10.0,47.2,52.0,1,0,1,0,0,1,1,0
2021/09/26 09:13:18,15.9,52.1,47.3,10.0,47.7,52.0,1,0,1,0,0,1,1,0
2021/09/26 09:15:15,15.9,52.5,47.8,10.0,48.2,52.0,1,0,1,0,0,1,1,0
2021/09/26 09:17:10,15.9,53.0,48.3,10.0,48.7,52.0,1,0,1,0,0,1,1,0
2021/09/26 09:19:02,15.9,53.4,48.7,10.0,49.2,52.0,1,0,1,0,0,1,1,0
2021/09/26 09:20:59,16.0,53.9,49.1,10.0,49.7,52.0,1,0,1,0,0,1,1,0
2021/09/26 09:22:56,16.0,54.4,49.6,10.0,50.3,52.0,1,0,1,0,0,1,1,0
2021/09/26 09:24:50,16.0,54.8,49.9,10.0,50.8,52.0,1,0,1,0,0,1,1,0
2021/09/26 09:26:48,16.0,55.3,50.5,10.0,51.3,52.0,1,0,1,0,0,1,1,0
2021/09/26 09:28:45,16.1,55.7,50.9,10.0,51.9,52.0,1,0,1,0,0,1,1,0
2021/09/26 09:30:44,16.1,43.3,39.4,10.0,52.4,52.0,0,0,0,0,0,0,1,0
2021/09/26 09:33:41,16.1,39.6,37.5,10.0,52.7,52.0,0,0,0,0,0,0,0,0
2021/09/26 09:35:36,16.2,39.1,36.9,10.0,52.7,52.0,0,0,0,0,0,0,0,0
2021/09/26 09:37:31,16.2,38.6,36.5,10.0,52.7,52.0,0,0,0,0,0,0,0,0
2021/09/26 09:39:27,16.2,38.3,36.1,10.0,52.6,52.0,0,0,0,0,0,0,0,0
2021/09/26 09:41:24,16.3,38.0,35.8,10.0,52.5,52.0,0,0,0,0,0,0,0,0
2021/09/26 09:43:18,16.3,37.7,35.5,10.0,52.4,52.0,0,0,0,0,0,0,0,0
2021/09/26 09:45:13,16.3,37.5,35.3,10.0,52.3,52.0,0,0,0,0,0,0,0,0
2021/09/26 09:47:07,16.3,37.4,35.0,10.0,52.2,52.0,0,0,0,0,0,0,0,0
2021/09/26 09:49:03,16.4,37.3,34.9,10.0,52.1,52.0,0,0,0,0,0,0,0,0
2021/09/26 09:50:58,16.4,37.1,34.7,10.0,52.1,52.0,0,0,0,0,0,0,0,0
2021/09/26 09:52:51,16.4,37.0,34.6,10.0,52.0,52.0,0,0,0,0,0,0,0,0
2021/09/26 09:54:44,16.4,36.9,34.5,10.0,51.9,52.0,0,0,0,0,0,0,0,0
2021/09/26 09:57:41,16.4,36.8,34.4,10.0,51.8,52.0,0,0,0,0,0,0,0,0
2021/09/26 09:59:35,16.4,36.7,34.2,10.0,51.8,52.0,0,0,0,0,0,0,0,0
2021/09/26 10:01:32,16.4,36.6,34.1,10.0,51.7,52.0,0,0,0,0,0,0,0,0
2021/09/26 10:03:26,16.4,36.5,34.0,10.0,51.6,52.0,0,0,0,0,0,0,0,0
2021/09/26 10:05:21,16.4,36.4,33.9,10.0,51.6,52.0,0,0,0,0,0,0,0,0
2021/09/26 10:07:14,16.4,36.3,33.8,10.0,51.5,52.0,0,0,0,0,0,0,0,0
2021/09/26 10:09:11,16.4,36.2,33.7,10.0,51.4,52.0,0,0,0,0,0,0,0,0
2021/09/26 10:11:06,16.4,36.1,33.6,10.0,51.3,52.0,0,0,0,0,0,0,0,0
2021/09/26 10:13:03,16.4,36.0,33.5,10.0,51.3,52.0,0,0,0,0,0,0,0,0
2021/09/26 10:15:00,16.5,36.0,33.5,10.0,51.2,52.0,0,0,0,0,0,0,0,0
2021/09/26 10:16:56,16.5,35.9,33.4,10.0,51.1,52.0,0,0,0,0,0,0,0,0
2021/09/26 10:18:52,16.5,35.8,33.3,10.0,51.0,52.0,0,0,0,0,0,0,0,0
2021/09/26 10:20:48,16.5,35.8,33.2,10.0,50.9,52.0,0,0,0,0,0,0,0,0
2021/09/26 10:23:42,16.6,35.7,33.1,10.0,50.8,52.0,0,0,0,0,0,0,0,0
2021/09/26 10:25:38,16.6,35.7,33.0,10.0,50.7,52.0,0,0,0,0,0,0,0,0
2021/09/26 10:27:34,16.6,35.6,33.0,10.0,50.6,52.0,0,0,0,0,0,0,0,0
2021/09/26 10:29:30,16.6,35.6,32.9,10.0,50.5,52.0,0,0,0,0,0,0,0,0
2021/09/26 10:31:27,16.7,35.5,32.8,10.0,50.5,52.0,0,0,0,0,0,0,0,0
2021/09/26 10:33:22,16.7,35.5,32.7,10.0,50.4,52.0,0,0,0,0,0,0,0,0
2021/09/26 10:35:15,16.7,35.4,32.7,10.0,50.3,52.0,0,0,0,0,0,0,0,0
2021/09/26 10:37:12,16.8,35.4,32.6,10.0,50.2,52.0,0,0,0,0,0,0,0,0
2021/09/26 10:39:09,16.8,35.3,32.5,10.0,50.1,52.0,0,0,0,0,0,0,0,0
2021/09/26 10:41:03,16.8,35.3,32.4,10.0,50.1,52.0,0,0,0,0,0,0,0,0
2021/09/26 10:43:01,16.9,35.3,32.4,10.0,50.0,52.0,0,0,0,0,0,0,0,0
2021/09/26 10:44:59,16.9,35.2,32.3,10.0,49.9,52.0,0,0,0,0,0,0,0,0
2021/09/26 10:46:54,16.9,35.2,32.2,10.0,49.8,52.0,0,0,0,0,0,0,0,0
2021/09/26 10:48:46,16.9,35.1,32.1,10.0,49.8,52.0,0,0,0,0,0,0,0,0
2021/09/26 10:51:40,17.0,35.1,32.1,10.0,49.7,52.0,0,0,0,0,0,0,0,0
2021/09/26 10:53:37,17.0,35.1,32.0,10.0,49.6,52.0,0,0,0,0,0,0,0,0
2021/09/26 10:55:32,17.0,35.0,31.9,10.0,49.5,52.0,0,0,0,0,0,0,0,0
2021/09/26 10:57:28,17.0,35.0,31.9,10.0,49.5,52.0,0,0,0,0,0,0,0,0
2021/09/26 10:59:23,17.0,34.9,31.8,10.0,49.4,52.0,0,0,0,0,0,0,0,0
2021/09/26 11:01:17,17.0,34.9,31.7,10.0,49.3,52.0,0,0,0,0,0,0,0,0
2021/09/26 11:03:14,17.0,34.9,31.6,10.0,49.2,52.0,0,0,0,0,0,0,0,0
2021/09/26 11:05:06,17.0,34.8,31.6,10.0,49.1,52.0,0,0,0,0,0,0,0,0
2021/09/26 11:07:03,17.0,34.8,31.5,10.0,49.1,52.0,0,0,0,0,0,0,0,0
2021/09/26 11:09:01,17.0,34.8,31.5,10.0,49.0,52.0,0,0,0,0,0,0,0,0
2021/09/26 11:10:57,17.0,34.7,31.4,10.0,48.9,52.0,0,0,0,0,0,0,0,0
2021/09/26 11:12:48,17.0,34.7,31.3,10.0,48.9,52.0,0,0,0,0,0,0,0,0
2021/09/26 11:14:45,17.0,34.7,31.3,10.0,48.8,52.0,0,0,0,0,0,0,0,0
2021/09/26 11:17:42,17.0,34.6,31.2,10.0,48.7,52.0,0,0,0,0,0,0,0,0
2021/09/26 11:19:40,17.0,34.6,31.1,10.0,48.6,52.0,0,0,0,0,0,0,0,0
2021/09/26 11:21:35,17.1,34.5,31.1,10.0,48.6,52.0,0,0,0,0,0,0,0,0
2021/09/26 11:23:28,17.1,34.5,31.0,10.0,48.5,52.0,0,0,0,0,0,0,0,0
2021/09/26 11:25:20,17.1,34.5,30.9,10.0,48.4,52.0,0,0,0,0,0,0,0,0
2021/09/26 11:27:13,17.1,34.4,30.9,10.0,48.3,52.0,0,0,0,0,0,0,0,0
2021/09/26 11:29:09,17.1,34.4,30.8,10.0,48.3,52.0,0,0,0,0,0,0,0,0
2021/09/26 11:31:05,17.1,34.3,30.8,10.0,48.2,52.0,0,0,0,0,0,0,0,0
2021/09/26 11:33:00,17.1,34.3,30.7,10.0,48.1,52.0,0,0,0,0,0,0,0,0
2021/09/26 11:35:00,17.1,34.3,30.7,10.0,48.0,52.0,0,0,0,0,0,0,0,0
2021/09/26 11:36:58,17.1,34.2,30.6,10.0,48.0,52.0,0,0,0,0,0,0,0,0
2021/09/26 11:38:53,17.2,34.2,30.5,10.0,47.9,52.0,0,0,0,0,0,0,0,0
2021/09/26 11:40:48,17.2,34.1,30.5,10.0,47.8,52.0,0,0,0,0,0,0,0,0
2021/09/26 11:43:41,17.2,34.1,30.4,10.0,47.7,52.0,0,0,0,0,0,0,0,0
2021/09/26 11:45:37,17.2,34.1,30.4,10.0,47.7,52.0,0,0,0,0,0,0,0,0
2021/09/26 11:47:32,17.2,34.0,30.3,10.0,47.6,52.0,0,0,0,0,0,0,0,0
2021/09/26 11:49:26,17.2,34.0,30.3,10.0,47.5,52.0,0,0,0,0,0,0,0,0
2021/09/26 11:51:23,17.2,33.9,30.2,10.0,47.4,52.0,0,0,0,0,0,0,0,0
2021/09/26 11:53:17,17.2,33.9,30.2,10.0,47.3,52.0,0,0,0,0,0,0,0,0
2021/09/26 11:55:14,17.2,33.9,30.1,10.0,47.3,52.0,0,0,0,0,0,0,0,0
2021/09/26 11:57:13,17.2,33.8,30.1,10.0,47.2,52.0,0,0,0,0,0,0,0,0
2021/09/26 11:59:08,17.2,33.8,30.0,10.0,47.1,52.0,0,0,0,0,0,0,0,0
2021/09/26 12:01:00,17.2,33.7,30.0,10.0,47.1,52.0,0,0,0,0,0,0,0,0
2021/09/26 12:02:58,17.2,33.7,29.9,10.0,47.0,52.0,0,0,0,0,0,0,0,0
2021/09/26 12:04:50,17.2,33.7,29.9,10.0,46.9,52.0,0,0,0,0,0,0,0,0
2021/09/26 12:06:48,17.3,33.6,29.9,10.0,46.8,52.0,0,0,0,0,0,0,0,0
2021/09/26 12:09:41,17.3,33.6,29.8,10.0,46.8,52.0,0,0,0,0,0,0,0,0
2021/09/26 12:11:36,17.3,33.5,29.8,10.0,46.7,52.0,0,0,0,0,0,0,0,0
2021/09/26 12:13:31,17.4,33.5,29.8,10.0,46.6,52.0,0,0,0,0,0,0,0,0
2021/09/26 12:15:27,17.4,33.5,29.7,10.0,46.6,52.0,0,0,0,0,0,0,0,0
2021/09/26 12:17:22,17.4,33.4,29.7,10.0,46.5,52.0,0,0,0,0,0,0,0,0
2021/09/26 12:19:19,17.5,33.4,29.6,10.0,46.4,52.0,0,0,0,0,0,0,0,0
2021/09/26 12:21:13,17.5,33.3,29.6,10.0,46.3,52.0,0,0,0,0,0,0,0,0
2021/09/26 12:23:09,17.5,33.3,29.6,10.0,46.2,52.0,0,0,0,0,0,0,0,0
2021/09/26 12:25:04,17.5,33.3,29.5,10.0,46.2,52.0,0,0,0,0,0,0,0,0
2021/09/26 12:27:01,17.6,33.2,29.5,10.0,46.1,52.0,0,0,0,0,0,0,0,0
2021/09/26 12:28:57,17.6,33.2,29.5,10.0,46.0,52.0,0,0,0,0,0,0,0,0
2021/09/26 12:30:54,17.6,33.2,29.4,10.0,45.9,52.0,0,0,0,0,0,0,0,0
2021/09/26 12:32:51,17.7,33.1,29.4,10.0,45.9,52.0,0,0,0,0,0,0,0,0
2021/09/26 12:34:49,17.7,33.1,29.4,10.0,45.7,52.0,0,0,0,0,0,0,0,0
2021/09/26 12:36:47,17.8,33.1,29.3,10.0,45.6,52.0,0,0,0,0,0,0,0,0
2021/09/26 12:39:42,17.8,33.0,29.3,10.0,45.6,52.0,0,0,0,0,0,0,0,0
2021/09/26 12:41:35,17.8,33.0,29.3,10.0,45.5,52.0,0,0,0,0,0,0,0,0
2021/09/26 12:43:31,17.8,33.0,29.2,10.0,45.4,52.0,0,0,0,0,0,0,0,0
2021/09/26 12:45:23,17.8,32.9,29.2,10.0,45.3,52.0,0,0,0,0,0,0,0,0
2021/09/26 12:47:19,17.8,32.9,29.2,10.0,45.3,52.0,0,0,0,0,0,0,0,0
2021/09/26 12:49:14,17.9,32.8,29.2,10.0,45.2,52.0,0,0,0,0,0,0,0,0
2021/09/26 12:51:12,17.9,32.8,29.1,10.0,45.1,52.0,0,0,0,0,0,0,0,0
2021/09/26 12:53:06,17.9,32.8,29.1,10.0,45.0,52.0,0,0,0,0,0,0,0,0
2021/09/26 12:55:01,18.0,32.7,29.1,10.0,45.0,52.0,0,0,0,0,0,0,0,0
2021/09/26 12:56:55,18.0,32.7,29.0,10.0,45.0,52.0,0,0,0,0,0,0,0,0
2021/09/26 12:58:48,18.1,32.7,29.0,10.0,45.0,52.0,0,0,0,0,0,0,0,0
2021/09/26 13:00:44,18.1,32.6,29.0,10.0,45.1,52.0,0,0,0,0,0,0,0,0
2021/09/26 13:03:38,18.2,32.6,29.0,10.0,45.3,52.0,0,0,0,0,0,0,0,0
2021/09/26 13:05:35,18.3,32.6,28.9,10.0,45.4,52.0,0,0,0,0,0,0,0,0
2021/09/26 13:07:30,18.3,32.5,28.9,10.0,45.6,52.0,0,0,0,0,0,0,0,0
2021/09/26 13:09:27,18.4,32.5,28.9,10.0,45.9,52.0,0,0,0,0,0,0,0,0
2021/09/26 13:11:23,18.5,32.5,28.8,10.0,46.0,52.0,0,0,0,0,0,0,0,0
2021/09/26 13:13:17,18.5,32.4,28.8,10.0,46.1,52.0,0,0,0,0,0,0,0,0
2021/09/26 13:15:13,18.6,32.4,28.8,10.0,46.4,52.0,0,0,0,0,0,0,0,0
2021/09/26 13:17:07,18.7,32.4,28.8,10.0,46.5,52.0,0,0,0,0,0,0,0,0
2021/09/26 13:19:03,18.7,32.3,28.7,10.0,46.7,52.0,0,0,0,0,0,0,0,0
2021/09/26 13:21:00,18.7,32.3,28.7,10.0,46.8,52.0,0,0,0,0,0,0,0,0
2021/09/26 13:22:56,18.8,32.3,28.7,10.0,47.0,52.0,0,0,0,0,0,0,0,0
2021/09/26 13:24:55,18.8,32.2,28.7,10.0,47.1,52.0,0,0,0,0,0,0,0,0
2021/09/26 13:26:48,18.8,32.2,28.6,10.0,47.3,52.0,0,0,0,0,0,0,0,0
2021/09/26 13:28:46,18.8,32.2,28.6,10.0,47.4,52.0,0,0,0,0,0,0,0,0
2021/09/26 13:31:38,18.8,32.1,28.6,10.0,47.8,52.0,0,0,0,0,0,0,0,0
2021/09/26 13:33:34,18.8,32.1,28.6,10.0,47.8,52.0,0,0,0,0,0,0,0,0
2021/09/26 13:35:29,18.8,32.1,28.5,10.0,47.8,52.0,0,0,0,0,0,0,0,0
2021/09/26 13:37:21,18.8,32.0,28.5,10.0,47.7,52.0,0,0,0,0,0,0,0,0
2021/09/26 13:39:18,18.8,32.0,28.5,10.0,47.6,52.0,0,0,0,0,0,0,0,0
2021/09/26 13:41:17,18.8,32.0,28.5,10.0,47.6,52.0,0,0,0,0,0,0,0,0
2021/09/26 13:43:13,18.8,31.9,28.5,10.0,47.5,52.0,0,0,0,0,0,0,0,0
2021/09/26 13:45:11,18.7,31.9,28.4,10.0,47.4,52.0,0,0,0,0,0,0,0,0
2021/09/26 13:47:06,18.7,31.9,28.4,10.0,47.3,52.0,0,0,0,0,0,0,0,0
2021/09/26 13:49:02,18.7,31.8,28.4,10.0,47.3,52.0,0,0,0,0,0,0,0,0
2021/09/26 13:51:00,18.7,31.8,28.4,10.0,47.2,52.0,0,0,0,0,0,0,0,0
2021/09/26 13:52:56,18.7,31.8,28.3,10.0,47.1,52.0,0,0,0,0,0,0,0,0
2021/09/26 13:54:53,18.7,31.8,28.3,10.0,47.1,52.0,0,0,0,0,0,0,0,0
2021/09/26 13:56:48,18.7,31.7,28.3,10.0,47.0,52.0,0,0,0,0,0,0,0,0
2021/09/26 13:58:48,18.7,31.7,28.3,10.0,46.9,52.0,0,0,0,0,0,0,0,0
2021/09/26 14:00:45,18.7,31.7,28.3,10.0,46.8,52.0,0,0,0,0,0,0,0,0
2021/09/26 14:03:39,18.7,31.6,28.2,10.0,46.8,52.0,0,0,0,0,0,0,0,0
2021/09/26 14:05:31,18.7,31.6,28.2,10.0,46.7,52.0,0,0,0,0,0,0,0,0
2021/09/26 14:07:26,18.7,31.6,28.2,10.0,46.7,52.0,0,0,0,0,0,0,0,0
2021/09/26 14:09:20,18.7,31.5,28.2,10.0,46.6,52.0,0,0,0,0,0,0,0,0
2021/09/26 14:11:15,18.7,31.5,28.2,10.0,46.5,52.0,0,0,0,0,0,0,0,0
2021/09/26 14:13:09,18.7,31.5,28.1,10.0,46.4,52.0,0,0,0,0,0,0,0,0
2021/09/26 14:15:07,18.8,31.5,28.1,10.0,46.4,52.0,0,0,0,0,0,0,0,0
2021/09/26 14:17:02,18.8,31.4,28.1,10.0,46.3,52.0,0,0,0,0,0,0,0,0
2021/09/26 14:19:00,18.9,31.4,28.1,10.0,46.3,52.0,0,0,0,0,0,0,0,0
2021/09/26 14:20:55,19.0,31.4,28.1,10.0,46.5,52.0,0,0,0,0,0,0,0,0
2021/09/26 14:22:53,19.1,31.3,28.0,10.0,46.8,52.0,0,0,0,0,0,0,0,0
2021/09/26 14:24:48,19.1,31.3,28.0,10.0,46.9,52.0,0,0,0,0,0,0,0,0
2021/09/26 14:26:44,19.1,31.3,28.0,10.0,47.1,52.0,0,0,0,0,0,0,0,0
2021/09/26 14:29:40,19.1,31.2,28.0,10.0,47.3,52.0,0,0,0,0,0,0,0,0
2021/09/26 14:31:32,19.1,31.2,28.0,10.0,47.5,52.0,0,0,0,0,0,0,0,0
2021/09/26 14:33:27,19.1,31.2,27.9,10.0,47.8,52.0,0,0,0,0,0,0,0,0
2021/09/26 14:35:23,19.0,31.2,27.9,10.0,47.9,52.0,0,0,0,0,0,0,0,0
2021/09/26 14:37:17,19.0,31.1,27.9,10.0,48.1,52.0,0,0,0,0,0,0,0,0
2021/09/26 14:39:13,19.0,31.1,27.9,10.0,48.2,52.0,0,0,0,0,0,0,0,0
2021/09/26 14:41:07,19.0,31.1,27.9,10.0,48.2,52.0,0,0,0,0,0,0,0,0
2021/09/26 14:43:02,19.0,31.1,27.9,10.0,48.2,52.0,0,0,0,0,0,0,0,0
2021/09/26 14:44:57,19.0,31.0,27.8,10.0,48.1,52.0,0,0,0,0,0,0,0,0
2021/09/26 14:46:49,19.0,31.0,27.8,10.0,48.1,52.0,0,0,0,0,0,0,0,0
2021/09/26 14:48:47,19.0,31.0,27.8,10.0,48.0,52.0,0,0,0,0,0,0,0,0
2021/09/26 14:51:43,19.1,31.0,27.8,10.0,47.9,52.0,0,0,0,0,0,0,0,0
2021/09/26 14:53:40,19.1,30.9,27.8,10.0,47.8,52.0,0,0,0,0,0,0,0,0
2021/09/26 14:55:36,19.1,30.9,27.8,10.0,47.8,52.0,0,0,0,0,0,0,0,0
2021/09/26 14:57:33,19.1,30.9,27.7,10.0,47.7,52.0,0,0,0,0,0,0,0,0
2021/09/26 14:59:31,19.1,30.8,27.7,10.0,47.6,52.0,0,0,0,0,0,0,0,0
2021/09/26 15:01:26,19.1,30.8,27.7,10.0,47.6,52.0,0,0,0,0,0,0,0,0
2021/09/26 15:03:19,19.1,30.8,27.7,10.0,47.5,52.0,0,0,0,0,0,0,0,0
2021/09/26 15:05:14,19.1,30.8,27.7,10.0,47.4,52.0,0,0,0,0,0,0,0,0
2021/09/26 15:07:14,19.1,30.7,27.7,10.0,47.3,52.0,0,0,0,0,0,0,0,0
2021/09/26 15:09:06,19.1,30.7,27.6,10.0,47.3,52.0,0,0,0,0,0,0,0,0
2021/09/26 15:11:00,19.1,30.7,27.6,10.0,47.2,52.0,0,0,0,0,0,0,0,0
2021/09/26 15:12:59,19.2,30.7,27.6,10.0,47.1,52.0,0,0,0,0,0,0,0,0
2021/09/26 15:14:53,19.2,30.6,27.6,10.0,47.1,52.0,0,0,0,0,0,0,0,0
2021/09/26 15:16:47,19.2,30.6,27.6,10.0,47.0,52.0,0,0,0,0,0,0,0,0
2021/09/26 15:19:42,19.2,30.6,27.6,10.0,46.9,52.0,0,0,0,0,0,0,0,0
2021/09/26 15:21:37,19.2,30.6,27.5,10.0,46.9,52.0,0,0,0,0,0,0,0,0
2021/09/26 15:23:32,19.2,30.5,27.5,10.0,46.8,52.0,0,0,0,0,0,0,0,0
2021/09/26 15:25:28,19.2,30.5,27.5,10.0,46.7,52.0,0,0,0,0,0,0,0,0
2021/09/26 15:27:21,19.2,30.5,27.5,10.0,46.6,52.0,0,0,0,0,0,0,0,0
2021/09/26 15:29:17,19.2,30.5,27.5,10.0,46.6,52.0,0,0,0,0,0,0,0,0
2021/09/26 15:31:15,19.2,30.4,27.5,10.0,46.5,52.0,0,0,0,0,0,0,0,0
2021/09/26 15:33:06,19.2,30.4,27.5,10.0,46.5,52.0,0,0,0,0,0,0,0,0
2021/09/26 15:35:03,19.2,30.4,27.4,10.0,46.6,52.0,0,0,0,0,0,0,0,0
2021/09/26 15:36:58,19.3,30.4,27.4,10.0,46.8,52.0,0,0,0,0,0,0,0,0
2021/09/26 15:38:54,19.3,30.3,27.4,10.0,47.0,52.0,0,0,0,0,0,0,0,0
2021/09/26 15:40:52,19.3,30.3,27.4,10.0,47.2,52.0,0,0,0,0,0,0,0,0
2021/09/26 15:42:49,19.3,30.3,27.4,10.0,47.4,52.0,0,0,0,0,0,0,0,0
2021/09/26 15:44:46,19.4,30.3,27.4,10.0,47.6,52.0,0,0,0,0,0,0,0,0
2021/09/26 15:47:42,19.4,30.2,27.4,10.0,47.8,52.0,0,0,0,0,0,0,0,0
2021/09/26 15:49:37,19.4,30.2,27.4,10.0,48.0,52.0,0,0,0,0,0,0,0,0
2021/09/26 15:51:34,19.4,30.2,27.3,10.0,48.2,52.0,0,0,0,0,0,0,0,0
2021/09/26 15:53:29,19.4,30.2,27.3,10.0,48.3,52.0,0,0,0,0,0,0,0,0
2021/09/26 15:55:27,19.4,30.1,27.3,10.0,48.5,52.0,0,0,0,0,0,0,0,0
2021/09/26 15:57:24,19.4,30.1,27.3,10.0,48.7,52.0,0,0,0,0,0,0,0,0
2021/09/26 15:59:18,19.4,30.1,27.3,10.0,49.0,52.0,0,0,0,0,0,0,0,0
2021/09/26 16:01:14,19.4,30.1,27.3,10.0,49.2,52.0,0,0,0,0,0,0,0,0
2021/09/26 16:03:10,19.4,30.1,27.3,10.0,49.3,52.0,0,0,0,0,0,0,0,0
2021/09/26 16:05:05,19.4,30.0,27.3,10.0,49.5,52.0,0,0,0,0,0,0,0,0
2021/09/26 16:07:01,19.4,30.0,27.2,10.0,49.7,52.0,0,0,0,0,0,0,0,0
2021/09/26 16:09:00,19.4,30.0,27.2,10.0,49.8,52.0,0,0,0,0,0,0,0,0
2021/09/26 16:10:54,19.4,30.0,27.2,10.0,50.0,52.0,0,0,0,0,0,0,0,0
2021/09/26 16:12:48,19.4,30.0,27.2,10.0,50.0,52.0,0,0,0,0,0,0,0,0
2021/09/26 16:14:43,19.4,29.9,27.2,10.0,50.0,52.0,0,0,0,0,0,0,0,0
2021/09/26 16:17:43,19.4,29.9,27.2,10.0,49.9,52.0,0,0,0,0,0,0,0,0
2021/09/26 16:19:34,19.4,29.9,27.2,10.0,49.8,52.0,0,0,0,0,0,0,0,0
2021/09/26 16:21:32,19.5,29.9,27.2,10.0,49.8,52.0,0,0,0,0,0,0,0,0
2021/09/26 16:23:27,19.5,29.9,27.1,10.0,49.7,52.0,0,0,0,0,0,0,0,0
2021/09/26 16:25:20,19.5,29.9,27.1,10.0,49.6,52.0,0,0,0,0,0,0,0,0
2021/09/26 16:27:16,19.6,29.8,27.1,10.0,49.5,52.0,0,0,0,0,0,0,0,0
2021/09/26 16:29:13,19.6,29.8,27.1,10.0,49.5,52.0,0,0,0,0,0,0,0,0
2021/09/26 16:31:09,19.6,29.8,27.1,10.0,49.5,52.0,0,0,0,0,0,0,0,0
2021/09/26 16:33:06,19.6,29.8,27.1,10.0,49.6,52.0,0,0,0,0,0,0,0,0
2021/09/26 16:35:01,19.6,29.8,27.1,10.0,49.6,52.0,0,0,0,0,0,0,0,0
2021/09/26 16:36:58,19.6,29.8,27.1,10.0,49.6,52.0,0,0,0,0,0,0,0,0
2021/09/26 16:38:55,19.6,29.7,27.1,10.0,49.5,52.0,0,0,0,0,0,0,0,0
2021/09/26 16:40:50,19.5,29.7,27.0,10.0,49.4,52.0,0,0,0,0,0,0,0,0
2021/09/26 16:42:44,19.5,29.7,27.0,10.0,49.4,52.0,0,0,0,0,0,0,0,0
2021/09/26 16:45:39,19.5,29.7,27.0,10.0,49.3,52.0,0,0,0,0,0,0,0,0
2021/09/26 16:47:33,19.5,29.7,27.0,10.0,49.2,52.0,0,0,0,0,0,0,0,0
2021/09/26 16:49:29,19.4,29.7,27.0,10.0,49.2,52.0,0,0,0,0,0,0,0,0
2021/09/26 16:51:24,19.4,29.6,27.0,10.0,49.2,52.0,0,0,0,0,0,0,0,0
2021/09/26 16:53:21,19.4,29.6,27.0,10.0,49.2,52.0,0,0,0,0,0,0,0,0
2021/09/26 16:55:15,19.4,29.6,27.0,10.0,49.2,52.0,0,0,0,0,0,0,0,0
2021/09/26 16:57:09,19.4,29.6,27.0,10.0,49.2,52.0,0,0,0,0,0,0,0,0
2021/09/26 16:59:04,19.3,29.6,26.9,10.0,49.2,52.0,0,0,0,0,0,0,0,0
2021/09/26 17:01:00,19.3,29.5,26.9,10.0,49.1,52.0,0,0,0,0,0,0,0,0
2021/09/26 17:02:59,19.3,29.5,26.9,10.0,49.1,52.0,0,0,0,0,0,0,0,0
2021/09/26 17:04:55,19.3,29.5,26.9,10.0,49.0,52.0,0,0,0,0,0,0,0,0
2021/09/26 17:06:55,19.2,29.5,26.9,10.0,48.9,52.0,0,0,0,0,0,0,0,0
2021/09/26 17:08:50,19.2,29.5,26.9,10.0,48.9,52.0,0,0,0,0,0,0,0,0
2021/09/26 17:11:41,19.2,29.5,26.9,10.0,48.8,52.0,0,0,0,0,0,0,0,0
2021/09/26 17:13:38,19.2,29.5,26.9,10.0,48.7,52.0,0,0,0,0,0,0,0,0
2021/09/26 17:15:31,19.2,29.4,26.9,10.0,48.7,52.0,0,0,0,0,0,0,0,0
2021/09/26 17:17:30,19.2,29.4,26.9,10.0,48.6,52.0,0,0,0,0,0,0,0,0
2021/09/26 17:19:27,19.2,29.4,26.8,10.0,48.5,52.0,0,0,0,0,0,0,0,0
2021/09/26 17:21:21,19.2,29.4,26.8,10.0,48.5,52.0,0,0,0,0,0,0,0,0
2021/09/26 17:23:17,19.2,29.4,26.8,10.0,48.4,52.0,0,0,0,0,0,0,0,0
2021/09/26 17:25:15,19.2,29.4,26.8,10.0,48.3,52.0,0,0,0,0,0,0,0,0
2021/09/26 17:27:12,19.2,29.3,26.8,10.0,48.3,52.0,0,0,0,0,0,0,0,0
2021/09/26 17:29:08,19.2,29.3,26.8,10.0,48.2,52.0,0,0,0,0,0,0,0,0
2021/09/26 17:31:01,19.2,29.3,26.8,10.0,48.1,52.0,0,0,0,0,0,0,0,0
2021/09/26 17:33:00,19.2,29.3,26.8,10.0,48.1,52.0,0,0,0,0,0,0,0,0
2021/09/26 17:34:55,19.2,29.3,26.8,10.0,48.0,52.0,0,0,0,0,0,0,0,0
2021/09/26 17:36:50,19.2,29.3,26.8,10.0,48.0,52.0,0,0,0,0,0,0,0,0
2021/09/26 17:38:45,19.2,29.3,26.8,10.0,47.9,52.0,0,0,0,0,0,0,0,0
2021/09/26 17:41:42,19.2,29.2,26.7,10.0,47.8,52.0,0,0,0,0,0,0,0,0
2021/09/26 17:43:38,19.2,29.2,26.7,10.0,47.8,52.0,0,0,0,0,0,0,0,0
2021/09/26 17:45:37,19.2,29.2,26.7,10.0,47.7,52.0,0,0,0,0,0,0,0,0
2021/09/26 17:47:29,19.1,29.2,26.7,10.0,47.7,52.0,0,0,0,0,0,0,0,0
2021/09/26 17:49:24,19.1,29.2,26.7,10.0,47.6,52.0,0,0,0,0,0,0,0,0
2021/09/26 17:51:19,19.1,29.2,26.7,10.0,47.5,52.0,0,0,0,0,0,0,0,0
2021/09/26 17:53:14,19.1,29.2,26.7,10.0,47.5,52.0,0,0,0,0,0,0,0,0
2021/09/26 17:55:12,19.0,29.2,26.7,10.0,47.4,52.0,0,0,0,0,0,0,0,0
2021/09/26 17:57:05,19.0,29.1,26.7,10.0,47.3,52.0,0,0,0,0,0,0,0,0
2021/09/26 17:59:03,19.0,29.1,26.7,10.0,47.3,52.0,0,0,0,0,0,0,0,0
2021/09/26 18:00:58,18.9,29.1,26.7,10.0,47.2,52.0,0,0,0,0,0,0,0,0
2021/09/26 18:02:53,18.9,29.1,26.7,10.0,47.2,52.0,0,0,0,0,0,0,0,0
2021/09/26 18:04:47,18.9,29.1,26.6,10.0,47.1,52.0,0,0,0,0,0,0,0,0
2021/09/26 18:07:42,18.8,29.1,26.6,10.0,47.0,52.0,0,0,0,0,0,0,0,0
2021/09/26 18:09:39,18.8,29.1,26.6,10.0,47.0,52.0,0,0,0,0,0,0,0,0
2021/09/26 18:11:31,18.8,29.0,26.6,10.0,46.9,52.0,0,0,0,0,0,0,0,0
2021/09/26 18:13:24,18.7,29.0,26.6,10.0,46.9,52.0,0,0,0,0,0,0,0,0
2021/09/26 18:15:19,18.6,29.0,26.6,10.0,46.8,52.0,0,0,0,0,0,0,0,0
2021/09/26 18:17:16,18.6,29.0,26.6,10.0,46.8,52.0,0,0,0,0,0,0,0,0
2021/09/26 18:19:11,18.5,29.0,26.6,10.0,46.7,52.0,0,0,0,0,0,0,0,0
2021/09/26 18:21:06,18.4,29.0,26.6,10.0,46.6,52.0,0,0,0,0,0,0,0,0
2021/09/26 18:23:01,18.4,29.0,26.6,10.0,46.6,52.0,0,0,0,0,0,0,0,0
2021/09/26 18:24:57,18.3,28.9,26.6,10.0,46.5,52.0,0,0,0,0,0,0,0,0
2021/09/26 18:26:53,18.3,28.9,26.6,10.0,46.5,52.0,0,0,0,0,0,0,0,0
2021/09/26 18:28:48,18.2,28.9,26.5,10.0,46.4,52.0,0,0,0,0,0,0,0,0
2021/09/26 18:31:43,18.2,28.9,26.5,10.0,46.4,52.0,0,0,0,0,0,0,0,0
2021/09/26 18:33:38,18.1,28.9,26.5,10.0,46.3,52.0,0,0,0,0,0,0,0,0
2021/09/26 18:35:34,18.1,28.9,26.5,10.0,46.2,52.0,0,0,0,0,0,0,0,0
2021/09/26 18:37:28,18.0,28.9,26.5,10.0,46.2,52.0,0,0,0,0,0,0,0,0
2021/09/26 18:39:22,18.0,28.8,26.5,10.0,46.1,52.0,0,0,0,0,0,0,0,0
2021/09/26 18:41:18,17.9,28.8,26.5,10.0,46.1,52.0,0,0,0,0,0,0,0,0
2021/09/26 18:43:12,17.9,28.8,26.5,10.0,46.0,52.0,0,0,0,0,0,0,0,0
2021/09/26 18:45:02,17.8,28.8,26.5,10.0,45.9,52.0,0,0,0,0,0,0,0,0
2021/09/26 18:47:00,17.7,28.8,26.5,10.0,45.9,52.0,0,0,0,0,0,0,0,0
2021/09/26 18:48:55,17.6,28.8,26.5,10.0,45.8,52.0,0,0,0,0,0,0,0,0
2021/09/26 18:50:52,17.5,28.8,26.5,10.0,45.8,52.0,0,0,0,0,0,0,0,0
2021/09/26 18:52:47,17.5,28.8,26.5,10.0,45.7,52.0,0,0,0,0,0,0,0,0
2021/09/26 18:54:45,17.4,28.7,26.4,10.0,45.7,52.0,0,0,0,0,0,0,0,0
2021/09/26 18:57:40,17.3,28.7,26.4,10.0,45.6,52.0,0,0,0,0,0,0,0,0
2021/09/26 18:59:38,17.2,28.7,26.4,10.0,45.5,52.0,0,0,0,0,0,0,0,0
2021/09/26 19:01:35,17.2,28.7,26.4,10.0,45.5,52.0,0,0,0,0,0,0,0,0
2021/09/26 19:03:33,17.1,28.7,26.4,10.0,45.4,52.0,0,0,0,0,0,0,0,0
2021/09/26 19:05:30,17.0,28.7,26.4,10.0,45.4,52.0,0,0,0,0,0,0,0,0
2021/09/26 19:07:23,17.0,28.7,26.4,10.0,45.3,52.0,0,0,0,0,0,0,0,0
2021/09/26 19:09:16,16.9,28.7,26.4,10.0,45.3,52.0,0,0,0,0,0,0,0,0
2021/09/26 19:11:13,16.8,28.6,26.4,10.0,45.2,52.0,0,0,0,0,0,0,0,0
2021/09/26 19:13:07,16.7,28.6,26.4,10.0,45.1,52.0,0,0,0,0,0,0,0,0
2021/09/26 19:15:04,16.7,28.6,26.4,10.0,45.1,52.0,0,0,0,0,0,0,0,0
2021/09/26 19:16:59,16.6,28.6,26.4,10.0,45.0,52.0,0,0,0,0,0,0,0,0
2021/09/26 19:18:57,16.5,28.6,26.4,10.0,45.0,52.0,0,0,0,0,0,0,0,0
2021/09/26 19:20:54,16.5,28.6,26.4,10.0,44.9,52.0,0,0,0,0,0,0,0,0
2021/09/26 19:22:45,16.4,28.6,26.3,10.0,44.9,52.0,0,0,0,0,0,0,0,0
2021/09/26 19:25:43,16.3,28.6,26.3,10.0,44.8,52.0,0,0,0,0,0,0,0,0
2021/09/26 19:27:39,16.3,28.5,26.3,10.0,44.8,52.0,0,0,0,0,0,0,0,0
2021/09/26 19:29:32,16.2,28.5,26.3,10.0,44.8,52.0,0,0,0,0,0,0,0,0
2021/09/26 19:31:29,16.2,28.5,26.3,10.0,44.7,52.0,0,0,0,0,0,0,0,0
2021/09/26 19:33:25,16.1,28.5,26.3,10.0,44.7,52.0,0,0,0,0,0,0,0,0
2021/09/26 19:35:19,16.1,28.5,26.3,10.0,44.6,52.0,0,0,0,0,0,0,0,0
2021/09/26 19:37:14,16.0,28.5,26.3,10.0,44.6,52.0,0,0,0,0,0,0,0,0
2021/09/26 19:39:06,16.0,28.5,26.3,10.0,44.5,52.0,0,0,0,0,0,0,0,0
2021/09/26 19:41:04,15.9,28.5,26.3,10.0,44.5,52.0,0,0,0,0,0,0,0,0
2021/09/26 19:43:00,15.9,28.5,26.3,10.0,44.4,52.0,0,0,0,0,0,0,0,0
2021/09/26 19:44:55,15.8,28.4,26.3,10.0,44.4,52.0,0,0,0,0,0,0,0,0
2021/09/26 19:46:50,15.8,28.4,26.3,10.0,44.3,52.0,0,0,0,0,0,0,0,0
2021/09/26 19:48:46,15.7,28.4,26.3,10.0,44.3,52.0,0,0,0,0,0,0,0,0
2021/09/26 19:50:43,15.7,28.4,26.3,10.0,44.2,52.0,0,0,0,0,0,0,0,0
2021/09/26 19:53:38,15.7,28.4,26.2,10.0,44.2,52.0,0,0,0,0,0,0,0,0
2021/09/26 19:55:34,15.7,28.4,26.2,10.0,44.1,52.0,0,0,0,0,0,0,0,0
2021/09/26 19:57:29,15.7,28.4,26.2,10.0,44.1,52.0,0,0,0,0,0,0,0,0
2021/09/26 19:59:24,15.6,28.8,29.2,10.0,44.0,52.0,0,0,1,0,0,1,1,0
2021/09/26 20:01:23,15.6,40.2,37.7,10.0,43.8,52.0,0,1,1,0,0,1,1,0
2021/09/26 20:03:19,15.6,44.6,41.1,10.0,43.7,52.0,0,1,1,0,0,1,1,0
2021/09/26 20:05:19,15.6,46.6,42.9,10.0,43.8,52.0,0,1,1,0,0,1,1,0
2021/09/26 20:07:15,15.6,47.7,43.8,10.0,44.1,52.0,0,1,1,0,0,1,1,0
2021/09/26 20:09:12,15.6,48.6,44.4,10.0,44.6,52.0,0,1,1,0,0,1,1,0
2021/09/26 20:11:07,15.6,49.3,44.9,10.0,45.0,52.0,0,1,1,0,0,1,1,0
2021/09/26 20:13:03,15.6,49.8,45.5,10.0,45.6,52.0,0,1,1,0,0,1,1,0
2021/09/26 20:15:00,15.6,50.5,46.0,10.0,46.2,52.0,0,1,1,0,0,1,1,0
2021/09/26 20:16:53,15.6,51.1,46.5,10.0,46.9,52.0,0,1,1,0,0,1,1,0
2021/09/26 20:18:49,15.5,51.9,47.1,10.0,47.5,52.0,0,1,1,0,0,1,1,0
2021/09/26 20:20:45,15.5,52.4,47.6,10.0,48.0,52.0,0,1,1,0,0,1,1,0
2021/09/26 20:23:41,15.5,52.9,48.0,10.0,48.5,52.0,0,1,1,0,0,1,1,0
2021/09/26 20:25:36,15.5,53.3,48.5,10.0,49.0,52.0,0,1,1,0,0,1,1,0
2021/09/26 20:27:33,15.5,53.8,48.9,10.0,49.5,52.0,0,1,1,0,0,1,1,0
2021/09/26 20:29:28,15.5,54.2,49.3,10.0,50.1,52.0,0,1,1,0,0,1,1,0
2021/09/26 20:31:24,15.5,54.6,49.6,10.0,50.7,52.0,0,1,1,0,0,1,1,0
2021/09/26 20:33:21,15.5,55.0,50.0,10.0,51.2,52.0,0,1,1,0,0,1,1,0
2021/09/26 20:35:19,15.5,55.4,50.4,10.0,51.7,52.0,0,1,1,0,0,1,1,0
2021/09/26 20:37:15,15.5,53.3,50.7,10.0,52.3,52.0,0,0,0,0,0,0,1,0
2021/09/26 20:39:11,15.5,39.4,37.3,10.0,52.6,52.0,0,0,0,0,0,0,0,0
2021/09/26 20:41:10,15.5,38.9,36.1,10.0,52.7,52.0,0,0,0,0,0,0,0,0
2021/09/26 20:43:06,15.5,38.4,35.7,10.0,52.7,52.0,0,0,0,0,0,0,0,0
2021/09/26 20:45:04,15.5,38.0,35.3,10.0,52.6,52.0,0,0,0,0,0,0,0,0
2021/09/26 20:46:57,15.5,37.6,35.0,10.0,52.5,52.0,0,0,0,0,0,0,0,0
2021/09/26 20:48:53,15.5,37.3,34.7,10.0,52.4,52.0,0,0,0,0,0,0,0,0
2021/09/26 20:50:49,15.5,37.1,34.5,10.0,52.3,52.0,0,0,0,0,0,0,0,0
2021/09/26 20:52:44,15.5,36.9,34.3,10.0,52.2,52.0,0,0,0,0,0,0,0,0
2021/09/26 20:55:37,15.5,36.8,34.1,10.0,52.1,52.0,0,0,0,0,0,0,0,0
2021/09/26 20:57:30,15.5,36.6,33.9,10.0,52.1,52.0,0,0,0,0,0,0,0,0
2021/09/26 20:59:27,15.5,36.5,33.8,10.0,52.0,52.0,0,0,0,0,0,0,0,0
2021/09/26 21:01:21,15.5,36.4,33.7,10.0,51.9,52.0,0,0,0,0,0,0,0,0
2021/09/26 21:03:19,15.5,36.3,33.6,10.0,51.8,52.0,0,0,0,0,0,0,0,0
2021/09/26 21:05:15,15.5,36.2,33.5,10.0,51.8,52.0,0,0,0,0,0,0,0,0
2021/09/26 21:07:09,15.5,36.1,33.4,10.0,51.7,52.0,0,0,0,0,0,0,0,0
2021/09/26 21:09:04,15.5,36.0,33.3,10.0,51.6,52.0,0,0,0,0,0,0,0,0
2021/09/26 21:11:03,15.4,35.9,33.1,10.0,51.5,52.0,0,0,0,0,0,0,0,0
2021/09/26 21:12:58,15.4,35.8,33.0,10.0,51.5,52.0,0,0,0,0,0,0,0,0
2021/09/26 21:14:50,15.4,35.7,33.0,10.0,51.4,52.0,0,0,0,0,0,0,0,0
2021/09/26 21:17:43,15.4,35.6,32.9,10.0,51.3,52.0,0,0,0,0,0,0,0,0
2021/09/26 21:19:39,15.3,35.6,32.8,10.0,51.2,52.0,0,0,0,0,0,0,0,0
2021/09/26 21:21:35,15.3,35.5,32.7,10.0,51.2,52.0,0,0,0,0,0,0,0,0
2021/09/26 21:23:32,15.3,35.4,32.6,10.0,51.1,52.0,0,0,0,0,0,0,0,0
2021/09/26 21:25:28,15.2,35.3,32.5,10.0,51.0,52.0,0,0,0,0,0,0,0,0
2021/09/26 21:27:25,15.2,35.3,32.4,10.0,50.9,52.0,0,0,0,0,0,0,0,0
2021/09/26 21:29:21,15.2,35.2,32.3,10.0,50.9,52.0,0,0,0,0,0,0,0,0
2021/09/26 21:31:18,15.2,35.1,32.2,10.0,50.8,52.0,0,0,0,0,0,0,0,0
2021/09/26 21:33:16,15.2,35.1,32.2,10.0,50.7,52.0,0,0,0,0,0,0,0,0
2021/09/26 21:35:11,15.1,35.0,32.1,10.0,50.6,52.0,0,0,0,0,0,0,0,0
2021/09/26 21:37:09,15.1,35.0,32.0,10.0,50.6,52.0,0,0,0,0,0,0,0,0
2021/09/26 21:39:05,15.1,34.9,31.9,10.0,50.5,52.0,0,0,0,0,0,0,0,0
2021/09/26 21:41:01,15.0,34.9,31.9,10.0,50.4,52.0,0,0,0,0,0,0,0,0
2021/09/26 21:42:58,15.0,34.9,31.8,10.0,50.3,52.0,0,0,0,0,0,0,0,0
2021/09/26 21:44:53,14.9,34.8,31.7,10.0,50.3,52.0,0,0,0,0,0,0,0,0
2021/09/26 21:46:49,14.9,34.8,31.6,10.0,50.2,52.0,0,0,0,0,0,0,0,0
2021/09/26 21:48:45,14.9,34.8,31.6,10.0,50.1,52.0,0,0,0,0,0,0,0,0
2021/09/26 21:51:40,14.8,34.7,31.5,10.0,50.0,52.0,0,0,0,0,0,0,0,0
2021/09/26 21:53:35,14.8,34.7,31.4,10.0,50.0,52.0,0,0,0,0,0,0,0,0
2021/09/26 21:55:26,14.7,34.6,31.4,10.0,49.9,52.0,0,0,0,0,0,0,0,0
2021/09/26 21:57:21,14.7,34.6,31.3,10.0,49.8,52.0,0,0,0,0,0,0,0,0
2021/09/26 21:59:17,14.6,34.6,31.2,10.0,49.8,52.0,0,0,0,0,0,0,0,0
2021/09/26 22:01:13,14.6,34.5,31.2,10.0,49.7,10.0,0,0,0,0,0,0,0,0
2021/09/26 22:03:04,14.5,34.5,31.1,10.0,49.7,10.0,0,0,0,0,0,0,0,0
2021/09/26 22:05:01,14.5,34.5,31.0,10.0,49.7,10.0,0,0,0,0,0,0,0,0
2021/09/26 22:06:54,14.5,34.4,31.0,10.0,49.7,10.0,0,0,0,0,0,0,0,0
2021/09/26 22:08:54,14.4,34.4,30.9,10.0,49.7,10.0,0,0,0,0,0,0,0,0
2021/09/26 22:10:50,14.4,34.4,30.9,10.0,49.7,10.0,0,0,0,0,0,0,0,0
2021/09/26 22:12:46,14.4,34.3,30.8,10.0,49.7,10.0,0,0,0,0,0,0,0,0
2021/09/26 22:15:41,14.3,34.3,30.7,10.0,49.7,10.0,0,0,0,0,0,0,0,0
2021/09/26 22:17:37,14.3,34.3,30.7,10.0,49.7,10.0,0,0,0,0,0,0,0,0
2021/09/26 22:19:34,14.3,34.2,30.6,10.0,49.7,10.0,0,0,0,0,0,0,0,0
2021/09/26 22:21:28,14.2,34.2,30.6,10.0,49.7,10.0,0,0,0,0,0,0,0,0
2021/09/26 22:23:25,14.2,34.1,30.5,10.0,49.7,10.0,0,0,0,0,0,0,0,0
2021/09/26 22:25:21,14.1,34.1,30.4,10.0,49.7,10.0,0,0,0,0,0,0,0,0
2021/09/26 22:27:18,14.1,34.1,30.4,10.0,49.7,10.0,0,0,0,0,0,0,0,0
2021/09/26 22:29:13,14.1,34.0,30.3,10.0,49.7,10.0,0,0,0,0,0,0,0,0
2021/09/26 22:31:08,14.1,34.0,30.3,10.0,49.6,10.0,0,0,0,0,0,0,0,0
2021/09/26 22:33:05,14.0,34.0,30.2,10.0,49.6,10.0,0,0,0,0,0,0,0,0
2021/09/26 22:35:02,14.0,33.9,30.2,10.0,49.6,10.0,0,0,0,0,0,0,0,0
2021/09/26 22:37:00,14.0,33.9,30.1,10.0,49.6,10.0,0,0,0,0,0,0,0,0
2021/09/26 22:38:54,13.9,33.8,30.0,10.0,49.6,10.0,0,0,0,0,0,0,0,0
2021/09/26 22:40:49,13.9,33.8,30.0,10.0,49.6,10.0,0,0,0,0,0,0,0,0
2021/09/26 22:43:42,13.9,33.8,30.0,10.0,49.6,10.0,0,0,0,0,0,0,0,0
2021/09/26 22:45:39,13.9,33.7,29.9,10.0,49.6,10.0,0,0,0,0,0,0,0,0
2021/09/26 22:47:33,13.9,33.7,29.9,10.0,49.6,10.0,0,0,0,0,0,0,0,0
2021/09/26 22:49:28,13.9,33.6,29.8,10.0,49.6,10.0,0,0,0,0,0,0,0,0
2021/09/26 22:51:24,13.9,33.6,29.8,10.0,49.6,10.0,0,0,0,0,0,0,0,0
2021/09/26 22:53:21,14.0,33.6,29.8,10.0,49.6,10.0,0,0,0,0,0,0,0,0
2021/09/26 22:55:14,14.0,33.5,29.7,10.0,49.5,10.0,0,0,0,0,0,0,0,0
2021/09/26 22:57:09,14.0,33.5,29.7,10.0,49.5,10.0,0,0,0,0,0,0,0,0
2021/09/26 22:59:04,14.1,33.4,29.6,10.0,49.5,10.0,0,0,0,0,0,0,0,0
2021/09/26 23:01:01,14.1,33.4,29.6,10.0,49.5,10.0,0,0,0,0,0,0,0,0
2021/09/26 23:02:58,14.1,33.4,29.6,10.0,49.5,10.0,0,0,0,0,0,0,0,0
2021/09/26 23:04:53,14.2,33.3,29.5,10.0,49.5,10.0,0,0,0,0,0,0,0,0
2021/09/26 23:06:48,14.2,33.3,29.5,10.0,49.5,10.0,0,0,0,0,0,0,0,0
2021/09/26 23:08:45,14.2,33.2,29.4,10.0,49.5,10.0,0,0,0,0,0,0,0,0
2021/09/26 23:11:39,14.2,33.2,29.4,10.0,49.5,10.0,0,0,0,0,0,0,0,0
2021/09/26 23:13:34,14.3,33.2,29.4,10.0,49.5,10.0,0,0,0,0,0,0,0,0
2021/09/26 23:15:28,14.3,33.1,29.3,10.0,49.4,10.0,0,0,0,0,0,0,0,0
2021/09/26 23:17:28,14.3,33.1,29.3,10.0,49.4,10.0,0,0,0,0,0,0,0,0
2021/09/26 23:19:23,14.3,33.1,29.3,10.0,49.4,10.0,0,0,0,0,0,0,0,0
2021/09/26 23:21:17,14.3,33.0,29.2,10.0,49.4,10.0,0,0,0,0,0,0,0,0
2021/09/26 23:23:12,14.3,33.0,29.2,10.0,49.4,10.0,0,0,0,0,0,0,0,0
2021/09/26 23:25:07,14.3,32.9,29.2,10.0,49.4,10.0,0,0,0,0,0,0,0,0
2021/09/26 23:27:04,14.3,32.9,29.1,10.0,49.4,10.0,0,0,0,0,0,0,0,0
2021/09/26 23:29:00,14.3,32.9,29.1,10.0,49.4,10.0,0,0,0,0,0,0,0,0
2021/09/26 23:31:00,14.3,32.8,29.1,10.0,49.3,10.0,0,0,0,0,0,0,0,0
2021/09/26 23:32:53,14.3,32.8,29.0,10.0,49.3,10.0,0,0,0,0,0,0,0,0
2021/09/26 23:34:48,14.3,32.8,29.0,10.0,49.3,10.0,0,0,0,0,0,0,0,0
2021/09/26 23:37:43,14.3,32.7,29.0,10.0,49.3,10.0,0,0,0,0,0,0,0,0
2021/09/26 23:39:35,14.3,32.7,28.9,10.0,49.3,10.0,0,0,0,0,0,0,0,0
2021/09/26 23:41:33,14.3,32.6,28.9,10.0,49.3,10.0,0,0,0,0,0,0,0,0
2021/09/26 23:43:29,14.3,32.6,28.9,10.0,49.3,10.0,0,0,0,0,0,0,0,0
2021/09/26 23:45:25,14.3,32.6,28.8,10.0,49.3,10.0,0,0,0,0,0,0,0,0
2021/09/26 23:47:18,14.3,32.5,28.8,10.0,49.2,10.0,0,0,0,0,0,0,0,0
2021/09/26 23:49:13,14.3,32.5,28.8,10.0,49.2,10.0,0,0,0,0,0,0,0,0
2021/09/26 23:51:07,14.3,32.4,28.7,10.0,49.2,10.0,0,0,0,0,0,0,0,0
2021/09/26 23:53:00,14.3,32.4,28.7,10.0,49.2,10.0,0,0,0,0,0,0,0,0
2021/09/26 23:54:58,14.3,32.4,28.7,10.0,49.2,10.0,0,0,0,0,0,0,0,0
2021/09/26 23:56:53,14.2,32.3,28.7,10.0,49.2,10.0,0,0,0,0,0,0,0,0
2021/09/26 23:58:47,14.2,32.3,28.6,10.0,49.2,10.0,0,0,0,0,0,0,0,0
