Type,Analog,Analog,Analog,Analog,Analog,Analog,Digital,Digital,Digital,Digital,Digital,Digital,Digital,Digital,Integer,Integer
Index,1,5,2,53,3,58,41,42,43,44,45,46,49,50,95,98
Name,R1,R9,R2,R2 Solltemperatur,R3,R3 Solltemperatur,M1,M3,M2/M11,E10,M13,M18,M16,E9,Waermemenge Heizen,Waermemenge Warmwasser
Description,Variable 1,Variable 2,Variable 3,Variable 4,Variable 5,Variable 6,Variable 7,Variable 8,Variable 9,Variable 10,Variable 11,Variable 12,Variable 13,Variable 14,Variable 15,Variable 16
2023/01/28 00:00:15,-0.9,38.1,34.1,34.3,43.8,40.0,0,0,0,0,1,0,0,0,2584,1804
2023/01/28 00:02:14,-0.9,38.0,33.8,34.3,43.8,40.0,0,0,0,0,1,0,0,0,2584,1804
2023/01/28 00:04:13,-0.9,37.9,33.6,34.3,43.8,40.0,0,0,0,0,1,0,0,0,2584,1804
2023/01/28 00:06:13,-0.9,37.9,33.3,34.3,43.8,40.0,0,0,0,0,1,0,0,0,2584,1804
2023/01/28 00:08:11,-0.9,37.8,33.1,34.3,43.8,40.0,0,0,0,0,1,0,0,0,2584,1804
2023/01/28 00:10:10,-0.9,37.8,32.9,34.3,43.7,40.0,0,0,0,0,1,0,0,0,2584,1804
2023/01/28 00:12:08,-0.9,37.7,32.6,34.3,43.7,40.0,0,0,0,0,1,0,0,0,2584,1804
2023/01/28 00:14:07,-0.9,37.7,32.4,34.3,43.7,40.0,0,0,0,0,1,0,0,0,2584,1804
2023/01/28 00:16:05,-0.9,37.6,32.1,34.3,43.7,40.0,0,0,0,0,1,0,0,0,2584,1804
2023/01/28 00:18:05,-0.9,37.5,31.9,34.3,43.7,40.0,0,0,0,0,1,0,0,0,2584,1804
2023/01/28 00:20:04,-0.9,37.4,31.7,34.3,43.7,40.0,0,0,0,0,1,0,0,0,2584,1804
2023/01/28 00:22:03,-0.9,37.4,31.5,34.3,43.7,40.0,0,0,0,0,1,0,0,0,2584,1804
2023/01/28 00:24:02,-0.9,37.3,31.3,34.3,43.6,40.0,0,0,0,0,1,0,0,0,2584,1804
2023/01/28 00:26:01,-0.9,37.2,31.0,34.3,43.6,40.0,0,0,0,0,1,0,0,0,2584,1804
2023/01/28 00:28:00,-0.9,37.1,30.8,34.3,43.6,40.0,0,0,0,0,1,0,0,0,2584,1804
2023/01/28 00:29:58,-0.9,37.0,30.6,34.3,43.6,40.0,0,0,0,0,1,0,0,0,2584,1804
2023/01/28 00:31:56,-0.9,37.0,30.4,34.3,43.6,40.0,0,0,0,0,1,0,0,0,2584,1804
2023/01/28 00:33:54,-0.9,36.9,30.3,34.3,43.6,40.0,0,0,0,0,1,0,0,0,2584,1804
2023/01/28 00:35:53,-0.9,36.8,30.1,34.3,43.6,40.0,0,0,0,0,1,0,0,0,2584,1804
2023/01/28 00:37:51,-0.9,36.7,29.9,34.3,43.5,40.0,0,0,0,0,1,0,0,0,2584,1804
2023/01/28 00:39:50,-0.9,36.6,29.8,34.3,43.5,40.0,0,0,0,0,1,0,0,0,2584,1804
2023/01/28 00:41:49,-0.9,36.5,29.6,34.3,43.5,40.0,0,0,0,0,1,0,0,0,2584,1804
2023/01/28 00:43:46,-0.9,36.4,29.5,34.3,43.5,40.0,0,0,0,0,1,0,0,0,2584,1804
2023/01/28 00:45:45,-0.9,36.3,29.4,34.3,43.5,40.0,0,0,0,0,1,0,0,0,2584,1804
2023/01/28 00:47:44,-0.9,36.2,29.2,34.3,43.5,40.0,0,0,0,0,1,0,0,0,2584,1804
2023/01/28 00:49:43,-0.9,36.1,29.1,34.3,43.5,40.0,0,0,0,0,1,0,0,0,2584,1804
2023/01/28 00:51:42,-0.9,36.1,29.0,34.3,43.4,40.0,0,0,0,0,1,0,0,0,2584,1804
2023/01/28 00:53:41,-0.9,36.0,28.9,34.3,43.4,40.0,0,0,0,0,1,0,0,0,2584,1804
2023/01/28 00:55:39,-0.9,35.9,28.7,34.3,43.4,40.0,0,0,0,0,1,0,0,0,2584,1804
2023/01/28 00:57:38,-0.9,35.8,28.6,34.3,43.4,40.0,0,0,0,0,1,0,0,0,2584,1804
2023/01/28 00:59:36,-0.9,35.7,28.5,34.3,43.4,40.0,0,0,0,0,1,0,0,0,2584,1804
2023/01/28 01:01:36,-0.9,35.6,28.4,34.3,43.4,40.0,0,0,0,0,1,0,0,0,2584,1804
2023/01/28 01:03:35,-0.9,35.5,28.3,34.3,43.3,40.0,0,0,0,0,1,0,0,0,2584,1804
2023/01/28 01:05:33,-0.9,35.4,28.2,34.3,43.3,40.0,0,0,0,0,1,0,0,0,2584,1804
2023/01/28 01:07:32,-0.9,35.3,28.1,34.3,43.3,40.0,0,0,0,0,1,0,0,0,2584,1804
2023/01/28 01:09:31,-0.9,35.2,28.0,34.3,43.3,40.0,0,0,0,0,1,0,0,0,2584,1804
2023/01/28 01:11:30,-0.9,35.1,27.9,34.3,43.3,40.0,0,0,0,0,1,0,0,0,2584,1804
2023/01/28 01:14:29,-0.9,35.0,27.8,34.3,43.3,40.0,0,0,0,0,1,0,0,0,2584,1804
2023/01/28 01:16:28,-0.9,34.9,27.7,34.3,43.2,40.0,0,0,0,0,1,0,0,0,2584,1804
2023/01/28 01:18:28,-0.9,34.9,27.6,34.3,43.2,40.0,0,0,0,0,1,0,0,0,2584,1804
2023/01/28 01:20:27,-0.9,34.8,27.5,34.3,43.2,40.0,0,0,0,0,1,0,0,0,2584,1804
2023/01/28 01:22:26,-0.9,34.7,27.4,34.3,43.2,40.0,0,0,0,0,1,0,0,0,2584,1804
2023/01/28 01:24:24,-0.9,34.6,27.3,34.3,43.2,40.0,0,0,0,0,1,0,0,0,2584,1804
2023/01/28 01:26:24,-0.9,34.6,27.3,34.3,43.2,40.0,0,0,0,0,1,0,0,0,2584,1804
2023/01/28 01:28:22,-0.9,34.5,27.2,34.3,43.1,40.0,0,0,0,0,1,0,0,0,2584,1804
2023/01/28 01:30:20,-0.9,34.4,27.1,34.3,43.1,40.0,0,0,0,0,1,0,0,0,2584,1804
2023/01/28 01:32:19,-0.9,34.3,27.0,34.3,43.1,40.0,0,0,0,0,1,0,0,0,2584,1804
2023/01/28 01:34:18,-0.9,34.3,26.9,34.3,43.1,40.0,0,0,0,0,1,0,0,0,2584,1804
2023/01/28 01:36:16,-0.9,34.2,26.8,34.3,43.1,40.0,0,0,0,0,1,0,0,0,2584,1804
2023/01/28 01:38:16,-0.9,34.1,26.8,34.3,43.0,40.0,0,0,0,0,1,0,0,0,2584,1804
2023/01/28 01:40:14,-0.9,34.0,26.7,34.3,43.0,40.0,0,0,0,0,1,0,0,0,2584,1804
2023/01/28 01:42:13,-0.9,34.0,26.6,34.3,43.0,40.0,0,0,0,0,1,0,0,0,2584,1804
2023/01/28 01:44:11,-0.9,33.9,26.5,34.3,43.0,40.0,0,0,0,0,1,0,0,0,2584,1804
2023/01/28 01:46:10,-0.9,33.8,26.5,34.3,43.0,40.0,0,0,0,0,1,0,0,0,2584,1804
2023/01/28 01:48:08,-0.9,33.7,26.4,34.3,42.9,40.0,0,0,0,0,1,0,0,0,2584,1804
2023/01/28 01:50:07,-0.9,33.7,26.3,34.3,42.9,40.0,0,0,0,0,1,0,0,0,2584,1804
2023/01/28 01:52:06,-0.9,33.6,26.2,34.3,42.9,40.0,0,0,0,0,1,0,0,0,2584,1804
2023/01/28 01:54:05,-0.9,33.5,26.2,34.3,42.9,40.0,0,0,0,0,1,0,0,0,2584,1804
2023/01/28 01:56:04,-0.9,33.4,26.1,34.3,42.9,40.0,0,0,0,0,1,0,0,0,2584,1804
2023/01/28 01:58:02,-0.9,33.4,26.0,34.3,42.8,40.0,0,0,0,0,1,0,0,0,2584,1804
2023/01/28 02:00:01,-0.9,33.3,26.0,34.3,42.8,40.0,0,0,0,0,1,0,0,0,2584,1804
2023/01/28 02:02:00,-0.9,33.2,25.9,34.3,42.8,40.0,0,0,0,0,1,0,0,0,2584,1804
2023/01/28 02:03:59,-0.9,33.2,25.8,34.3,42.8,40.0,0,0,0,0,1,0,0,0,2584,1804
2023/01/28 02:05:58,-0.9,33.1,25.8,34.3,42.8,40.0,0,0,0,0,1,0,0,0,2584,1804
2023/01/28 02:07:56,-0.9,33.0,25.7,34.3,42.7,40.0,0,0,0,0,1,0,0,0,2584,1804
2023/01/28 02:09:55,-0.9,32.9,25.6,34.3,42.7,40.0,0,0,0,0,1,0,0,0,2584,1804
2023/01/28 02:11:54,-0.9,31.7,29.3,34.3,42.7,40.0,0,0,0,0,1,0,1,0,2584,1804
2023/01/28 02:13:53,-0.9,31.8,29.5,34.3,42.7,40.0,0,1,1,0,1,0,1,0,2584,1804
2023/01/28 02:15:52,-0.9,34.0,30.2,34.3,42.7,40.0,0,1,1,0,1,0,1,0,2585,1804
2023/01/28 02:17:51,-0.9,34.2,30.2,34.3,42.6,40.0,0,1,1,0,1,0,1,0,2586,1804
2023/01/28 02:19:50,-0.9,34.3,30.1,34.3,42.6,40.0,0,1,1,0,1,0,1,0,2587,1804
2023/01/28 02:21:49,-0.9,34.7,30.5,34.3,42.6,40.0,0,1,1,0,1,0,1,0,2588,1804
2023/01/28 02:23:48,-0.9,35.0,30.8,34.3,42.6,40.0,0,1,1,0,1,0,1,0,2588,1804
2023/01/28 02:25:47,-0.9,35.3,31.0,34.3,42.6,40.0,0,1,1,0,1,0,1,0,2589,1804
2023/01/28 02:27:46,-0.9,35.6,31.3,34.3,42.6,40.0,0,1,1,0,1,0,1,0,2590,1804
2023/01/28 02:29:46,-0.9,35.9,31.6,34.3,42.5,40.0,0,1,1,0,1,0,1,0,2591,1804
2023/01/28 02:31:43,-0.9,36.3,31.9,34.3,42.5,40.0,0,1,1,0,1,0,1,0,2591,1804
2023/01/28 02:33:43,-0.9,36.8,32.2,34.3,42.5,40.0,1,1,1,0,1,0,1,0,2592,1804
2023/01/28 02:35:41,-0.9,38.5,32.7,34.3,42.5,40.0,1,1,1,0,1,0,1,0,2594,1804
2023/01/28 02:37:40,-0.9,39.2,33.2,34.3,42.4,40.0,1,1,1,0,1,0,1,0,2595,1804
2023/01/28 02:39:39,-0.9,39.8,33.7,34.3,42.4,40.0,1,1,1,0,1,0,1,0,2596,1804
2023/01/28 02:41:38,-0.9,40.3,34.1,34.3,42.4,40.0,1,1,1,0,1,0,1,0,2598,1804
2023/01/28 02:43:37,-1.0,40.9,34.6,34.8,42.4,40.0,1,1,1,0,1,0,1,0,2599,1804
2023/01/28 02:45:36,-1.0,41.5,35.2,34.8,42.4,40.0,1,1,1,0,1,0,1,0,2600,1804
2023/01/28 02:47:35,-1.0,42.1,35.8,34.8,42.3,40.0,1,1,1,0,1,0,1,0,2602,1804
2023/01/28 02:49:34,-1.0,42.7,36.4,34.8,42.3,40.0,1,1,1,0,1,0,1,0,2603,1804
2023/01/28 02:51:33,-1.0,42.1,37.0,34.8,42.3,40.0,1,0,1,0,1,0,1,0,2604,1804
2023/01/28 02:53:32,-1.0,42.1,37.3,34.8,42.3,40.0,1,0,1,0,1,0,1,0,2605,1804
2023/01/28 02:55:31,-1.0,42.5,37.8,34.8,42.3,40.0,1,0,1,0,1,0,1,0,2606,1804
2023/01/28 02:57:29,-1.0,42.7,38.1,34.8,42.2,40.0,1,0,1,0,1,0,1,0,2606,1804
2023/01/28 03:00:29,-1.0,43.0,38.4,34.8,42.2,40.0,1,0,1,0,1,0,1,0,2607,1804
2023/01/28 03:02:27,-1.0,43.2,38.6,34.8,42.2,40.0,1,0,1,0,1,0,1,0,2608,1804
2023/01/28 03:04:26,-1.0,43.5,38.9,34.8,42.2,40.0,1,0,1,0,1,0,1,0,2609,1804
2023/01/28 03:06:24,-1.0,43.7,39.1,34.8,42.2,40.0,1,0,1,0,1,0,1,0,2609,1804
2023/01/28 03:08:22,-1.0,41.3,39.6,34.8,42.1,40.0,0,0,0,0,1,0,1,0,2609,1804
2023/01/28 03:10:21,-1.0,41.4,39.4,34.8,42.1,40.0,0,0,0,0,1,0,0,0,2609,1804
2023/01/28 03:12:19,-1.0,40.7,38.7,34.8,42.1,40.0,0,0,0,0,1,0,0,0,2609,1804
2023/01/28 03:14:19,-1.0,40.2,38.3,34.8,42.1,40.0,0,0,0,0,1,0,0,0,2609,1804
2023/01/28 03:16:18,-1.0,39.9,38.0,34.8,42.1,40.0,0,0,0,0,1,0,0,0,2609,1804
2023/01/28 03:18:16,-1.0,39.6,37.7,34.8,42.0,40.0,0,0,0,0,1,0,0,0,2609,1804
2023/01/28 03:20:15,-1.0,39.4,37.4,34.8,42.0,40.0,0,0,0,0,1,0,0,0,2609,1804
2023/01/28 03:22:14,-1.0,39.3,37.2,34.8,42.0,40.0,0,0,0,0,1,0,0,0,2609,1804
2023/01/28 03:24:13,-1.0,39.2,36.9,34.8,42.0,40.0,0,0,0,0,1,0,0,0,2609,1804
2023/01/28 03:26:11,-1.0,39.0,36.6,34.8,42.0,40.0,0,0,0,0,1,0,0,0,2609,1804
2023/01/28 03:28:10,-1.0,38.9,36.4,34.8,41.9,40.0,0,0,0,0,1,0,0,0,2609,1804
2023/01/28 03:30:09,-1.0,38.8,36.1,34.8,41.9,40.0,0,0,0,0,1,0,0,0,2609,1804
2023/01/28 03:32:08,-1.0,38.7,35.8,34.8,41.9,40.0,0,0,0,0,1,0,0,0,2609,1804
2023/01/28 03:34:06,-1.0,38.7,35.5,34.8,41.9,40.0,0,0,0,0,1,0,0,0,2609,1804
2023/01/28 03:36:05,-1.0,38.6,35.2,34.8,41.9,40.0,0,0,0,0,1,0,0,0,2609,1804
2023/01/28 03:38:05,-1.0,38.6,35.0,34.8,41.8,40.0,0,0,0,0,1,0,0,0,2609,1804
2023/01/28 03:40:04,-1.0,38.5,34.7,34.8,41.8,40.0,0,0,0,0,1,0,0,0,2609,1804
2023/01/28 03:42:03,-1.0,38.4,34.5,34.8,41.8,40.0,0,0,0,0,1,0,0,0,2609,1804
2023/01/28 03:44:02,-1.0,38.4,34.2,34.8,41.8,40.0,0,0,0,0,1,0,0,0,2609,1804
2023/01/28 03:46:00,-1.0,38.3,33.9,34.8,41.8,40.0,0,0,0,0,1,0,0,0,2609,1804
2023/01/28 03:48:00,-1.0,38.3,33.7,34.8,41.7,40.0,0,0,0,0,1,0,0,0,2609,1804
2023/01/28 03:49:59,-1.0,38.2,33.4,34.8,41.7,40.0,0,0,0,0,1,0,0,0,2609,1804
2023/01/28 03:51:58,-1.0,38.2,33.2,34.8,41.7,40.0,0,0,0,0,1,0,0,0,2609,1804
2023/01/28 03:53:58,-1.0,38.1,32.9,34.8,41.7,40.0,0,0,0,0,1,0,0,0,2609,1804
2023/01/28 03:55:57,-1.0,38.0,32.7,34.8,41.7,40.0,0,0,0,0,1,0,0,0,2609,1804
2023/01/28 03:57:56,-1.0,38.0,32.4,34.8,41.6,40.0,0,0,0,0,1,0,0,0,2609,1804
2023/01/28 03:59:54,-1.0,37.9,32.2,34.8,41.6,40.0,0,0,0,0,1,0,0,0,2609,1804
2023/01/28 04:01:54,-1.0,37.8,31.9,34.8,41.6,40.0,0,0,0,0,1,0,0,0,2609,1804
2023/01/28 04:03:52,-1.0,37.7,31.7,34.8,41.6,40.0,0,0,0,0,1,0,0,0,2609,1804
2023/01/28 04:05:51,-1.0,37.7,31.5,34.8,41.6,40.0,0,0,0,0,1,0,0,0,2609,1804
2023/01/28 04:07:50,-1.0,37.6,31.2,34.8,41.6,40.0,0,0,0,0,1,0,0,0,2609,1804
2023/01/28 04:09:50,-1.0,37.5,31.0,34.8,41.5,40.0,0,0,0,0,1,0,0,0,2609,1804
2023/01/28 04:11:48,-1.0,37.4,30.8,34.8,41.5,40.0,0,0,0,0,1,0,0,0,2609,1804
2023/01/28 04:13:47,-1.0,37.3,30.6,34.8,41.5,40.0,0,0,0,0,1,0,0,0,2609,1804
2023/01/28 04:15:45,-1.0,37.2,30.4,34.8,41.5,40.0,0,0,0,0,1,0,0,0,2609,1804
2023/01/28 04:17:44,-1.0,37.2,30.2,34.8,41.5,40.0,0,0,0,0,1,0,0,0,2609,1804
2023/01/28 04:19:43,-1.0,37.1,30.0,34.8,41.4,40.0,0,0,0,0,1,0,0,0,2609,1804
2023/01/28 04:21:39,-1.0,37.0,29.8,34.8,41.4,40.0,0,0,0,0,1,0,0,0,2609,1804
2023/01/28 04:23:38,-1.0,36.9,29.7,34.8,41.4,40.0,0,0,0,0,1,0,0,0,2609,1804
2023/01/28 04:25:37,-1.0,36.8,29.5,34.8,41.4,40.0,0,0,0,0,1,0,0,0,2609,1804
2023/01/28 04:27:37,-1.0,36.7,29.4,34.8,41.4,40.0,0,0,0,0,1,0,0,0,2609,1804
2023/01/28 04:29:36,-1.0,36.6,29.2,34.8,41.3,40.0,0,0,0,0,1,0,0,0,2609,1804
2023/01/28 04:31:35,-1.0,36.5,29.1,34.8,41.3,40.0,0,0,0,0,1,0,0,0,2609,1804
2023/01/28 04:33:34,-1.0,36.4,29.0,34.8,41.3,40.0,0,0,0,0,1,0,0,0,2609,1804
2023/01/28 04:35:33,-1.0,36.3,28.8,34.8,41.3,40.0,0,0,0,0,1,0,0,0,2609,1804
2023/01/28 04:37:32,-1.0,36.2,28.7,34.8,41.3,40.0,0,0,0,0,1,0,0,0,2609,1804
2023/01/28 04:39:30,-1.0,36.1,28.6,34.8,41.2,40.0,0,0,0,0,1,0,0,0,2609,1804
2023/01/28 04:42:28,-1.0,36.0,28.5,34.8,41.2,40.0,0,0,0,0,1,0,0,0,2609,1804
2023/01/28 04:44:27,-1.0,35.9,28.4,34.8,41.2,40.0,0,0,0,0,1,0,0,0,2609,1804
2023/01/28 04:46:26,-1.0,35.8,28.3,34.8,41.2,40.0,0,0,0,0,1,0,0,0,2609,1804
2023/01/28 04:48:25,-0.9,35.7,28.2,34.8,41.2,40.0,0,0,0,0,1,0,0,0,2609,1804
2023/01/28 04:50:25,-0.9,35.7,28.0,34.3,41.1,40.0,0,0,0,0,1,0,0,0,2609,1804
2023/01/28 04:52:24,-0.9,35.6,27.9,34.3,41.1,40.0,0,0,0,0,1,0,0,0,2609,1804
2023/01/28 04:54:23,-0.9,35.4,27.8,34.3,41.1,40.0,0,0,0,0,1,0,0,0,2609,1804
2023/01/28 04:56:21,-0.9,35.3,27.7,34.3,41.1,40.0,0,0,0,0,1,0,0,0,2609,1804
2023/01/28 04:58:19,-0.9,35.2,27.6,34.3,41.1,40.0,0,0,0,0,1,0,0,0,2609,1804
2023/01/28 05:00:17,-0.9,35.2,27.5,34.3,41.1,40.0,0,0,0,0,1,0,0,0,2609,1804
2023/01/28 05:02:15,-0.9,35.1,27.5,34.3,41.0,40.0,0,0,0,0,1,0,0,0,2609,1804
2023/01/28 05:04:15,-0.9,35.0,27.4,34.3,41.0,40.0,0,0,0,0,1,0,0,0,2609,1804
2023/01/28 05:06:13,-0.9,34.9,27.3,34.3,41.0,40.0,0,0,0,0,1,0,0,0,2609,1804
2023/01/28 05:08:11,-0.9,34.8,27.2,34.3,41.0,40.0,0,0,0,0,1,0,0,0,2609,1804
2023/01/28 05:10:10,-0.9,34.8,27.1,34.3,41.0,40.0,0,0,0,0,1,0,0,0,2609,1804
2023/01/28 05:12:09,-0.9,34.7,27.0,34.3,40.9,40.0,0,0,0,0,1,0,0,0,2609,1804
2023/01/28 05:14:08,-0.9,34.6,26.9,34.3,40.9,40.0,0,0,0,0,1,0,0,0,2609,1804
2023/01/28 05:16:07,-0.9,34.1,30.0,34.3,40.9,52.0,0,0,1,0,0,1,1,0,2609,1804
2023/01/28 05:18:06,-0.8,33.6,30.1,34.3,40.7,52.0,0,1,1,0,0,1,1,0,2609,1805
2023/01/28 05:20:05,-0.8,37.6,33.7,34.3,40.0,52.0,0,1,1,0,0,1,1,0,2609,1806
2023/01/28 05:22:04,-0.8,39.1,35.2,34.3,39.7,52.0,0,1,1,0,0,1,1,0,2609,1806
2023/01/28 05:24:04,-0.8,40.5,36.5,34.3,39.7,52.0,0,1,1,0,0,1,1,0,2609,1807
2023/01/28 05:26:03,-0.8,41.6,37.4,34.3,40.0,52.0,0,1,1,0,0,1,1,0,2609,1808
2023/01/28 05:28:01,-0.8,42.5,38.2,34.3,40.5,52.0,0,1,1,0,0,1,1,0,2609,1809
2023/01/28 05:30:01,-0.8,43.2,38.9,34.3,41.0,52.0,0,1,1,0,0,1,1,0,2609,1809
2023/01/28 05:32:00,-0.8,43.7,39.2,34.3,41.1,52.0,0,1,1,0,0,1,1,0,2609,1810
2023/01/28 05:33:59,-0.8,44.0,39.6,34.3,41.1,52.0,0,1,1,0,0,1,1,0,2609,1811
2023/01/28 05:35:58,-0.8,44.5,40.0,34.3,41.1,52.0,0,1,1,0,0,1,1,0,2609,1812
2023/01/28 05:37:57,-0.8,47.3,41.1,34.3,41.4,52.0,1,1,1,0,0,1,1,0,2609,1813
2023/01/28 05:39:56,-0.8,49.5,42.9,34.3,41.9,52.0,1,1,1,0,0,1,1,0,2609,1814
2023/01/28 05:41:55,-0.8,50.8,44.0,34.3,42.7,52.0,1,1,1,0,0,1,1,0,2609,1815
2023/01/28 05:43:54,-0.8,52.1,44.9,34.3,43.5,52.0,1,1,1,0,0,1,1,0,2609,1817
2023/01/28 05:45:54,-0.8,53.0,45.8,34.3,44.4,52.0,1,1,1,0,0,1,1,0,2609,1818
2023/01/28 05:47:52,-0.8,53.8,46.7,34.3,45.2,52.0,1,1,1,0,0,1,1,0,2609,1819
2023/01/28 05:49:52,-0.8,54.6,47.5,34.3,46.2,52.0,1,1,1,0,0,1,1,0,2609,1820
2023/01/28 05:51:51,-0.8,55.4,48.2,34.3,47.2,52.0,1,1,1,0,0,1,1,0,2609,1822
2023/01/28 05:53:49,-0.8,56.3,49.1,34.3,48.1,52.0,1,1,1,0,0,1,1,0,2609,1823
2023/01/28 05:55:47,-0.8,57.2,49.8,34.3,49.0,52.0,1,1,1,0,0,1,1,0,2609,1824
2023/01/28 05:57:46,-0.8,58.0,50.7,34.3,49.9,52.0,1,1,1,0,0,1,1,0,2609,1825
2023/01/28 05:59:45,-0.8,58.8,51.7,34.3,50.8,52.0,1,1,1,0,0,1,1,0,2609,1826
2023/01/28 06:01:43,-0.8,59.6,52.5,34.3,51.8,52.0,1,1,1,0,0,1,1,0,2609,1828
2023/01/28 06:03:43,-0.8,43.8,35.4,34.3,52.6,52.0,1,0,1,0,1,0,1,0,2609,1828
2023/01/28 06:05:41,-0.8,36.5,31.0,34.3,53.0,52.0,1,0,1,0,1,0,1,0,2610,1828
2023/01/28 06:07:40,-0.8,34.5,29.6,34.3,53.1,52.0,1,0,1,0,1,0,1,0,2611,1828
2023/01/28 06:09:39,-0.8,33.6,29.0,34.3,53.1,52.0,1,0,1,0,1,0,1,0,2612,1828
2023/01/28 06:11:38,-0.8,33.9,29.5,34.3,52.9,52.0,1,0,1,0,1,0,1,0,2612,1828
2023/01/28 06:13:37,-0.8,33.7,29.4,34.3,52.7,52.0,1,0,1,0,1,0,1,0,2613,1828
2023/01/28 06:15:35,-0.9,33.7,29.5,34.3,52.6,52.0,1,0,1,0,1,0,1,0,2614,1828
2023/01/28 06:17:34,-0.9,33.7,29.6,34.3,52.4,52.0,1,0,1,0,1,0,1,0,2615,1828
2023/01/28 06:19:33,-0.9,33.7,29.7,34.3,52.3,52.0,1,0,1,0,1,0,1,0,2616,1828
2023/01/28 06:21:32,-0.9,33.7,29.7,34.3,52.2,52.0,1,0,1,0,1,0,1,0,2616,1828
2023/01/28 06:23:32,-0.9,33.7,29.7,34.3,52.1,52.0,1,0,1,0,1,0,1,0,2617,1828
2023/01/28 06:25:31,-0.9,33.8,29.7,34.3,52.0,52.0,1,0,1,0,1,0,1,0,2618,1828
2023/01/28 06:27:30,-0.9,33.8,29.8,34.3,52.0,52.0,1,0,1,0,1,0,1,0,2619,1828
2023/01/28 06:30:29,-0.9,33.9,29.9,34.3,51.9,52.0,1,1,1,0,1,0,1,0,2619,1828
2023/01/28 06:32:28,-0.9,35.6,29.9,34.3,51.8,52.0,1,1,1,0,1,0,1,0,2621,1828
2023/01/28 06:34:27,-0.9,35.9,29.8,34.3,51.7,52.0,1,1,1,0,1,0,1,0,2622,1828
2023/01/28 06:36:27,-0.9,36.1,30.0,34.3,51.7,52.0,1,1,1,0,1,0,1,0,2623,1828
2023/01/28 06:38:26,-0.9,36.4,30.2,34.3,51.6,52.0,1,1,1,0,1,0,1,0,2625,1828
2023/01/28 06:40:24,-0.9,36.8,30.5,34.3,51.5,52.0,1,1,1,0,1,0,1,0,2626,1828
2023/01/28 06:42:23,-0.9,37.2,30.9,34.3,51.4,52.0,1,1,1,0,1,0,1,0,2628,1828
2023/01/28 06:44:22,-0.9,37.3,31.1,34.3,51.3,52.0,1,1,1,0,1,0,1,0,2629,1828
2023/01/28 06:46:21,-0.9,37.6,31.4,34.3,51.2,52.0,1,1,1,0,1,0,1,0,2630,1828
2023/01/28 06:48:20,-0.9,38.0,31.9,34.3,51.2,52.0,1,1,1,0,1,0,1,0,2632,1828
2023/01/28 06:50:20,-0.9,38.5,32.2,34.3,51.1,52.0,1,1,1,0,1,0,1,0,2633,1828
2023/01/28 06:52:19,-0.9,38.8,32.6,34.3,51.0,52.0,1,1,1,0,1,0,1,0,2634,1828
2023/01/28 06:54:18,-0.9,39.1,32.9,34.3,50.9,52.0,1,1,1,0,1,0,1,0,2636,1828
2023/01/28 06:56:17,-0.9,39.6,33.4,34.3,50.9,52.0,1,1,1,0,1,0,1,0,2637,1828
2023/01/28 06:58:16,-0.9,39.9,33.6,34.3,50.8,52.0,1,1,1,0,1,0,1,0,2638,1828
2023/01/28 07:00:14,-0.9,40.2,34.0,34.3,50.7,52.0,1,1,1,0,1,0,1,0,2640,1828
2023/01/28 07:02:14,-0.9,40.6,34.3,34.3,50.6,52.0,1,1,1,0,1,0,1,0,2641,1828
2023/01/28 07:04:13,-0.9,41.0,34.6,34.3,50.5,52.0,1,1,1,0,1,0,1,0,2642,1828
2023/01/28 07:06:11,-0.9,41.2,34.9,34.3,50.4,52.0,1,1,1,0,1,0,1,0,2644,1828
2023/01/28 07:08:10,-0.9,41.7,35.4,34.3,50.3,52.0,1,1,1,0,1,0,1,0,2645,1828
2023/01/28 07:10:09,-0.9,41.8,35.5,34.3,50.2,52.0,1,1,1,0,1,0,1,0,2646,1828
2023/01/28 07:12:08,-0.9,42.4,36.0,34.3,50.2,52.0,1,1,1,0,1,0,1,0,2647,1828
2023/01/28 07:14:06,-0.9,42.5,36.2,34.3,50.1,52.0,1,1,1,0,1,0,1,0,2649,1828
2023/01/28 07:16:05,-0.9,41.2,36.4,34.3,50.0,52.0,0,1,1,0,1,0,1,0,2650,1828
2023/01/28 07:18:04,-0.9,41.4,36.6,34.3,49.9,52.0,0,1,1,0,1,0,1,0,2650,1828
2023/01/28 07:20:03,-0.9,41.4,36.7,34.3,49.9,52.0,0,1,1,0,1,0,1,0,2651,1828
2023/01/28 07:22:02,-0.9,41.5,36.8,34.3,49.8,52.0,0,1,1,0,1,0,1,0,2652,1828
2023/01/28 07:24:02,-0.9,41.5,36.9,34.3,49.7,52.0,0,1,1,0,1,0,1,0,2652,1828
2023/01/28 07:26:01,-0.9,41.7,37.0,34.3,49.7,52.0,0,1,1,0,1,0,1,0,2653,1828
2023/01/28 07:28:00,-0.9,41.7,37.0,34.3,49.6,52.0,0,1,1,0,1,0,1,0,2654,1828
2023/01/28 07:29:58,-0.9,39.4,37.0,34.3,49.6,52.0,0,0,1,0,1,0,1,0,2654,1828
2023/01/28 07:31:57,-0.9,39.2,37.4,34.3,49.5,52.0,0,0,0,0,1,0,1,0,2654,1828
2023/01/28 07:33:56,-0.9,38.7,36.7,34.3,49.4,52.0,0,0,0,0,1,0,0,0,2654,1828
2023/01/28 07:35:55,-0.9,38.2,36.2,34.3,49.4,52.0,0,0,0,0,1,0,0,0,2654,1828
2023/01/28 07:37:54,-0.9,37.9,35.8,34.3,49.3,52.0,0,0,0,0,1,0,0,0,2654,1828
2023/01/28 07:39:52,-0.9,37.6,35.5,34.3,49.2,52.0,0,0,0,0,1,0,0,0,2654,1828
2023/01/28 07:41:50,-0.9,37.4,35.2,34.3,49.2,52.0,0,0,0,0,1,0,0,0,2654,1828
2023/01/28 07:43:50,-0.9,37.2,34.9,34.3,49.1,52.0,0,0,0,0,1,0,0,0,2654,1828
2023/01/28 07:45:49,-0.9,37.0,34.6,34.3,49.1,52.0,0,0,0,0,1,0,0,0,2654,1828
2023/01/28 07:47:48,-0.9,36.9,34.3,34.3,49.0,52.0,0,0,0,0,1,0,0,0,2654,1828
2023/01/28 07:49:45,-0.9,36.8,34.0,34.3,49.0,52.0,0,0,0,0,1,0,0,0,2654,1828
2023/01/28 07:51:45,-0.9,36.7,33.7,34.3,48.9,52.0,0,0,0,0,1,0,0,0,2654,1828
2023/01/28 07:53:44,-0.9,36.6,33.4,34.3,48.8,52.0,0,0,0,0,1,0,0,0,2654,1828
2023/01/28 07:55:44,-0.9,36.5,33.1,34.3,48.8,52.0,0,0,0,0,1,0,0,0,2654,1828
2023/01/28 07:57:42,-0.9,36.4,32.8,34.3,48.7,52.0,0,0,0,0,1,0,0,0,2654,1828
2023/01/28 07:59:42,-0.9,36.3,32.5,34.3,48.7,52.0,0,0,0,0,1,0,0,0,2654,1828
2023/01/28 08:01:42,-0.9,36.2,32.2,34.3,48.6,52.0,0,0,0,0,1,0,0,0,2654,1828
2023/01/28 08:03:41,-0.9,36.2,31.9,34.3,48.5,52.0,0,0,0,0,1,0,0,0,2654,1828
2023/01/28 08:05:40,-0.9,36.1,31.7,34.3,48.5,52.0,0,0,0,0,1,0,0,0,2654,1828
2023/01/28 08:07:39,-0.9,36.0,31.5,34.3,48.4,52.0,0,0,0,0,1,0,0,0,2654,1828
2023/01/28 08:09:38,-0.9,36.0,31.2,34.3,48.4,52.0,0,0,0,0,1,0,0,0,2654,1828
2023/01/28 08:11:36,-0.9,35.9,31.0,34.3,48.3,52.0,0,0,0,0,1,0,0,0,2654,1828
2023/01/28 08:13:35,-0.9,35.9,30.8,34.3,48.3,52.0,0,0,0,0,1,0,0,0,2654,1828
2023/01/28 08:15:34,-0.9,35.8,30.6,34.3,48.2,52.0,0,0,0,0,1,0,0,0,2654,1828
2023/01/28 08:17:33,-0.9,35.8,30.4,34.3,48.2,52.0,0,0,0,0,1,0,0,0,2654,1828
2023/01/28 08:19:32,-0.9,35.7,30.2,34.3,48.1,52.0,0,0,0,0,1,0,0,0,2654,1828
2023/01/28 08:21:31,-0.9,35.6,30.0,34.3,48.0,52.0,0,0,0,0,1,0,0,0,2654,1828
2023/01/28 08:24:29,-0.9,35.6,29.8,34.3,48.0,52.0,0,0,0,0,1,0,0,0,2654,1828
2023/01/28 08:26:28,-0.9,35.5,29.7,34.3,47.9,52.0,0,0,0,0,1,0,0,0,2654,1828
2023/01/28 08:28:26,-0.9,35.4,29.5,34.3,47.9,52.0,0,0,0,0,1,0,0,0,2654,1828
2023/01/28 08:30:25,-0.9,35.4,29.3,34.3,47.8,52.0,0,0,0,0,1,0,0,0,2654,1828
2023/01/28 08:32:21,-0.9,35.3,29.2,34.3,47.7,52.0,0,0,0,0,1,0,0,0,2654,1828
2023/01/28 08:34:20,-0.9,30.6,29.2,34.3,47.7,52.0,0,0,1,0,1,0,1,0,2654,1828
2023/01/28 08:36:19,-0.8,32.3,29.0,34.3,47.6,52.0,1,0,1,0,1,0,1,0,2655,1828
2023/01/28 08:38:17,-0.8,32.4,28.8,34.3,47.6,52.0,1,0,1,0,1,0,1,0,2656,1828
2023/01/28 08:40:16,-0.8,32.5,28.9,34.3,47.5,52.0,1,0,1,0,1,0,1,0,2657,1828
2023/01/28 08:42:16,-0.8,33.0,29.1,34.3,47.5,52.0,1,0,1,0,1,0,1,0,2657,1828
2023/01/28 08:44:15,-0.8,33.0,29.1,34.3,47.4,52.0,1,0,1,0,1,0,1,0,2658,1828
2023/01/28 08:46:14,-0.8,33.1,29.2,34.3,47.4,52.0,1,0,1,0,1,0,1,0,2659,1828
2023/01/28 08:48:12,-0.8,33.2,29.3,34.3,47.3,52.0,1,0,1,0,1,0,1,0,2660,1828
2023/01/28 08:50:11,-0.8,33.2,29.3,34.3,47.2,52.0,1,0,1,0,1,0,1,0,2661,1828
2023/01/28 08:52:09,-0.8,33.3,29.3,34.3,47.2,52.0,1,0,1,0,1,0,1,0,2661,1828
2023/01/28 08:54:08,-0.8,33.5,29.6,34.3,47.1,52.0,1,0,1,0,1,0,1,0,2662,1828
2023/01/28 08:56:06,-0.8,35.2,29.6,34.3,47.1,52.0,1,1,1,0,1,0,1,0,2663,1828
2023/01/28 08:58:06,-0.8,35.5,29.6,34.3,47.0,52.0,1,1,1,0,1,0,1,0,2665,1828
2023/01/28 09:00:06,-0.8,35.8,29.7,34.3,47.0,52.0,1,1,1,0,1,0,1,0,2666,1828
2023/01/28 09:02:04,-0.8,36.3,30.1,34.3,46.9,52.0,1,1,1,0,1,0,1,0,2667,1828
2023/01/28 09:04:03,-0.8,36.5,30.3,34.3,46.9,52.0,1,1,1,0,1,0,1,0,2669,1828
2023/01/28 09:06:03,-0.8,36.9,30.7,34.3,46.8,52.0,1,1,1,0,1,0,1,0,2670,1828
2023/01/28 09:08:02,-0.8,37.3,31.0,34.3,46.7,52.0,1,1,1,0,1,0,1,0,2672,1828
2023/01/28 09:10:02,-0.7,37.6,31.3,34.3,46.7,52.0,1,1,1,0,1,0,1,0,2673,1828
2023/01/28 09:12:00,-0.7,37.9,31.7,34.3,46.6,52.0,1,1,1,0,1,0,1,0,2674,1828
2023/01/28 09:13:59,-0.7,38.2,31.9,34.3,46.6,52.0,1,1,1,0,1,0,1,0,2676,1828
2023/01/28 09:15:57,-0.7,38.7,32.5,34.3,46.5,52.0,1,1,1,0,1,0,1,0,2677,1828
2023/01/28 09:17:57,-0.7,39.1,32.9,34.3,46.5,52.0,1,1,1,0,1,0,1,0,2678,1828
2023/01/28 09:19:55,-0.7,39.4,33.2,34.3,46.4,52.0,1,1,1,0,1,0,1,0,2680,1828
2023/01/28 09:21:54,-0.7,39.8,33.7,34.3,46.3,52.0,1,1,1,0,1,0,1,0,2681,1828
2023/01/28 09:23:53,-0.7,40.2,34.0,34.3,46.3,52.0,1,1,1,0,1,0,1,0,2682,1828
2023/01/28 09:25:52,-0.7,40.6,34.4,34.3,46.2,52.0,1,1,1,0,1,0,1,0,2684,1828
2023/01/28 09:27:50,-0.7,40.9,34.6,34.3,46.2,52.0,1,1,1,0,1,0,1,0,2685,1828
2023/01/28 09:29:49,-0.7,41.4,35.0,34.3,46.1,52.0,1,1,1,0,1,0,1,0,2686,1828
2023/01/28 09:31:48,-0.7,41.7,35.4,34.3,46.1,52.0,1,1,1,0,1,0,1,0,2688,1828
2023/01/28 09:33:47,-0.7,42.1,35.7,34.3,46.0,52.0,1,1,1,0,1,0,1,0,2689,1828
2023/01/28 09:35:47,-0.7,42.4,36.0,34.3,46.0,52.0,1,1,1,0,1,0,1,0,2690,1828
2023/01/28 09:37:46,-0.7,41.3,36.3,34.3,45.9,52.0,0,1,1,0,1,0,1,0,2691,1828
2023/01/28 09:39:44,-0.7,41.2,36.4,34.3,45.8,52.0,0,1,1,0,1,0,1,0,2692,1828
2023/01/28 09:41:43,-0.7,41.2,36.5,34.3,45.7,52.0,0,1,1,0,1,0,1,0,2693,1828
2023/01/28 09:43:43,-0.7,41.2,36.6,34.3,45.6,52.0,0,1,1,0,1,0,1,0,2693,1828
2023/01/28 09:45:42,-0.7,41.3,36.6,34.3,45.6,52.0,0,1,1,0,1,0,1,0,2694,1828
2023/01/28 09:47:41,-0.7,41.3,36.8,34.3,45.5,52.0,0,1,1,0,1,0,1,0,2695,1828
2023/01/28 09:49:40,-0.7,41.3,36.7,34.3,45.5,52.0,0,1,1,0,1,0,1,0,2696,1828
2023/01/28 09:51:39,-0.7,41.3,36.7,34.3,45.4,52.0,0,1,1,0,1,0,1,0,2696,1828
2023/01/28 09:53:39,-0.7,41.3,36.7,34.3,45.3,52.0,0,1,1,0,1,0,1,0,2697,1828
2023/01/28 09:55:38,-0.6,38.6,36.6,34.3,45.3,52.0,0,0,0,0,1,0,1,0,2697,1828
2023/01/28 09:57:37,-0.6,38.7,36.7,34.3,45.2,52.0,0,0,0,0,1,0,0,0,2697,1828
2023/01/28 09:59:36,-0.6,38.0,35.8,34.3,45.2,52.0,0,0,0,0,1,0,0,0,2697,1828
2023/01/28 10:01:35,-0.6,37.6,35.4,34.3,45.1,52.0,0,0,0,0,1,0,0,0,2697,1828
2023/01/28 10:03:34,-0.6,37.3,35.0,34.3,45.1,52.0,0,0,0,0,1,0,0,0,2697,1828
2023/01/28 10:05:32,-0.6,37.0,34.8,34.3,45.0,52.0,0,0,0,0,1,0,0,0,2697,1828
2023/01/28 10:07:31,-0.6,36.8,34.5,34.3,45.0,52.0,0,0,0,0,1,0,0,0,2697,1828
2023/01/28 10:09:30,-0.6,36.6,34.3,34.3,44.9,52.0,0,0,0,0,1,0,0,0,2697,1828
2023/01/28 10:12:30,-0.6,36.5,34.0,34.3,44.9,52.0,0,0,0,0,1,0,0,0,2697,1828
2023/01/28 10:14:29,-0.6,36.3,33.6,34.3,44.8,52.0,0,0,0,0,1,0,0,0,2697,1828
2023/01/28 10:16:27,-0.6,36.2,33.3,34.3,44.8,52.0,0,0,0,0,1,0,0,0,2697,1828
2023/01/28 10:18:23,-0.6,36.1,32.9,34.3,44.7,52.0,0,0,0,0,1,0,0,0,2697,1828
2023/01/28 10:20:22,-0.6,36.0,32.6,34.3,44.7,52.0,0,0,0,0,1,0,0,0,2697,1828
2023/01/28 10:22:20,-0.6,35.9,32.3,34.3,44.6,52.0,0,0,0,0,1,0,0,0,2697,1828
2023/01/28 10:24:18,-0.6,35.8,31.9,34.3,44.6,52.0,0,0,0,0,1,0,0,0,2697,1828
2023/01/28 10:26:17,-0.6,35.7,31.6,34.3,44.5,52.0,0,0,0,0,1,0,0,0,2697,1828
2023/01/28 10:28:15,-0.6,35.6,31.4,34.3,44.5,52.0,0,0,0,0,1,0,0,0,2697,1828
2023/01/28 10:30:15,-0.6,35.6,31.1,34.3,44.4,52.0,0,0,0,0,1,0,0,0,2697,1828
2023/01/28 10:32:13,-0.6,35.5,30.8,34.3,44.4,52.0,0,0,0,0,1,0,0,0,2697,1828
2023/01/28 10:34:12,-0.6,35.4,30.6,34.3,44.3,52.0,0,0,0,0,1,0,0,0,2697,1828
2023/01/28 10:36:10,-0.6,35.3,30.3,34.3,44.3,52.0,0,0,0,0,1,0,0,0,2697,1828
2023/01/28 10:38:10,-0.5,35.3,30.1,34.3,44.2,52.0,0,0,0,0,1,0,0,0,2697,1828
2023/01/28 10:40:09,-0.5,35.2,29.9,34.3,44.2,52.0,0,0,0,0,1,0,0,0,2697,1828
2023/01/28 10:42:07,-0.5,35.2,29.7,34.3,44.1,52.0,0,0,0,0,1,0,0,0,2697,1828
2023/01/28 10:44:06,-0.5,35.1,29.5,34.3,44.1,52.0,0,0,0,0,1,0,0,0,2697,1828
2023/01/28 10:46:05,-0.5,30.4,28.7,34.3,44.0,52.0,1,0,1,0,0,1,1,0,2697,1828
2023/01/28 10:48:04,-0.5,37.6,33.8,34.3,43.2,52.0,1,0,1,0,0,1,1,0,2697,1829
2023/01/28 10:50:03,-0.5,39.2,35.6,34.3,42.6,52.0,1,0,1,0,0,1,1,0,2697,1830
2023/01/28 10:52:03,-0.5,40.7,36.8,34.3,42.2,52.0,1,0,1,0,0,1,1,0,2697,1830
2023/01/28 10:54:02,-0.4,41.6,37.4,34.3,42.1,52.0,1,0,1,0,0,1,1,0,2697,1831
2023/01/28 10:56:00,-0.4,42.2,38.0,34.3,42.2,52.0,1,0,1,0,0,1,1,0,2697,1832
2023/01/28 10:57:58,-0.4,42.9,38.7,34.3,42.5,52.0,1,0,1,0,0,1,1,0,2697,1833
2023/01/28 10:59:57,-0.4,43.6,39.3,34.3,42.9,52.0,1,0,1,0,0,1,1,0,2697,1833
2023/01/28 11:01:56,-0.4,44.2,39.8,34.3,43.1,52.0,1,0,1,0,0,1,1,0,2697,1834
2023/01/28 11:03:54,-0.4,44.7,40.4,34.3,43.4,52.0,1,0,1,0,0,1,1,0,2697,1835
2023/01/28 11:05:53,-0.4,45.4,40.9,34.3,43.7,52.0,1,1,1,0,0,1,1,0,2697,1836
2023/01/28 11:07:52,-0.4,48.9,42.4,34.3,43.8,52.0,1,1,1,0,0,1,1,0,2697,1837
2023/01/28 11:09:51,-0.4,50.4,43.8,34.3,44.2,52.0,1,1,1,0,0,1,1,0,2697,1838
2023/01/28 11:11:50,-0.4,51.7,44.7,34.3,44.9,52.0,1,1,1,0,0,1,1,0,2697,1839
2023/01/28 11:13:48,-0.3,52.7,45.6,34.3,45.7,52.0,1,1,1,0,0,1,1,0,2697,1841
2023/01/28 11:15:47,-0.3,53.7,46.6,34.3,46.5,52.0,1,1,1,0,0,1,1,0,2697,1842
2023/01/28 11:17:46,-0.3,54.5,47.5,34.3,47.4,52.0,1,1,1,0,0,1,1,0,2697,1843
2023/01/28 11:19:45,-0.3,55.4,48.3,34.3,48.2,52.0,1,1,1,0,0,1,1,0,2697,1844
2023/01/28 11:21:44,-0.3,56.3,49.0,34.3,49.0,52.0,1,1,1,0,0,1,1,0,2697,1845
2023/01/28 11:23:44,-0.3,57.1,49.8,34.3,49.8,52.0,1,1,1,0,0,1,1,0,2697,1847
2023/01/28 11:25:43,-0.3,58.0,51.0,34.3,50.7,52.0,1,1,1,0,0,1,1,0,2697,1848
2023/01/28 11:27:41,-0.3,58.8,51.7,34.3,51.6,52.0,1,1,1,0,0,1,1,0,2697,1849
2023/01/28 11:29:40,-0.3,57.3,50.4,34.3,52.4,52.0,0,1,1,0,1,0,1,0,2697,1849
2023/01/28 11:31:39,-0.3,36.5,31.0,34.3,52.9,52.0,0,1,1,0,1,0,1,0,2698,1849
2023/01/28 11:33:39,-0.3,34.4,29.5,34.3,53.1,52.0,0,1,1,0,1,0,1,0,2698,1849
2023/01/28 11:35:38,-0.3,33.4,28.8,34.3,53.1,52.0,0,1,1,0,1,0,1,0,2699,1849
2023/01/28 11:37:38,-0.3,33.2,28.8,34.3,53.0,52.0,0,1,1,0,1,0,1,0,2700,1849
2023/01/28 11:39:36,-0.3,33.3,29.1,34.3,52.9,52.0,0,1,1,0,1,0,1,0,2701,1849
2023/01/28 11:41:32,-0.3,33.6,29.3,34.3,52.8,52.0,0,1,1,0,1,0,1,0,2702,1849
2023/01/28 11:43:31,-0.3,33.7,29.5,34.3,52.6,52.0,0,1,1,0,1,0,1,0,2702,1849
2023/01/28 11:45:30,-0.3,33.6,29.5,34.3,52.5,52.0,0,1,1,0,1,0,1,0,2703,1849
2023/01/28 11:48:28,-0.3,33.5,29.5,34.3,52.4,52.0,0,1,1,0,1,0,1,0,2704,1849
2023/01/28 11:50:27,-0.3,33.6,29.5,34.3,52.4,52.0,0,1,1,0,1,0,1,0,2705,1849
2023/01/28 11:52:26,-0.3,33.6,29.5,34.3,52.3,52.0,0,1,1,0,1,0,1,0,2705,1849
2023/01/28 11:54:24,-0.3,33.6,29.5,34.3,52.2,52.0,0,1,1,0,1,0,1,0,2706,1849
2023/01/28 11:56:23,-0.3,33.6,29.5,34.3,52.1,52.0,0,1,1,0,1,0,1,0,2707,1849
2023/01/28 11:58:22,-0.2,35.3,29.7,34.3,52.1,52.0,1,1,1,0,1,0,1,0,2708,1849
2023/01/28 12:00:21,-0.2,35.6,29.7,34.3,52.0,52.0,1,1,1,0,1,0,1,0,2710,1849
2023/01/28 12:02:18,-0.2,35.8,29.7,34.3,51.9,52.0,1,1,1,0,1,0,1,0,2711,1849
2023/01/28 12:04:18,-0.2,36.1,30.0,34.3,51.9,52.0,1,1,1,0,1,0,1,0,2712,1849
2023/01/28 12:06:16,-0.2,36.5,30.3,34.3,51.8,52.0,1,1,1,0,1,0,1,0,2714,1849
2023/01/28 12:08:16,-0.2,37.0,30.8,34.3,51.7,52.0,1,1,1,0,1,0,1,0,2715,1849
2023/01/28 12:10:14,-0.2,37.4,31.2,34.3,51.6,52.0,1,1,1,0,1,0,1,0,2716,1849
2023/01/28 12:12:13,-0.2,37.8,31.6,34.3,51.5,52.0,1,1,1,0,1,0,1,0,2718,1849
2023/01/28 12:14:10,-0.2,38.3,32.1,34.3,51.4,52.0,1,1,1,0,1,0,1,0,2719,1849
2023/01/28 12:16:09,-0.2,38.6,32.4,34.3,51.4,52.0,1,1,1,0,1,0,1,0,2720,1849
2023/01/28 12:18:09,-0.2,39.1,32.8,34.3,51.3,52.0,1,1,1,0,1,0,1,0,2722,1849
2023/01/28 12:20:08,-0.2,39.4,33.1,34.3,51.2,52.0,1,1,1,0,1,0,1,0,2723,1849
2023/01/28 12:22:07,-0.2,39.7,33.5,34.3,51.1,52.0,1,1,1,0,1,0,1,0,2724,1849
2023/01/28 12:24:06,-0.2,39.9,33.8,34.3,51.0,52.0,1,1,1,0,1,0,1,0,2726,1849
2023/01/28 12:26:04,-0.2,40.5,34.2,34.3,51.0,52.0,1,1,1,0,1,0,1,0,2727,1849
2023/01/28 12:28:03,-0.2,40.8,34.4,34.3,50.9,52.0,1,1,1,0,1,0,1,0,2728,1849
2023/01/28 12:30:02,-0.2,41.2,34.9,34.3,50.8,52.0,1,1,1,0,1,0,1,0,2730,1849
2023/01/28 12:32:00,-0.2,41.6,35.2,34.3,50.7,52.0,1,1,1,0,1,0,1,0,2731,1849
2023/01/28 12:34:00,-0.2,41.9,35.6,34.3,50.6,52.0,1,1,1,0,1,0,1,0,2732,1849
2023/01/28 12:35:58,-0.2,42.3,36.0,34.3,50.5,52.0,1,1,1,0,1,0,1,0,2733,1849
2023/01/28 12:37:57,-0.1,42.6,36.4,34.3,50.5,52.0,1,0,1,0,1,0,1,0,2735,1849
2023/01/28 12:39:55,-0.1,41.1,36.4,34.3,50.4,52.0,1,0,1,0,1,0,1,0,2735,1849
2023/01/28 12:41:55,-0.1,41.5,36.7,34.3,50.3,52.0,1,0,1,0,1,0,1,0,2736,1849
2023/01/28 12:43:54,-0.1,41.4,36.8,34.3,50.2,52.0,1,0,1,0,1,0,1,0,2737,1849
2023/01/28 12:45:52,-0.1,41.6,36.9,34.3,50.2,52.0,1,0,1,0,1,0,1,0,2738,1849
2023/01/28 12:47:51,-0.1,41.7,37.1,34.3,50.1,52.0,1,0,1,0,1,0,1,0,2738,1849
2023/01/28 12:49:51,-0.1,41.7,37.1,34.3,50.0,52.0,1,0,1,0,1,0,1,0,2739,1849
2023/01/28 12:51:49,-0.1,41.7,37.1,34.3,50.0,52.0,1,0,1,0,1,0,1,0,2740,1849
2023/01/28 12:53:48,0.0,39.3,37.2,34.3,49.9,52.0,0,0,0,0,1,0,1,0,2740,1849
2023/01/28 12:55:47,0.0,39.1,37.4,34.3,49.8,52.0,0,0,0,0,1,0,0,0,2740,1849
2023/01/28 12:57:46,0.0,38.6,36.6,34.3,49.8,52.0,0,0,0,0,1,0,0,0,2740,1849
2023/01/28 12:59:44,0.0,38.2,36.2,34.3,49.7,52.0,0,0,0,0,1,0,0,0,2740,1849
2023/01/28 13:01:43,0.0,37.9,35.8,34.3,49.6,52.0,0,0,0,0,1,0,0,0,2740,1849
2023/01/28 13:03:41,0.0,37.6,35.5,34.3,49.6,52.0,0,0,0,0,1,0,0,0,2740,1849
2023/01/28 13:05:40,0.0,37.4,35.2,34.3,49.5,52.0,0,0,0,0,1,0,0,0,2740,1849
2023/01/28 13:07:39,0.0,37.2,34.9,34.3,49.5,52.0,0,0,0,0,1,0,0,0,2740,1849
2023/01/28 13:09:38,0.0,37.1,34.7,34.3,49.4,52.0,0,0,0,0,1,0,0,0,2740,1849
2023/01/28 13:11:37,0.0,36.9,34.3,34.3,49.3,52.0,0,0,0,0,1,0,0,0,2740,1849
2023/01/28 13:13:35,0.0,36.8,34.0,34.3,49.3,52.0,0,0,0,0,1,0,0,0,2740,1849
2023/01/28 13:15:34,0.0,36.7,33.6,34.3,49.2,52.0,0,0,0,0,1,0,0,0,2740,1849
2023/01/28 13:17:30,0.0,36.6,33.3,34.3,49.1,52.0,0,0,0,0,1,0,0,0,2740,1849
2023/01/28 13:20:29,0.0,36.5,32.9,34.3,49.1,52.0,0,0,0,0,1,0,0,0,2740,1849
2023/01/28 13:22:28,0.0,36.4,32.6,34.3,49.0,52.0,0,0,0,0,1,0,0,0,2740,1849
2023/01/28 13:24:26,0.0,36.4,32.3,34.3,49.0,52.0,0,0,0,0,1,0,0,0,2740,1849
2023/01/28 13:26:23,0.0,36.3,32.0,34.3,48.9,52.0,0,0,0,0,1,0,0,0,2740,1849
2023/01/28 13:28:21,0.0,36.2,31.7,34.3,48.8,52.0,0,0,0,0,1,0,0,0,2740,1849
2023/01/28 13:30:20,0.0,36.2,31.4,34.3,48.8,52.0,0,0,0,0,1,0,0,0,2740,1849
2023/01/28 13:32:20,0.0,36.1,31.2,34.3,48.7,52.0,0,0,0,0,1,0,0,0,2740,1849
2023/01/28 13:34:18,0.0,36.0,30.9,34.3,48.6,52.0,0,0,0,0,1,0,0,0,2740,1849
2023/01/28 13:36:17,0.0,36.0,30.7,34.3,48.6,52.0,0,0,0,0,1,0,0,0,2740,1849
2023/01/28 13:38:16,0.0,35.9,30.4,34.3,48.5,52.0,0,0,0,0,1,0,0,0,2740,1849
2023/01/28 13:40:15,0.0,35.9,30.2,34.3,48.4,52.0,0,0,0,0,1,0,0,0,2740,1849
2023/01/28 13:42:14,0.0,35.8,30.0,34.3,48.4,52.0,0,0,0,0,1,0,0,0,2740,1849
2023/01/28 13:44:13,0.0,35.8,29.8,34.3,48.3,52.0,0,0,0,0,1,0,0,0,2740,1849
2023/01/28 13:46:11,0.0,35.7,29.6,34.3,48.3,52.0,0,0,0,0,1,0,0,0,2740,1849
2023/01/28 13:48:10,0.0,35.6,29.4,34.3,48.2,52.0,0,0,0,0,1,0,0,0,2740,1849
2023/01/28 13:50:09,0.0,35.6,29.3,34.3,48.1,52.0,0,0,0,0,1,0,0,0,2740,1849
2023/01/28 13:52:07,0.0,35.5,29.1,34.3,48.1,52.0,0,0,0,0,1,0,0,0,2740,1849
2023/01/28 13:54:05,0.0,35.4,28.9,34.3,48.0,52.0,0,0,0,0,1,0,0,0,2740,1849
2023/01/28 13:56:03,0.0,35.4,29.0,34.3,47.9,52.0,0,0,0,0,1,0,1,0,2740,1849
2023/01/28 13:58:03,0.0,30.7,29.3,34.3,47.9,52.0,0,1,1,0,1,0,1,0,2740,1849
2023/01/28 14:00:03,0.0,32.6,29.1,34.3,47.8,52.0,0,1,1,0,1,0,1,0,2741,1849
2023/01/28 14:02:01,0.0,32.6,29.0,34.3,47.8,52.0,0,1,1,0,1,0,1,0,2742,1849
2023/01/28 14:03:59,0.0,32.8,29.1,34.3,47.7,52.0,0,1,1,0,1,0,1,0,2742,1849
2023/01/28 14:05:59,0.0,33.2,29.3,34.3,47.6,52.0,0,1,1,0,1,0,1,0,2743,1849
2023/01/28 14:07:58,0.0,33.3,29.4,34.3,47.6,52.0,0,1,1,0,1,0,1,0,2744,1849
2023/01/28 14:09:55,0.0,33.3,29.4,34.3,47.5,52.0,0,1,1,0,1,0,1,0,2745,1849
2023/01/28 14:11:53,0.0,33.5,29.6,34.3,47.4,52.0,0,1,1,0,1,0,1,0,2745,1849
2023/01/28 14:13:52,0.0,33.6,29.6,34.3,47.4,52.0,0,1,1,0,1,0,1,0,2746,1849
2023/01/28 14:15:51,0.0,33.7,29.7,34.3,47.3,52.0,0,1,1,0,1,0,1,0,2747,1849
2023/01/28 14:17:50,0.0,34.0,29.8,34.3,47.3,52.0,1,1,1,0,1,0,1,0,2748,1849
2023/01/28 14:19:50,0.0,35.7,29.9,34.3,47.2,52.0,1,1,1,0,1,0,1,0,2749,1849
2023/01/28 14:21:48,0.0,36.0,29.9,34.3,47.1,52.0,1,1,1,0,1,0,1,0,2751,1849
2023/01/28 14:23:46,0.0,36.3,30.2,34.3,47.0,52.0,1,1,1,0,1,0,1,0,2752,1849
2023/01/28 14:25:46,0.0,36.6,30.4,34.3,47.0,52.0,1,1,1,0,1,0,1,0,2753,1849
2023/01/28 14:27:45,0.0,37.0,30.8,34.3,46.9,52.0,1,1,1,0,1,0,1,0,2755,1849
2023/01/28 14:29:44,0.0,37.4,31.2,34.3,46.8,52.0,1,1,1,0,1,0,1,0,2756,1849
2023/01/28 14:31:42,0.0,37.7,31.5,34.3,46.7,52.0,1,1,1,0,1,0,1,0,2757,1849
2023/01/28 14:33:40,0.0,38.0,31.8,34.3,46.7,52.0,1,1,1,0,1,0,1,0,2759,1849
2023/01/28 14:35:39,0.0,38.4,32.2,34.3,46.6,52.0,1,1,1,0,1,0,1,0,2760,1849
2023/01/28 14:37:37,0.0,38.7,32.5,34.3,46.5,52.0,1,1,1,0,1,0,1,0,2761,1849
2023/01/28 14:39:36,0.0,39.2,33.0,34.3,46.5,52.0,1,1,1,0,1,0,1,0,2763,1849
2023/01/28 14:41:36,0.0,39.5,33.3,34.3,46.4,52.0,1,1,1,0,1,0,1,0,2764,1849
2023/01/28 14:43:36,0.0,39.8,33.7,34.3,46.3,52.0,1,1,1,0,1,0,1,0,2765,1849
2023/01/28 14:45:34,0.0,40.2,34.0,34.3,46.2,52.0,1,1,1,0,1,0,1,0,2767,1849
2023/01/28 14:47:32,0.0,40.7,34.4,34.3,46.2,52.0,1,1,1,0,1,0,1,0,2768,1849
2023/01/28 14:49:31,0.0,41.1,34.7,34.3,46.1,52.0,1,1,1,0,1,0,1,0,2769,1849
2023/01/28 14:52:30,0.0,41.4,35.0,34.3,46.0,52.0,1,1,1,0,1,0,1,0,2771,1849
2023/01/28 14:54:28,0.0,41.8,35.5,34.3,45.9,52.0,1,1,1,0,1,0,1,0,2772,1849
2023/01/28 14:56:27,0.0,42.2,35.8,34.3,45.8,52.0,1,1,1,0,1,0,1,0,2773,1849
2023/01/28 14:58:26,0.0,42.6,36.2,34.3,45.7,52.0,1,1,1,0,1,0,1,0,2774,1849
2023/01/28 15:00:26,0.0,41.2,36.4,34.3,45.6,52.0,1,0,1,0,1,0,1,0,2775,1849
2023/01/28 15:02:25,0.0,41.3,36.5,34.3,45.5,52.0,1,0,1,0,1,0,1,0,2776,1849
2023/01/28 15:04:24,0.0,41.4,36.7,34.3,45.5,52.0,1,0,1,0,1,0,1,0,2777,1849
2023/01/28 15:06:23,0.0,41.3,36.7,34.3,45.4,52.0,1,0,1,0,1,0,1,0,2777,1849
2023/01/28 15:08:21,0.0,41.5,36.9,34.3,45.3,52.0,1,0,1,0,1,0,1,0,2778,1849
2023/01/28 15:10:20,0.0,41.5,37.0,34.3,45.3,52.0,1,0,1,0,1,0,1,0,2779,1849
2023/01/28 15:12:20,0.0,41.6,37.1,34.3,45.2,52.0,1,0,1,0,1,0,1,0,2780,1849
2023/01/28 15:14:18,0.0,39.6,37.0,34.3,45.1,52.0,0,0,1,0,1,0,1,0,2780,1849
2023/01/28 15:16:18,0.0,38.9,37.3,34.3,45.0,52.0,0,0,0,0,1,0,1,0,2780,1849
2023/01/28 15:18:17,0.0,38.6,36.5,34.3,45.0,52.0,0,0,0,0,1,0,0,0,2780,1849
2023/01/28 15:20:15,0.0,38.1,36.0,34.3,44.9,52.0,0,0,0,0,1,0,0,0,2780,1849
2023/01/28 15:22:14,0.0,37.7,35.6,34.3,44.9,52.0,0,0,0,0,1,0,0,0,2780,1849
2023/01/28 15:24:12,0.0,37.5,35.2,34.3,44.8,52.0,0,0,0,0,1,0,0,0,2780,1849
2023/01/28 15:26:11,0.0,37.2,35.0,34.3,44.8,52.0,0,0,0,0,1,0,0,0,2780,1849
2023/01/28 15:28:09,0.0,37.0,34.7,34.3,44.7,52.0,0,0,0,0,1,0,0,0,2780,1849
2023/01/28 15:30:08,0.0,36.9,34.5,34.3,44.6,52.0,0,0,0,0,1,0,0,0,2780,1849
2023/01/28 15:32:07,0.0,36.7,34.1,34.3,44.6,52.0,0,0,0,0,1,0,0,0,2780,1849
2023/01/28 15:34:05,0.0,36.6,33.8,34.3,44.5,52.0,0,0,0,0,1,0,0,0,2780,1849
2023/01/28 15:36:04,0.0,36.5,33.4,34.3,44.4,52.0,0,0,0,0,1,0,0,0,2780,1849
2023/01/28 15:38:02,0.0,36.4,33.1,34.3,44.4,52.0,0,0,0,0,1,0,0,0,2780,1849
2023/01/28 15:40:01,0.0,36.3,32.7,34.3,44.3,52.0,0,0,0,0,1,0,0,0,2780,1849
2023/01/28 15:42:00,0.0,36.2,32.4,34.3,44.2,52.0,0,0,0,0,1,0,0,0,2780,1849
2023/01/28 15:44:00,0.0,36.1,32.1,34.3,44.2,52.0,0,0,0,0,1,0,0,0,2780,1849
2023/01/28 15:45:58,0.0,36.1,31.8,34.3,44.1,52.0,0,0,0,0,1,0,0,0,2780,1849
2023/01/28 15:47:55,0.0,36.0,31.5,34.3,44.1,52.0,0,0,0,0,1,0,0,0,2780,1849
2023/01/28 15:49:54,0.0,30.9,32.1,34.3,44.0,52.0,0,1,1,0,0,1,1,0,2780,1849
2023/01/28 15:51:53,0.0,36.5,32.3,34.3,42.8,52.0,0,1,1,0,0,1,1,0,2780,1850
2023/01/28 15:53:52,0.0,37.8,34.0,34.3,41.9,52.0,0,1,1,0,0,1,1,0,2780,1851
2023/01/28 15:55:51,0.0,38.7,34.6,34.3,41.3,52.0,0,1,1,0,0,1,1,0,2780,1852
2023/01/28 15:57:50,0.0,39.7,35.6,34.3,41.0,52.0,0,1,1,0,0,1,1,0,2780,1852
2023/01/28 15:59:48,0.0,40.5,36.4,34.3,41.0,52.0,0,1,1,0,0,1,1,0,2780,1853
2023/01/28 16:01:47,0.0,41.3,37.1,34.3,41.1,52.0,0,1,1,0,0,1,1,0,2780,1854
2023/01/28 16:03:46,0.0,42.1,37.7,34.3,41.5,52.0,0,1,1,0,0,1,1,0,2780,1855
2023/01/28 16:05:45,0.0,42.8,38.4,34.3,41.9,52.0,0,1,1,0,0,1,1,0,2780,1855
2023/01/28 16:07:45,0.0,43.5,39.0,34.3,42.4,52.0,0,1,1,0,0,1,1,0,2780,1856
2023/01/28 16:09:44,0.0,45.2,39.6,34.3,42.7,52.0,1,1,1,0,0,1,1,0,2780,1857
2023/01/28 16:11:43,0.0,47.9,41.4,34.3,43.1,52.0,1,1,1,0,0,1,1,0,2780,1858
2023/01/28 16:13:42,0.0,49.6,43.0,34.3,43.6,52.0,1,1,1,0,0,1,1,0,2780,1859
2023/01/28 16:15:40,0.0,50.9,44.0,34.3,44.2,52.0,1,1,1,0,0,1,1,0,2780,1861
2023/01/28 16:17:40,0.0,52.1,44.9,34.3,44.9,52.0,1,1,1,0,0,1,1,0,2780,1862
2023/01/28 16:19:39,0.0,53.1,45.9,34.3,45.6,52.0,1,1,1,0,0,1,1,0,2780,1863
2023/01/28 16:21:38,0.0,53.9,46.8,34.3,46.4,52.0,1,1,1,0,0,1,1,0,2780,1864
2023/01/28 16:23:37,-0.1,54.8,47.7,34.3,47.4,52.0,1,1,1,0,0,1,1,0,2780,1866
2023/01/28 16:25:35,-0.1,55.7,48.5,34.3,48.2,52.0,1,1,1,0,0,1,1,0,2780,1867
2023/01/28 16:27:35,-0.1,56.6,49.3,34.3,49.1,52.0,1,1,1,0,0,1,1,0,2780,1868
2023/01/28 16:29:34,-0.1,57.4,50.1,34.3,49.9,52.0,1,1,1,0,0,1,1,0,2780,1869
2023/01/28 16:31:33,-0.1,58.3,50.9,34.3,50.7,52.0,1,1,1,0,0,1,1,0,2780,1870
2023/01/28 16:33:32,-0.1,59.1,52.0,34.3,51.7,52.0,1,1,1,0,0,1,1,0,2780,1872
2023/01/28 16:35:31,-0.1,53.4,41.9,34.3,52.4,52.0,1,0,1,0,1,0,1,0,2780,1872
2023/01/28 16:38:30,-0.1,38.6,33.2,34.3,53.0,52.0,1,0,1,0,1,0,1,0,2781,1872
2023/01/28 16:40:27,-0.1,37.2,31.9,34.3,53.1,52.0,1,0,1,0,1,0,1,0,2782,1872
2023/01/28 16:42:26,-0.1,35.8,30.8,34.3,53.1,52.0,1,0,1,0,1,0,1,0,2783,1872
2023/01/28 16:44:23,-0.1,35.1,30.4,34.3,53.1,52.0,1,0,1,0,1,0,1,0,2783,1872
2023/01/28 16:46:23,-0.1,35.5,30.9,34.3,53.0,52.0,1,0,1,0,1,0,1,0,2784,1872
2023/01/28 16:48:22,-0.1,35.6,31.1,34.3,52.8,52.0,1,0,1,0,1,0,1,0,2785,1872
2023/01/28 16:50:21,-0.1,35.7,31.3,34.3,52.7,52.0,1,0,1,0,1,0,1,0,2786,1872
2023/01/28 16:52:19,-0.1,35.8,31.4,34.3,52.6,52.0,1,0,1,0,1,0,1,0,2786,1872
2023/01/28 16:54:19,-0.1,35.8,31.4,34.3,52.6,52.0,1,0,1,0,1,0,1,0,2787,1872
2023/01/28 16:56:18,-0.1,35.9,31.5,34.3,52.5,52.0,1,0,1,0,1,0,1,0,2788,1872
2023/01/28 16:58:17,-0.1,35.9,31.5,34.3,52.4,52.0,1,0,1,0,1,0,1,0,2789,1872
2023/01/28 17:00:16,-0.1,36.0,31.6,34.3,52.4,52.0,1,0,1,0,1,0,1,0,2789,1872
2023/01/28 17:02:15,-0.1,35.9,31.5,34.3,52.3,52.0,1,0,1,0,1,0,1,0,2790,1872
2023/01/28 17:04:12,-0.1,36.0,31.6,34.3,52.2,52.0,1,0,1,0,1,0,1,0,2791,1872
2023/01/28 17:06:11,-0.1,37.5,31.9,34.3,52.1,52.0,1,1,1,0,1,0,1,0,2792,1872
2023/01/28 17:08:11,-0.1,37.9,32.0,34.3,52.1,52.0,1,1,1,0,1,0,1,0,2794,1872
2023/01/28 17:10:10,-0.1,38.2,32.2,34.3,52.0,52.0,1,1,1,0,1,0,1,0,2795,1872
2023/01/28 17:12:09,-0.1,38.6,32.5,34.3,51.9,52.0,1,1,1,0,1,0,1,0,2796,1872
2023/01/28 17:14:08,-0.1,38.8,32.8,34.3,51.8,52.0,1,1,1,0,1,0,1,0,2797,1872
2023/01/28 17:16:07,-0.1,39.2,32.9,34.3,51.8,52.0,1,1,1,0,1,0,1,0,2799,1872
2023/01/28 17:18:06,-0.1,39.6,33.5,34.3,51.7,52.0,1,1,1,0,1,0,1,0,2800,1872
2023/01/28 17:20:05,-0.1,39.9,33.8,34.3,51.6,52.0,1,1,1,0,1,0,1,0,2801,1872
2023/01/28 17:22:04,-0.1,40.6,34.3,34.3,51.5,52.0,1,1,1,0,1,0,1,0,2803,1872
2023/01/28 17:24:03,-0.1,40.9,34.5,34.3,51.5,52.0,1,1,1,0,1,0,1,0,2804,1872
2023/01/28 17:26:01,-0.1,41.1,34.8,34.3,51.4,52.0,1,1,1,0,1,0,1,0,2805,1872
2023/01/28 17:28:00,-0.1,41.7,35.3,34.3,51.3,52.0,1,1,1,0,1,0,1,0,2807,1872
2023/01/28 17:29:58,-0.1,42.0,35.6,34.3,51.2,52.0,1,1,1,0,1,0,1,0,2808,1872
2023/01/28 17:31:58,-0.1,42.3,36.0,34.3,51.2,52.0,1,1,1,0,1,0,1,0,2809,1872
2023/01/28 17:33:57,-0.1,41.8,36.4,34.3,51.1,52.0,0,1,1,0,1,0,1,0,2810,1872
2023/01/28 17:35:56,-0.2,41.0,36.4,34.3,51.0,52.0,0,1,1,0,1,0,1,0,2811,1872
2023/01/28 17:37:54,-0.2,41.4,36.7,34.3,50.9,52.0,0,1,1,0,1,0,1,0,2812,1872
2023/01/28 17:39:52,-0.2,41.4,36.8,34.3,50.9,52.0,0,1,1,0,1,0,1,0,2813,1872
2023/01/28 17:41:51,-0.2,41.6,37.0,34.3,50.8,52.0,0,1,1,0,1,0,1,0,2813,1872
2023/01/28 17:43:49,-0.2,41.6,37.0,34.3,50.7,52.0,0,1,1,0,1,0,1,0,2814,1872
2023/01/28 17:45:49,-0.2,41.7,37.1,34.3,50.6,52.0,0,1,1,0,1,0,1,0,2815,1872
2023/01/28 17:47:48,-0.2,41.7,37.1,34.3,50.6,52.0,0,1,1,0,1,0,1,0,2816,1872
2023/01/28 17:49:47,-0.2,39.1,37.2,34.3,50.5,52.0,0,0,0,0,1,0,1,0,2816,1872
2023/01/28 17:51:46,-0.2,39.1,37.2,34.3,50.4,52.0,0,0,0,0,1,0,0,0,2816,1872
2023/01/28 17:53:45,-0.2,38.5,36.4,34.3,50.3,52.0,0,0,0,0,1,0,0,0,2816,1872
2023/01/28 17:55:44,-0.2,38.1,36.0,34.3,50.3,52.0,0,0,0,0,1,0,0,0,2816,1872
2023/01/28 17:57:43,-0.2,37.8,35.6,34.3,50.2,52.0,0,0,0,0,1,0,0,0,2816,1872
2023/01/28 17:59:42,-0.2,37.6,35.3,34.3,50.1,52.0,0,0,0,0,1,0,0,0,2816,1872
2023/01/28 18:01:42,-0.2,37.4,35.0,34.3,50.0,52.0,0,0,0,0,1,0,0,0,2816,1872
2023/01/28 18:03:40,-0.2,37.2,34.8,34.3,50.0,52.0,0,0,0,0,1,0,0,0,2816,1872
2023/01/28 18:05:39,-0.2,37.0,34.5,34.3,49.9,52.0,0,0,0,0,1,0,0,0,2816,1872
2023/01/28 18:07:39,-0.2,36.9,34.2,34.3,49.9,52.0,0,0,0,0,1,0,0,0,2816,1872
2023/01/28 18:09:34,-0.2,36.8,33.8,34.3,49.8,52.0,0,0,0,0,1,0,0,0,2816,1872
2023/01/28 18:11:32,-0.2,36.7,33.4,34.3,49.7,52.0,0,0,0,0,1,0,0,0,2816,1872
2023/01/28 18:13:31,-0.2,36.6,33.1,34.3,49.7,52.0,0,0,0,0,1,0,0,0,2816,1872
2023/01/28 18:16:29,-0.2,36.5,32.7,34.3,49.6,52.0,0,0,0,0,1,0,0,0,2816,1872
2023/01/28 18:18:28,-0.2,36.4,32.4,34.3,49.5,52.0,0,0,0,0,1,0,0,0,2816,1872
2023/01/28 18:20:27,-0.2,36.3,32.1,34.3,49.5,52.0,0,0,0,0,1,0,0,0,2816,1872
2023/01/28 18:22:25,-0.2,36.2,31.7,34.3,49.4,52.0,0,0,0,0,1,0,0,0,2816,1872
2023/01/28 18:24:24,-0.2,36.2,31.4,34.3,49.4,52.0,0,0,0,0,1,0,0,0,2816,1872
2023/01/28 18:26:24,-0.2,36.1,31.1,34.3,49.3,52.0,0,0,0,0,1,0,0,0,2816,1872
2023/01/28 18:28:23,-0.2,36.0,30.9,34.3,49.2,52.0,0,0,0,0,1,0,0,0,2816,1872
2023/01/28 18:30:20,-0.2,36.0,30.6,34.3,49.2,52.0,0,0,0,0,1,0,0,0,2816,1872
2023/01/28 18:32:19,-0.2,35.9,30.4,34.3,49.1,52.0,0,0,0,0,1,0,0,0,2816,1872
2023/01/28 18:34:17,-0.2,35.8,30.1,34.3,49.1,52.0,0,0,0,0,1,0,0,0,2816,1872
2023/01/28 18:36:14,-0.2,35.8,29.9,34.3,49.0,52.0,0,0,0,0,1,0,0,0,2816,1872
2023/01/28 18:38:13,-0.2,35.7,29.7,34.3,48.9,52.0,0,0,0,0,1,0,0,0,2816,1872
2023/01/28 18:40:11,-0.2,35.7,29.5,34.3,48.9,52.0,0,0,0,0,1,0,0,0,2816,1872
2023/01/28 18:42:10,-0.2,35.6,29.3,34.3,48.8,52.0,0,0,0,0,1,0,0,0,2816,1872
2023/01/28 18:44:08,-0.2,35.5,29.2,34.3,48.8,52.0,0,0,0,0,1,0,0,0,2816,1872
2023/01/28 18:46:07,-0.2,35.4,29.0,34.3,48.7,52.0,0,0,0,0,1,0,0,0,2816,1872
2023/01/28 18:48:04,-0.2,35.4,28.8,34.3,48.6,52.0,0,0,0,0,1,0,0,0,2816,1872
2023/01/28 18:50:03,-0.2,35.3,28.6,34.3,48.6,52.0,0,0,0,0,1,0,0,0,2816,1872
2023/01/28 18:52:02,-0.2,34.5,30.6,34.3,48.5,52.0,0,0,0,0,1,0,1,0,2816,1872
2023/01/28 18:54:01,-0.2,31.3,29.6,34.3,48.5,52.0,1,0,1,0,1,0,1,0,2816,1872
2023/01/28 18:55:59,-0.2,32.9,29.4,34.3,48.4,52.0,1,0,1,0,1,0,1,0,2817,1872
2023/01/28 18:57:58,-0.2,32.9,29.3,34.3,48.3,52.0,1,0,1,0,1,0,1,0,2817,1872
2023/01/28 18:59:57,-0.2,33.2,29.4,34.3,48.3,52.0,1,0,1,0,1,0,1,0,2818,1872
2023/01/28 19:01:56,-0.2,33.5,29.6,34.3,48.2,52.0,1,0,1,0,1,0,1,0,2819,1872
2023/01/28 19:03:55,-0.2,33.6,29.7,34.3,48.2,52.0,1,0,1,0,1,0,1,0,2820,1872
2023/01/28 19:05:53,-0.2,33.7,29.8,34.3,48.1,52.0,1,0,1,0,1,0,1,0,2821,1872
2023/01/28 19:07:51,-0.2,33.8,29.8,34.3,48.0,52.0,1,0,1,0,1,0,1,0,2821,1872
2023/01/28 19:09:50,-0.2,33.9,29.9,34.3,48.0,52.0,1,0,1,0,1,0,1,0,2822,1872
2023/01/28 19:11:48,-0.2,34.0,30.0,34.3,47.9,52.0,1,0,1,0,1,0,1,0,2823,1872
2023/01/28 19:13:46,-0.2,35.6,30.2,34.3,47.9,52.0,1,1,1,0,1,0,1,0,2824,1872
2023/01/28 19:15:44,-0.2,36.0,30.2,34.3,47.8,52.0,1,1,1,0,1,0,1,0,2825,1872
2023/01/28 19:17:43,-0.2,36.4,30.3,34.3,47.7,52.0,1,1,1,0,1,0,1,0,2826,1872
2023/01/28 19:19:42,-0.2,36.8,30.7,34.3,47.7,52.0,1,1,1,0,1,0,1,0,2828,1872
2023/01/28 19:21:42,-0.2,37.2,31.0,34.3,47.6,52.0,1,1,1,0,1,0,1,0,2829,1872
2023/01/28 19:23:40,-0.2,37.5,31.3,34.3,47.6,52.0,1,1,1,0,1,0,1,0,2830,1872
2023/01/28 19:25:38,-0.2,37.9,31.7,34.3,47.5,52.0,1,1,1,0,1,0,1,0,2832,1872
2023/01/28 19:27:36,-0.2,38.3,32.1,34.3,47.4,52.0,1,1,1,0,1,0,1,0,2833,1872
2023/01/28 19:29:36,-0.2,38.5,32.3,34.3,47.4,52.0,1,1,1,0,1,0,1,0,2835,1872
2023/01/28 19:31:35,-0.2,38.9,32.7,34.3,47.3,52.0,1,1,1,0,1,0,1,0,2836,1872
2023/01/28 19:33:33,-0.2,39.3,33.0,34.3,47.3,52.0,1,1,1,0,1,0,1,0,2837,1872
2023/01/28 19:35:32,-0.2,39.7,33.5,34.3,47.2,52.0,1,1,1,0,1,0,1,0,2839,1872
2023/01/28 19:38:31,-0.2,40.0,33.8,34.3,47.1,52.0,1,1,1,0,1,0,1,0,2840,1872
2023/01/28 19:40:29,-0.2,40.4,34.1,34.3,47.1,52.0,1,1,1,0,1,0,1,0,2841,1872
2023/01/28 19:42:28,-0.2,40.7,34.4,34.3,47.0,52.0,1,1,1,0,1,0,1,0,2842,1872
2023/01/28 19:44:26,-0.2,41.2,34.8,34.3,47.0,52.0,1,1,1,0,1,0,1,0,2844,1872
2023/01/28 19:46:24,-0.2,41.6,35.2,34.3,46.9,52.0,1,1,1,0,1,0,1,0,2845,1872
2023/01/28 19:48:22,-0.2,41.9,35.6,34.3,46.8,52.0,1,1,1,0,1,0,1,0,2846,1872
2023/01/28 19:50:21,-0.2,42.2,35.8,34.3,46.8,52.0,1,1,1,0,1,0,1,0,2848,1872
2023/01/28 19:52:20,-0.2,42.6,36.3,34.3,46.7,52.0,1,1,1,0,1,0,1,0,2849,1872
2023/01/28 19:54:18,-0.2,41.2,36.5,34.3,46.7,52.0,0,1,1,0,1,0,1,0,2850,1872
2023/01/28 19:56:16,-0.2,41.5,36.8,34.3,46.6,52.0,0,1,1,0,1,0,1,0,2850,1872
2023/01/28 19:58:16,-0.2,41.4,36.8,34.3,46.5,52.0,0,1,1,0,1,0,1,0,2851,1872
2023/01/28 20:00:15,-0.2,41.6,36.9,34.3,46.5,52.0,0,1,1,0,1,0,1,0,2852,1872
2023/01/28 20:02:14,-0.2,41.6,37.0,34.3,46.4,52.0,0,1,1,0,1,0,1,0,2853,1872
2023/01/28 20:04:11,-0.2,41.7,37.1,34.3,46.3,52.0,0,1,1,0,1,0,1,0,2853,1872
2023/01/28 20:06:11,-0.2,41.7,37.1,34.3,46.3,52.0,0,1,1,0,1,0,1,0,2854,1872
2023/01/28 20:08:09,-0.2,39.3,37.1,34.3,46.2,52.0,0,0,0,0,1,0,1,0,2854,1872
2023/01/28 20:10:09,-0.2,39.4,37.6,34.3,46.2,52.0,0,0,0,0,1,0,0,0,2854,1872
2023/01/28 20:12:08,-0.2,38.9,36.9,34.3,46.1,52.0,0,0,0,0,1,0,0,0,2854,1872
2023/01/28 20:14:07,-0.2,38.5,36.4,34.3,46.0,52.0,0,0,0,0,1,0,0,0,2854,1872
2023/01/28 20:16:06,-0.2,38.2,36.1,34.3,46.0,52.0,0,0,0,0,1,0,0,0,2854,1872
2023/01/28 20:18:04,-0.2,37.9,35.7,34.3,45.9,52.0,0,0,0,0,1,0,0,0,2854,1872
2023/01/28 20:20:03,-0.2,37.7,35.4,34.3,45.8,52.0,0,0,0,0,1,0,0,0,2854,1872
2023/01/28 20:22:02,-0.2,37.5,35.1,34.3,45.7,52.0,0,0,0,0,1,0,0,0,2854,1872
2023/01/28 20:24:01,-0.2,37.3,34.8,34.3,45.7,52.0,0,0,0,0,1,0,0,0,2854,1872
2023/01/28 20:26:01,-0.2,37.2,34.5,34.3,45.6,52.0,0,0,0,0,1,0,0,0,2854,1872
2023/01/28 20:28:00,-0.2,37.1,34.1,34.3,45.5,52.0,0,0,0,0,1,0,0,0,2854,1872
2023/01/28 20:29:59,-0.2,37.0,33.8,34.3,45.4,52.0,0,0,0,0,1,0,0,0,2854,1872
2023/01/28 20:31:57,-0.2,36.9,33.4,34.3,45.4,52.0,0,0,0,0,1,0,0,0,2854,1872
2023/01/28 20:33:56,-0.2,36.8,33.1,34.3,45.3,52.0,0,0,0,0,1,0,0,0,2854,1872
2023/01/28 20:35:55,-0.2,36.7,32.7,34.3,45.2,52.0,0,0,0,0,1,0,0,0,2854,1872
2023/01/28 20:37:53,-0.2,36.7,32.4,34.3,45.1,52.0,0,0,0,0,1,0,0,0,2854,1872
2023/01/28 20:39:52,-0.2,36.6,32.0,34.3,45.1,52.0,0,0,0,0,1,0,0,0,2854,1872
2023/01/28 20:41:50,-0.2,36.5,31.7,34.3,45.0,52.0,0,0,0,0,1,0,0,0,2854,1872
2023/01/28 20:43:48,-0.2,36.5,31.5,34.3,45.0,52.0,0,0,0,0,1,0,0,0,2854,1872
2023/01/28 20:45:47,-0.2,36.4,31.2,34.3,44.9,52.0,0,0,0,0,1,0,0,0,2854,1872
2023/01/28 20:47:46,-0.2,36.4,30.9,34.3,44.8,52.0,0,0,0,0,1,0,0,0,2854,1872
2023/01/28 20:49:43,-0.2,36.3,30.6,34.3,44.8,52.0,0,0,0,0,1,0,0,0,2854,1872
2023/01/28 20:51:42,-0.2,36.2,30.4,34.3,44.7,52.0,0,0,0,0,1,0,0,0,2854,1872
2023/01/28 20:53:39,-0.2,36.2,30.1,34.3,44.7,52.0,0,0,0,0,1,0,0,0,2854,1872
2023/01/28 20:55:38,-0.2,36.1,29.9,34.3,44.6,52.0,0,0,0,0,1,0,0,0,2854,1872
2023/01/28 20:57:37,-0.2,36.1,29.7,34.3,44.6,52.0,0,0,0,0,1,0,0,0,2854,1872
2023/01/28 20:59:35,-0.2,36.0,29.5,34.3,44.5,52.0,0,0,0,0,1,0,0,0,2854,1872
2023/01/28 21:01:32,-0.2,35.9,29.3,34.3,44.5,52.0,0,0,0,0,1,0,0,0,2854,1872
2023/01/28 21:03:31,-0.2,35.9,29.2,34.3,44.4,52.0,0,0,0,0,1,0,0,0,2854,1872
2023/01/28 21:06:30,-0.2,35.8,29.0,34.3,44.3,52.0,0,0,0,0,1,0,0,0,2854,1872
2023/01/28 21:08:29,-0.2,35.7,28.8,34.3,44.3,52.0,0,0,0,0,1,0,0,0,2854,1872
2023/01/28 21:10:28,-0.2,35.7,28.6,34.3,44.2,52.0,0,0,0,0,1,0,1,0,2854,1872
2023/01/28 21:12:26,-0.2,31.2,29.7,34.3,44.2,52.0,1,0,1,0,1,0,1,0,2854,1872
2023/01/28 21:14:24,-0.2,33.0,29.6,34.3,44.1,52.0,1,0,1,0,1,0,1,0,2855,1872
2023/01/28 21:16:23,-0.2,33.1,29.5,34.3,44.1,52.0,1,0,1,0,1,0,1,0,2856,1872
2023/01/28 21:18:21,-0.2,34.6,32.5,34.3,43.9,52.0,1,0,1,0,0,1,1,0,2856,1873
2023/01/28 21:20:20,-0.2,37.1,32.9,34.3,43.0,52.0,1,0,1,0,0,1,1,0,2856,1873
2023/01/28 21:22:18,-0.2,38.8,34.7,34.3,42.3,52.0,1,0,1,0,0,1,1,0,2856,1874
2023/01/28 21:24:18,-0.2,39.8,35.7,34.3,42.0,52.0,1,0,1,0,0,1,1,0,2856,1875
2023/01/28 21:26:17,-0.2,40.8,36.6,34.3,41.9,52.0,1,0,1,0,0,1,1,0,2856,1876
2023/01/28 21:28:16,-0.2,41.7,37.5,34.3,41.9,52.0,1,0,1,0,0,1,1,0,2856,1876
2023/01/28 21:30:15,-0.2,42.5,38.2,34.3,42.2,52.0,1,0,1,0,0,1,1,0,2856,1877
2023/01/28 21:32:14,-0.2,43.2,38.9,34.3,42.6,52.0,1,1,1,0,0,1,1,0,2856,1878
2023/01/28 21:34:13,-0.2,46.9,40.6,34.3,42.9,52.0,1,1,1,0,0,1,1,0,2856,1879
2023/01/28 21:36:12,-0.2,48.8,42.3,34.3,43.4,52.0,1,1,1,0,0,1,1,0,2856,1881
2023/01/28 21:38:11,-0.2,50.1,43.4,34.3,44.0,52.0,1,1,1,0,0,1,1,0,2856,1882
2023/01/28 21:40:10,-0.2,51.3,44.4,34.3,44.5,52.0,1,1,1,0,0,1,1,0,2856,1883
2023/01/28 21:42:09,-0.2,52.5,45.3,34.3,45.3,52.0,1,1,1,0,0,1,1,0,2856,1884
2023/01/28 21:44:08,-0.2,53.4,46.3,34.3,46.1,52.0,1,1,1,0,0,1,1,0,2856,1885
2023/01/28 21:46:07,-0.2,54.3,47.2,34.3,47.0,52.0,1,1,1,0,0,1,1,0,2856,1887
2023/01/28 21:48:06,-0.2,55.2,48.1,34.3,47.8,52.0,1,1,1,0,0,1,1,0,2856,1888
2023/01/28 21:50:05,-0.2,56.2,49.0,34.3,48.7,52.0,1,1,1,0,0,1,1,0,2856,1889
2023/01/28 21:52:03,-0.2,57.0,49.7,34.3,49.5,52.0,1,1,1,0,0,1,1,0,2856,1890
2023/01/28 21:54:03,-0.2,58.0,50.7,34.3,50.5,52.0,1,1,1,0,0,1,1,0,2856,1891
2023/01/28 21:56:02,-0.2,58.8,51.7,34.3,51.4,52.0,1,1,1,0,0,1,1,0,2856,1893
2023/01/28 21:58:01,-0.2,58.0,52.2,34.3,52.3,52.0,0,1,1,0,1,0,1,0,2856,1894
2023/01/28 22:00:01,-0.2,37.4,31.8,34.3,53.0,52.0,0,1,1,0,1,0,1,0,2856,1894
2023/01/28 22:02:00,-0.2,34.7,29.7,34.3,53.2,52.0,0,1,1,0,1,0,1,0,2857,1894
2023/01/28 22:03:58,-0.2,33.6,29.0,34.3,53.3,52.0,0,1,1,0,1,0,1,0,2858,1894
2023/01/28 22:05:57,-0.2,33.8,29.4,34.3,53.4,52.0,0,1,1,0,1,0,1,0,2859,1894
2023/01/28 22:07:57,-0.2,34.0,29.7,34.3,53.4,52.0,0,1,1,0,1,0,1,0,2860,1894
2023/01/28 22:09:55,-0.2,33.9,29.6,34.3,53.4,52.0,0,1,1,0,1,0,1,0,2860,1894
2023/01/28 22:11:55,-0.2,33.9,29.8,34.3,53.4,52.0,0,1,1,0,1,0,1,0,2861,1894
2023/01/28 22:13:54,-0.2,33.9,29.8,34.3,53.4,52.0,0,1,1,0,1,0,1,0,2862,1894
2023/01/28 22:15:54,-0.2,34.1,30.0,34.3,53.4,52.0,0,1,1,0,1,0,1,0,2863,1894
2023/01/28 22:17:53,-0.2,33.9,29.8,34.3,53.4,52.0,0,1,1,0,1,0,1,0,2863,1894
2023/01/28 22:19:52,-0.2,33.9,29.9,34.3,53.4,52.0,0,1,1,0,1,0,1,0,2864,1894
2023/01/28 22:21:51,-0.3,34.0,30.0,34.3,53.4,52.0,0,1,1,0,1,0,1,0,2865,1894
2023/01/28 22:23:48,-0.3,34.4,30.1,34.3,53.4,52.0,0,1,1,0,1,0,1,0,2866,1894
2023/01/28 22:25:47,-0.3,35.7,30.0,34.3,53.4,52.0,1,1,1,0,1,0,1,0,2867,1894
2023/01/28 22:27:46,-0.3,36.0,30.0,34.3,53.4,52.0,1,1,1,0,1,0,1,0,2868,1894
2023/01/28 22:29:46,-0.3,36.4,30.4,34.3,53.4,40.0,1,1,1,0,1,0,1,0,2869,1894
2023/01/28 22:31:44,-0.3,36.7,30.5,34.3,53.4,40.0,1,1,1,0,1,0,1,0,2871,1894
2023/01/28 22:33:43,-0.3,37.0,30.9,34.3,53.4,40.0,1,1,1,0,1,0,1,0,2872,1894
2023/01/28 22:35:43,-0.3,37.3,31.1,34.3,53.4,40.0,1,1,1,0,1,0,1,0,2873,1894
2023/01/28 22:37:41,-0.3,37.7,31.5,34.3,53.4,40.0,1,1,1,0,1,0,1,0,2875,1894
2023/01/28 22:39:40,-0.3,38.1,31.8,34.3,53.4,40.0,1,1,1,0,1,0,1,0,2876,1894
2023/01/28 22:41:38,-0.3,38.3,32.0,34.3,53.4,40.0,1,1,1,0,1,0,1,0,2877,1894
2023/01/28 22:43:36,-0.3,38.7,32.5,34.3,53.4,40.0,1,1,1,0,1,0,1,0,2879,1894
2023/01/28 22:45:35,-0.3,39.2,33.0,34.3,53.3,40.0,1,1,1,0,1,0,1,0,2880,1894
2023/01/28 22:47:34,-0.3,39.5,33.3,34.3,53.3,40.0,1,1,1,0,1,0,1,0,2881,1894
2023/01/28 22:49:34,-0.3,39.9,33.7,34.3,53.3,40.0,1,1,1,0,1,0,1,0,2883,1894
2023/01/28 22:51:32,-0.3,40.4,34.2,34.3,53.3,40.0,1,1,1,0,1,0,1,0,2884,1894
2023/01/28 22:54:31,-0.3,40.9,34.5,34.3,53.3,40.0,1,1,1,0,1,0,1,0,2885,1894
2023/01/28 22:56:31,-0.3,41.2,34.8,34.3,53.3,40.0,1,1,1,0,1,0,1,0,2887,1894
2023/01/28 22:58:29,-0.3,41.6,35.2,34.3,53.2,40.0,1,1,1,0,1,0,1,0,2888,1894
2023/01/28 23:00:28,-0.3,41.9,35.5,34.3,53.2,40.0,1,1,1,0,1,0,1,0,2889,1894
2023/01/28 23:02:27,-0.3,42.3,36.1,34.3,53.2,40.0,1,1,1,0,1,0,1,0,2891,1894
2023/01/28 23:04:25,-0.3,41.7,36.8,34.3,53.2,40.0,1,0,1,0,1,0,1,0,2892,1894
2023/01/28 23:06:23,-0.3,42.0,37.3,34.3,53.2,40.0,1,0,1,0,1,0,1,0,2892,1894
2023/01/28 23:08:22,-0.3,42.3,37.7,34.3,53.2,40.0,1,0,1,0,1,0,1,0,2893,1894
2023/01/28 23:10:21,-0.3,42.6,38.0,34.3,53.2,40.0,1,0,1,0,1,0,1,0,2894,1894
2023/01/28 23:12:20,-0.3,42.9,38.4,34.3,53.1,40.0,1,0,1,0,1,0,1,0,2894,1894
2023/01/28 23:14:18,-0.3,43.2,38.7,34.3,53.1,40.0,1,0,1,0,1,0,1,0,2895,1894
2023/01/28 23:16:17,-0.3,43.5,38.9,34.3,53.1,40.0,1,0,1,0,1,0,1,0,2896,1894
2023/01/28 23:18:17,-0.2,43.0,39.2,34.3,53.1,40.0,0,0,1,0,1,0,1,0,2896,1894
2023/01/28 23:20:16,-0.2,41.2,39.4,34.3,53.1,40.0,0,0,0,0,1,0,1,0,2896,1894
2023/01/28 23:22:15,-0.2,41.0,38.9,34.3,53.0,40.0,0,0,0,0,1,0,0,0,2896,1894
2023/01/28 23:24:13,-0.2,40.3,38.3,34.3,53.0,40.0,0,0,0,0,1,0,0,0,2896,1894
2023/01/28 23:26:12,-0.2,39.9,37.9,34.3,53.0,40.0,0,0,0,0,1,0,0,0,2896,1894
2023/01/28 23:28:10,-0.2,39.7,37.6,34.3,53.0,40.0,0,0,0,0,1,0,0,0,2896,1894
2023/01/28 23:30:07,-0.2,39.4,37.4,34.3,53.0,40.0,0,0,0,0,1,0,0,0,2896,1894
2023/01/28 23:32:06,-0.2,39.2,37.1,34.3,53.0,40.0,0,0,0,0,1,0,0,0,2896,1894
2023/01/28 23:34:04,-0.2,39.1,36.8,34.3,52.9,40.0,0,0,0,0,1,0,0,0,2896,1894
2023/01/28 23:36:03,-0.3,38.9,36.6,34.3,52.9,40.0,0,0,0,0,1,0,0,0,2896,1894
2023/01/28 23:38:02,-0.3,38.8,36.3,34.3,52.9,40.0,0,0,0,0,1,0,0,0,2896,1894
2023/01/28 23:40:00,-0.3,38.7,36.0,34.3,52.9,40.0,0,0,0,0,1,0,0,0,2896,1894
2023/01/28 23:41:59,-0.3,38.6,35.7,34.3,52.9,40.0,0,0,0,0,1,0,0,0,2896,1894
2023/01/28 23:43:57,-0.3,38.5,35.4,34.3,52.9,40.0,0,0,0,0,1,0,0,0,2896,1894
2023/01/28 23:45:56,-0.3,38.5,35.1,34.3,52.8,40.0,0,0,0,0,1,0,0,0,2896,1894
2023/01/28 23:47:55,-0.3,38.4,34.8,34.3,52.8,40.0,0,0,0,0,1,0,0,0,2896,1894
2023/01/28 23:49:54,-0.3,38.3,34.6,34.3,52.8,40.0,0,0,0,0,1,0,0,0,2896,1894
2023/01/28 23:51:53,-0.3,38.3,34.4,34.3,52.8,40.0,0,0,0,0,1,0,0,0,2896,1894
2023/01/28 23:53:53,-0.3,38.2,34.1,34.3,52.7,40.0,0,0,0,0,1,0,0,0,2896,1894
2023/01/28 23:55:52,-0.3,38.1,33.8,34.3,52.7,40.0,0,0,0,0,1,0,0,0,2896,1894
2023/01/28 23:57:51,-0.3,38.1,33.6,34.3,52.7,40.0,0,0,0,0,1,0,0,0,2896,1894
2023/01/28 23:59:49,-0.3,38.0,33.3,34.3,52.7,40.0,0,0,0,0,1,0,0,0,2896,1894
