2023-05-11 01:04:10,246 [INFO] Uploading directory '/data/wp-logs/converted'
2023-05-11 01:04:10,326 [INFO] Uploading file '/data/wp-logs/converted/wp_logs_analog_converted.csv' to bucket 'waermepumpe-logs' and blob 'wp_logs_analog_converted.csv'.
2023-05-11 01:04:15,803 [INFO] File '/data/wp-logs/converted/wp_logs_analog_converted.csv' uploaded to bucket 'waermepumpe-logs' and blob 'wp_logs_analog_converted.csv'.
2023-05-11 01:04:15,836 [INFO] Uploading file '/data/wp-logs/converted/wp_logs_digital_converted.csv' to bucket 'waermepumpe-logs' and blob 'wp_logs_digital_converted.csv'.
2023-05-11 01:04:20,423 [INFO] File '/data/wp-logs/converted/wp_logs_digital_converted.csv' uploaded to bucket 'waermepumpe-logs' and blob 'wp_logs_digital_converted.csv'.
