2023-10-28 01:07:41,654 [INFO] Uploading directory '/data/wp-logs/converted'
2023-10-28 01:07:41,718 [INFO] Uploading file '/data/wp-logs/converted/wp_logs_analog_converted.csv' to bucket 'waermepumpe-logs' and blob 'wp_logs_analog_converted.csv'.
2023-10-28 01:07:47,645 [INFO] File '/data/wp-logs/converted/wp_logs_analog_converted.csv' uploaded to bucket 'waermepumpe-logs' and blob 'wp_logs_analog_converted.csv'.
2023-10-28 01:07:47,681 [INFO] Uploading file '/data/wp-logs/converted/wp_logs_digital_converted.csv' to bucket 'waermepumpe-logs' and blob 'wp_logs_digital_converted.csv'.
2023-10-28 01:07:52,413 [INFO] File '/data/wp-logs/converted/wp_logs_digital_converted.csv' uploaded to bucket 'waermepumpe-logs' and blob 'wp_logs_digital_converted.csv'.
