Type,Analog,Analog,Analog,Analog,Analog,Analog,Digital,Digital,Digital,Digital,Digital,Digital,Digital,Digital,Integer,Integer
Index,1,5,2,53,3,58,41,42,43,44,45,46,49,50,95,98
Name,R1,R9,R2,R2 Solltemperatur,R3,R3 Solltemperatur,M1,M3,M2/M11,E10,M13,M18,M16,E9,Waermemenge Heizen,Waermemenge Warmwasser
Description,Variable 1,Variable 2,Variable 3,Variable 4,Variable 5,Variable 6,Variable 7,Variable 8,Variable 9,Variable 10,Variable 11,Variable 12,Variable 13,Variable 14,Variable 15,Variable 16
2024/02/27 00:01:53,3.1,36.3,30.4,33.4,49.4,40.0,0,0,0,0,1,0,0,0,552,8341
2024/02/27 00:03:52,3.1,36.2,30.2,33.4,49.4,40.0,0,0,0,0,1,0,0,0,552,8341
2024/02/27 00:05:49,3.1,36.2,30.0,33.4,49.4,40.0,0,0,0,0,1,0,0,0,552,8341
2024/02/27 00:07:49,3.1,36.1,29.9,33.4,49.4,40.0,0,0,0,0,1,0,0,0,552,8341
2024/02/27 00:09:48,3.1,36.0,29.7,33.4,49.4,40.0,0,0,0,0,1,0,0,0,552,8341
2024/02/27 00:11:45,3.0,36.0,29.6,33.4,49.3,40.0,0,0,0,0,1,0,0,0,552,8341
2024/02/27 00:13:43,3.0,35.9,29.4,33.4,49.3,40.0,0,0,0,0,1,0,0,0,552,8341
2024/02/27 00:16:42,3.0,35.8,29.3,33.4,49.3,40.0,0,0,0,0,1,0,0,0,552,8341
2024/02/27 00:18:40,3.0,35.7,29.1,33.4,49.3,40.0,0,0,0,0,1,0,0,0,552,8341
2024/02/27 00:20:38,3.0,35.6,29.0,33.4,49.3,40.0,0,0,0,0,1,0,0,0,552,8341
2024/02/27 00:22:35,3.0,35.6,28.8,33.4,49.2,40.0,0,0,0,0,1,0,0,0,552,8341
2024/02/27 00:24:33,3.0,35.5,28.7,33.4,49.2,40.0,0,0,0,0,1,0,0,0,552,8341
2024/02/27 00:26:32,3.0,35.4,28.6,33.4,49.2,40.0,0,0,0,0,1,0,0,0,552,8341
2024/02/27 00:28:29,3.0,35.3,28.5,33.4,49.2,40.0,0,0,0,0,1,0,0,0,552,8341
2024/02/27 00:30:28,3.0,35.2,28.3,33.4,49.2,40.0,0,0,0,0,1,0,0,0,552,8341
2024/02/27 00:32:27,3.0,35.1,28.2,33.4,49.1,40.0,0,0,0,0,1,0,0,0,552,8341
2024/02/27 00:34:26,3.0,35.1,28.1,33.4,49.1,40.0,0,0,0,0,1,0,0,0,552,8341
2024/02/27 00:36:25,3.0,35.0,28.0,33.4,49.1,40.0,0,0,0,0,1,0,0,0,552,8341
2024/02/27 00:38:23,3.0,34.9,27.9,33.4,49.1,40.0,0,0,0,0,1,0,0,0,552,8341
2024/02/27 00:40:22,3.0,34.9,27.8,33.4,49.1,40.0,0,0,0,0,1,0,0,0,552,8341
2024/02/27 00:42:21,3.0,31.4,29.2,33.4,49.0,40.0,0,0,1,0,1,0,1,0,552,8341
2024/02/27 00:44:20,3.0,31.7,29.1,33.4,49.0,40.0,1,0,1,0,1,0,1,0,553,8341
2024/02/27 00:46:18,3.0,32.7,29.1,33.4,49.0,40.0,1,0,1,0,1,0,1,0,554,8341
2024/02/27 00:48:18,3.0,33.1,29.3,33.4,49.0,40.0,1,0,1,0,1,0,1,0,554,8341
2024/02/27 00:50:17,3.0,33.5,29.7,33.4,49.0,40.0,1,0,1,0,1,0,1,0,555,8341
2024/02/27 00:52:16,3.0,33.7,29.7,33.4,48.9,40.0,1,0,1,0,1,0,1,0,556,8341
2024/02/27 00:54:16,2.9,33.9,29.9,33.4,48.9,40.0,1,0,1,0,1,0,1,0,557,8341
2024/02/27 00:56:15,2.9,34.5,30.2,34.1,48.9,40.0,1,0,1,0,1,0,1,0,558,8341
2024/02/27 00:58:13,2.9,34.2,30.0,34.1,48.9,40.0,1,0,1,0,1,0,1,0,558,8341
2024/02/27 01:00:11,2.9,34.6,30.3,34.1,48.8,40.0,1,0,1,0,1,0,1,0,559,8341
2024/02/27 01:02:10,2.9,34.8,30.4,34.1,48.8,40.0,1,0,1,0,1,0,1,0,560,8341
2024/02/27 01:04:08,2.9,34.9,30.5,34.1,48.8,40.0,1,0,1,0,1,0,1,0,561,8341
2024/02/27 01:06:08,2.9,36.5,30.7,34.1,48.8,40.0,1,1,1,0,1,0,1,0,562,8341
2024/02/27 01:08:07,2.9,37.3,31.3,34.1,48.8,40.0,1,1,1,0,1,0,1,0,563,8341
2024/02/27 01:10:06,2.9,37.7,31.5,34.1,48.7,40.0,1,1,1,0,1,0,1,0,565,8341
2024/02/27 01:12:05,2.9,38.2,32.0,34.1,48.7,40.0,1,1,1,0,1,0,1,0,566,8341
2024/02/27 01:14:03,2.9,38.8,32.5,34.1,48.7,40.0,1,1,1,0,1,0,1,0,567,8341
2024/02/27 01:16:02,2.9,39.3,33.0,34.1,48.7,40.0,1,1,1,0,1,0,1,0,569,8341
2024/02/27 01:18:02,2.9,40.0,33.7,34.1,48.7,40.0,1,1,1,0,1,0,1,0,570,8341
2024/02/27 01:20:01,2.9,40.5,34.1,34.1,48.6,40.0,1,1,1,0,1,0,1,0,572,8341
2024/02/27 01:21:59,2.9,41.0,34.6,34.1,48.6,40.0,1,1,1,0,1,0,1,0,573,8341
2024/02/27 01:23:58,2.9,41.7,35.2,34.1,48.6,40.0,1,1,1,0,1,0,1,0,574,8341
2024/02/27 01:25:56,2.9,42.2,35.8,34.1,48.6,40.0,1,1,1,0,1,0,1,0,576,8341
2024/02/27 01:27:55,2.9,41.5,36.3,34.1,48.6,40.0,0,1,1,0,1,0,1,0,577,8341
2024/02/27 01:29:55,2.8,41.4,36.6,34.1,48.5,40.0,0,1,1,0,1,0,1,0,577,8341
2024/02/27 01:31:54,2.8,41.8,37.0,34.1,48.5,40.0,0,1,1,0,1,0,1,0,578,8341
2024/02/27 01:33:53,2.8,42.0,37.2,34.1,48.5,40.0,0,1,1,0,1,0,1,0,579,8341
2024/02/27 01:35:52,2.8,42.1,37.5,34.1,48.5,40.0,0,1,1,0,1,0,1,0,580,8341
2024/02/27 01:37:52,2.8,42.3,37.6,34.1,48.4,40.0,0,1,1,0,1,0,1,0,580,8341
2024/02/27 01:39:50,2.8,42.5,37.8,34.1,48.4,40.0,0,1,1,0,1,0,1,0,581,8341
2024/02/27 01:41:48,2.8,42.6,37.9,34.1,48.4,40.0,0,1,1,0,1,0,1,0,582,8341
2024/02/27 01:43:47,2.8,39.7,38.0,34.1,48.4,40.0,0,0,0,0,1,0,1,0,582,8341
2024/02/27 01:45:47,2.8,40.0,37.8,34.1,48.4,40.0,0,0,0,0,1,0,0,0,582,8341
2024/02/27 01:47:45,2.8,39.3,37.1,34.1,48.3,40.0,0,0,0,0,1,0,0,0,582,8341
2024/02/27 01:49:44,2.8,38.9,36.7,34.1,48.3,40.0,0,0,0,0,1,0,0,0,582,8341
2024/02/27 01:52:42,2.8,38.7,36.4,34.1,48.3,40.0,0,0,0,0,1,0,0,0,582,8341
2024/02/27 01:54:40,2.7,38.4,36.1,34.1,48.3,40.0,0,0,0,0,1,0,0,0,582,8341
2024/02/27 01:56:37,2.7,38.2,35.8,34.1,48.3,40.0,0,0,0,0,1,0,0,0,582,8341
2024/02/27 01:58:36,2.7,38.1,35.6,34.1,48.2,40.0,0,0,0,0,1,0,0,0,582,8341
2024/02/27 02:00:35,2.7,37.9,35.3,34.1,48.2,40.0,0,0,0,0,1,0,0,0,582,8341
2024/02/27 02:02:35,2.7,37.8,35.0,34.1,48.2,40.0,0,0,0,0,1,0,0,0,582,8341
2024/02/27 02:04:34,2.7,37.7,34.8,34.1,48.2,40.0,0,0,0,0,1,0,0,0,582,8341
2024/02/27 02:06:33,2.7,37.6,34.6,34.1,48.2,40.0,0,0,0,0,1,0,0,0,582,8341
2024/02/27 02:08:31,2.7,37.5,34.3,34.1,48.1,40.0,0,0,0,0,1,0,0,0,582,8341
2024/02/27 02:10:30,2.7,37.4,34.0,34.1,48.1,40.0,0,0,0,0,1,0,0,0,582,8341
2024/02/27 02:12:28,2.7,37.3,33.7,34.1,48.1,40.0,0,0,0,0,1,0,0,0,582,8341
2024/02/27 02:14:27,2.7,37.3,33.5,34.1,48.1,40.0,0,0,0,0,1,0,0,0,582,8341
2024/02/27 02:16:25,2.7,37.2,33.2,34.1,48.1,40.0,0,0,0,0,1,0,0,0,582,8341
2024/02/27 02:18:25,2.6,37.1,32.9,34.1,48.0,40.0,0,0,0,0,1,0,0,0,582,8341
2024/02/27 02:20:23,2.6,37.0,32.7,34.1,48.0,40.0,0,0,0,0,1,0,0,0,582,8341
2024/02/27 02:22:22,2.6,37.0,32.4,34.1,48.0,40.0,0,0,0,0,1,0,0,0,582,8341
2024/02/27 02:24:20,2.6,36.9,32.2,34.1,48.0,40.0,0,0,0,0,1,0,0,0,582,8341
2024/02/27 02:26:19,2.6,36.8,31.9,34.1,48.0,40.0,0,0,0,0,1,0,0,0,582,8341
2024/02/27 02:28:17,2.6,36.8,31.7,34.1,47.9,40.0,0,0,0,0,1,0,0,0,582,8341
2024/02/27 02:30:15,2.6,36.7,31.5,34.1,47.9,40.0,0,0,0,0,1,0,0,0,582,8341
2024/02/27 02:32:15,2.6,36.7,31.3,34.1,47.9,40.0,0,0,0,0,1,0,0,0,582,8341
2024/02/27 02:34:14,2.6,36.6,31.0,34.1,47.9,40.0,0,0,0,0,1,0,0,0,582,8341
2024/02/27 02:36:12,2.6,36.5,30.8,34.1,47.8,40.0,0,0,0,0,1,0,0,0,582,8341
2024/02/27 02:38:11,2.6,36.5,30.6,34.1,47.8,40.0,0,0,0,0,1,0,0,0,582,8341
2024/02/27 02:40:10,2.6,36.4,30.4,34.1,47.8,40.0,0,0,0,0,1,0,0,0,582,8341
2024/02/27 02:42:07,2.6,36.3,30.2,34.1,47.8,40.0,0,0,0,0,1,0,0,0,582,8341
2024/02/27 02:44:06,2.6,36.3,30.0,34.1,47.8,40.0,0,0,0,0,1,0,0,0,582,8341
2024/02/27 02:46:05,2.6,36.2,29.9,34.1,47.7,40.0,0,0,0,0,1,0,0,0,582,8341
2024/02/27 02:48:03,2.6,36.1,29.7,34.1,47.7,40.0,0,0,0,0,1,0,0,0,582,8341
2024/02/27 02:50:01,2.6,36.1,29.6,34.1,47.7,40.0,0,0,0,0,1,0,0,0,582,8341
2024/02/27 02:51:59,2.6,36.0,29.4,34.1,47.7,40.0,0,0,0,0,1,0,0,0,582,8341
2024/02/27 02:53:57,2.6,35.9,29.3,34.1,47.7,40.0,0,0,0,0,1,0,0,0,582,8341
2024/02/27 02:55:56,2.6,35.8,29.1,34.1,47.6,40.0,0,0,0,0,1,0,0,0,582,8341
2024/02/27 02:57:54,2.6,35.8,29.0,34.1,47.6,40.0,0,0,0,0,1,0,0,0,582,8341
2024/02/27 02:59:53,2.6,35.7,28.9,34.1,47.6,40.0,0,0,0,0,1,0,0,0,582,8341
2024/02/27 03:01:52,2.6,35.6,28.7,34.1,47.6,40.0,0,0,0,0,1,0,0,0,582,8341
2024/02/27 03:03:52,2.6,35.5,28.6,34.1,47.6,40.0,0,0,0,0,1,0,0,0,582,8341
2024/02/27 03:05:50,2.6,35.4,28.5,34.1,47.5,40.0,0,0,0,0,1,0,0,0,582,8341
2024/02/27 03:07:50,2.7,35.3,28.3,34.1,47.5,40.0,0,0,0,0,1,0,0,0,582,8341
2024/02/27 03:09:48,2.7,35.3,28.2,34.1,47.5,40.0,0,0,0,0,1,0,0,0,582,8341
2024/02/27 03:11:46,2.7,35.2,28.1,34.1,47.5,40.0,0,0,0,0,1,0,0,0,582,8341
2024/02/27 03:13:43,2.7,33.1,29.9,34.1,47.5,40.0,0,0,0,0,1,0,1,0,582,8341
2024/02/27 03:15:43,2.8,31.9,29.6,34.1,47.4,40.0,1,0,1,0,1,0,1,0,582,8341
2024/02/27 03:18:41,2.8,33.2,29.6,34.1,47.4,40.0,1,0,1,0,1,0,1,0,583,8341
2024/02/27 03:20:38,2.8,33.5,29.7,34.1,47.4,40.0,1,0,1,0,1,0,1,0,584,8341
2024/02/27 03:22:37,2.8,33.9,30.0,34.1,47.4,40.0,1,0,1,0,1,0,1,0,585,8341
2024/02/27 03:24:35,2.8,34.1,30.0,34.1,47.4,40.0,1,0,1,0,1,0,1,0,585,8341
2024/02/27 03:26:35,2.8,34.5,30.1,34.1,47.3,40.0,1,0,1,0,1,0,1,0,586,8341
2024/02/27 03:28:34,2.8,34.6,30.1,34.1,47.3,40.0,1,0,1,0,1,0,1,0,587,8341
2024/02/27 03:30:33,2.8,34.7,30.3,34.1,47.3,40.0,1,0,1,0,1,0,1,0,588,8341
2024/02/27 03:32:32,2.8,34.9,30.5,34.1,47.3,40.0,1,0,1,0,1,0,1,0,589,8341
2024/02/27 03:34:31,2.8,35.0,30.7,34.1,47.3,40.0,1,0,1,0,1,0,1,0,589,8341
2024/02/27 03:36:29,2.8,35.3,31.0,34.1,47.2,40.0,1,0,1,0,1,0,1,0,590,8341
2024/02/27 03:38:28,2.8,37.1,31.2,34.1,47.2,40.0,1,1,1,0,1,0,1,0,591,8341
2024/02/27 03:40:27,2.8,37.7,31.6,34.1,47.2,40.0,1,1,1,0,1,0,1,0,593,8341
2024/02/27 03:42:24,2.8,38.2,32.0,34.1,47.2,40.0,1,1,1,0,1,0,1,0,594,8341
2024/02/27 03:44:23,2.8,39.0,32.8,34.1,47.2,40.0,1,1,1,0,1,0,1,0,596,8341
2024/02/27 03:46:22,2.8,39.5,33.3,34.1,47.1,40.0,1,1,1,0,1,0,1,0,597,8341
2024/02/27 03:48:21,2.8,40.0,33.8,34.1,47.1,40.0,1,1,1,0,1,0,1,0,598,8341
2024/02/27 03:50:20,2.8,40.6,34.3,34.1,47.1,40.0,1,1,1,0,1,0,1,0,600,8341
2024/02/27 03:52:19,2.8,41.2,34.8,34.1,47.1,40.0,1,1,1,0,1,0,1,0,601,8341
2024/02/27 03:54:17,2.8,41.7,35.2,34.1,47.1,40.0,1,1,1,0,1,0,1,0,602,8341
2024/02/27 03:56:16,2.8,42.2,35.8,34.1,47.0,40.0,1,1,1,0,1,0,1,0,604,8341
2024/02/27 03:58:15,2.9,41.4,36.4,34.1,47.0,40.0,0,1,1,0,1,0,1,0,605,8341
2024/02/27 04:00:14,2.9,41.5,36.6,34.1,47.0,40.0,0,1,1,0,1,0,1,0,606,8341
2024/02/27 04:02:12,2.9,41.7,36.9,34.1,47.0,40.0,0,1,1,0,1,0,1,0,606,8341
2024/02/27 04:04:11,2.9,41.9,37.2,34.1,47.0,40.0,0,1,1,0,1,0,1,0,607,8341
2024/02/27 04:06:10,2.9,42.1,37.4,34.1,46.9,40.0,0,1,1,0,1,0,1,0,608,8341
2024/02/27 04:08:09,2.9,42.3,37.7,34.1,46.9,40.0,0,1,1,0,1,0,1,0,609,8341
2024/02/27 04:10:08,2.9,42.5,37.8,34.1,46.9,40.0,0,1,1,0,1,0,1,0,609,8341
2024/02/27 04:12:07,3.0,42.6,38.0,34.1,46.9,40.0,0,0,1,0,1,0,1,0,610,8341
2024/02/27 04:14:06,3.0,39.8,38.1,33.4,46.9,40.0,0,0,0,0,1,0,1,0,610,8341
2024/02/27 04:16:04,3.0,39.6,37.7,33.4,46.8,40.0,0,0,0,0,1,0,0,0,610,8341
2024/02/27 04:18:02,3.0,39.0,37.1,33.4,46.8,40.0,0,0,0,0,1,0,0,0,610,8341
2024/02/27 04:20:01,3.0,38.7,36.7,33.4,46.8,40.0,0,0,0,0,1,0,0,0,610,8341
2024/02/27 04:21:59,3.0,38.4,36.4,33.4,46.8,40.0,0,0,0,0,1,0,0,0,610,8341
2024/02/27 04:23:58,3.0,38.2,36.1,33.4,46.8,40.0,0,0,0,0,1,0,0,0,610,8341
2024/02/27 04:25:57,3.0,38.0,35.8,33.4,46.7,40.0,0,0,0,0,1,0,0,0,610,8341
2024/02/27 04:27:56,3.0,37.8,35.6,33.4,46.7,40.0,0,0,0,0,1,0,0,0,610,8341
2024/02/27 04:29:56,3.0,37.7,35.3,33.4,46.7,40.0,0,0,0,0,1,0,0,0,610,8341
2024/02/27 04:31:51,3.0,37.6,35.0,33.4,46.7,40.0,0,0,0,0,1,0,0,0,610,8341
2024/02/27 04:33:50,3.0,37.5,34.8,33.4,46.7,40.0,0,0,0,0,1,0,0,0,610,8341
2024/02/27 04:35:49,3.1,37.4,34.5,33.4,46.6,40.0,0,0,0,0,1,0,0,0,610,8341
2024/02/27 04:37:47,3.1,37.3,34.2,33.4,46.6,40.0,0,0,0,0,1,0,0,0,610,8341
2024/02/27 04:39:46,3.1,37.2,34.0,33.4,46.6,40.0,0,0,0,0,1,0,0,0,610,8341
2024/02/27 04:41:46,3.1,37.1,33.7,33.4,46.6,40.0,0,0,0,0,1,0,0,0,610,8341
2024/02/27 04:43:45,3.1,37.1,33.4,33.4,46.6,40.0,0,0,0,0,1,0,0,0,610,8341
2024/02/27 04:45:42,3.1,37.0,33.1,33.4,46.5,40.0,0,0,0,0,1,0,0,0,610,8341
2024/02/27 04:48:41,3.1,36.9,32.9,33.4,46.5,40.0,0,0,0,0,1,0,0,0,610,8341
2024/02/27 04:50:40,3.1,36.9,32.6,33.4,46.5,40.0,0,0,0,0,1,0,0,0,610,8341
2024/02/27 04:52:39,3.1,36.8,32.4,33.4,46.5,40.0,0,0,0,0,1,0,0,0,610,8341
2024/02/27 04:54:38,3.1,36.7,32.1,33.4,46.5,40.0,0,0,0,0,1,0,0,0,610,8341
2024/02/27 04:56:37,3.1,36.7,31.9,33.4,46.4,40.0,0,0,0,0,1,0,0,0,610,8341
2024/02/27 04:58:36,3.1,36.6,31.6,33.4,46.4,40.0,0,0,0,0,1,0,0,0,610,8341
2024/02/27 05:00:35,3.2,36.6,31.4,33.4,46.4,40.0,0,0,0,0,1,0,0,0,610,8341
2024/02/27 05:02:34,3.2,36.5,31.2,33.4,46.4,40.0,0,0,0,0,1,0,0,0,610,8341
2024/02/27 05:04:33,3.2,36.5,31.0,33.4,46.4,40.0,0,0,0,0,1,0,0,0,610,8341
2024/02/27 05:06:32,3.2,36.4,30.7,33.4,46.3,40.0,0,0,0,0,1,0,0,0,610,8341
2024/02/27 05:08:32,3.2,36.4,30.5,33.4,46.3,40.0,0,0,0,0,1,0,0,0,610,8341
2024/02/27 05:10:29,3.2,36.3,30.3,33.4,46.3,40.0,0,0,0,0,1,0,0,0,610,8341
2024/02/27 05:12:28,3.2,36.2,30.1,33.4,46.3,40.0,0,0,0,0,1,0,0,0,610,8341
2024/02/27 05:14:26,3.2,36.2,29.9,33.4,46.3,40.0,0,0,0,0,1,0,0,0,610,8341
2024/02/27 05:16:26,3.2,36.1,29.8,33.4,46.2,52.0,0,0,0,0,1,0,0,0,610,8341
2024/02/27 05:18:24,3.2,36.0,29.6,33.4,46.2,52.0,0,0,0,0,1,0,0,0,610,8341
2024/02/27 05:20:23,3.2,36.0,29.5,33.4,46.2,52.0,0,0,0,0,1,0,0,0,610,8341
2024/02/27 05:22:22,3.2,35.9,29.3,33.4,46.2,52.0,0,0,0,0,1,0,0,0,610,8341
2024/02/27 05:24:20,3.2,35.8,29.2,33.4,46.2,52.0,0,0,0,0,1,0,0,0,610,8341
2024/02/27 05:26:19,3.2,35.7,29.1,33.4,46.1,52.0,0,0,0,0,1,0,0,0,610,8341
2024/02/27 05:28:17,3.3,35.6,28.9,33.4,46.1,52.0,0,0,0,0,1,0,0,0,610,8341
2024/02/27 05:30:14,3.3,35.6,28.8,33.4,46.1,52.0,0,0,0,0,1,0,0,0,610,8341
2024/02/27 05:32:14,3.3,35.5,28.7,33.4,45.5,52.0,0,0,0,0,1,0,0,0,610,8341
2024/02/27 05:34:13,3.3,35.4,28.5,33.4,45.0,52.0,0,0,0,0,1,0,0,0,610,8341
2024/02/27 05:36:12,3.3,35.3,28.4,33.4,44.6,52.0,0,0,0,0,1,0,0,0,610,8341
2024/02/27 05:38:12,3.3,35.2,28.3,33.4,44.3,52.0,0,0,0,0,1,0,0,0,610,8341
2024/02/27 05:40:10,3.3,35.1,28.2,33.4,44.1,52.0,0,0,0,0,1,0,0,0,610,8341
2024/02/27 05:42:09,3.4,36.2,36.4,33.4,43.9,52.0,1,0,1,0,0,1,1,0,610,8341
2024/02/27 05:44:08,3.4,40.1,36.9,33.4,43.4,52.0,1,0,1,0,0,1,1,0,610,8342
2024/02/27 05:46:07,3.4,43.7,39.8,33.4,43.2,52.0,1,0,1,0,0,1,1,0,610,8343
2024/02/27 05:48:05,3.4,45.4,41.6,33.4,43.2,52.0,1,0,1,0,0,1,1,0,610,8343
2024/02/27 05:50:04,3.4,46.7,42.6,33.4,43.5,52.0,1,0,1,0,0,1,1,0,610,8344
2024/02/27 05:52:04,3.4,47.6,43.2,33.4,44.0,52.0,1,0,1,0,0,1,1,0,610,8345
2024/02/27 05:54:02,3.4,48.2,43.7,33.4,44.5,52.0,1,0,1,0,0,1,1,0,610,8346
2024/02/27 05:56:02,3.5,48.6,44.1,33.4,45.1,52.0,1,0,1,0,0,1,1,0,610,8346
2024/02/27 05:58:00,3.5,49.0,44.4,33.4,45.5,52.0,1,0,1,0,0,1,1,0,610,8347
2024/02/27 06:00:00,3.5,49.2,44.6,33.4,46.0,52.0,1,0,1,0,0,1,1,0,610,8348
2024/02/27 06:01:59,3.5,50.7,44.8,33.4,46.5,52.0,1,1,1,0,0,1,1,0,610,8349
2024/02/27 06:03:58,3.5,53.2,46.4,33.4,46.9,52.0,1,1,1,0,0,1,1,0,610,8350
2024/02/27 06:05:57,3.5,54.7,47.8,33.4,47.6,52.0,1,1,1,0,0,1,1,0,610,8351
2024/02/27 06:07:57,3.5,55.9,48.8,33.4,48.4,52.0,1,1,1,0,0,1,1,0,610,8352
2024/02/27 06:09:56,3.6,56.9,49.5,33.4,49.2,52.0,1,1,1,0,0,1,1,0,610,8354
2024/02/27 06:11:55,3.6,57.4,49.9,33.4,50.0,52.0,1,1,1,0,0,1,1,0,610,8355
2024/02/27 06:13:54,3.6,57.8,50.3,33.4,51.0,52.0,1,1,1,0,0,1,1,0,610,8356
2024/02/27 06:15:53,3.6,58.2,51.3,33.4,52.0,52.0,0,1,1,0,1,1,1,0,610,8357
2024/02/27 06:17:52,3.6,39.3,32.9,33.4,52.7,52.0,0,1,1,0,1,0,1,0,611,8357
2024/02/27 06:19:51,3.6,36.0,30.5,33.4,52.9,52.0,0,1,1,0,1,0,1,0,612,8357
2024/02/27 06:21:50,3.6,34.6,29.7,33.4,52.9,52.0,0,1,1,0,1,0,1,0,613,8357
2024/02/27 06:23:50,3.6,34.2,29.8,33.4,52.9,52.0,0,1,1,0,1,0,1,0,613,8357
2024/02/27 06:25:48,3.6,35.7,30.9,33.4,52.8,52.0,0,1,1,0,1,0,1,0,614,8357
2024/02/27 06:27:46,3.6,35.6,30.9,33.4,52.7,52.0,0,1,1,0,1,0,1,0,615,8357
2024/02/27 06:29:45,3.6,35.6,30.9,33.4,52.6,52.0,0,1,1,0,1,0,1,0,616,8357
2024/02/27 06:31:45,3.6,35.6,31.1,33.4,52.5,52.0,0,1,1,0,1,0,1,0,617,8357
2024/02/27 06:33:44,3.6,35.7,31.2,33.4,52.4,52.0,0,1,1,0,1,0,1,0,617,8357
2024/02/27 06:35:43,3.6,35.9,31.4,33.4,52.3,52.0,0,1,1,0,1,0,1,0,618,8357
2024/02/27 06:38:42,3.6,36.0,31.5,33.4,52.2,52.0,0,1,1,0,1,0,1,0,619,8357
2024/02/27 06:40:41,3.6,36.3,31.8,33.4,52.1,52.0,0,1,1,0,1,0,1,0,620,8357
2024/02/27 06:42:41,3.6,36.4,31.9,33.4,52.1,52.0,0,1,1,0,1,0,1,0,621,8357
2024/02/27 06:44:39,3.6,36.6,32.1,33.4,52.0,52.0,0,1,1,0,1,0,1,0,621,8357
2024/02/27 06:46:38,3.6,36.8,32.2,33.4,51.9,52.0,0,1,1,0,1,0,1,0,622,8357
2024/02/27 06:48:37,3.6,36.9,32.4,33.4,51.8,52.0,0,1,1,0,1,0,1,0,623,8357
2024/02/27 06:50:36,3.6,37.1,32.6,33.4,51.8,52.0,0,1,1,0,1,0,1,0,624,8357
2024/02/27 06:52:36,3.6,37.3,32.8,33.4,51.7,52.0,0,1,1,0,1,0,1,0,624,8357
2024/02/27 06:54:35,3.6,37.5,33.0,33.4,51.6,52.0,0,1,1,0,1,0,1,0,625,8357
2024/02/27 06:56:33,3.6,37.7,33.1,33.4,51.5,52.0,0,1,1,0,1,0,1,0,626,8357
2024/02/27 06:58:32,3.6,37.8,33.2,33.4,51.4,52.0,0,1,1,0,1,0,1,0,627,8357
2024/02/27 07:00:31,3.6,38.0,33.4,33.4,51.3,52.0,0,1,1,0,1,0,1,0,628,8357
2024/02/27 07:02:28,3.6,38.1,33.6,33.4,51.3,52.0,0,1,1,0,1,0,1,0,628,8357
2024/02/27 07:04:28,3.6,38.3,33.7,33.4,51.2,52.0,0,1,1,0,1,0,1,0,629,8357
2024/02/27 07:06:27,3.6,38.5,33.9,33.4,51.1,52.0,0,1,1,0,1,0,1,0,630,8357
2024/02/27 07:08:26,3.6,38.7,34.2,33.4,51.0,52.0,0,1,1,0,1,0,1,0,631,8357
2024/02/27 07:10:26,3.6,38.9,34.3,33.4,50.9,52.0,0,1,1,0,1,0,1,0,631,8357
2024/02/27 07:12:25,3.5,39.2,34.6,33.4,50.9,52.0,0,1,1,0,1,0,1,0,632,8357
2024/02/27 07:14:24,3.5,39.4,34.7,33.4,50.8,52.0,0,1,1,0,1,0,1,0,633,8357
2024/02/27 07:16:22,3.5,39.5,34.8,33.4,50.7,52.0,0,1,1,0,1,0,1,0,634,8357
2024/02/27 07:18:20,3.5,39.7,35.0,33.4,50.6,52.0,0,1,1,0,1,0,1,0,634,8357
2024/02/27 07:20:19,3.5,39.9,35.2,33.4,50.5,52.0,0,1,1,0,1,0,1,0,635,8357
2024/02/27 07:22:18,3.5,40.0,35.3,33.4,50.4,52.0,0,1,1,0,1,0,1,0,636,8357
2024/02/27 07:24:18,3.5,37.4,35.6,33.4,50.3,52.0,0,0,0,0,1,0,1,0,636,8357
2024/02/27 07:26:16,3.5,37.7,35.6,33.4,50.2,52.0,0,0,0,0,1,0,0,0,636,8357
2024/02/27 07:28:15,3.5,37.2,34.9,33.4,50.1,52.0,0,0,0,0,1,0,0,0,636,8357
2024/02/27 07:30:14,3.5,36.8,34.6,33.4,50.0,52.0,0,0,0,0,1,0,0,0,636,8357
2024/02/27 07:32:13,3.5,36.5,34.3,33.4,49.9,52.0,0,0,0,0,1,0,0,0,636,8357
2024/02/27 07:34:12,3.5,36.3,34.1,33.4,49.8,52.0,0,0,0,0,1,0,0,0,636,8357
2024/02/27 07:36:10,3.4,36.1,33.9,33.4,49.7,52.0,0,0,0,0,1,0,0,0,636,8357
2024/02/27 07:38:09,3.4,35.9,33.7,33.4,49.7,52.0,0,0,0,0,1,0,0,0,636,8357
2024/02/27 07:40:08,3.4,35.8,33.5,33.4,49.6,52.0,0,0,0,0,1,0,0,0,636,8357
2024/02/27 07:42:07,3.4,35.6,33.2,33.4,49.5,52.0,0,0,0,0,1,0,0,0,636,8357
2024/02/27 07:44:06,3.4,35.5,33.0,33.4,49.4,52.0,0,0,0,0,1,0,0,0,636,8357
2024/02/27 07:46:05,3.5,35.4,32.8,33.4,49.3,52.0,0,0,0,0,1,0,0,0,636,8357
2024/02/27 07:48:04,3.6,35.3,32.6,33.4,49.3,52.0,0,0,0,0,1,0,0,0,636,8357
2024/02/27 07:50:02,3.6,35.2,32.2,33.4,49.2,52.0,0,0,0,0,1,0,0,0,636,8357
2024/02/27 07:52:01,3.7,35.1,31.8,33.4,49.1,52.0,0,0,0,0,1,0,0,0,636,8357
2024/02/27 07:54:00,3.8,35.1,31.5,33.4,49.0,52.0,0,0,0,0,1,0,0,0,636,8357
2024/02/27 07:56:00,3.9,35.0,31.2,33.4,49.0,52.0,0,0,0,0,1,0,0,0,636,8357
2024/02/27 07:57:59,3.9,34.9,31.0,33.4,48.9,52.0,0,0,0,0,1,0,0,0,636,8357
2024/02/27 07:59:58,3.9,34.9,30.7,33.4,48.8,52.0,0,0,0,0,1,0,0,0,636,8357
2024/02/27 08:01:56,4.0,34.8,30.4,32.8,48.7,52.0,0,0,0,0,1,0,0,0,636,8357
2024/02/27 08:03:55,4.0,34.8,30.1,32.8,48.7,52.0,0,0,0,0,1,0,0,0,636,8357
2024/02/27 08:05:53,4.0,34.7,29.9,32.8,48.6,52.0,0,0,0,0,1,0,0,0,636,8357
2024/02/27 08:07:53,4.0,34.7,29.7,32.8,48.5,52.0,0,0,0,0,1,0,0,0,636,8357
2024/02/27 08:09:52,4.0,34.6,29.5,32.8,48.4,52.0,0,0,0,0,1,0,0,0,636,8357
2024/02/27 08:11:51,4.1,34.6,29.3,32.8,48.3,52.0,0,0,0,0,1,0,0,0,636,8357
2024/02/27 08:13:50,4.1,34.6,29.1,32.8,48.2,52.0,0,0,0,0,1,0,0,0,636,8357
2024/02/27 08:15:49,4.1,34.5,28.9,32.8,48.2,52.0,0,0,0,0,1,0,0,0,636,8357
2024/02/27 08:17:47,4.1,34.5,28.8,32.8,48.1,52.0,0,0,0,0,1,0,0,0,636,8357
2024/02/27 08:19:46,4.2,34.4,28.6,32.8,48.0,52.0,0,0,0,0,1,0,0,0,636,8357
2024/02/27 08:21:45,4.2,34.4,28.4,32.8,47.9,52.0,0,0,0,0,1,0,0,0,636,8357
2024/02/27 08:23:44,4.2,34.3,28.3,32.8,47.9,52.0,0,0,0,0,1,0,0,0,636,8357
2024/02/27 08:25:42,4.2,34.3,28.1,32.8,47.8,52.0,0,0,0,0,1,0,0,0,636,8357
2024/02/27 08:28:41,4.3,34.2,28.0,32.8,47.7,52.0,0,0,0,0,1,0,0,0,636,8357
2024/02/27 08:30:39,4.3,34.2,27.8,32.8,47.6,52.0,0,0,0,0,1,0,0,0,636,8357
2024/02/27 08:32:37,4.4,34.1,27.7,32.8,47.5,52.0,0,0,0,0,1,0,0,0,636,8357
2024/02/27 08:34:35,4.4,34.0,27.6,32.8,47.4,52.0,0,0,0,0,1,0,0,0,636,8357
2024/02/27 08:36:34,4.5,34.0,27.5,32.8,47.4,52.0,0,0,0,0,1,0,0,0,636,8357
2024/02/27 08:38:32,4.5,33.9,27.4,32.8,47.3,52.0,0,0,0,0,1,0,0,0,636,8357
2024/02/27 08:40:31,4.5,33.9,27.3,32.8,47.2,52.0,0,0,0,0,1,0,0,0,636,8357
2024/02/27 08:42:30,4.6,33.8,27.2,32.8,47.1,52.0,0,0,0,0,1,0,0,0,636,8357
2024/02/27 08:44:28,4.6,33.7,27.1,32.8,47.0,52.0,0,0,0,0,1,0,0,0,636,8357
2024/02/27 08:46:28,4.8,33.7,27.0,32.8,47.0,52.0,0,0,0,0,1,0,0,0,636,8357
2024/02/27 08:48:26,4.9,33.6,26.9,32.8,46.9,52.0,0,0,0,0,1,0,0,0,636,8357
2024/02/27 08:50:25,4.9,33.5,26.8,32.8,46.8,52.0,0,0,0,0,1,0,0,0,636,8357
2024/02/27 08:52:24,5.0,33.5,26.7,32.1,46.7,52.0,0,0,0,0,1,0,0,0,636,8357
2024/02/27 08:54:21,5.1,33.4,26.6,32.1,46.6,52.0,0,0,0,0,1,0,0,0,636,8357
2024/02/27 08:56:20,5.2,33.3,26.5,32.1,46.5,52.0,0,0,0,0,1,0,0,0,636,8357
2024/02/27 08:58:19,5.2,33.3,26.4,32.1,46.4,52.0,0,0,0,0,1,0,0,0,636,8357
2024/02/27 09:00:18,5.3,33.2,26.4,32.1,46.3,52.0,0,0,0,0,1,0,0,0,636,8357
2024/02/27 09:02:13,5.4,33.2,26.3,32.1,46.3,52.0,0,0,0,0,1,0,0,0,636,8357
2024/02/27 09:04:12,5.4,33.1,26.2,32.1,46.2,52.0,0,0,0,0,1,0,0,0,636,8357
2024/02/27 09:06:11,5.4,33.0,26.1,32.1,46.1,52.0,0,0,0,0,1,0,0,0,636,8357
2024/02/27 09:08:10,5.5,30.4,28.0,32.1,46.0,52.0,0,0,0,0,1,0,1,0,636,8357
2024/02/27 09:10:09,5.6,30.2,27.8,32.1,45.9,52.0,1,0,1,0,1,0,1,0,636,8357
2024/02/27 09:12:08,5.6,31.5,28.0,32.1,45.8,52.0,1,0,1,0,1,0,1,0,637,8357
2024/02/27 09:14:08,5.6,31.8,28.2,32.1,45.6,52.0,1,0,1,0,1,0,1,0,638,8357
2024/02/27 09:16:05,5.7,32.2,28.4,32.1,45.5,52.0,1,0,1,0,1,0,1,0,639,8357
2024/02/27 09:18:04,5.7,32.5,28.7,32.1,45.5,52.0,1,0,1,0,1,0,1,0,640,8357
2024/02/27 09:20:03,5.8,32.8,28.8,32.1,45.4,52.0,1,0,1,0,1,0,1,0,640,8357
2024/02/27 09:22:02,5.9,33.0,29.0,32.1,45.3,52.0,1,0,1,0,1,0,1,0,641,8357
2024/02/27 09:24:01,5.9,33.3,29.3,32.1,45.2,52.0,1,0,1,0,1,0,1,0,642,8357
2024/02/27 09:26:00,5.9,33.4,29.4,32.1,45.1,52.0,1,0,1,0,1,0,1,0,643,8357
2024/02/27 09:27:59,6.0,33.7,29.7,31.4,45.1,52.0,1,0,1,0,1,0,1,0,644,8357
2024/02/27 09:29:58,6.0,33.9,29.9,31.4,45.0,52.0,1,0,1,0,1,0,1,0,644,8357
2024/02/27 09:31:57,6.0,34.5,30.1,31.4,44.9,52.0,1,0,1,0,1,0,1,0,645,8357
2024/02/27 09:33:56,6.1,34.6,30.1,31.4,44.8,52.0,1,0,1,0,1,0,1,0,646,8357
2024/02/27 09:35:55,6.1,34.7,30.2,31.4,44.8,52.0,1,0,1,0,1,0,1,0,647,8357
2024/02/27 09:37:53,6.1,34.9,30.4,31.4,44.7,52.0,1,0,1,0,1,0,1,0,648,8357
2024/02/27 09:39:51,6.1,35.2,30.7,31.4,44.6,52.0,1,0,1,0,1,0,1,0,648,8357
2024/02/27 09:41:50,6.2,35.4,30.9,31.4,44.5,52.0,1,0,1,0,1,0,1,0,649,8357
2024/02/27 09:43:50,6.2,35.7,31.2,31.4,44.4,52.0,1,0,1,0,1,0,1,0,650,8357
2024/02/27 09:45:48,6.2,35.9,31.4,31.4,44.3,52.0,1,0,1,0,1,0,1,0,651,8357
2024/02/27 09:47:47,6.2,36.3,31.7,31.4,44.2,52.0,1,0,1,0,1,0,1,0,651,8357
2024/02/27 09:49:46,6.2,36.4,31.9,31.4,44.2,52.0,1,0,1,0,1,0,1,0,652,8357
2024/02/27 09:51:45,6.2,36.7,32.2,31.4,44.1,52.0,1,0,1,0,1,0,1,0,653,8357
2024/02/27 09:53:44,6.2,32.6,25.6,31.4,43.9,52.0,1,1,1,0,0,1,1,0,653,8358
2024/02/27 09:56:42,6.2,39.0,32.3,31.4,42.5,52.0,1,1,1,0,0,1,1,0,653,8360
2024/02/27 09:58:42,6.2,40.3,33.6,31.4,41.8,52.0,1,1,1,0,0,1,1,0,653,8361
2024/02/27 10:00:41,6.2,42.2,35.1,31.4,41.5,52.0,1,1,1,0,0,1,1,0,653,8362
2024/02/27 10:02:40,6.2,43.7,36.8,31.4,41.7,52.0,1,1,1,0,0,1,1,0,653,8364
2024/02/27 10:04:39,6.2,45.1,38.2,31.4,42.3,52.0,1,1,1,0,0,1,1,0,653,8365
2024/02/27 10:06:38,6.3,46.6,39.5,31.4,43.1,52.0,1,1,1,0,0,1,1,0,653,8366
2024/02/27 10:08:37,6.3,47.9,40.8,31.4,43.6,52.0,1,1,1,0,0,1,1,0,653,8367
2024/02/27 10:10:36,6.3,49.1,42.0,31.4,44.1,52.0,1,1,1,0,0,1,1,0,653,8369
2024/02/27 10:12:35,6.3,50.1,43.1,31.4,44.6,52.0,1,1,1,0,0,1,1,0,653,8370
2024/02/27 10:14:34,6.4,51.4,44.1,31.4,45.2,52.0,1,1,1,0,0,1,1,0,653,8371
2024/02/27 10:16:33,6.4,52.4,45.0,31.4,46.0,52.0,1,1,1,0,0,1,1,0,653,8373
2024/02/27 10:18:32,6.4,53.3,46.0,31.4,46.6,52.0,1,1,1,0,0,1,1,0,653,8374
2024/02/27 10:20:31,6.4,54.3,47.0,31.4,47.4,52.0,1,1,1,0,0,1,1,0,653,8375
2024/02/27 10:22:30,6.4,55.2,47.9,31.4,48.1,52.0,1,1,1,0,0,1,1,0,653,8376
2024/02/27 10:24:29,6.4,56.2,48.8,31.4,48.8,52.0,1,1,1,0,0,1,1,0,653,8378
2024/02/27 10:26:28,6.4,56.9,49.5,31.4,49.6,52.0,1,1,1,0,0,1,1,0,653,8379
2024/02/27 10:28:27,6.5,57.7,50.1,31.4,50.4,52.0,1,1,1,0,0,1,1,0,653,8380
2024/02/27 10:30:26,6.5,58.5,51.3,31.4,51.3,52.0,1,1,1,0,0,1,1,0,653,8381
2024/02/27 10:32:25,6.5,57.6,52.0,31.4,52.2,52.0,0,1,1,0,1,0,1,0,653,8382
2024/02/27 10:34:25,6.5,40.5,34.9,31.4,52.8,52.0,0,1,1,0,1,0,1,0,654,8382
2024/02/27 10:36:23,6.5,39.3,34.0,31.4,53.0,52.0,0,1,1,0,1,0,1,0,655,8382
2024/02/27 10:38:22,6.5,38.5,33.3,31.4,53.0,52.0,0,1,1,0,1,0,1,0,656,8382
2024/02/27 10:40:22,6.6,35.8,33.6,31.4,53.0,52.0,0,0,0,0,1,0,1,0,656,8382
2024/02/27 10:42:20,6.6,35.7,33.7,31.4,52.9,52.0,0,0,0,0,1,0,0,0,656,8382
2024/02/27 10:44:19,6.6,35.1,33.0,31.4,52.8,52.0,0,0,0,0,1,0,0,0,656,8382
2024/02/27 10:46:19,6.6,34.8,32.7,31.4,52.7,52.0,0,0,0,0,1,0,0,0,656,8382
2024/02/27 10:48:18,6.6,34.5,32.4,31.4,52.6,52.0,0,0,0,0,1,0,0,0,656,8382
2024/02/27 10:50:17,6.6,34.3,32.2,31.4,52.5,52.0,0,0,0,0,1,0,0,0,656,8382
2024/02/27 10:52:16,6.6,34.1,31.9,31.4,52.4,52.0,0,0,0,0,1,0,0,0,656,8382
2024/02/27 10:54:15,6.6,33.9,31.8,31.4,52.3,52.0,0,0,0,0,1,0,0,0,656,8382
2024/02/27 10:56:14,6.6,33.8,31.6,31.4,52.3,52.0,0,0,0,0,1,0,0,0,656,8382
2024/02/27 10:58:13,6.6,33.7,31.4,31.4,52.2,52.0,0,0,0,0,1,0,0,0,656,8382
2024/02/27 11:00:11,6.6,33.6,31.2,31.4,52.1,52.0,0,0,0,0,1,0,0,0,656,8382
2024/02/27 11:02:10,6.6,33.5,31.0,31.4,52.1,52.0,0,0,0,0,1,0,0,0,656,8382
2024/02/27 11:04:08,6.6,33.4,30.9,31.4,52.0,52.0,0,0,0,0,1,0,0,0,656,8382
2024/02/27 11:06:08,6.6,33.3,30.7,31.4,51.9,52.0,0,0,0,0,1,0,0,0,656,8382
2024/02/27 11:08:06,6.6,33.2,30.4,31.4,51.8,52.0,0,0,0,0,1,0,0,0,656,8382
2024/02/27 11:10:05,6.6,33.2,30.2,31.4,51.8,52.0,0,0,0,0,1,0,0,0,656,8382
2024/02/27 11:12:03,6.7,33.1,30.0,31.4,51.7,52.0,0,0,0,0,1,0,0,0,656,8382
2024/02/27 11:14:02,6.7,33.0,29.9,31.4,51.6,52.0,0,0,0,0,1,0,0,0,656,8382
2024/02/27 11:16:01,6.7,33.0,29.7,31.4,51.5,52.0,0,0,0,0,1,0,0,0,656,8382
2024/02/27 11:18:00,6.7,32.9,29.6,31.4,51.5,52.0,0,0,0,0,1,0,0,0,656,8382
2024/02/27 11:19:58,6.8,32.8,29.4,31.4,51.4,52.0,0,0,0,0,1,0,0,0,656,8382
2024/02/27 11:21:57,6.8,32.8,29.3,31.4,51.3,52.0,0,0,0,0,1,0,0,0,656,8382
2024/02/27 11:23:56,6.9,32.7,29.2,31.4,51.2,52.0,0,0,0,0,1,0,0,0,656,8382
2024/02/27 11:25:56,7.0,32.7,29.0,31.4,51.1,52.0,0,0,0,0,1,0,0,0,656,8382
2024/02/27 11:27:54,7.0,32.6,28.9,30.7,51.1,52.0,0,0,0,0,1,0,0,0,656,8382
2024/02/27 11:29:53,7.1,32.6,28.8,30.7,51.0,52.0,0,0,0,0,1,0,0,0,656,8382
2024/02/27 11:31:52,7.1,32.5,28.6,30.7,50.9,52.0,0,0,0,0,1,0,0,0,656,8382
2024/02/27 11:33:48,7.2,32.5,28.5,30.7,50.8,52.0,0,0,0,0,1,0,0,0,656,8382
2024/02/27 11:35:47,7.3,32.4,28.4,30.7,50.8,52.0,0,0,0,0,1,0,0,0,656,8382
2024/02/27 11:37:46,7.4,32.4,28.3,30.7,50.7,52.0,0,0,0,0,1,0,0,0,656,8382
2024/02/27 11:39:45,7.5,32.3,28.2,30.7,50.6,52.0,0,0,0,0,1,0,0,0,656,8382
2024/02/27 11:41:44,7.6,32.3,28.0,30.7,50.6,52.0,0,0,0,0,1,0,0,0,656,8382
2024/02/27 11:43:43,7.6,32.2,27.9,30.7,50.5,52.0,0,0,0,0,1,0,0,0,656,8382
2024/02/27 11:46:42,7.7,32.2,27.8,30.7,50.4,52.0,0,0,0,0,1,0,0,0,656,8382
2024/02/27 11:48:39,7.7,32.2,27.7,30.7,50.3,52.0,0,0,0,0,1,0,0,0,656,8382
2024/02/27 11:50:39,7.7,32.1,27.6,30.7,50.3,52.0,0,0,0,0,1,0,0,0,656,8382
2024/02/27 11:52:38,7.7,32.1,27.5,30.7,50.2,52.0,0,0,0,0,1,0,0,0,656,8382
2024/02/27 11:54:36,7.7,32.1,27.4,30.7,50.1,52.0,0,0,0,0,1,0,0,0,656,8382
2024/02/27 11:56:34,7.8,32.0,27.3,30.7,50.1,52.0,0,0,0,0,1,0,0,0,656,8382
2024/02/27 11:58:33,7.8,32.0,27.2,30.7,50.0,52.0,0,0,0,0,1,0,0,0,656,8382
2024/02/27 12:00:32,7.8,31.9,27.2,30.7,49.9,52.0,0,0,0,0,1,0,0,0,656,8382
2024/02/27 12:02:30,8.0,31.9,27.1,30.7,49.9,52.0,0,0,0,0,1,0,0,0,656,8382
2024/02/27 12:04:29,8.0,31.9,27.0,29.9,49.8,52.0,0,0,0,0,1,0,0,0,656,8382
2024/02/27 12:06:27,8.0,31.8,26.9,29.9,49.8,52.0,0,0,0,0,1,0,0,0,656,8382
2024/02/27 12:08:26,8.1,31.8,26.8,29.9,49.7,52.0,0,0,0,0,1,0,0,0,656,8382
2024/02/27 12:10:25,8.1,31.7,26.7,29.9,49.6,52.0,0,0,0,0,1,0,0,0,656,8382
2024/02/27 12:12:24,8.2,31.7,26.7,29.9,49.6,52.0,0,0,0,0,1,0,0,0,656,8382
2024/02/27 12:14:21,8.2,31.7,26.6,29.9,49.5,52.0,0,0,0,0,1,0,0,0,656,8382
2024/02/27 12:16:20,8.2,31.6,26.5,29.9,49.5,52.0,0,0,0,0,1,0,0,0,656,8382
2024/02/27 12:18:17,8.2,31.6,26.4,29.9,49.4,52.0,0,0,0,0,1,0,0,0,656,8382
2024/02/27 12:20:16,8.2,31.6,26.4,29.9,49.3,52.0,0,0,0,0,1,0,0,0,656,8382
2024/02/27 12:22:15,8.2,31.5,26.3,29.9,49.3,52.0,0,0,0,0,1,0,0,0,656,8382
2024/02/27 12:24:14,8.2,31.5,26.2,29.9,49.2,52.0,0,0,0,0,1,0,0,0,656,8382
2024/02/27 12:26:13,8.2,31.4,26.1,29.9,49.1,52.0,0,0,0,0,1,0,0,0,656,8382
2024/02/27 12:28:12,8.2,31.4,26.1,29.9,49.1,52.0,0,0,0,0,1,0,0,0,656,8382
2024/02/27 12:30:10,8.2,31.3,26.0,29.9,49.0,52.0,0,0,0,0,1,0,0,0,656,8382
2024/02/27 12:32:08,8.2,31.3,25.9,29.9,48.9,52.0,0,0,0,0,1,0,0,0,656,8382
2024/02/27 12:34:07,8.2,31.2,25.9,29.9,48.9,52.0,0,0,0,0,1,0,0,0,656,8382
2024/02/27 12:36:07,8.2,31.2,25.8,29.9,48.8,52.0,0,0,0,0,1,0,0,0,656,8382
2024/02/27 12:38:05,8.2,31.2,25.7,29.9,48.8,52.0,0,0,0,0,1,0,0,0,656,8382
2024/02/27 12:40:03,8.3,31.1,25.7,29.9,48.7,52.0,0,0,0,0,1,0,0,0,656,8382
2024/02/27 12:42:03,8.4,31.1,25.6,29.9,48.6,52.0,0,0,0,0,1,0,0,0,656,8382
2024/02/27 12:44:01,8.4,31.0,25.6,29.9,48.6,52.0,0,0,0,0,1,0,0,0,656,8382
2024/02/27 12:46:01,8.5,28.1,26.6,29.9,48.5,52.0,0,0,1,0,1,0,1,0,656,8382
2024/02/27 12:48:00,8.5,29.3,26.6,29.9,48.5,52.0,1,0,1,0,1,0,1,0,656,8382
2024/02/27 12:50:00,8.5,30.2,26.8,29.9,48.4,52.0,1,0,1,0,1,0,1,0,657,8382
2024/02/27 12:51:59,8.5,30.5,27.1,29.9,48.3,52.0,1,0,1,0,1,0,1,0,658,8382
2024/02/27 12:53:58,8.5,30.8,27.2,29.9,48.3,52.0,1,0,1,0,1,0,1,0,659,8382
2024/02/27 12:55:56,8.5,31.1,27.4,29.9,48.2,52.0,1,0,1,0,1,0,1,0,660,8382
2024/02/27 12:57:55,8.5,31.3,27.6,29.9,48.1,52.0,1,0,1,0,1,0,1,0,661,8382
2024/02/27 12:59:54,8.5,31.6,27.8,29.9,48.1,52.0,1,0,1,0,1,0,1,0,661,8382
2024/02/27 13:01:54,8.5,31.9,28.1,29.9,48.0,52.0,1,0,1,0,1,0,1,0,662,8382
2024/02/27 13:03:53,8.4,32.1,28.2,29.9,48.0,52.0,1,0,1,0,1,0,1,0,663,8382
2024/02/27 13:05:52,8.4,32.4,28.6,29.9,47.9,52.0,1,0,1,0,1,0,1,0,664,8382
2024/02/27 13:07:51,8.4,32.7,28.8,29.9,47.9,52.0,1,0,1,0,1,0,1,0,665,8382
2024/02/27 13:09:51,8.3,32.9,29.0,29.9,47.8,52.0,1,0,1,0,1,0,1,0,665,8382
2024/02/27 13:11:50,8.3,33.2,29.2,29.9,47.7,52.0,1,0,1,0,1,0,1,0,666,8382
2024/02/27 13:13:49,8.3,33.4,29.4,29.9,47.7,52.0,1,0,1,0,1,0,1,0,667,8382
2024/02/27 13:15:48,8.2,33.6,29.6,29.9,47.6,52.0,1,0,1,0,1,0,1,0,668,8382
2024/02/27 13:17:46,8.2,33.8,29.7,29.9,47.6,52.0,1,0,1,0,1,0,1,0,669,8382
2024/02/27 13:19:45,8.2,34.0,29.9,29.9,47.5,52.0,1,0,1,0,1,0,1,0,669,8382
2024/02/27 13:22:43,8.2,34.7,30.3,29.9,47.4,52.0,1,0,1,0,1,0,1,0,670,8382
2024/02/27 13:24:41,8.2,34.6,30.1,29.9,47.4,52.0,1,0,1,0,1,0,1,0,671,8382
2024/02/27 13:26:39,8.2,34.8,30.4,29.9,47.3,52.0,1,0,1,0,1,0,1,0,672,8382
2024/02/27 13:28:37,8.2,35.2,30.8,29.9,47.3,52.0,1,0,1,0,1,0,1,0,673,8382
2024/02/27 13:30:36,8.2,35.5,31.0,29.9,47.2,52.0,1,0,1,0,1,0,1,0,673,8382
2024/02/27 13:32:34,8.2,35.7,31.3,29.9,47.1,52.0,1,0,1,0,1,0,1,0,674,8382
2024/02/27 13:34:33,8.2,36.0,31.5,29.9,47.1,52.0,1,0,1,0,1,0,1,0,675,8382
2024/02/27 13:36:32,8.1,36.3,31.8,29.9,47.0,52.0,1,0,1,0,1,0,1,0,676,8382
2024/02/27 13:38:31,8.1,33.9,32.2,29.9,47.0,52.0,0,0,0,0,1,0,1,0,676,8382
2024/02/27 13:40:30,8.1,34.1,32.5,29.9,46.9,52.0,0,0,0,0,1,0,0,0,676,8382
2024/02/27 13:42:29,8.1,33.7,31.9,29.9,46.8,52.0,0,0,0,0,1,0,0,0,676,8382
2024/02/27 13:44:28,8.1,33.4,31.6,29.9,46.8,52.0,0,0,0,0,1,0,0,0,676,8382
2024/02/27 13:46:28,8.2,33.2,31.3,29.9,46.7,52.0,0,0,0,0,1,0,0,0,676,8382
2024/02/27 13:48:26,8.3,33.0,31.1,29.9,46.6,52.0,0,0,0,0,1,0,0,0,676,8382
2024/02/27 13:50:26,8.4,32.8,30.9,29.9,46.6,52.0,0,0,0,0,1,0,0,0,676,8382
2024/02/27 13:52:23,8.4,32.6,30.7,29.9,46.5,52.0,0,0,0,0,1,0,0,0,676,8382
2024/02/27 13:54:22,8.4,32.5,30.5,29.9,46.5,52.0,0,0,0,0,1,0,0,0,676,8382
2024/02/27 13:56:22,8.4,32.4,30.3,29.9,46.4,52.0,0,0,0,0,1,0,0,0,676,8382
2024/02/27 13:58:21,8.4,32.3,30.1,29.9,46.3,52.0,0,0,0,0,1,0,0,0,676,8382
2024/02/27 14:00:19,8.4,32.2,29.9,29.9,46.3,52.0,0,0,0,0,1,0,0,0,676,8382
2024/02/27 14:02:19,8.4,32.1,29.8,29.9,46.2,52.0,0,0,0,0,1,0,0,0,676,8382
2024/02/27 14:04:16,8.4,32.1,29.6,29.9,46.2,52.0,0,0,0,0,1,0,0,0,676,8382
2024/02/27 14:06:14,8.4,32.0,29.5,29.9,46.1,52.0,0,0,0,0,1,0,0,0,676,8382
2024/02/27 14:08:13,8.4,31.9,29.4,29.9,46.1,52.0,0,0,0,0,1,0,0,0,676,8382
2024/02/27 14:10:12,8.4,31.9,29.2,29.9,46.0,52.0,0,0,0,0,1,0,0,0,676,8382
2024/02/27 14:12:10,8.3,31.8,29.1,29.9,45.9,52.0,0,0,0,0,1,0,0,0,676,8382
2024/02/27 14:14:08,8.3,31.7,28.9,29.9,45.9,52.0,0,0,0,0,1,0,0,0,676,8382
2024/02/27 14:16:08,8.3,31.7,28.8,29.9,45.8,52.0,0,0,0,0,1,0,0,0,676,8382
2024/02/27 14:18:05,8.3,31.6,28.7,29.9,45.7,52.0,0,0,0,0,1,0,0,0,676,8382
2024/02/27 14:20:04,8.3,31.6,28.5,29.9,45.6,52.0,0,0,0,0,1,0,0,0,676,8382
2024/02/27 14:22:02,8.3,31.5,28.4,29.9,45.5,52.0,0,0,0,0,1,0,0,0,676,8382
2024/02/27 14:24:02,8.3,31.5,28.3,29.9,45.5,52.0,0,0,0,0,1,0,0,0,676,8382
2024/02/27 14:26:01,8.3,31.4,28.1,29.9,45.4,52.0,0,0,0,0,1,0,0,0,676,8382
2024/02/27 14:28:00,8.3,31.4,28.0,29.9,45.4,52.0,0,0,0,0,1,0,0,0,676,8382
2024/02/27 14:29:59,8.2,31.3,27.9,29.9,45.3,52.0,0,0,0,0,1,0,0,0,676,8382
2024/02/27 14:31:57,8.2,31.3,27.8,29.9,45.2,52.0,0,0,0,0,1,0,0,0,676,8382
2024/02/27 14:33:54,8.2,31.3,27.6,29.9,45.2,52.0,0,0,0,0,1,0,0,0,676,8382
2024/02/27 14:35:53,8.2,31.2,27.5,29.9,45.1,52.0,0,0,0,0,1,0,0,0,676,8382
2024/02/27 14:37:52,8.2,31.2,27.4,29.9,45.1,52.0,0,0,0,0,1,0,0,0,676,8382
2024/02/27 14:39:50,8.2,31.1,27.3,29.9,45.0,52.0,0,0,0,0,1,0,0,0,676,8382
2024/02/27 14:41:49,8.2,31.1,27.2,29.9,45.0,52.0,0,0,0,0,1,0,0,0,676,8382
2024/02/27 14:43:48,8.2,31.1,27.1,29.9,44.9,52.0,0,0,0,0,1,0,0,0,676,8382
2024/02/27 14:45:47,8.2,31.0,26.9,29.9,44.9,52.0,0,0,0,0,1,0,0,0,676,8382
2024/02/27 14:47:46,8.2,31.0,26.8,29.9,44.8,52.0,0,0,0,0,1,0,0,0,676,8382
2024/02/27 14:49:44,8.2,30.9,26.7,29.9,44.8,52.0,0,0,0,0,1,0,0,0,676,8382
2024/02/27 14:52:43,8.2,30.9,26.6,29.9,44.7,52.0,0,0,0,0,1,0,0,0,676,8382
2024/02/27 14:54:42,8.2,30.8,26.5,29.9,44.7,52.0,0,0,0,0,1,0,0,0,676,8382
2024/02/27 14:56:41,8.2,30.8,26.4,29.9,44.6,52.0,0,0,0,0,1,0,0,0,676,8382
2024/02/27 14:58:39,8.2,30.8,26.3,29.9,44.6,52.0,0,0,0,0,1,0,0,0,676,8382
2024/02/27 15:00:37,8.2,30.7,26.2,29.9,44.5,52.0,0,0,0,0,1,0,0,0,676,8382
2024/02/27 15:02:37,8.2,30.6,26.1,29.9,44.5,52.0,0,0,0,0,1,0,0,0,676,8382
2024/02/27 15:04:34,8.2,30.6,26.0,29.9,44.4,52.0,0,0,0,0,1,0,0,0,676,8382
2024/02/27 15:06:32,8.2,30.5,25.9,29.9,44.4,52.0,0,0,0,0,1,0,0,0,676,8382
2024/02/27 15:08:30,8.1,30.5,25.8,29.9,44.3,52.0,0,0,0,0,1,0,0,0,676,8382
2024/02/27 15:10:29,8.1,30.4,25.7,29.9,44.3,52.0,0,0,0,0,1,0,0,0,676,8382
2024/02/27 15:12:28,8.1,30.4,25.6,29.9,44.2,52.0,0,0,0,0,1,0,0,0,676,8382
2024/02/27 15:14:25,8.1,30.3,25.5,29.9,44.2,52.0,0,0,0,0,1,0,0,0,676,8382
2024/02/27 15:16:24,8.1,30.3,25.5,29.9,44.1,52.0,0,0,0,0,1,0,0,0,676,8382
2024/02/27 15:18:23,8.1,30.2,25.4,29.9,44.1,52.0,0,0,0,0,1,0,0,0,676,8382
2024/02/27 15:20:22,8.1,29.6,27.1,29.9,44.0,52.0,0,0,1,0,0,1,1,0,676,8382
2024/02/27 15:22:21,8.1,36.2,34.3,29.9,43.6,52.0,0,1,1,0,0,1,1,0,676,8382
2024/02/27 15:24:20,8.1,39.7,36.0,29.9,42.9,52.0,0,1,1,0,0,1,1,0,676,8383
2024/02/27 15:26:18,8.1,42.2,38.4,29.9,42.7,52.0,0,1,1,0,0,1,1,0,676,8384
2024/02/27 15:28:18,8.1,43.7,39.6,29.9,42.8,52.0,0,1,1,0,0,1,1,0,676,8385
2024/02/27 15:30:17,8.1,44.7,40.5,29.9,43.2,52.0,0,1,1,0,0,1,1,0,676,8385
2024/02/27 15:32:16,8.1,45.6,41.3,29.9,43.6,52.0,0,1,1,0,0,1,1,0,676,8386
2024/02/27 15:34:16,8.0,46.3,41.9,29.9,43.9,52.0,0,1,1,0,0,1,1,0,676,8387
2024/02/27 15:36:14,8.0,47.0,42.5,29.9,44.1,52.0,0,1,1,0,0,1,1,0,676,8388
2024/02/27 15:38:13,8.0,47.7,43.1,29.9,44.5,52.0,0,1,1,0,0,1,1,0,676,8388
2024/02/27 15:40:12,8.0,48.0,43.4,29.9,44.9,52.0,0,1,1,0,0,1,1,0,676,8389
2024/02/27 15:42:11,8.0,50.9,44.5,29.9,45.2,52.0,1,1,1,0,0,1,1,0,676,8390
2024/02/27 15:44:10,8.0,53.0,45.9,29.9,46.0,52.0,1,1,1,0,0,1,1,0,676,8392
2024/02/27 15:46:09,8.0,54.2,47.1,29.9,46.7,52.0,1,1,1,0,0,1,1,0,676,8393
2024/02/27 15:48:08,8.0,55.3,48.1,29.9,47.7,52.0,1,1,1,0,0,1,1,0,676,8394
2024/02/27 15:50:07,8.0,56.3,49.0,29.9,48.6,52.0,1,1,1,0,0,1,1,0,676,8395
2024/02/27 15:52:06,8.0,57.3,49.8,29.9,49.4,52.0,1,1,1,0,0,1,1,0,676,8397
2024/02/27 15:54:05,8.0,58.3,50.8,29.9,50.5,52.0,1,1,1,0,0,1,1,0,676,8398
2024/02/27 15:56:04,8.0,59.1,51.8,29.9,51.5,52.0,1,1,1,0,0,1,1,0,676,8399
2024/02/27 15:58:03,8.0,57.9,52.6,29.9,52.4,52.0,1,0,1,0,1,0,1,0,676,8400
2024/02/27 16:00:02,8.0,34.4,29.1,29.9,53.0,52.0,1,0,1,0,1,0,1,0,677,8400
2024/02/27 16:02:01,8.0,32.9,27.9,29.9,53.2,52.0,1,0,1,0,1,0,1,0,678,8400
2024/02/27 16:04:00,8.0,32.3,27.5,29.9,53.2,52.0,1,0,1,0,1,0,1,0,678,8400
2024/02/27 16:06:00,8.0,32.7,28.2,29.9,53.2,52.0,1,0,1,0,1,0,1,0,679,8400
2024/02/27 16:07:59,7.9,33.0,28.6,29.9,53.0,52.0,1,0,1,0,1,0,1,0,680,8400
2024/02/27 16:09:58,7.9,33.2,29.0,30.7,52.9,52.0,1,0,1,0,1,0,1,0,681,8400
2024/02/27 16:11:57,7.9,33.2,29.0,30.7,52.8,52.0,1,0,1,0,1,0,1,0,682,8400
2024/02/27 16:13:56,7.9,33.3,29.2,30.7,52.6,52.0,1,0,1,0,1,0,1,0,683,8400
2024/02/27 16:15:54,7.9,33.5,29.4,30.7,52.5,52.0,1,0,1,0,1,0,1,0,683,8400
2024/02/27 16:17:53,7.9,33.8,29.7,30.7,52.5,52.0,1,0,1,0,1,0,1,0,684,8400
2024/02/27 16:19:52,7.9,33.9,29.8,30.7,52.4,52.0,1,0,1,0,1,0,1,0,685,8400
2024/02/27 16:21:50,7.9,34.3,30.1,30.7,52.3,52.0,1,0,1,0,1,0,1,0,686,8400
2024/02/27 16:23:48,7.9,34.7,30.2,30.7,52.2,52.0,1,0,1,0,1,0,1,0,686,8400
2024/02/27 16:25:47,7.9,34.7,30.2,30.7,52.2,52.0,1,0,1,0,1,0,1,0,687,8400
2024/02/27 16:27:45,7.9,34.9,30.4,30.7,52.1,52.0,1,0,1,0,1,0,1,0,688,8400
2024/02/27 16:29:44,7.9,35.0,30.6,30.7,52.1,52.0,1,0,1,0,1,0,1,0,689,8400
2024/02/27 16:31:43,7.9,35.4,30.9,30.7,52.0,52.0,1,0,1,0,1,0,1,0,690,8400
2024/02/27 16:34:43,7.9,35.6,31.1,30.7,51.9,52.0,1,0,1,0,1,0,1,0,690,8400
2024/02/27 16:36:42,7.9,35.8,31.3,30.7,51.8,52.0,1,0,1,0,1,0,1,0,691,8400
2024/02/27 16:38:40,7.9,36.1,31.7,30.7,51.8,52.0,1,0,1,0,1,0,1,0,692,8400
2024/02/27 16:40:40,7.9,36.3,31.8,30.7,51.7,52.0,1,0,1,0,1,0,1,0,693,8400
2024/02/27 16:42:39,7.9,36.4,31.9,30.7,51.6,52.0,1,0,1,0,1,0,1,0,694,8400
2024/02/27 16:44:37,7.9,36.7,32.2,30.7,51.5,52.0,1,0,1,0,1,0,1,0,694,8400
2024/02/27 16:46:37,7.9,36.9,32.4,30.7,51.4,52.0,1,0,1,0,1,0,1,0,695,8400
2024/02/27 16:48:36,7.8,35.5,32.8,30.7,51.4,52.0,0,0,1,0,1,0,1,0,696,8400
2024/02/27 16:50:36,7.8,34.4,32.9,30.7,51.3,52.0,0,0,0,0,1,0,1,0,696,8400
2024/02/27 16:52:34,7.8,34.4,32.7,30.7,51.2,52.0,0,0,0,0,1,0,0,0,696,8400
2024/02/27 16:54:31,7.8,34.0,32.3,30.7,51.1,52.0,0,0,0,0,1,0,0,0,696,8400
2024/02/27 16:56:28,7.8,33.8,32.0,30.7,51.1,52.0,0,0,0,0,1,0,0,0,696,8400
2024/02/27 16:58:28,7.8,33.5,31.7,30.7,51.0,52.0,0,0,0,0,1,0,0,0,696,8400
2024/02/27 17:00:26,7.8,33.3,31.5,30.7,50.9,52.0,0,0,0,0,1,0,0,0,696,8400
2024/02/27 17:02:25,7.8,33.2,31.3,30.7,50.9,52.0,0,0,0,0,1,0,0,0,696,8400
2024/02/27 17:04:25,7.8,33.1,31.1,30.7,50.8,52.0,0,0,0,0,1,0,0,0,696,8400
2024/02/27 17:06:23,7.8,32.9,30.9,30.7,50.7,52.0,0,0,0,0,1,0,0,0,696,8400
2024/02/27 17:08:22,7.8,32.8,30.7,30.7,50.6,52.0,0,0,0,0,1,0,0,0,696,8400
2024/02/27 17:10:21,7.8,32.8,30.5,30.7,50.6,52.0,0,0,0,0,1,0,0,0,696,8400
2024/02/27 17:12:19,7.8,32.7,30.3,30.7,50.5,52.0,0,0,0,0,1,0,0,0,696,8400
2024/02/27 17:14:17,7.8,32.6,30.2,30.7,50.4,52.0,0,0,0,0,1,0,0,0,696,8400
2024/02/27 17:16:16,7.8,32.5,30.0,30.7,50.3,52.0,0,0,0,0,1,0,0,0,696,8400
2024/02/27 17:18:15,7.8,32.4,29.8,30.7,50.3,52.0,0,0,0,0,1,0,0,0,696,8400
2024/02/27 17:20:14,7.8,32.4,29.7,30.7,50.2,52.0,0,0,0,0,1,0,0,0,696,8400
2024/02/27 17:22:13,7.8,32.3,29.5,30.7,50.1,52.0,0,0,0,0,1,0,0,0,696,8400
2024/02/27 17:24:12,7.8,32.2,29.4,30.7,50.1,52.0,0,0,0,0,1,0,0,0,696,8400
2024/02/27 17:26:11,7.8,32.2,29.2,30.7,50.0,52.0,0,0,0,0,1,0,0,0,696,8400
2024/02/27 17:28:09,7.8,32.1,29.1,30.7,50.0,52.0,0,0,0,0,1,0,0,0,696,8400
2024/02/27 17:30:08,7.8,32.1,28.9,30.7,49.9,52.0,0,0,0,0,1,0,0,0,696,8400
2024/02/27 17:32:07,7.8,32.0,28.8,30.7,49.8,52.0,0,0,0,0,1,0,0,0,696,8400
2024/02/27 17:34:05,7.8,32.0,28.7,30.7,49.8,52.0,0,0,0,0,1,0,0,0,696,8400
2024/02/27 17:36:03,7.8,31.9,28.5,30.7,49.7,52.0,0,0,0,0,1,0,0,0,696,8400
2024/02/27 17:38:02,7.8,31.9,28.4,30.7,49.7,52.0,0,0,0,0,1,0,0,0,696,8400
2024/02/27 17:40:01,7.8,31.8,28.3,30.7,49.6,52.0,0,0,0,0,1,0,0,0,696,8400
2024/02/27 17:42:01,7.8,31.8,28.1,30.7,49.6,52.0,0,0,0,0,1,0,0,0,696,8400
2024/02/27 17:43:59,7.7,31.8,28.0,30.7,49.5,52.0,0,0,0,0,1,0,0,0,696,8400
2024/02/27 17:45:58,7.7,31.7,27.9,30.7,49.4,52.0,0,0,0,0,1,0,0,0,696,8400
2024/02/27 17:47:57,7.7,31.7,27.7,30.7,49.4,52.0,0,0,0,0,1,0,0,0,696,8400
2024/02/27 17:49:55,7.7,31.6,27.6,30.7,49.3,52.0,0,0,0,0,1,0,0,0,696,8400
2024/02/27 17:51:54,7.7,31.6,27.5,30.7,49.3,52.0,0,0,0,0,1,0,0,0,696,8400
2024/02/27 17:53:52,7.7,31.6,27.4,30.7,49.2,52.0,0,0,0,0,1,0,0,0,696,8400
2024/02/27 17:55:51,7.7,31.5,27.3,30.7,49.2,52.0,0,0,0,0,1,0,0,0,696,8400
2024/02/27 17:57:50,7.7,31.5,27.1,30.7,49.1,52.0,0,0,0,0,1,0,0,0,696,8400
2024/02/27 17:59:49,7.7,31.4,27.0,30.7,49.0,52.0,0,0,0,0,1,0,0,0,696,8400
2024/02/27 18:01:48,7.7,31.4,26.9,30.7,49.0,52.0,0,0,0,0,1,0,0,0,696,8400
2024/02/27 18:03:47,7.7,31.3,26.8,30.7,48.9,52.0,0,0,0,0,1,0,0,0,696,8400
2024/02/27 18:05:45,7.7,31.3,26.7,30.7,48.9,52.0,0,0,0,0,1,0,0,0,696,8400
2024/02/27 18:07:44,7.7,31.2,26.6,30.7,48.8,52.0,0,0,0,0,1,0,0,0,696,8400
2024/02/27 18:10:43,7.7,31.2,26.5,30.7,48.8,52.0,0,0,0,0,1,0,0,0,696,8400
2024/02/27 18:12:42,7.7,31.1,26.4,30.7,48.7,52.0,0,0,0,0,1,0,0,0,696,8400
2024/02/27 18:14:40,7.6,31.1,26.3,30.7,48.6,52.0,0,0,0,0,1,0,0,0,696,8400
2024/02/27 18:16:40,7.6,31.0,26.2,30.7,48.6,52.0,0,0,0,0,1,0,0,0,696,8400
2024/02/27 18:18:39,7.6,31.0,26.1,30.7,48.5,52.0,0,0,0,0,1,0,0,0,696,8400
2024/02/27 18:20:38,7.6,30.9,26.0,30.7,48.5,52.0,0,0,0,0,1,0,0,0,696,8400
2024/02/27 18:22:37,7.6,30.9,25.9,30.7,48.4,52.0,0,0,0,0,1,0,0,0,696,8400
2024/02/27 18:24:36,7.6,30.8,25.8,30.7,48.4,52.0,0,0,0,0,1,0,0,0,696,8400
2024/02/27 18:26:34,7.6,30.8,27.9,30.7,48.3,52.0,0,0,0,0,1,0,1,0,696,8400
2024/02/27 18:28:32,7.6,28.4,26.9,30.7,48.2,52.0,0,1,1,0,1,0,1,0,696,8400
2024/02/27 18:30:31,7.6,30.4,27.0,30.7,48.2,52.0,0,1,1,0,1,0,1,0,697,8400
2024/02/27 18:32:30,7.6,30.7,27.2,30.7,48.1,52.0,0,1,1,0,1,0,1,0,697,8400
2024/02/27 18:34:29,7.6,31.2,27.5,30.7,48.1,52.0,0,1,1,0,1,0,1,0,698,8400
2024/02/27 18:36:28,7.6,31.4,27.6,30.7,48.0,52.0,0,1,1,0,1,0,1,0,699,8400
2024/02/27 18:38:26,7.6,31.6,27.8,30.7,48.0,52.0,0,1,1,0,1,0,1,0,700,8400
2024/02/27 18:40:26,7.6,31.8,27.9,30.7,47.9,52.0,0,1,1,0,1,0,1,0,701,8400
2024/02/27 18:42:24,7.6,32.2,28.3,30.7,47.8,52.0,0,1,1,0,1,0,1,0,702,8400
2024/02/27 18:44:23,7.6,32.5,28.5,30.7,47.8,52.0,0,1,1,0,1,0,1,0,702,8400
2024/02/27 18:46:22,7.6,32.8,28.7,30.7,47.7,52.0,0,1,1,0,1,0,1,0,703,8400
2024/02/27 18:48:22,7.6,33.0,28.9,30.7,47.7,52.0,0,1,1,0,1,0,1,0,704,8400
2024/02/27 18:50:20,7.6,33.2,29.1,30.7,47.6,52.0,0,1,1,0,1,0,1,0,705,8400
2024/02/27 18:52:19,7.6,33.5,29.5,30.7,47.6,52.0,0,1,1,0,1,0,1,0,706,8400
2024/02/27 18:54:19,7.6,33.7,29.6,30.7,47.5,52.0,0,1,1,0,1,0,1,0,706,8400
2024/02/27 18:56:18,7.6,33.9,29.8,30.7,47.4,52.0,0,1,1,0,1,0,1,0,707,8400
2024/02/27 18:58:17,7.6,34.1,30.0,30.7,47.4,52.0,0,1,1,0,1,0,1,0,708,8400
2024/02/27 19:00:16,7.6,34.5,30.2,30.7,47.3,52.0,0,1,1,0,1,0,1,0,709,8400
2024/02/27 19:02:13,7.6,34.8,30.2,30.7,47.3,52.0,0,1,1,0,1,0,1,0,710,8400
2024/02/27 19:04:11,7.6,34.8,30.3,30.7,47.2,52.0,0,1,1,0,1,0,1,0,710,8400
2024/02/27 19:06:11,7.6,35.0,30.6,30.7,47.1,52.0,0,1,1,0,1,0,1,0,711,8400
2024/02/27 19:08:09,7.6,35.2,30.8,30.7,47.1,52.0,0,1,1,0,1,0,1,0,712,8400
2024/02/27 19:10:07,7.6,35.6,31.1,30.7,47.0,52.0,0,1,1,0,1,0,1,0,713,8400
2024/02/27 19:12:05,7.6,35.9,31.3,30.7,47.0,52.0,0,1,1,0,1,0,1,0,714,8400
2024/02/27 19:14:04,7.6,36.2,31.6,30.7,46.9,52.0,0,1,1,0,1,0,1,0,714,8400
2024/02/27 19:16:02,7.6,36.3,31.7,30.7,46.9,52.0,0,1,1,0,1,0,1,0,715,8400
2024/02/27 19:18:01,7.6,36.7,32.1,30.7,46.8,52.0,0,1,1,0,1,0,1,0,716,8400
2024/02/27 19:20:01,7.6,37.0,32.4,30.7,46.7,52.0,0,1,1,0,1,0,1,0,717,8400
2024/02/27 19:22:00,7.6,37.2,32.5,30.7,46.7,52.0,0,1,1,0,1,0,1,0,717,8400
2024/02/27 19:24:00,7.6,35.5,32.8,30.7,46.6,52.0,0,0,1,0,1,0,1,0,718,8400
2024/02/27 19:25:58,7.6,34.6,33.0,30.7,46.6,52.0,0,0,0,0,1,0,1,0,718,8400
2024/02/27 19:27:55,7.5,34.6,32.8,30.7,46.5,52.0,0,0,0,0,1,0,0,0,718,8400
2024/02/27 19:29:54,7.5,34.2,32.4,30.7,46.5,52.0,0,0,0,0,1,0,0,0,718,8400
2024/02/27 19:31:52,7.5,33.9,32.1,30.7,46.4,52.0,0,0,0,0,1,0,0,0,718,8400
2024/02/27 19:33:52,7.5,33.7,31.8,30.7,46.3,52.0,0,0,0,0,1,0,0,0,718,8400
2024/02/27 19:35:51,7.5,33.5,31.6,30.7,46.3,52.0,0,0,0,0,1,0,0,0,718,8400
2024/02/27 19:37:50,7.5,33.3,31.4,30.7,46.2,52.0,0,0,0,0,1,0,0,0,718,8400
2024/02/27 19:39:48,7.5,33.2,31.2,30.7,46.2,52.0,0,0,0,0,1,0,0,0,718,8400
2024/02/27 19:41:45,7.5,33.1,31.0,30.7,46.1,52.0,0,0,0,0,1,0,0,0,718,8400
2024/02/27 19:44:42,7.5,33.0,30.8,30.7,46.0,52.0,0,0,0,0,1,0,0,0,718,8400
2024/02/27 19:46:40,7.5,32.9,30.6,30.7,46.0,52.0,0,0,0,0,1,0,0,0,718,8400
2024/02/27 19:48:39,7.5,32.8,30.4,30.7,45.9,52.0,0,0,0,0,1,0,0,0,718,8400
2024/02/27 19:50:37,7.5,32.8,30.2,30.7,45.9,52.0,0,0,0,0,1,0,0,0,718,8400
2024/02/27 19:52:36,7.5,32.7,30.0,30.7,45.8,52.0,0,0,0,0,1,0,0,0,718,8400
2024/02/27 19:54:35,7.5,32.6,29.9,30.7,45.7,52.0,0,0,0,0,1,0,0,0,718,8400
2024/02/27 19:56:34,7.5,32.6,29.7,30.7,45.6,52.0,0,0,0,0,1,0,0,0,718,8400
2024/02/27 19:58:33,7.5,32.5,29.5,30.7,45.5,52.0,0,0,0,0,1,0,0,0,718,8400
2024/02/27 20:00:33,7.5,32.4,29.4,30.7,45.5,52.0,0,0,0,0,1,0,0,0,718,8400
2024/02/27 20:02:31,7.5,32.4,29.2,30.7,45.4,52.0,0,0,0,0,1,0,0,0,718,8400
2024/02/27 20:04:30,7.5,32.3,29.1,30.7,45.3,52.0,0,0,0,0,1,0,0,0,718,8400
2024/02/27 20:06:29,7.5,32.3,28.9,30.7,45.3,52.0,0,0,0,0,1,0,0,0,718,8400
2024/02/27 20:08:26,7.5,32.2,28.7,30.7,45.2,52.0,0,0,0,0,1,0,0,0,718,8400
2024/02/27 20:10:25,7.5,32.2,28.6,30.7,45.2,52.0,0,0,0,0,1,0,0,0,718,8400
2024/02/27 20:12:24,7.5,32.1,28.5,30.7,45.1,52.0,0,0,0,0,1,0,0,0,718,8400
2024/02/27 20:14:24,7.5,32.1,28.3,30.7,45.0,52.0,0,0,0,0,1,0,0,0,718,8400
2024/02/27 20:16:23,7.5,32.0,28.2,30.7,45.0,52.0,0,0,0,0,1,0,0,0,718,8400
2024/02/27 20:18:22,7.5,32.0,28.0,30.7,44.9,52.0,0,0,0,0,1,0,0,0,718,8400
2024/02/27 20:20:20,7.5,31.9,27.9,30.7,44.9,52.0,0,0,0,0,1,0,0,0,718,8400
2024/02/27 20:22:20,7.5,31.9,27.8,30.7,44.8,52.0,0,0,0,0,1,0,0,0,718,8400
2024/02/27 20:24:19,7.5,31.9,27.6,30.7,44.8,52.0,0,0,0,0,1,0,0,0,718,8400
2024/02/27 20:26:19,7.5,31.8,27.5,30.7,44.7,52.0,0,0,0,0,1,0,0,0,718,8400
2024/02/27 20:28:18,7.5,31.8,27.4,30.7,44.7,52.0,0,0,0,0,1,0,0,0,718,8400
2024/02/27 20:30:17,7.4,31.7,27.3,30.7,44.6,52.0,0,0,0,0,1,0,0,0,718,8400
2024/02/27 20:32:15,7.4,31.7,27.1,30.7,44.5,52.0,0,0,0,0,1,0,0,0,718,8400
2024/02/27 20:34:14,7.4,31.6,27.0,30.7,44.5,52.0,0,0,0,0,1,0,0,0,718,8400
2024/02/27 20:36:13,7.4,31.6,26.9,30.7,44.4,52.0,0,0,0,0,1,0,0,0,718,8400
2024/02/27 20:38:12,7.4,31.5,26.8,30.7,44.4,52.0,0,0,0,0,1,0,0,0,718,8400
2024/02/27 20:40:10,7.4,31.5,26.7,30.7,44.3,52.0,0,0,0,0,1,0,0,0,718,8400
2024/02/27 20:42:09,7.4,31.4,26.5,30.7,44.3,52.0,0,0,0,0,1,0,0,0,718,8400
2024/02/27 20:44:08,7.4,31.4,26.4,30.7,44.2,52.0,0,0,0,0,1,0,0,0,718,8400
2024/02/27 20:46:07,7.4,31.3,26.3,30.7,44.1,52.0,0,0,0,0,1,0,0,0,718,8400
2024/02/27 20:48:06,7.4,31.3,26.2,30.7,44.1,52.0,0,0,0,0,1,0,0,0,718,8400
2024/02/27 20:50:05,7.4,31.2,26.1,30.7,44.1,52.0,0,0,0,0,1,0,0,0,718,8400
2024/02/27 20:52:05,7.4,31.9,31.4,30.7,43.7,52.0,1,0,1,0,0,1,1,0,718,8400
2024/02/27 20:54:04,7.4,34.3,30.3,30.7,42.0,52.0,1,0,1,0,0,1,1,0,718,8401
2024/02/27 20:56:03,7.4,36.3,32.4,30.7,40.7,52.0,1,0,1,0,0,1,1,0,718,8402
2024/02/27 20:58:01,7.4,37.2,33.2,30.7,40.0,52.0,1,0,1,0,0,1,1,0,718,8403
2024/02/27 21:00:00,7.4,38.2,34.0,30.7,39.7,52.0,1,0,1,0,0,1,1,0,718,8403
2024/02/27 21:01:58,7.4,39.1,34.8,30.7,39.7,52.0,1,0,1,0,0,1,1,0,718,8404
2024/02/27 21:03:57,7.4,39.9,35.6,30.7,39.8,52.0,1,0,1,0,0,1,1,0,718,8405
2024/02/27 21:05:56,7.5,40.8,36.4,30.7,40.1,52.0,1,0,1,0,0,1,1,0,718,8406
2024/02/27 21:07:55,7.5,41.6,37.2,30.7,40.6,52.0,1,0,1,0,0,1,1,0,718,8406
2024/02/27 21:09:53,7.5,42.4,38.0,30.7,41.2,52.0,1,0,1,0,0,1,1,0,718,8407
2024/02/27 21:11:52,7.5,44.8,38.7,30.7,41.8,52.0,1,1,1,0,0,1,1,0,718,8408
2024/02/27 21:13:51,7.5,47.4,40.8,30.7,42.5,52.0,1,1,1,0,0,1,1,0,718,8409
2024/02/27 21:15:50,7.5,49.3,42.4,30.7,43.2,52.0,1,1,1,0,0,1,1,0,718,8411
2024/02/27 21:17:50,7.5,50.5,43.6,30.7,43.7,52.0,1,1,1,0,0,1,1,0,718,8412
2024/02/27 21:19:49,7.5,51.8,44.5,30.7,44.5,52.0,1,1,1,0,0,1,1,0,718,8413
2024/02/27 21:21:48,7.5,52.9,45.5,30.7,45.3,52.0,1,1,1,0,0,1,1,0,718,8415
2024/02/27 21:23:48,7.5,53.9,46.6,30.7,46.2,52.0,1,1,1,0,0,1,1,0,718,8416
2024/02/27 21:25:47,7.5,54.8,47.5,30.7,47.1,52.0,1,1,1,0,0,1,1,0,718,8417
2024/02/27 21:27:46,7.5,55.7,48.4,30.7,48.0,52.0,1,1,1,0,0,1,1,0,718,8418
2024/02/27 21:29:45,7.5,56.7,49.2,30.7,48.7,52.0,1,1,1,0,0,1,1,0,718,8420
2024/02/27 21:31:45,7.5,57.6,50.0,30.7,49.6,52.0,1,1,1,0,0,1,1,0,718,8421
2024/02/27 21:34:43,7.5,58.3,50.8,30.7,50.6,52.0,1,1,1,0,0,1,1,0,718,8422
2024/02/27 21:36:42,7.5,59.1,51.9,30.7,51.6,52.0,1,1,1,0,0,1,1,0,718,8423
2024/02/27 21:38:41,7.5,54.1,41.1,30.7,52.6,52.0,0,1,1,0,1,0,1,0,718,8424
2024/02/27 21:40:40,7.5,34.4,29.2,30.7,53.0,52.0,0,1,1,0,1,0,1,0,719,8424
2024/02/27 21:42:39,7.5,33.2,28.4,30.7,53.2,52.0,0,1,1,0,1,0,1,0,720,8424
2024/02/27 21:44:38,7.5,32.7,28.2,30.7,53.2,52.0,0,1,1,0,1,0,1,0,721,8424
2024/02/27 21:46:36,7.5,33.3,28.9,30.7,53.1,52.0,0,1,1,0,1,0,1,0,721,8424
2024/02/27 21:48:34,7.5,33.7,29.2,30.7,53.0,52.0,0,1,1,0,1,0,1,0,722,8424
2024/02/27 21:50:34,7.5,33.7,29.4,30.7,52.9,52.0,0,1,1,0,1,0,1,0,723,8424
2024/02/27 21:52:34,7.5,33.8,29.5,30.7,52.8,52.0,0,1,1,0,1,0,1,0,724,8424
2024/02/27 21:54:32,7.5,33.9,29.7,30.7,52.7,52.0,0,1,1,0,1,0,1,0,725,8424
2024/02/27 21:56:31,7.5,34.1,29.9,30.7,52.6,52.0,0,1,1,0,1,0,1,0,725,8424
2024/02/27 21:58:30,7.5,34.4,30.1,30.7,52.6,52.0,0,1,1,0,1,0,1,0,726,8424
2024/02/27 22:00:28,7.5,34.7,30.2,30.7,52.5,52.0,0,1,1,0,1,0,1,0,727,8424
2024/02/27 22:02:27,7.4,34.7,30.3,30.7,52.5,52.0,0,1,1,0,1,0,1,0,728,8424
2024/02/27 22:04:26,7.4,34.9,30.5,30.7,52.4,52.0,0,1,1,0,1,0,1,0,729,8424
2024/02/27 22:06:25,7.4,35.2,30.8,30.7,52.4,52.0,0,1,1,0,1,0,1,0,729,8424
2024/02/27 22:08:24,7.4,35.5,31.1,30.7,52.4,52.0,0,1,1,0,1,0,1,0,730,8424
2024/02/27 22:10:23,7.4,35.7,31.2,30.7,52.4,52.0,0,1,1,0,1,0,1,0,731,8424
2024/02/27 22:12:21,7.4,35.9,31.4,30.7,52.4,52.0,0,1,1,0,1,0,1,0,732,8424
2024/02/27 22:14:21,7.4,36.2,31.7,30.7,52.4,52.0,0,1,1,0,1,0,1,0,732,8424
2024/02/27 22:16:20,7.4,36.4,31.9,30.7,52.4,52.0,0,1,1,0,1,0,1,0,733,8424
2024/02/27 22:18:18,7.4,36.6,32.1,30.7,52.4,52.0,0,1,1,0,1,0,1,0,734,8424
2024/02/27 22:20:17,7.4,36.9,32.3,30.7,52.4,52.0,0,1,1,0,1,0,1,0,735,8424
2024/02/27 22:22:17,7.4,37.1,32.5,30.7,52.4,52.0,0,1,1,0,1,0,1,0,736,8424
2024/02/27 22:24:16,7.3,36.4,32.8,30.7,52.4,52.0,0,0,1,0,1,0,1,0,736,8424
2024/02/27 22:26:15,7.3,34.6,33.0,30.7,52.4,52.0,0,0,0,0,1,0,1,0,736,8424
2024/02/27 22:28:14,7.3,34.6,32.8,30.7,52.4,52.0,0,0,0,0,1,0,0,0,736,8424
2024/02/27 22:30:13,7.3,34.2,32.3,30.7,52.3,40.0,0,0,0,0,1,0,0,0,736,8424
2024/02/27 22:32:12,7.3,33.9,32.0,30.7,52.3,40.0,0,0,0,0,1,0,0,0,736,8424
2024/02/27 22:34:11,7.3,33.7,31.8,30.7,52.3,40.0,0,0,0,0,1,0,0,0,736,8424
2024/02/27 22:36:10,7.2,33.5,31.5,30.7,52.3,40.0,0,0,0,0,1,0,0,0,736,8424
2024/02/27 22:38:09,7.2,33.4,31.3,30.7,52.3,40.0,0,0,0,0,1,0,0,0,736,8424
2024/02/27 22:40:07,7.2,33.2,31.1,30.7,52.3,40.0,0,0,0,0,1,0,0,0,736,8424
2024/02/27 22:42:05,7.2,33.1,31.0,30.7,52.2,40.0,0,0,0,0,1,0,0,0,736,8424
2024/02/27 22:44:04,7.2,33.0,30.8,30.7,52.2,40.0,0,0,0,0,1,0,0,0,736,8424
2024/02/27 22:46:03,7.2,32.9,30.6,30.7,52.2,40.0,0,0,0,0,1,0,0,0,736,8424
2024/02/27 22:48:02,7.2,32.8,30.4,30.7,52.2,40.0,0,0,0,0,1,0,0,0,736,8424
2024/02/27 22:50:01,7.2,32.8,30.2,30.7,52.2,40.0,0,0,0,0,1,0,0,0,736,8424
2024/02/27 22:52:01,7.2,32.7,30.1,30.7,52.1,40.0,0,0,0,0,1,0,0,0,736,8424
2024/02/27 22:53:59,7.2,32.6,29.9,30.7,52.1,40.0,0,0,0,0,1,0,0,0,736,8424
2024/02/27 22:55:58,7.2,32.6,29.8,30.7,52.1,40.0,0,0,0,0,1,0,0,0,736,8424
2024/02/27 22:57:56,7.2,32.5,29.6,30.7,52.1,40.0,0,0,0,0,1,0,0,0,736,8424
2024/02/27 22:59:55,7.2,32.4,29.4,30.7,52.1,40.0,0,0,0,0,1,0,0,0,736,8424
2024/02/27 23:01:54,7.2,32.3,29.3,30.7,52.0,40.0,0,0,0,0,1,0,0,0,736,8424
2024/02/27 23:03:52,7.2,32.3,29.1,30.7,52.0,40.0,0,0,0,0,1,0,0,0,736,8424
2024/02/27 23:05:51,7.2,32.2,29.0,30.7,52.0,40.0,0,0,0,0,1,0,0,0,736,8424
2024/02/27 23:07:50,7.2,32.2,28.9,30.7,52.0,40.0,0,0,0,0,1,0,0,0,736,8424
2024/02/27 23:09:49,7.2,32.1,28.7,30.7,52.0,40.0,0,0,0,0,1,0,0,0,736,8424
2024/02/27 23:11:48,7.2,32.1,28.6,30.7,52.0,40.0,0,0,0,0,1,0,0,0,736,8424
2024/02/27 23:13:47,7.2,32.0,28.4,30.7,51.9,40.0,0,0,0,0,1,0,0,0,736,8424
2024/02/27 23:15:46,7.2,32.0,28.3,30.7,51.9,40.0,0,0,0,0,1,0,0,0,736,8424
2024/02/27 23:17:45,7.2,31.9,28.2,30.7,51.9,40.0,0,0,0,0,1,0,0,0,736,8424
2024/02/27 23:20:44,7.2,31.9,28.0,30.7,51.9,40.0,0,0,0,0,1,0,0,0,736,8424
2024/02/27 23:22:43,7.2,31.8,27.9,30.7,51.8,40.0,0,0,0,0,1,0,0,0,736,8424
2024/02/27 23:24:42,7.2,31.8,27.8,30.7,51.8,40.0,0,0,0,0,1,0,0,0,736,8424
2024/02/27 23:26:41,7.2,31.7,27.7,30.7,51.8,40.0,0,0,0,0,1,0,0,0,736,8424
2024/02/27 23:28:39,7.2,31.7,27.5,30.7,51.8,40.0,0,0,0,0,1,0,0,0,736,8424
2024/02/27 23:30:39,7.2,31.7,27.4,30.7,51.8,40.0,0,0,0,0,1,0,0,0,736,8424
2024/02/27 23:32:38,7.2,31.6,27.3,30.7,51.7,40.0,0,0,0,0,1,0,0,0,736,8424
2024/02/27 23:34:37,7.2,31.6,27.2,30.7,51.7,40.0,0,0,0,0,1,0,0,0,736,8424
2024/02/27 23:36:37,7.2,31.5,27.1,30.7,51.7,40.0,0,0,0,0,1,0,0,0,736,8424
2024/02/27 23:38:35,7.2,31.5,26.9,30.7,51.7,40.0,0,0,0,0,1,0,0,0,736,8424
2024/02/27 23:40:34,7.2,31.4,26.8,30.7,51.6,40.0,0,0,0,0,1,0,0,0,736,8424
2024/02/27 23:42:33,7.2,31.4,26.7,30.7,51.6,40.0,0,0,0,0,1,0,0,0,736,8424
2024/02/27 23:44:33,7.2,31.3,26.6,30.7,51.6,40.0,0,0,0,0,1,0,0,0,736,8424
2024/02/27 23:46:29,7.2,31.3,26.5,30.7,51.6,40.0,0,0,0,0,1,0,0,0,736,8424
2024/02/27 23:48:28,7.2,31.2,26.4,30.7,51.5,40.0,0,0,0,0,1,0,0,0,736,8424
2024/02/27 23:50:27,7.2,31.2,26.3,30.7,51.5,40.0,0,0,0,0,1,0,0,0,736,8424
2024/02/27 23:52:26,7.2,31.1,26.2,30.7,51.5,40.0,0,0,0,0,1,0,0,0,736,8424
2024/02/27 23:54:25,7.2,31.1,26.1,30.7,51.5,40.0,0,0,0,0,1,0,0,0,736,8424
2024/02/27 23:56:24,7.2,31.0,26.0,30.7,51.4,40.0,0,0,0,0,1,0,0,0,736,8424
2024/02/27 23:58:24,7.2,31.0,25.9,30.7,51.4,40.0,0,0,0,0,1,0,0,0,736,8424
