Type,Analog,Analog,Analog,Analog,Analog,Analog,Digital,Digital,Digital,Digital,Digital,Digital,Digital,Digital,Integer,Integer
Index,1,5,2,53,3,58,41,42,43,44,45,46,49,50,95,98
Name,R1,R9,R2,R2 Solltemperatur,R3,R3 Solltemperatur,M1,M3,M2/M11,E10,M13,M18,M16,E9,Waermemenge Heizen,Waermemenge Warmwasser
Description,Variable 1,Variable 2,Variable 3,Variable 4,Variable 5,Variable 6,Variable 7,Variable 8,Variable 9,Variable 10,Variable 11,Variable 12,Variable 13,Variable 14,Variable 15,Variable 16
2022/07/10 00:00:28,17.3,33.3,29.4,10.0,50.2,10.0,0,0,0,0,0,0,0,0,2865,9402
2022/07/10 00:02:28,17.3,33.3,29.4,10.0,50.2,10.0,0,0,0,0,0,0,0,0,2865,9402
2022/07/10 00:04:27,17.3,33.3,29.4,10.0,50.2,10.0,0,0,0,0,0,0,0,0,2865,9402
2022/07/10 00:06:27,17.2,33.2,29.4,10.0,50.2,10.0,0,0,0,0,0,0,0,0,2865,9402
2022/07/10 00:08:25,17.2,33.2,29.4,10.0,50.1,10.0,0,0,0,0,0,0,0,0,2865,9402
2022/07/10 00:10:24,17.2,33.2,29.3,10.0,50.1,10.0,0,0,0,0,0,0,0,0,2865,9402
2022/07/10 00:12:23,17.2,33.1,29.3,10.0,50.1,10.0,0,0,0,0,0,0,0,0,2865,9402
2022/07/10 00:14:23,17.2,33.1,29.3,10.0,50.1,10.0,0,0,0,0,0,0,0,0,2865,9402
2022/07/10 00:16:21,17.1,33.1,29.3,10.0,50.1,10.0,0,0,0,0,0,0,0,0,2865,9402
2022/07/10 00:18:20,17.1,33.1,29.3,10.0,50.1,10.0,0,0,0,0,0,0,0,0,2865,9402
2022/07/10 00:20:19,17.1,33.0,29.2,10.0,50.0,10.0,0,0,0,0,0,0,0,0,2865,9402
2022/07/10 00:22:18,17.1,33.0,29.2,10.0,50.0,10.0,0,0,0,0,0,0,0,0,2865,9402
2022/07/10 00:24:17,17.1,33.0,29.2,10.0,50.0,10.0,0,0,0,0,0,0,0,0,2865,9402
2022/07/10 00:26:16,17.0,32.9,29.2,10.0,50.0,10.0,0,0,0,0,0,0,0,0,2865,9402
2022/07/10 00:28:15,17.0,32.9,29.2,10.0,50.0,10.0,0,0,0,0,0,0,0,0,2865,9402
2022/07/10 00:30:14,17.0,32.9,29.2,10.0,50.0,10.0,0,0,0,0,0,0,0,0,2865,9402
2022/07/10 00:32:13,17.0,32.8,29.1,10.0,50.0,10.0,0,0,0,0,0,0,0,0,2865,9402
2022/07/10 00:34:11,17.0,32.8,29.1,10.0,49.9,10.0,0,0,0,0,0,0,0,0,2865,9402
2022/07/10 00:36:10,16.9,32.8,29.1,10.0,49.9,10.0,0,0,0,0,0,0,0,0,2865,9402
2022/07/10 00:38:09,16.9,32.8,29.1,10.0,49.9,10.0,0,0,0,0,0,0,0,0,2865,9402
2022/07/10 00:40:08,16.9,32.7,29.1,10.0,49.9,10.0,0,0,0,0,0,0,0,0,2865,9402
2022/07/10 00:42:07,16.9,32.7,29.1,10.0,49.9,10.0,0,0,0,0,0,0,0,0,2865,9402
2022/07/10 00:44:06,16.8,32.7,29.0,10.0,49.9,10.0,0,0,0,0,0,0,0,0,2865,9402
2022/07/10 00:46:04,16.8,32.6,29.0,10.0,49.9,10.0,0,0,0,0,0,0,0,0,2865,9402
2022/07/10 00:48:03,16.8,32.6,29.0,10.0,49.9,10.0,0,0,0,0,0,0,0,0,2865,9402
2022/07/10 00:50:02,16.8,32.6,29.0,10.0,49.9,10.0,0,0,0,0,0,0,0,0,2865,9402
2022/07/10 00:52:00,16.7,32.6,29.0,10.0,49.9,10.0,0,0,0,0,0,0,0,0,2865,9402
2022/07/10 00:53:58,16.7,32.5,28.9,10.0,49.9,10.0,0,0,0,0,0,0,0,0,2865,9402
2022/07/10 00:55:57,16.7,32.5,28.9,10.0,49.9,10.0,0,0,0,0,0,0,0,0,2865,9402
2022/07/10 00:57:55,16.6,32.4,28.9,10.0,49.9,10.0,0,0,0,0,0,0,0,0,2865,9402
2022/07/10 00:59:52,16.6,32.4,28.9,10.0,49.8,10.0,0,0,0,0,0,0,0,0,2865,9402
2022/07/10 01:01:51,16.6,32.4,28.9,10.0,49.8,10.0,0,0,0,0,0,0,0,0,2865,9402
2022/07/10 01:03:50,16.6,32.4,28.9,10.0,49.8,10.0,0,0,0,0,0,0,0,0,2865,9402
2022/07/10 01:05:50,16.5,32.3,28.8,10.0,49.8,10.0,0,0,0,0,0,0,0,0,2865,9402
2022/07/10 01:07:49,16.5,32.3,28.8,10.0,49.8,10.0,0,0,0,0,0,0,0,0,2865,9402
2022/07/10 01:09:47,16.5,32.3,28.8,10.0,49.8,10.0,0,0,0,0,0,0,0,0,2865,9402
2022/07/10 01:11:47,16.5,32.2,28.8,10.0,49.8,10.0,0,0,0,0,0,0,0,0,2865,9402
2022/07/10 01:13:45,16.4,32.2,28.8,10.0,49.8,10.0,0,0,0,0,0,0,0,0,2865,9402
2022/07/10 01:15:43,16.4,32.2,28.8,10.0,49.8,10.0,0,0,0,0,0,0,0,0,2865,9402
2022/07/10 01:17:42,16.4,32.2,28.8,10.0,49.7,10.0,0,0,0,0,0,0,0,0,2865,9402
2022/07/10 01:19:41,16.4,32.1,28.7,10.0,49.7,10.0,0,0,0,0,0,0,0,0,2865,9402
2022/07/10 01:22:36,16.4,32.1,28.7,10.0,49.7,10.0,0,0,0,0,0,0,0,0,2865,9402
2022/07/10 01:24:35,16.3,32.1,28.7,10.0,49.7,10.0,0,0,0,0,0,0,0,0,2865,9402
2022/07/10 01:26:34,16.3,32.1,28.7,10.0,49.7,10.0,0,0,0,0,0,0,0,0,2865,9402
2022/07/10 01:28:30,16.3,32.0,28.7,10.0,49.7,10.0,0,0,0,0,0,0,0,0,2865,9402
2022/07/10 01:30:28,16.3,32.0,28.7,10.0,49.7,10.0,0,0,0,0,0,0,0,0,2865,9402
2022/07/10 01:32:28,16.3,32.0,28.6,10.0,49.7,10.0,0,0,0,0,0,0,0,0,2865,9402
2022/07/10 01:34:26,16.3,32.0,28.6,10.0,49.7,10.0,0,0,0,0,0,0,0,0,2865,9402
2022/07/10 01:36:24,16.2,31.9,28.6,10.0,49.6,10.0,0,0,0,0,0,0,0,0,2865,9402
2022/07/10 01:38:24,16.2,31.9,28.6,10.0,49.6,10.0,0,0,0,0,0,0,0,0,2865,9402
2022/07/10 01:40:23,16.2,31.9,28.6,10.0,49.6,10.0,0,0,0,0,0,0,0,0,2865,9402
2022/07/10 01:42:21,16.2,31.8,28.6,10.0,49.6,10.0,0,0,0,0,0,0,0,0,2865,9402
2022/07/10 01:44:20,16.1,31.8,28.6,10.0,49.6,10.0,0,0,0,0,0,0,0,0,2865,9402
2022/07/10 01:46:18,16.1,31.8,28.5,10.0,49.6,10.0,0,0,0,0,0,0,0,0,2865,9402
2022/07/10 01:48:17,16.1,31.8,28.5,10.0,49.6,10.0,0,0,0,0,0,0,0,0,2865,9402
2022/07/10 01:50:16,16.1,31.7,28.5,10.0,49.6,10.0,0,0,0,0,0,0,0,0,2865,9402
2022/07/10 01:52:15,16.1,31.7,28.5,10.0,49.5,10.0,0,0,0,0,0,0,0,0,2865,9402
2022/07/10 01:54:13,16.1,31.7,28.5,10.0,49.5,10.0,0,0,0,0,0,0,0,0,2865,9402
2022/07/10 01:56:11,16.1,31.7,28.5,10.0,49.5,10.0,0,0,0,0,0,0,0,0,2865,9402
2022/07/10 01:58:10,16.1,31.6,28.5,10.0,49.5,10.0,0,0,0,0,0,0,0,0,2865,9402
2022/07/10 02:00:08,16.1,31.6,28.4,10.0,49.5,10.0,0,0,0,0,0,0,0,0,2865,9402
2022/07/10 02:02:06,16.1,31.6,28.4,10.0,49.5,10.0,0,0,0,0,0,0,0,0,2865,9402
2022/07/10 02:04:04,16.1,31.6,28.4,10.0,49.5,10.0,0,0,0,0,0,0,0,0,2865,9402
2022/07/10 02:06:03,16.1,31.6,28.4,10.0,49.5,10.0,0,0,0,0,0,0,0,0,2865,9402
2022/07/10 02:08:02,16.0,31.5,28.4,10.0,49.4,10.0,0,0,0,0,0,0,0,0,2865,9402
2022/07/10 02:10:02,16.0,31.5,28.4,10.0,49.4,10.0,0,0,0,0,0,0,0,0,2865,9402
2022/07/10 02:12:00,16.0,31.5,28.4,10.0,49.4,10.0,0,0,0,0,0,0,0,0,2865,9402
2022/07/10 02:13:59,16.0,31.5,28.3,10.0,49.4,10.0,0,0,0,0,0,0,0,0,2865,9402
2022/07/10 02:15:59,15.9,31.4,28.3,10.0,49.4,10.0,0,0,0,0,0,0,0,0,2865,9402
2022/07/10 02:17:57,15.9,31.4,28.3,10.0,49.4,10.0,0,0,0,0,0,0,0,0,2865,9402
2022/07/10 02:19:55,15.9,31.4,28.3,10.0,49.3,10.0,0,0,0,0,0,0,0,0,2865,9402
2022/07/10 02:21:55,15.8,31.3,28.3,10.0,49.3,10.0,0,0,0,0,0,0,0,0,2865,9402
2022/07/10 02:23:54,15.8,31.3,28.3,10.0,49.3,10.0,0,0,0,0,0,0,0,0,2865,9402
2022/07/10 02:25:51,15.8,31.3,28.3,10.0,49.3,10.0,0,0,0,0,0,0,0,0,2865,9402
2022/07/10 02:27:47,15.7,31.3,28.3,10.0,49.3,10.0,0,0,0,0,0,0,0,0,2865,9402
2022/07/10 02:29:46,15.7,31.3,28.2,10.0,49.3,10.0,0,0,0,0,0,0,0,0,2865,9402
2022/07/10 02:31:44,15.7,31.2,28.2,10.0,49.2,10.0,0,0,0,0,0,0,0,0,2865,9402
2022/07/10 02:33:44,15.6,31.2,28.2,10.0,49.2,10.0,0,0,0,0,0,0,0,0,2865,9402
2022/07/10 02:35:44,15.6,31.2,28.2,10.0,49.2,10.0,0,0,0,0,0,0,0,0,2865,9402
2022/07/10 02:37:43,15.6,31.2,28.2,10.0,49.2,10.0,0,0,0,0,0,0,0,0,2865,9402
2022/07/10 02:39:42,15.5,31.1,28.2,10.0,49.2,10.0,0,0,0,0,0,0,0,0,2865,9402
2022/07/10 02:42:40,15.5,31.1,28.2,10.0,49.2,10.0,0,0,0,0,0,0,0,0,2865,9402
2022/07/10 02:44:39,15.4,31.1,28.2,10.0,49.1,10.0,0,0,0,0,0,0,0,0,2865,9402
2022/07/10 02:46:38,15.4,31.1,28.1,10.0,49.1,10.0,0,0,0,0,0,0,0,0,2865,9402
2022/07/10 02:48:37,15.4,31.1,28.1,10.0,49.1,10.0,0,0,0,0,0,0,0,0,2865,9402
2022/07/10 02:50:36,15.4,31.0,28.1,10.0,49.1,10.0,0,0,0,0,0,0,0,0,2865,9402
2022/07/10 02:52:35,15.4,31.0,28.1,10.0,49.1,10.0,0,0,0,0,0,0,0,0,2865,9402
2022/07/10 02:54:33,15.4,31.0,28.1,10.0,49.1,10.0,0,0,0,0,0,0,0,0,2865,9402
2022/07/10 02:56:32,15.4,31.0,28.1,10.0,49.0,10.0,0,0,0,0,0,0,0,0,2865,9402
2022/07/10 02:58:31,15.4,31.0,28.1,10.0,49.0,10.0,0,0,0,0,0,0,0,0,2865,9402
2022/07/10 03:00:30,15.4,30.9,28.1,10.0,49.0,10.0,0,0,0,0,0,0,0,0,2865,9402
2022/07/10 03:02:28,15.4,30.9,28.0,10.0,49.0,10.0,0,0,0,0,0,0,0,0,2865,9402
2022/07/10 03:04:27,15.4,30.9,28.0,10.0,49.0,10.0,0,0,0,0,0,0,0,0,2865,9402
2022/07/10 03:06:25,15.4,30.9,28.0,10.0,49.0,10.0,0,0,0,0,0,0,0,0,2865,9402
2022/07/10 03:08:24,15.4,30.8,28.0,10.0,48.9,10.0,0,0,0,0,0,0,0,0,2865,9402
2022/07/10 03:10:22,15.5,30.8,28.0,10.0,48.9,10.0,0,0,0,0,0,0,0,0,2865,9402
2022/07/10 03:12:21,15.5,30.8,28.0,10.0,48.9,10.0,0,0,0,0,0,0,0,0,2865,9402
2022/07/10 03:14:20,15.5,30.8,28.0,10.0,48.9,10.0,0,0,0,0,0,0,0,0,2865,9402
2022/07/10 03:16:19,15.5,30.8,28.0,10.0,48.9,10.0,0,0,0,0,0,0,0,0,2865,9402
2022/07/10 03:18:16,15.5,30.7,28.0,10.0,48.8,10.0,0,0,0,0,0,0,0,0,2865,9402
2022/07/10 03:20:15,15.5,30.7,27.9,10.0,48.8,10.0,0,0,0,0,0,0,0,0,2865,9402
2022/07/10 03:22:14,15.6,30.7,27.9,10.0,48.8,10.0,0,0,0,0,0,0,0,0,2865,9402
2022/07/10 03:24:14,15.6,30.7,27.9,10.0,48.8,10.0,0,0,0,0,0,0,0,0,2865,9402
2022/07/10 03:26:11,15.6,30.7,27.9,10.0,48.8,10.0,0,0,0,0,0,0,0,0,2865,9402
2022/07/10 03:28:10,15.6,30.6,27.9,10.0,48.8,10.0,0,0,0,0,0,0,0,0,2865,9402
2022/07/10 03:30:09,15.6,30.6,27.9,10.0,48.7,10.0,0,0,0,0,0,0,0,0,2865,9402
2022/07/10 03:32:08,15.6,30.6,27.9,10.0,48.7,10.0,0,0,0,0,0,0,0,0,2865,9402
2022/07/10 03:34:07,15.6,30.6,27.9,10.0,48.7,10.0,0,0,0,0,0,0,0,0,2865,9402
2022/07/10 03:36:05,15.6,30.5,27.9,10.0,48.7,10.0,0,0,0,0,0,0,0,0,2865,9402
2022/07/10 03:38:03,15.6,30.5,27.9,10.0,48.7,10.0,0,0,0,0,0,0,0,0,2865,9402
2022/07/10 03:40:02,15.6,30.5,27.8,10.0,48.7,10.0,0,0,0,0,0,0,0,0,2865,9402
2022/07/10 03:42:00,15.6,30.5,27.8,10.0,48.6,10.0,0,0,0,0,0,0,0,0,2865,9402
2022/07/10 03:44:00,15.6,30.5,27.8,10.0,48.6,10.0,0,0,0,0,0,0,0,0,2865,9402
2022/07/10 03:45:59,15.6,30.5,27.8,10.0,48.6,52.0,0,0,0,0,0,0,0,0,2865,9402
2022/07/10 03:47:59,15.6,30.4,27.8,10.0,48.6,52.0,0,0,0,0,0,0,0,0,2865,9402
2022/07/10 03:49:56,15.6,30.4,27.8,10.0,48.6,52.0,0,0,0,0,0,0,0,0,2865,9402
2022/07/10 03:51:56,15.6,30.4,27.8,10.0,48.6,52.0,0,0,0,0,0,0,0,0,2865,9402
2022/07/10 03:53:55,15.6,30.4,27.8,10.0,48.5,52.0,0,0,0,0,0,0,0,0,2865,9402
2022/07/10 03:55:54,15.6,30.3,27.8,10.0,48.5,52.0,0,0,0,0,0,0,0,0,2865,9402
2022/07/10 03:57:53,15.6,30.3,27.8,10.0,48.5,52.0,0,0,0,0,0,0,0,0,2865,9402
2022/07/10 03:59:52,15.6,30.3,27.7,10.0,48.5,52.0,0,0,0,0,0,0,0,0,2865,9402
2022/07/10 04:01:50,15.6,30.3,27.7,10.0,48.5,52.0,0,0,0,0,0,0,0,0,2865,9402
2022/07/10 04:03:49,15.6,30.3,27.7,10.0,48.5,52.0,0,0,0,0,0,0,0,0,2865,9402
2022/07/10 04:05:48,15.6,30.3,27.7,10.0,48.4,52.0,0,0,0,0,0,0,0,0,2865,9402
2022/07/10 04:07:47,15.6,30.2,27.7,10.0,48.4,52.0,0,0,0,0,0,0,0,0,2865,9402
2022/07/10 04:09:46,15.6,30.2,27.7,10.0,48.4,52.0,0,0,0,0,0,0,0,0,2865,9402
2022/07/10 04:11:45,15.6,30.2,27.7,10.0,48.4,52.0,0,0,0,0,0,0,0,0,2865,9402
2022/07/10 04:13:44,15.6,30.2,27.7,10.0,48.4,52.0,0,0,0,0,0,0,0,0,2865,9402
2022/07/10 04:15:43,15.6,30.2,27.7,10.0,48.4,52.0,0,0,0,0,0,0,0,0,2865,9402
2022/07/10 04:17:42,15.6,30.1,27.7,10.0,48.3,52.0,0,0,0,0,0,0,0,0,2865,9402
2022/07/10 04:20:41,15.5,30.1,27.6,10.0,48.3,52.0,0,0,0,0,0,0,0,0,2865,9402
2022/07/10 04:22:41,15.5,30.1,27.6,10.0,48.3,52.0,0,0,0,0,0,0,0,0,2865,9402
2022/07/10 04:24:40,15.4,30.1,27.6,10.0,48.3,52.0,0,0,0,0,0,0,0,0,2865,9402
2022/07/10 04:26:40,15.4,30.1,27.6,10.0,48.3,52.0,0,0,0,0,0,0,0,0,2865,9402
2022/07/10 04:28:39,15.3,30.1,27.6,10.0,48.3,52.0,0,0,0,0,0,0,0,0,2865,9402
2022/07/10 04:30:38,15.3,30.0,27.6,10.0,48.2,52.0,0,0,0,0,0,0,0,0,2865,9402
2022/07/10 04:32:37,15.2,30.0,27.6,10.0,48.2,52.0,0,0,0,0,0,0,0,0,2865,9402
2022/07/10 04:34:35,15.2,30.0,27.6,10.0,48.2,52.0,0,0,0,0,0,0,0,0,2865,9402
2022/07/10 04:36:34,15.1,30.0,27.6,10.0,48.2,52.0,0,0,0,0,0,0,0,0,2865,9402
2022/07/10 04:38:34,15.1,30.0,27.6,10.0,48.2,52.0,0,0,0,0,0,0,0,0,2865,9402
2022/07/10 04:40:32,15.1,30.0,27.6,10.0,48.2,52.0,0,0,0,0,0,0,0,0,2865,9402
2022/07/10 04:42:31,15.0,30.0,27.6,10.0,48.1,52.0,0,0,0,0,0,0,0,0,2865,9402
2022/07/10 04:44:30,15.0,29.9,27.5,10.0,48.1,52.0,0,0,0,0,0,0,0,0,2865,9402
2022/07/10 04:46:29,15.0,29.9,27.5,10.0,48.1,52.0,0,0,0,0,0,0,0,0,2865,9402
2022/07/10 04:48:29,14.9,29.9,27.5,10.0,48.1,52.0,0,0,0,0,0,0,0,0,2865,9402
2022/07/10 04:50:28,14.9,29.9,27.5,10.0,48.1,52.0,0,0,0,0,0,0,0,0,2865,9402
2022/07/10 04:52:26,14.8,29.9,27.5,10.0,48.1,52.0,0,0,0,0,0,0,0,0,2865,9402
2022/07/10 04:54:25,14.8,29.9,27.5,10.0,48.0,52.0,0,0,0,0,0,0,0,0,2865,9402
2022/07/10 04:56:24,14.7,29.9,27.5,10.0,48.0,52.0,0,0,0,0,0,0,0,0,2865,9402
2022/07/10 04:58:22,14.7,29.9,27.5,10.0,48.0,52.0,0,0,0,0,0,0,0,0,2865,9402
2022/07/10 05:00:20,14.6,29.8,27.5,10.0,48.0,52.0,0,0,0,0,0,0,0,0,2865,9402
2022/07/10 05:02:19,14.6,29.8,27.5,10.0,48.0,52.0,0,0,0,0,0,0,0,0,2865,9402
2022/07/10 05:04:17,14.6,29.8,27.5,10.0,48.0,52.0,0,0,0,0,0,0,0,0,2865,9402
2022/07/10 05:06:15,14.5,29.8,27.4,10.0,47.9,52.0,0,0,0,0,0,0,0,0,2865,9402
2022/07/10 05:08:14,14.5,29.8,27.4,10.0,47.9,52.0,0,0,0,0,0,0,0,0,2865,9402
2022/07/10 05:10:12,14.5,29.8,27.4,10.0,47.9,52.0,0,0,0,0,0,0,0,0,2865,9402
2022/07/10 05:12:11,14.5,29.8,27.4,10.0,47.9,52.0,0,0,0,0,0,0,0,0,2865,9402
2022/07/10 05:14:10,14.4,29.7,27.4,10.0,47.9,52.0,0,0,0,0,0,0,0,0,2865,9402
2022/07/10 05:16:09,14.4,29.7,27.4,10.0,47.9,52.0,0,0,0,0,0,0,0,0,2865,9402
2022/07/10 05:18:08,14.4,29.7,27.4,10.0,47.8,52.0,0,0,0,0,0,0,0,0,2865,9402
2022/07/10 05:20:06,14.3,29.7,27.4,10.0,47.8,52.0,0,0,0,0,0,0,0,0,2865,9402
2022/07/10 05:22:05,14.3,29.7,27.4,10.0,47.8,52.0,0,0,0,0,0,0,0,0,2865,9402
2022/07/10 05:24:05,14.3,29.7,27.4,10.0,47.8,52.0,0,0,0,0,0,0,0,0,2865,9402
2022/07/10 05:26:03,14.3,29.7,27.4,10.0,47.8,52.0,0,0,0,0,0,0,0,0,2865,9402
2022/07/10 05:28:02,14.3,29.7,27.4,10.0,47.8,52.0,0,0,0,0,0,0,0,0,2865,9402
2022/07/10 05:30:00,14.3,29.6,27.4,10.0,47.7,52.0,0,0,0,0,0,0,0,0,2865,9402
2022/07/10 05:31:59,14.3,29.6,27.3,10.0,47.1,52.0,0,0,0,0,0,0,0,0,2865,9402
2022/07/10 05:33:58,14.3,29.6,27.3,10.0,46.4,52.0,0,0,0,0,0,0,0,0,2865,9402
2022/07/10 05:35:54,14.2,29.6,27.3,10.0,46.1,52.0,0,0,0,0,0,0,0,0,2865,9402
2022/07/10 05:37:51,14.2,29.6,27.3,10.0,46.0,52.0,0,0,0,0,0,0,0,0,2865,9402
2022/07/10 05:39:50,14.2,29.6,27.3,10.0,45.7,52.0,0,0,0,0,0,0,0,0,2865,9402
2022/07/10 05:41:48,14.1,29.5,27.3,10.0,45.5,52.0,0,0,0,0,0,0,0,0,2865,9402
2022/07/10 05:43:47,14.1,29.5,27.3,10.0,45.4,52.0,0,0,0,0,0,0,0,0,2865,9402
2022/07/10 05:45:47,14.1,29.5,27.3,10.0,45.3,52.0,0,0,0,0,0,0,0,0,2865,9402
2022/07/10 05:47:46,14.1,29.5,27.3,10.0,45.1,52.0,0,0,0,0,0,0,0,0,2865,9402
2022/07/10 05:49:43,14.0,29.5,27.3,10.0,45.0,52.0,0,0,0,0,0,0,0,0,2865,9402
2022/07/10 05:51:43,14.0,29.5,27.3,10.0,44.9,52.0,0,0,0,0,0,0,0,0,2865,9402
2022/07/10 05:54:41,14.0,29.5,27.3,10.0,44.9,52.0,0,0,0,0,0,0,0,0,2865,9402
2022/07/10 05:56:40,14.0,29.5,27.3,10.0,44.8,52.0,0,0,0,0,0,0,0,0,2865,9402
2022/07/10 05:58:38,14.0,29.5,27.2,10.0,44.7,52.0,0,0,0,0,0,0,0,0,2865,9402
2022/07/10 06:00:37,13.9,29.4,27.2,10.0,44.7,52.0,0,0,0,0,0,0,0,0,2865,9402
2022/07/10 06:02:36,13.9,29.4,27.2,10.0,44.6,52.0,0,0,0,0,0,0,0,0,2865,9402
2022/07/10 06:04:34,13.9,29.4,27.2,10.0,44.5,52.0,0,0,0,0,0,0,0,0,2865,9402
2022/07/10 06:06:33,13.9,29.4,27.2,10.0,44.4,52.0,0,0,0,0,0,0,0,0,2865,9402
2022/07/10 06:08:32,13.9,29.4,27.2,10.0,44.4,52.0,0,0,0,0,0,0,0,0,2865,9402
2022/07/10 06:10:31,13.9,29.4,27.2,10.0,44.3,52.0,0,0,0,0,0,0,0,0,2865,9402
2022/07/10 06:12:31,13.9,29.4,27.2,10.0,44.2,52.0,0,0,0,0,0,0,0,0,2865,9402
2022/07/10 06:14:30,13.9,29.4,27.2,10.0,44.2,52.0,0,0,0,0,0,0,0,0,2865,9402
2022/07/10 06:16:30,13.9,29.3,27.2,10.0,44.1,52.0,0,0,0,0,0,0,0,0,2865,9402
2022/07/10 06:18:28,13.9,29.3,27.6,10.0,44.0,52.0,0,0,1,0,0,1,1,0,2865,9402
2022/07/10 06:20:27,14.0,39.9,36.3,10.0,43.8,52.0,0,1,1,0,0,1,1,0,2865,9402
2022/07/10 06:22:27,14.0,44.0,40.7,10.0,43.7,52.0,0,1,1,0,0,1,1,0,2865,9403
2022/07/10 06:24:27,14.0,45.9,42.3,10.0,43.7,52.0,0,1,1,0,0,1,1,0,2865,9404
2022/07/10 06:26:26,14.0,47.3,43.4,10.0,44.0,52.0,0,1,1,0,0,1,1,0,2865,9405
2022/07/10 06:28:24,14.1,48.3,44.1,10.0,44.4,52.0,0,1,1,0,0,1,1,0,2865,9406
2022/07/10 06:30:24,14.1,49.0,44.6,10.0,44.8,52.0,0,1,1,0,0,1,1,0,2865,9407
2022/07/10 06:32:22,14.2,49.6,45.2,10.0,45.4,52.0,0,1,1,0,0,1,1,0,2865,9407
2022/07/10 06:34:21,14.2,50.3,45.8,10.0,46.0,52.0,0,1,1,0,0,1,1,0,2865,9408
2022/07/10 06:36:20,14.3,50.9,46.3,10.0,46.6,52.0,0,1,1,0,0,1,1,0,2865,9409
2022/07/10 06:38:19,14.5,51.6,46.8,10.0,47.1,52.0,0,1,1,0,0,1,1,0,2865,9410
2022/07/10 06:40:18,14.6,52.2,47.4,10.0,47.7,52.0,0,1,1,0,0,1,1,0,2865,9410
2022/07/10 06:42:16,14.7,52.8,47.9,10.0,48.2,52.0,0,1,1,0,0,1,1,0,2865,9411
2022/07/10 06:44:15,14.8,53.3,48.4,10.0,48.7,52.0,0,1,1,0,0,1,1,0,2865,9412
2022/07/10 06:46:14,15.0,53.8,48.9,10.0,49.2,52.0,0,1,1,0,0,1,1,0,2865,9413
2022/07/10 06:48:13,15.3,54.2,49.3,10.0,49.7,52.0,0,1,1,0,0,1,1,0,2865,9413
2022/07/10 06:50:13,15.7,54.7,49.7,10.0,50.3,52.0,0,1,1,0,0,1,1,0,2865,9414
2022/07/10 06:52:12,16.1,55.1,50.1,10.0,50.8,52.0,0,1,1,0,0,1,1,0,2865,9415
2022/07/10 06:54:11,16.5,55.7,50.7,10.0,51.5,52.0,0,1,1,0,0,1,1,0,2865,9416
2022/07/10 06:56:10,16.8,56.0,51.3,10.0,52.0,52.0,0,0,1,0,0,1,1,0,2865,9416
2022/07/10 06:58:09,17.0,42.7,40.0,10.0,52.5,52.0,0,0,0,0,0,0,1,0,2865,9416
2022/07/10 07:00:09,17.3,42.0,39.7,10.0,52.7,52.0,0,0,0,0,0,0,0,0,2865,9416
2022/07/10 07:02:08,17.4,41.5,39.1,10.0,52.7,52.0,0,0,0,0,0,0,0,0,2865,9416
2022/07/10 07:04:07,17.6,41.0,38.7,10.0,52.7,52.0,0,0,0,0,0,0,0,0,2865,9416
2022/07/10 07:06:06,17.9,40.6,38.4,10.0,52.6,52.0,0,0,0,0,0,0,0,0,2865,9416
2022/07/10 07:08:06,18.0,40.2,38.1,10.0,52.5,52.0,0,0,0,0,0,0,0,0,2865,9416
2022/07/10 07:10:04,18.1,40.0,37.9,10.0,52.4,52.0,0,0,0,0,0,0,0,0,2865,9416
2022/07/10 07:12:03,18.2,39.8,37.6,10.0,52.4,52.0,0,0,0,0,0,0,0,0,2865,9416
2022/07/10 07:14:01,18.3,39.6,37.4,10.0,52.3,52.0,0,0,0,0,0,0,0,0,2865,9416
2022/07/10 07:16:00,18.3,39.5,37.2,10.0,52.2,52.0,0,0,0,0,0,0,0,0,2865,9416
2022/07/10 07:18:00,18.3,39.4,37.1,10.0,52.1,52.0,0,0,0,0,0,0,0,0,2865,9416
2022/07/10 07:19:59,18.4,39.3,36.9,10.0,52.0,52.0,0,0,0,0,0,0,0,0,2865,9416
2022/07/10 07:21:58,18.6,39.2,36.7,10.0,52.0,52.0,0,0,0,0,0,0,0,0,2865,9416
2022/07/10 07:23:56,18.8,39.1,36.6,10.0,51.9,52.0,0,0,0,0,0,0,0,0,2865,9416
2022/07/10 07:25:55,19.0,39.0,36.4,10.0,51.8,52.0,0,0,0,0,0,0,0,0,2865,9416
2022/07/10 07:27:53,19.2,39.0,36.3,10.0,51.7,52.0,0,0,0,0,0,0,0,0,2865,9416
2022/07/10 07:29:53,19.4,38.9,36.2,10.0,51.7,52.0,0,0,0,0,0,0,0,0,2865,9416
2022/07/10 07:31:52,19.6,38.8,36.0,10.0,51.6,52.0,0,0,0,0,0,0,0,0,2865,9416
2022/07/10 07:33:50,19.7,38.8,35.9,10.0,51.5,52.0,0,0,0,0,0,0,0,0,2865,9416
2022/07/10 07:35:50,19.8,38.7,35.8,10.0,51.5,52.0,0,0,0,0,0,0,0,0,2865,9416
2022/07/10 07:37:48,19.9,38.7,35.7,10.0,51.4,52.0,0,0,0,0,0,0,0,0,2865,9416
2022/07/10 07:39:46,20.0,38.6,35.5,10.0,51.3,52.0,0,0,0,0,0,0,0,0,2865,9416
2022/07/10 07:41:45,20.0,38.6,35.4,10.0,51.3,52.0,0,0,0,0,0,0,0,0,2865,9416
2022/07/10 07:43:44,20.1,38.5,35.3,10.0,51.2,52.0,0,0,0,0,0,0,0,0,2865,9416
2022/07/10 07:45:43,20.2,38.5,35.2,10.0,51.2,52.0,0,0,0,0,0,0,0,0,2865,9416
2022/07/10 07:48:41,20.2,38.4,35.1,10.0,51.1,52.0,0,0,0,0,0,0,0,0,2865,9416
2022/07/10 07:50:39,20.2,38.4,35.0,10.0,51.0,52.0,0,0,0,0,0,0,0,0,2865,9416
2022/07/10 07:52:38,20.0,38.4,34.9,10.0,51.0,52.0,0,0,0,0,0,0,0,0,2865,9416
2022/07/10 07:54:36,19.8,38.3,34.8,10.0,50.9,52.0,0,0,0,0,0,0,0,0,2865,9416
2022/07/10 07:56:35,19.5,38.3,34.7,10.0,50.8,52.0,0,0,0,0,0,0,0,0,2865,9416
2022/07/10 07:58:33,19.3,38.2,34.6,10.0,50.8,52.0,0,0,0,0,0,0,0,0,2865,9416
2022/07/10 08:00:32,19.1,38.2,34.5,10.0,50.7,52.0,0,0,0,0,0,0,0,0,2865,9416
2022/07/10 08:02:31,19.0,38.2,34.4,10.0,50.6,52.0,0,0,0,0,0,0,0,0,2865,9416
2022/07/10 08:04:30,18.9,38.1,34.3,10.0,50.6,52.0,0,0,0,0,0,0,0,0,2865,9416
2022/07/10 08:06:27,18.8,38.1,34.2,10.0,50.5,52.0,0,0,0,0,0,0,0,0,2865,9416
2022/07/10 08:08:27,18.8,38.0,34.1,10.0,50.5,52.0,0,0,0,0,0,0,0,0,2865,9416
2022/07/10 08:10:25,18.7,38.0,33.9,10.0,50.4,52.0,0,0,0,0,0,0,0,0,2865,9416
2022/07/10 08:12:24,18.7,37.9,33.7,10.0,50.3,52.0,0,0,0,0,0,0,0,0,2865,9416
2022/07/10 08:14:24,18.7,37.9,33.5,10.0,50.3,52.0,0,0,0,0,0,0,0,0,2865,9416
2022/07/10 08:16:22,18.6,37.8,33.4,10.0,50.2,52.0,0,0,0,0,0,0,0,0,2865,9416
2022/07/10 08:18:21,18.6,37.8,33.2,10.0,50.2,52.0,0,0,0,0,0,0,0,0,2865,9416
2022/07/10 08:20:20,18.5,37.7,33.1,10.0,50.1,52.0,0,0,0,0,0,0,0,0,2865,9416
2022/07/10 08:22:19,18.5,37.7,33.0,10.0,50.0,52.0,0,0,0,0,0,0,0,0,2865,9416
2022/07/10 08:24:19,18.5,37.6,32.8,10.0,50.0,58.4,0,0,1,0,0,1,1,0,2865,9416
2022/07/10 08:26:18,18.5,45.3,42.1,10.0,49.9,57.7,1,0,1,0,0,1,1,0,2865,9417
2022/07/10 08:28:17,18.6,49.9,46.4,10.0,49.8,57.7,1,0,1,0,0,1,1,0,2865,9418
2022/07/10 08:30:15,18.7,52.0,48.1,10.0,49.8,57.7,1,0,1,0,0,1,1,0,2865,9418
2022/07/10 08:32:14,18.7,53.4,49.1,10.0,50.1,57.7,1,0,1,0,0,1,1,0,2865,9419
2022/07/10 08:34:13,18.7,54.3,49.8,10.0,50.6,57.7,1,0,1,0,0,1,1,0,2865,9420
2022/07/10 08:36:11,18.8,55.1,50.5,10.0,51.2,57.7,1,0,1,0,0,1,1,0,2865,9421
2022/07/10 08:38:09,18.8,55.7,51.0,10.0,51.7,57.7,1,0,1,0,0,1,1,0,2865,9421
2022/07/10 08:40:08,18.9,56.4,51.8,10.0,52.3,57.7,1,0,1,0,0,1,1,0,2865,9422
2022/07/10 08:42:08,18.9,57.0,52.3,10.0,52.9,57.7,1,0,1,0,0,1,1,0,2865,9423
2022/07/10 08:44:06,19.0,57.5,52.7,10.0,53.4,57.7,1,0,1,0,0,1,1,0,2865,9423
2022/07/10 08:46:05,19.0,58.0,53.2,10.0,53.9,57.7,1,0,1,0,0,1,1,0,2865,9424
2022/07/10 08:48:04,19.1,58.5,53.6,10.0,54.4,57.7,1,0,1,0,0,1,1,0,2865,9425
2022/07/10 08:50:01,19.2,59.0,54.1,10.0,55.0,57.7,1,0,1,0,0,1,1,0,2865,9426
2022/07/10 08:52:01,19.2,59.5,54.5,10.0,55.6,57.7,1,0,1,0,0,1,1,0,2865,9426
2022/07/10 08:54:01,19.3,59.9,54.9,10.0,56.1,57.7,1,0,1,0,0,1,1,0,2865,9427
2022/07/10 08:56:00,19.3,60.4,55.4,10.0,56.6,57.7,1,0,1,0,0,1,1,0,2865,9428
2022/07/10 08:58:00,19.3,60.9,55.8,10.0,57.1,57.7,1,0,1,0,0,1,1,0,2865,9428
2022/07/10 08:59:59,19.4,61.4,56.3,10.0,57.7,57.7,0,0,1,0,0,1,1,0,2865,9429
2022/07/10 09:01:58,19.5,45.1,42.1,10.0,58.2,57.7,0,0,0,0,0,0,1,0,2865,9429
2022/07/10 09:03:58,19.5,43.1,40.6,10.0,58.4,58.4,0,0,0,0,0,0,0,0,2865,9429
2022/07/10 09:05:57,19.6,42.5,39.9,10.0,58.5,58.4,0,0,0,0,0,0,0,0,2865,9429
2022/07/10 09:07:56,19.7,42.0,39.5,10.0,58.5,58.4,0,0,0,0,0,0,0,0,2865,9429
2022/07/10 09:09:54,19.8,41.6,39.2,10.0,58.4,58.4,0,0,0,0,0,0,0,0,2865,9429
2022/07/10 09:11:53,19.9,41.2,38.8,10.0,58.3,58.4,0,0,0,0,0,0,0,0,2865,9429
2022/07/10 09:13:51,19.9,41.0,38.6,10.0,58.2,58.4,0,0,0,0,0,0,0,0,2865,9429
2022/07/10 09:15:50,20.0,40.8,38.3,10.0,58.1,58.4,0,0,0,0,0,0,0,0,2865,9429
2022/07/10 09:17:48,20.1,40.6,38.1,10.0,58.0,58.4,0,0,0,0,0,0,0,0,2865,9429
2022/07/10 09:19:47,20.1,40.4,37.9,10.0,57.9,58.4,0,0,0,0,0,0,0,0,2865,9429
2022/07/10 09:21:47,20.1,40.3,37.8,10.0,57.8,58.4,0,0,0,0,0,0,0,0,2865,9429
2022/07/10 09:23:45,20.1,40.1,37.6,10.0,57.8,58.4,0,0,0,0,0,0,0,0,2865,9429
2022/07/10 09:25:44,20.1,40.0,37.4,10.0,57.7,58.4,0,0,0,0,0,0,0,0,2865,9429
2022/07/10 09:27:43,20.1,39.9,37.3,10.0,57.6,58.4,0,0,0,0,0,0,0,0,2865,9429
2022/07/10 09:30:42,20.1,39.8,37.2,10.0,57.5,58.4,0,0,0,0,0,0,0,0,2865,9429
2022/07/10 09:32:41,20.1,39.7,37.0,10.0,57.4,58.4,0,0,0,0,0,0,0,0,2865,9429
2022/07/10 09:34:39,20.2,39.6,36.9,10.0,57.4,58.4,0,0,0,0,0,0,0,0,2865,9429
2022/07/10 09:36:38,20.2,39.5,36.8,10.0,57.3,58.4,0,0,0,0,0,0,0,0,2865,9429
2022/07/10 09:38:36,20.3,39.4,36.6,10.0,57.2,58.4,0,0,0,0,0,0,0,0,2865,9429
2022/07/10 09:40:36,20.4,39.3,36.5,10.0,57.1,58.4,0,0,0,0,0,0,0,0,2865,9429
2022/07/10 09:42:33,20.5,39.3,36.4,10.0,57.0,58.4,0,0,0,0,0,0,0,0,2865,9429
2022/07/10 09:44:33,20.6,39.2,36.3,10.0,57.0,58.4,0,0,0,0,0,0,0,0,2865,9429
2022/07/10 09:46:31,20.7,39.2,36.2,10.0,56.9,58.4,0,0,0,0,0,0,0,0,2865,9429
2022/07/10 09:48:29,20.8,39.1,36.0,10.0,56.8,58.4,0,0,0,0,0,0,0,0,2865,9429
2022/07/10 09:50:28,20.8,39.0,35.9,10.0,56.8,58.4,0,0,0,0,0,0,0,0,2865,9429
2022/07/10 09:52:26,20.9,39.0,35.8,10.0,56.7,58.4,0,0,0,0,0,0,0,0,2865,9429
2022/07/10 09:54:26,20.9,38.9,35.7,10.0,56.6,58.4,0,0,0,0,0,0,0,0,2865,9429
2022/07/10 09:56:25,20.9,38.9,35.6,10.0,56.5,58.4,0,0,0,0,0,0,0,0,2865,9429
2022/07/10 09:58:24,21.0,38.8,35.5,10.0,56.4,58.4,0,0,0,0,0,0,0,0,2865,9429
2022/07/10 10:00:21,21.1,38.8,35.4,10.0,56.4,58.4,0,0,0,0,0,0,0,0,2865,9429
2022/07/10 10:02:19,21.1,38.7,35.3,10.0,56.3,58.4,0,0,0,0,0,0,0,0,2865,9429
2022/07/10 10:04:18,21.2,38.7,35.2,10.0,56.2,58.4,0,0,0,0,0,0,0,0,2865,9429
2022/07/10 10:06:17,21.3,38.6,35.1,10.0,56.1,58.4,0,0,0,0,0,0,0,0,2865,9429
2022/07/10 10:08:16,21.4,38.6,35.0,10.0,56.1,58.4,0,0,0,0,0,0,0,0,2865,9429
2022/07/10 10:10:15,21.4,38.6,34.9,10.0,56.0,58.4,0,0,0,0,0,0,0,0,2865,9429
2022/07/10 10:12:14,21.5,38.5,34.9,10.0,55.9,58.4,0,0,0,0,0,0,0,0,2865,9429
2022/07/10 10:14:12,21.5,38.5,34.8,10.0,55.8,58.4,0,0,0,0,0,0,0,0,2865,9429
2022/07/10 10:16:11,21.5,38.4,34.7,10.0,55.8,58.4,0,0,0,0,0,0,0,0,2865,9429
2022/07/10 10:18:09,21.5,38.4,34.6,10.0,55.7,58.4,0,0,0,0,0,0,0,0,2865,9429
2022/07/10 10:20:09,21.5,38.4,34.6,10.0,55.6,58.4,0,0,0,0,0,0,0,0,2865,9429
2022/07/10 10:22:08,21.5,38.3,34.5,10.0,55.5,58.4,0,0,0,0,0,0,0,0,2865,9429
2022/07/10 10:24:06,21.6,38.3,34.4,10.0,55.4,58.4,0,0,0,0,0,0,0,0,2865,9429
2022/07/10 10:26:05,21.6,38.2,34.3,10.0,55.4,58.4,0,0,0,0,0,0,0,0,2865,9429
2022/07/10 10:28:04,21.7,38.2,34.2,10.0,55.3,58.4,0,0,0,0,0,0,0,0,2865,9429
2022/07/10 10:30:04,21.7,38.1,34.2,10.0,55.2,58.4,0,0,0,0,0,0,0,0,2865,9429
2022/07/10 10:32:02,21.7,38.1,34.1,10.0,55.1,58.4,0,0,0,0,0,0,0,0,2865,9429
2022/07/10 10:34:01,21.8,38.0,34.0,10.0,55.0,58.4,0,0,0,0,0,0,0,0,2865,9429
2022/07/10 10:36:00,21.9,38.0,34.0,10.0,55.0,58.4,0,0,0,0,0,0,0,0,2865,9429
2022/07/10 10:37:59,21.9,37.9,33.9,10.0,54.9,58.4,0,0,0,0,0,0,0,0,2865,9429
2022/07/10 10:39:56,21.9,37.9,33.8,10.0,54.8,58.4,0,0,0,0,0,0,0,0,2865,9429
2022/07/10 10:41:55,21.9,37.8,33.7,10.0,54.8,58.4,0,0,0,0,0,0,0,0,2865,9429
2022/07/10 10:43:54,21.9,37.8,33.7,10.0,54.7,58.4,0,0,0,0,0,0,0,0,2865,9429
2022/07/10 10:45:53,22.0,37.7,33.6,10.0,54.6,58.4,0,0,0,0,0,0,0,0,2865,9429
2022/07/10 10:47:53,22.0,37.7,33.5,10.0,54.6,58.4,0,0,0,0,0,0,0,0,2865,9429
2022/07/10 10:49:51,22.1,37.6,33.5,10.0,54.5,58.4,0,0,0,0,0,0,0,0,2865,9429
2022/07/10 10:51:48,22.1,37.6,33.4,10.0,54.4,58.4,0,0,0,0,0,0,0,0,2865,9429
2022/07/10 10:53:47,22.1,37.5,33.3,10.0,54.3,58.4,0,0,0,0,0,0,0,0,2865,9429
2022/07/10 10:55:46,22.1,37.5,33.3,10.0,54.2,58.4,0,0,0,0,0,0,0,0,2865,9429
2022/07/10 10:57:44,22.2,37.4,33.2,10.0,54.0,58.4,0,0,0,0,0,0,0,0,2865,9429
2022/07/10 10:59:42,22.2,37.4,33.1,10.0,53.9,58.4,0,0,0,0,0,0,0,0,2865,9429
2022/07/10 11:01:41,22.3,37.3,33.1,10.0,53.8,58.4,0,0,0,0,0,0,0,0,2865,9429
2022/07/10 11:04:39,22.3,37.3,33.0,10.0,53.7,52.0,0,0,0,0,0,0,0,0,2865,9429
2022/07/10 11:06:38,22.4,37.2,32.9,10.0,53.6,52.0,0,0,0,0,0,0,0,0,2865,9429
2022/07/10 11:08:37,22.4,37.2,32.9,10.0,53.5,52.0,0,0,0,0,0,0,0,0,2865,9429
2022/07/10 11:10:36,22.5,37.1,32.8,10.0,53.4,52.0,0,0,0,0,0,0,0,0,2865,9429
2022/07/10 11:12:35,22.5,37.1,32.8,10.0,53.3,52.0,0,0,0,0,0,0,0,0,2865,9429
2022/07/10 11:14:35,22.6,37.0,32.7,10.0,53.2,52.0,0,0,0,0,0,0,0,0,2865,9429
2022/07/10 11:16:34,22.6,37.0,32.6,10.0,53.1,52.0,0,0,0,0,0,0,0,0,2865,9429
2022/07/10 11:18:32,22.6,37.0,32.6,10.0,53.0,52.0,0,0,0,0,0,0,0,0,2865,9429
2022/07/10 11:20:30,22.7,36.9,32.5,10.0,52.8,58.4,0,0,0,0,0,0,0,0,2865,9429
2022/07/10 11:22:29,22.7,36.8,32.5,10.0,52.7,58.4,0,0,0,0,0,0,0,0,2865,9429
2022/07/10 11:24:27,22.7,36.8,32.4,10.0,52.6,58.4,0,0,0,0,0,0,0,0,2865,9429
2022/07/10 11:26:26,22.8,36.7,32.4,10.0,52.5,58.4,0,0,0,0,0,0,0,0,2865,9429
2022/07/10 11:28:25,22.8,36.7,32.3,10.0,52.4,58.4,0,0,0,0,0,0,0,0,2865,9429
2022/07/10 11:30:24,22.8,36.6,32.2,10.0,52.3,58.4,0,0,0,0,0,0,0,0,2865,9429
2022/07/10 11:32:22,22.8,36.6,32.2,10.0,52.1,58.4,0,0,0,0,0,0,0,0,2865,9429
2022/07/10 11:34:21,22.9,36.5,32.1,10.0,52.0,58.4,0,0,0,0,0,0,0,0,2865,9429
2022/07/10 11:36:21,22.9,36.5,32.1,10.0,51.9,58.4,0,0,0,0,0,0,0,0,2865,9429
2022/07/10 11:38:19,23.0,36.4,32.0,10.0,52.0,58.4,0,0,0,0,0,0,0,0,2865,9429
2022/07/10 11:40:18,23.0,36.4,32.0,10.0,52.2,58.4,0,0,0,0,0,0,0,0,2865,9429
2022/07/10 11:42:17,23.0,36.4,31.9,10.0,52.3,58.4,0,0,0,0,0,0,0,0,2865,9429
2022/07/10 11:44:15,23.0,36.3,31.9,10.0,52.4,58.4,0,0,0,0,0,0,0,0,2865,9429
2022/07/10 11:46:14,23.0,36.3,31.9,10.0,52.7,58.4,0,0,0,0,0,0,0,0,2865,9429
2022/07/10 11:48:14,23.0,36.2,31.8,10.0,52.9,58.4,0,0,0,0,0,0,0,0,2865,9429
2022/07/10 11:50:13,23.0,36.2,31.8,10.0,53.0,58.4,0,0,0,0,0,0,0,0,2865,9429
2022/07/10 11:52:12,23.1,36.1,31.7,10.0,53.1,58.4,0,0,0,0,0,0,0,0,2865,9429
2022/07/10 11:54:11,23.1,36.1,31.7,10.0,53.4,58.4,0,0,0,0,0,0,0,0,2865,9429
2022/07/10 11:56:10,23.2,36.0,31.6,10.0,53.5,58.4,0,0,0,0,0,0,0,0,2865,9429
2022/07/10 11:58:08,23.3,36.0,31.6,10.0,53.5,58.4,0,0,0,0,0,0,0,0,2865,9429
2022/07/10 12:00:07,23.3,35.9,31.6,10.0,53.5,58.4,0,0,0,0,0,0,0,0,2865,9429
2022/07/10 12:02:06,23.4,35.9,31.5,10.0,53.4,58.4,0,0,0,0,0,0,0,0,2865,9429
2022/07/10 12:04:04,23.4,35.8,31.5,10.0,53.3,58.4,0,0,0,0,0,0,0,0,2865,9429
2022/07/10 12:06:04,23.5,35.8,31.4,10.0,53.3,58.4,0,0,0,0,0,0,0,0,2865,9429
2022/07/10 12:08:03,23.6,35.8,31.4,10.0,53.2,58.4,0,0,0,0,0,0,0,0,2865,9429
2022/07/10 12:10:00,23.6,35.7,31.4,10.0,53.1,58.4,0,0,0,0,0,0,0,0,2865,9429
2022/07/10 12:11:59,23.6,35.7,31.3,10.0,53.0,58.4,0,0,0,0,0,0,0,0,2865,9429
2022/07/10 12:13:58,23.6,35.6,31.3,10.0,53.0,58.4,0,0,0,0,0,0,0,0,2865,9429
2022/07/10 12:15:56,23.6,35.6,31.2,10.0,52.9,58.4,0,0,0,0,0,0,0,0,2865,9429
2022/07/10 12:17:54,23.6,35.5,31.2,10.0,52.8,58.4,0,0,0,0,0,0,0,0,2865,9429
2022/07/10 12:19:53,23.6,35.5,31.2,10.0,52.7,58.4,0,0,0,0,0,0,0,0,2865,9429
2022/07/10 12:21:53,23.7,35.4,31.1,10.0,52.7,58.4,0,0,0,0,0,0,0,0,2865,9429
2022/07/10 12:23:51,23.7,35.4,31.1,10.0,52.6,58.4,0,0,0,0,0,0,0,0,2865,9429
2022/07/10 12:25:50,23.7,35.3,31.1,10.0,52.5,58.4,0,0,0,0,0,0,0,0,2865,9429
2022/07/10 12:27:49,23.7,35.3,31.0,10.0,52.4,58.4,0,0,0,0,0,0,0,0,2865,9429
2022/07/10 12:29:49,23.7,35.2,31.0,10.0,52.3,58.4,0,0,0,0,0,0,0,0,2865,9429
2022/07/10 12:31:48,23.7,35.2,30.9,10.0,52.3,58.4,0,0,0,0,0,0,0,0,2865,9429
2022/07/10 12:33:46,23.7,35.2,30.9,10.0,52.2,58.4,0,0,0,0,0,0,0,0,2865,9429
2022/07/10 12:35:45,23.8,35.1,30.9,10.0,52.1,58.4,0,0,0,0,0,0,0,0,2865,9429
2022/07/10 12:37:44,23.8,35.1,30.8,10.0,52.0,58.4,0,0,0,0,0,0,0,0,2865,9429
2022/07/10 12:40:41,23.8,35.0,30.8,10.0,51.9,58.4,0,0,0,0,0,0,0,0,2865,9429
2022/07/10 12:42:41,23.8,35.0,30.8,10.0,51.9,58.4,0,0,0,0,0,0,0,0,2865,9429
2022/07/10 12:44:40,23.7,35.0,30.7,10.0,51.8,58.4,0,0,0,0,0,0,0,0,2865,9429
2022/07/10 12:46:39,23.6,34.9,30.7,10.0,51.7,58.4,0,0,0,0,0,0,0,0,2865,9429
2022/07/10 12:48:38,23.6,34.9,30.7,10.0,51.6,58.4,0,0,0,0,0,0,0,0,2865,9429
2022/07/10 12:50:36,23.6,34.9,30.6,10.0,51.5,58.4,0,0,0,0,0,0,0,0,2865,9429
2022/07/10 12:52:34,23.6,34.8,30.6,10.0,51.5,58.4,0,0,0,0,0,0,0,0,2865,9429
2022/07/10 12:54:30,23.6,34.8,30.6,10.0,51.4,58.4,0,0,0,0,0,0,0,0,2865,9429
2022/07/10 12:56:29,23.6,34.8,30.5,10.0,51.3,58.4,0,0,0,0,0,0,0,0,2865,9429
2022/07/10 12:58:28,23.6,34.7,30.5,10.0,51.3,58.4,0,0,0,0,0,0,0,0,2865,9429
2022/07/10 13:00:27,23.7,34.7,30.5,10.0,51.2,58.4,0,0,0,0,0,0,0,0,2865,9429
2022/07/10 13:02:26,23.7,34.7,30.4,10.0,51.1,58.4,0,0,0,0,0,0,0,0,2865,9429
2022/07/10 13:04:25,23.7,34.6,30.4,10.0,51.0,58.4,0,0,0,0,0,0,0,0,2865,9429
2022/07/10 13:06:24,23.8,34.6,30.4,10.0,51.0,58.4,0,0,0,0,0,0,0,0,2865,9429
2022/07/10 13:08:22,23.8,34.6,30.3,10.0,50.9,58.4,0,0,0,0,0,0,0,0,2865,9429
2022/07/10 13:10:21,23.9,34.5,30.3,10.0,50.8,58.4,0,0,0,0,0,0,0,0,2865,9429
2022/07/10 13:12:20,23.9,34.5,30.3,10.0,50.7,58.4,0,0,0,0,0,0,0,0,2865,9429
2022/07/10 13:14:18,24.0,34.5,30.3,10.0,50.6,58.4,0,0,0,0,0,0,0,0,2865,9429
2022/07/10 13:16:17,24.0,34.4,30.2,10.0,50.6,58.4,0,0,0,0,0,0,0,0,2865,9429
2022/07/10 13:18:16,24.0,34.4,30.2,10.0,50.5,58.4,0,0,0,0,0,0,0,0,2865,9429
2022/07/10 13:20:15,23.9,36.1,36.0,10.0,50.4,58.4,0,0,1,0,0,1,1,0,2865,9429
2022/07/10 13:22:14,23.8,44.5,41.9,10.0,50.1,57.7,0,1,1,0,0,1,1,0,2865,9430
2022/07/10 13:24:13,23.7,48.3,44.5,10.0,49.8,57.7,0,1,1,0,0,1,1,0,2865,9431
2022/07/10 13:26:12,23.7,50.2,46.4,10.0,49.8,57.7,0,1,1,0,0,1,1,0,2865,9431
2022/07/10 13:28:11,23.7,51.6,47.4,10.0,49.9,57.7,0,1,1,0,0,1,1,0,2865,9432
2022/07/10 13:30:09,23.7,52.6,48.2,10.0,50.2,57.7,0,1,1,0,0,1,1,0,2865,9433
2022/07/10 13:32:07,23.8,53.4,48.8,10.0,50.7,57.7,0,1,1,0,0,1,1,0,2865,9434
2022/07/10 13:34:06,23.8,54.1,49.4,10.0,51.1,57.7,0,1,1,0,0,1,1,0,2865,9434
2022/07/10 13:36:05,23.8,54.6,49.9,10.0,51.6,57.7,0,1,1,0,0,1,1,0,2865,9435
2022/07/10 13:38:04,23.8,55.3,50.4,10.0,52.0,57.7,0,1,1,0,0,1,1,0,2865,9436
2022/07/10 13:40:03,23.8,55.9,51.0,10.0,52.5,57.7,0,1,1,0,0,1,1,0,2865,9437
2022/07/10 13:42:01,23.9,56.5,51.7,10.0,52.9,57.7,0,1,1,0,0,1,1,0,2865,9437
2022/07/10 13:44:00,24.0,57.1,52.2,10.0,53.3,57.7,0,1,1,0,0,1,1,0,2865,9438
2022/07/10 13:46:00,24.0,57.6,52.7,10.0,53.9,57.7,0,1,1,0,0,1,1,0,2865,9439
2022/07/10 13:47:59,24.1,58.1,53.1,10.0,54.3,57.7,0,1,1,0,0,1,1,0,2865,9439
2022/07/10 13:49:57,24.1,58.5,53.5,10.0,54.7,57.7,0,1,1,0,0,1,1,0,2865,9440
2022/07/10 13:51:56,24.0,56.2,51.2,10.0,55.2,52.0,0,0,0,0,0,0,1,0,2865,9440
2022/07/10 13:53:55,24.0,43.2,40.9,10.0,55.6,52.0,0,0,0,0,0,0,0,0,2865,9440
2022/07/10 13:55:54,23.9,42.6,40.1,10.0,55.7,52.0,0,0,0,0,0,0,0,0,2865,9440
2022/07/10 13:57:54,23.9,42.1,39.7,10.0,55.7,52.0,0,0,0,0,0,0,0,0,2865,9440
2022/07/10 13:59:52,23.9,41.7,39.3,10.0,55.6,52.0,0,0,0,0,0,0,0,0,2865,9440
2022/07/10 14:01:51,23.9,41.3,39.0,10.0,55.5,52.0,0,0,0,0,0,0,0,0,2865,9440
2022/07/10 14:03:51,23.9,41.0,38.7,10.0,55.4,52.0,0,0,0,0,0,0,0,0,2865,9440
2022/07/10 14:05:50,23.9,40.8,38.4,10.0,55.3,52.0,0,0,0,0,0,0,0,0,2865,9440
2022/07/10 14:07:48,23.9,40.6,38.2,10.0,55.2,58.4,0,0,0,0,0,0,0,0,2865,9440
2022/07/10 14:09:47,24.0,40.4,38.0,10.0,55.1,58.4,0,0,0,0,0,0,0,0,2865,9440
2022/07/10 14:11:46,24.1,40.3,37.9,10.0,55.0,58.4,0,0,0,0,0,0,0,0,2865,9440
2022/07/10 14:13:44,24.1,40.2,37.7,10.0,54.9,58.4,0,0,0,0,0,0,0,0,2865,9440
2022/07/10 14:15:44,24.2,40.0,37.5,10.0,54.9,58.4,0,0,0,0,0,0,0,0,2865,9440
2022/07/10 14:17:42,24.2,39.9,37.4,10.0,54.8,58.4,0,0,0,0,0,0,0,0,2865,9440
2022/07/10 14:20:42,24.2,39.8,37.3,10.0,54.7,58.4,0,0,0,0,0,0,0,0,2865,9440
2022/07/10 14:22:41,24.2,39.8,37.1,10.0,54.7,58.4,0,0,0,0,0,0,0,0,2865,9440
2022/07/10 14:24:40,24.2,39.7,37.0,10.0,54.6,58.4,0,0,0,0,0,0,0,0,2865,9440
2022/07/10 14:26:39,24.3,39.6,36.8,10.0,54.5,58.4,0,0,0,0,0,0,0,0,2865,9440
2022/07/10 14:28:36,24.3,39.5,36.7,10.0,54.5,58.4,0,0,0,0,0,0,0,0,2865,9440
2022/07/10 14:30:35,24.4,39.5,36.6,10.0,54.4,58.4,0,0,0,0,0,0,0,0,2865,9440
2022/07/10 14:32:35,24.4,39.4,36.5,10.0,54.3,58.4,0,0,0,0,0,0,0,0,2865,9440
2022/07/10 14:34:32,24.4,39.3,36.3,10.0,54.3,58.4,0,0,0,0,0,0,0,0,2865,9440
2022/07/10 14:36:32,24.4,39.3,36.2,10.0,54.2,58.4,0,0,0,0,0,0,0,0,2865,9440
2022/07/10 14:38:30,24.4,39.3,36.1,10.0,54.1,58.4,0,0,0,0,0,0,0,0,2865,9440
2022/07/10 14:40:30,24.5,39.2,36.0,10.0,54.1,58.4,0,0,0,0,0,0,0,0,2865,9440
2022/07/10 14:42:26,24.5,39.2,35.9,10.0,54.0,58.4,0,0,0,0,0,0,0,0,2865,9440
2022/07/10 14:44:25,24.6,39.1,35.8,10.0,54.0,58.4,0,0,0,0,0,0,0,0,2865,9440
2022/07/10 14:46:23,24.6,39.0,35.7,10.0,53.9,58.4,0,0,0,0,0,0,0,0,2865,9440
2022/07/10 14:48:22,24.6,39.0,35.6,10.0,53.8,58.4,0,0,0,0,0,0,0,0,2865,9440
2022/07/10 14:50:21,24.6,39.0,35.5,10.0,53.8,58.4,0,0,0,0,0,0,0,0,2865,9440
2022/07/10 14:52:20,24.6,38.9,35.4,10.0,53.7,58.4,0,0,0,0,0,0,0,0,2865,9440
2022/07/10 14:54:19,24.6,38.9,35.3,10.0,53.6,58.4,0,0,0,0,0,0,0,0,2865,9440
2022/07/10 14:56:18,24.6,38.8,35.2,10.0,53.6,58.4,0,0,0,0,0,0,0,0,2865,9440
2022/07/10 14:58:17,24.6,38.8,35.1,10.0,53.5,58.4,0,0,0,0,0,0,0,0,2865,9440
2022/07/10 15:00:16,24.6,38.8,35.0,10.0,53.5,58.4,0,0,0,0,0,0,0,0,2865,9440
2022/07/10 15:02:14,24.7,38.7,34.9,10.0,53.4,58.4,0,0,0,0,0,0,0,0,2865,9440
2022/07/10 15:04:13,24.7,38.7,34.8,10.0,53.3,58.4,0,0,0,0,0,0,0,0,2865,9440
2022/07/10 15:06:12,24.7,38.6,34.7,10.0,53.2,58.4,0,0,0,0,0,0,0,0,2865,9440
2022/07/10 15:08:11,24.7,38.6,34.6,10.0,53.2,58.4,0,0,0,0,0,0,0,0,2865,9440
2022/07/10 15:10:10,24.7,38.6,34.6,10.0,53.1,58.4,0,0,0,0,0,0,0,0,2865,9440
2022/07/10 15:12:09,24.7,38.5,34.5,10.0,53.1,58.4,0,0,0,0,0,0,0,0,2865,9440
2022/07/10 15:14:07,24.7,38.5,34.4,10.0,53.0,58.4,0,0,0,0,0,0,0,0,2865,9440
2022/07/10 15:16:07,24.7,38.4,34.3,10.0,52.9,58.4,0,0,0,0,0,0,0,0,2865,9440
2022/07/10 15:18:06,24.7,38.4,34.3,10.0,52.9,58.4,0,0,0,0,0,0,0,0,2865,9440
2022/07/10 15:20:05,24.7,38.3,34.2,10.0,52.8,58.4,0,0,0,0,0,0,0,0,2865,9440
2022/07/10 15:22:03,24.8,38.3,34.1,10.0,52.8,58.4,0,0,0,0,0,0,0,0,2865,9440
2022/07/10 15:24:03,24.8,38.2,34.0,10.0,52.7,58.4,0,0,0,0,0,0,0,0,2865,9440
2022/07/10 15:26:02,24.8,38.2,33.9,10.0,52.6,58.4,0,0,0,0,0,0,0,0,2865,9440
2022/07/10 15:28:01,24.8,38.1,33.9,10.0,52.6,58.4,0,0,0,0,0,0,0,0,2865,9440
2022/07/10 15:29:59,24.8,38.1,33.8,10.0,52.5,58.4,0,0,0,0,0,0,0,0,2865,9440
2022/07/10 15:31:58,24.8,38.1,33.7,10.0,52.4,58.4,0,0,0,0,0,0,0,0,2865,9440
2022/07/10 15:33:56,24.8,38.0,33.7,10.0,52.4,58.4,0,0,0,0,0,0,0,0,2865,9440
2022/07/10 15:35:55,24.8,38.0,33.6,10.0,52.3,58.4,0,0,0,0,0,0,0,0,2865,9440
2022/07/10 15:37:53,24.8,37.9,33.5,10.0,52.3,58.4,0,0,0,0,0,0,0,0,2865,9440
2022/07/10 15:39:52,24.7,37.8,33.5,10.0,52.2,58.4,0,0,0,0,0,0,0,0,2865,9440
2022/07/10 15:41:52,24.7,37.8,33.4,10.0,52.1,58.4,0,0,0,0,0,0,0,0,2865,9440
2022/07/10 15:43:50,24.7,37.7,33.3,10.0,52.0,58.4,0,0,0,0,0,0,0,0,2865,9440
2022/07/10 15:45:49,24.7,37.7,33.3,10.0,52.0,58.4,0,0,0,0,0,0,0,0,2865,9440
2022/07/10 15:47:48,24.8,37.6,33.2,10.0,51.9,58.4,0,0,0,0,0,0,0,0,2865,9440
2022/07/10 15:49:46,24.8,37.6,33.1,10.0,51.8,58.4,0,0,0,0,0,0,0,0,2865,9440
2022/07/10 15:51:44,24.9,37.5,33.1,10.0,51.8,58.4,0,0,0,0,0,0,0,0,2865,9440
2022/07/10 15:53:42,24.9,37.5,33.0,10.0,51.7,58.4,0,0,0,0,0,0,0,0,2865,9440
2022/07/10 15:56:41,24.9,37.4,32.9,10.0,51.7,58.4,0,0,0,0,0,0,0,0,2865,9440
2022/07/10 15:58:40,24.9,37.4,32.9,10.0,51.6,58.4,0,0,0,0,0,0,0,0,2865,9440
2022/07/10 16:00:40,24.9,37.3,32.8,10.0,51.5,58.4,0,0,0,0,0,0,0,0,2865,9440
2022/07/10 16:02:38,24.9,37.3,32.8,10.0,51.5,58.4,0,0,0,0,0,0,0,0,2865,9440
2022/07/10 16:04:37,24.9,37.3,32.7,10.0,51.4,58.4,0,0,0,0,0,0,0,0,2865,9440
2022/07/10 16:06:35,24.9,37.2,32.7,10.0,51.3,58.4,0,0,0,0,0,0,0,0,2865,9440
2022/07/10 16:08:34,24.9,37.1,32.6,10.0,51.3,58.4,0,0,0,0,0,0,0,0,2865,9440
2022/07/10 16:10:33,24.9,37.1,32.5,10.0,51.2,58.4,0,0,0,0,0,0,0,0,2865,9440
2022/07/10 16:12:32,24.9,37.0,32.5,10.0,51.1,58.4,0,0,0,0,0,0,0,0,2865,9440
2022/07/10 16:14:31,24.9,37.0,32.4,10.0,51.1,58.4,0,0,0,0,0,0,0,0,2865,9440
2022/07/10 16:16:30,24.9,37.0,32.4,10.0,51.0,58.4,0,0,0,0,0,0,0,0,2865,9440
2022/07/10 16:18:28,24.8,36.9,32.3,10.0,51.0,58.4,0,0,0,0,0,0,0,0,2865,9440
2022/07/10 16:20:27,24.8,36.8,32.3,10.0,50.9,58.4,0,0,0,0,0,0,0,0,2865,9440
2022/07/10 16:22:27,24.8,36.8,32.2,10.0,50.8,58.4,0,0,0,0,0,0,0,0,2865,9440
2022/07/10 16:24:27,24.8,36.7,32.2,10.0,50.8,58.4,0,0,0,0,0,0,0,0,2865,9440
2022/07/10 16:26:25,24.8,36.7,32.1,10.0,50.7,58.4,0,0,0,0,0,0,0,0,2865,9440
2022/07/10 16:28:24,24.8,36.6,32.1,10.0,50.6,58.4,0,0,0,0,0,0,0,0,2865,9440
2022/07/10 16:30:22,24.8,36.6,32.0,10.0,50.6,58.4,0,0,0,0,0,0,0,0,2865,9440
2022/07/10 16:32:21,24.8,36.5,32.0,10.0,50.5,58.4,0,0,0,0,0,0,0,0,2865,9440
2022/07/10 16:34:20,24.8,36.5,31.9,10.0,50.4,58.4,0,0,0,0,0,0,0,0,2865,9440
2022/07/10 16:36:19,24.8,45.2,41.9,10.0,50.2,58.4,1,0,1,0,0,1,1,0,2865,9441
2022/07/10 16:38:19,24.8,49.5,46.2,10.0,50.0,57.7,1,0,1,0,0,1,1,0,2865,9442
2022/07/10 16:40:17,24.8,51.9,48.0,10.0,50.0,57.7,1,0,1,0,0,1,1,0,2865,9442
2022/07/10 16:42:16,24.8,53.4,49.1,10.0,50.3,57.7,1,0,1,0,0,1,1,0,2865,9443
2022/07/10 16:44:15,24.8,54.3,49.8,10.0,50.8,57.7,1,0,1,0,0,1,1,0,2865,9444
2022/07/10 16:46:14,24.8,55.0,50.5,10.0,51.3,57.7,1,0,1,0,0,1,1,0,2865,9445
2022/07/10 16:48:13,24.8,55.9,51.4,10.0,51.9,57.7,1,0,1,0,0,1,1,0,2865,9445
2022/07/10 16:50:13,24.8,56.5,51.9,10.0,52.5,57.7,1,0,1,0,0,1,1,0,2865,9446
2022/07/10 16:52:11,24.8,57.0,52.4,10.0,53.0,57.7,1,0,1,0,0,1,1,0,2865,9447
2022/07/10 16:54:10,24.8,57.6,52.9,10.0,53.5,57.7,1,0,1,0,0,1,1,0,2865,9448
2022/07/10 16:56:08,24.8,58.1,53.3,10.0,54.1,57.7,1,0,1,0,0,1,1,0,2865,9448
2022/07/10 16:58:07,24.8,58.6,53.7,10.0,54.6,57.7,1,0,1,0,0,1,1,0,2865,9449
2022/07/10 17:00:07,24.8,59.0,54.1,10.0,55.1,57.7,1,0,1,0,0,1,1,0,2865,9450
2022/07/10 17:02:06,24.8,59.5,54.5,10.0,55.6,57.7,1,0,1,0,0,1,1,0,2865,9450
2022/07/10 17:04:04,24.8,59.9,54.9,10.0,56.2,57.7,1,0,1,0,0,1,1,0,2865,9451
2022/07/10 17:06:03,24.8,60.4,55.4,10.0,56.7,57.7,1,0,1,0,0,1,1,0,2865,9452
2022/07/10 17:08:01,24.8,60.9,55.8,10.0,57.2,57.7,1,0,1,0,0,1,1,0,2865,9452
2022/07/10 17:10:00,24.8,61.3,56.3,10.0,57.7,57.7,0,0,1,0,0,1,1,0,2865,9453
2022/07/10 17:12:00,24.8,45.3,42.4,10.0,58.2,57.7,0,0,0,0,0,0,1,0,2865,9453
2022/07/10 17:13:59,24.8,43.6,41.1,10.0,58.4,58.4,0,0,0,0,0,0,0,0,2865,9453
2022/07/10 17:15:58,24.8,43.0,40.5,10.0,58.4,58.4,0,0,0,0,0,0,0,0,2865,9453
2022/07/10 17:17:57,24.8,42.5,40.1,10.0,58.3,58.4,0,0,0,0,0,0,0,0,2865,9453
2022/07/10 17:19:56,24.8,42.1,39.7,10.0,58.2,58.4,0,0,0,0,0,0,0,0,2865,9453
2022/07/10 17:21:54,24.7,41.8,39.4,10.0,58.2,58.4,0,0,0,0,0,0,0,0,2865,9453
2022/07/10 17:23:51,24.7,41.5,39.1,10.0,58.1,58.4,0,0,0,0,0,0,0,0,2865,9453
2022/07/10 17:25:50,24.7,41.3,38.9,10.0,58.0,58.4,0,0,0,0,0,0,0,0,2865,9453
2022/07/10 17:27:49,24.6,41.2,38.7,10.0,57.9,58.4,0,0,0,0,0,0,0,0,2865,9453
2022/07/10 17:29:48,24.6,41.0,38.5,10.0,57.8,58.4,0,0,0,0,0,0,0,0,2865,9453
2022/07/10 17:31:47,24.6,40.9,38.3,10.0,57.7,58.4,0,0,0,0,0,0,0,0,2865,9453
2022/07/10 17:33:46,24.6,40.7,38.2,10.0,57.7,58.4,0,0,0,0,0,0,0,0,2865,9453
2022/07/10 17:35:44,24.5,40.6,38.0,10.0,57.6,58.4,0,0,0,0,0,0,0,0,2865,9453
2022/07/10 17:37:43,24.5,40.5,37.9,10.0,57.5,58.4,0,0,0,0,0,0,0,0,2865,9453
2022/07/10 17:39:42,24.5,40.3,37.7,10.0,57.4,58.4,0,0,0,0,0,0,0,0,2865,9453
2022/07/10 17:42:42,24.5,40.2,37.6,10.0,57.3,58.4,0,0,0,0,0,0,0,0,2865,9453
2022/07/10 17:44:38,24.5,40.1,37.5,10.0,57.3,58.4,0,0,0,0,0,0,0,0,2865,9453
2022/07/10 17:46:36,24.5,40.0,37.3,10.0,57.2,58.4,0,0,0,0,0,0,0,0,2865,9453
2022/07/10 17:48:36,24.5,39.9,37.2,10.0,57.1,58.4,0,0,0,0,0,0,0,0,2865,9453
2022/07/10 17:50:33,24.5,39.9,37.1,10.0,57.1,58.4,0,0,0,0,0,0,0,0,2865,9453
2022/07/10 17:52:33,24.5,39.8,37.0,10.0,57.0,58.4,0,0,0,0,0,0,0,0,2865,9453
2022/07/10 17:54:32,24.5,39.7,36.9,10.0,56.9,58.4,0,0,0,0,0,0,0,0,2865,9453
2022/07/10 17:56:30,24.5,39.7,36.7,10.0,56.8,58.4,0,0,0,0,0,0,0,0,2865,9453
2022/07/10 17:58:26,24.4,39.6,36.6,10.0,56.8,58.4,0,0,0,0,0,0,0,0,2865,9453
2022/07/10 18:00:26,24.4,39.6,36.5,10.0,56.7,58.4,0,0,0,0,0,0,0,0,2865,9453
2022/07/10 18:02:25,24.3,39.5,36.4,10.0,56.6,58.4,0,0,0,0,0,0,0,0,2865,9453
2022/07/10 18:04:24,24.3,39.5,36.3,10.0,56.5,58.4,0,0,0,0,0,0,0,0,2865,9453
2022/07/10 18:06:23,24.3,39.4,36.2,10.0,56.4,58.4,0,0,0,0,0,0,0,0,2865,9453
2022/07/10 18:08:22,24.3,39.4,36.1,10.0,56.4,58.4,0,0,0,0,0,0,0,0,2865,9453
2022/07/10 18:10:22,24.3,39.3,36.0,10.0,56.3,58.4,0,0,0,0,0,0,0,0,2865,9453
2022/07/10 18:12:21,24.3,39.3,35.9,10.0,56.2,58.4,0,0,0,0,0,0,0,0,2865,9453
2022/07/10 18:14:20,24.3,39.3,35.8,10.0,56.2,58.4,0,0,0,0,0,0,0,0,2865,9453
2022/07/10 18:16:19,24.3,39.2,35.7,10.0,56.1,58.4,0,0,0,0,0,0,0,0,2865,9453
2022/07/10 18:18:17,24.3,39.2,35.6,10.0,56.0,58.4,0,0,0,0,0,0,0,0,2865,9453
2022/07/10 18:20:16,24.4,39.1,35.5,10.0,55.9,58.4,0,0,0,0,0,0,0,0,2865,9453
2022/07/10 18:22:14,24.5,39.1,35.4,10.0,55.8,58.4,0,0,0,0,0,0,0,0,2865,9453
2022/07/10 18:24:12,24.6,39.0,35.3,10.0,55.8,58.4,0,0,0,0,0,0,0,0,2865,9453
2022/07/10 18:26:10,24.7,39.0,35.2,10.0,55.7,58.4,0,0,0,0,0,0,0,0,2865,9453
2022/07/10 18:28:08,25.0,38.9,35.1,10.0,55.6,58.4,0,0,0,0,0,0,0,0,2865,9453
2022/07/10 18:30:07,25.2,38.9,35.0,10.0,55.5,58.4,0,0,0,0,0,0,0,0,2865,9453
2022/07/10 18:32:06,25.2,38.9,34.9,10.0,55.5,58.4,0,0,0,0,0,0,0,0,2865,9453
2022/07/10 18:34:05,25.2,38.8,34.9,10.0,55.4,58.4,0,0,0,0,0,0,0,0,2865,9453
2022/07/10 18:36:04,25.2,38.8,34.8,10.0,55.3,58.4,0,0,0,0,0,0,0,0,2865,9453
2022/07/10 18:38:02,25.3,38.7,34.7,10.0,55.2,58.4,0,0,0,0,0,0,0,0,2865,9453
2022/07/10 18:40:01,25.5,38.7,34.6,10.0,55.1,58.4,0,0,0,0,0,0,0,0,2865,9453
2022/07/10 18:42:00,25.8,38.6,34.6,10.0,55.1,58.4,0,0,0,0,0,0,0,0,2865,9453
2022/07/10 18:44:00,25.9,38.6,34.5,10.0,55.0,58.4,0,0,0,0,0,0,0,0,2865,9453
2022/07/10 18:45:58,25.9,38.5,34.4,10.0,54.9,58.4,0,0,0,0,0,0,0,0,2865,9453
2022/07/10 18:47:57,26.0,38.5,34.3,10.0,54.9,58.4,0,0,0,0,0,0,0,0,2865,9453
2022/07/10 18:49:56,26.0,38.4,34.3,10.0,54.8,58.4,0,0,0,0,0,0,0,0,2865,9453
2022/07/10 18:51:55,26.1,38.4,34.2,10.0,54.7,58.4,0,0,0,0,0,0,0,0,2865,9453
2022/07/10 18:53:55,26.2,38.3,34.1,10.0,54.7,58.4,0,0,0,0,0,0,0,0,2865,9453
2022/07/10 18:55:53,26.1,38.3,34.1,10.0,54.6,58.4,0,0,0,0,0,0,0,0,2865,9453
2022/07/10 18:57:52,25.9,38.2,34.0,10.0,54.5,58.4,0,0,0,0,0,0,0,0,2865,9453
2022/07/10 18:59:51,25.9,38.2,33.9,10.0,54.5,58.4,0,0,0,0,0,0,0,0,2865,9453
2022/07/10 19:01:49,25.9,38.1,33.9,10.0,54.4,58.4,0,0,0,0,0,0,0,0,2865,9453
2022/07/10 19:03:48,25.8,38.1,33.8,10.0,54.3,58.4,0,0,0,0,0,0,0,0,2865,9453
2022/07/10 19:05:48,25.8,38.0,33.7,10.0,54.3,58.4,0,0,0,0,0,0,0,0,2865,9453
2022/07/10 19:07:47,25.7,38.0,33.7,10.0,54.2,58.4,0,0,0,0,0,0,0,0,2865,9453
2022/07/10 19:09:46,25.7,37.9,33.6,10.0,54.2,58.4,0,0,0,0,0,0,0,0,2865,9453
2022/07/10 19:11:44,25.7,37.9,33.5,10.0,54.1,58.4,0,0,0,0,0,0,0,0,2865,9453
2022/07/10 19:13:43,25.7,37.8,33.5,10.0,54.0,58.4,0,0,0,0,0,0,0,0,2865,9453
2022/07/10 19:16:42,25.7,37.8,33.4,10.0,54.0,58.4,0,0,0,0,0,0,0,0,2865,9453
2022/07/10 19:18:41,25.7,37.7,33.3,10.0,53.9,58.4,0,0,0,0,0,0,0,0,2865,9453
2022/07/10 19:20:38,25.6,37.7,33.3,10.0,53.8,58.4,0,0,0,0,0,0,0,0,2865,9453
2022/07/10 19:22:38,25.4,37.6,33.2,10.0,53.8,58.4,0,0,0,0,0,0,0,0,2865,9453
2022/07/10 19:24:36,25.3,37.6,33.2,10.0,53.7,58.4,0,0,0,0,0,0,0,0,2865,9453
2022/07/10 19:26:35,25.2,37.5,33.1,10.0,53.6,58.4,0,0,0,0,0,0,0,0,2865,9453
2022/07/10 19:28:34,25.0,37.5,33.1,10.0,53.5,58.4,0,0,0,0,0,0,0,0,2865,9453
2022/07/10 19:30:32,24.8,37.4,33.0,10.0,53.5,58.4,0,0,0,0,0,0,0,0,2865,9453
2022/07/10 19:32:32,24.7,37.4,32.9,10.0,53.4,58.4,0,0,0,0,0,0,0,0,2865,9453
2022/07/10 19:34:30,24.5,37.3,32.9,10.0,53.4,58.4,0,0,0,0,0,0,0,0,2865,9453
2022/07/10 19:36:30,24.3,37.3,32.8,10.0,53.3,58.4,0,0,0,0,0,0,0,0,2865,9453
2022/07/10 19:38:29,24.2,37.2,32.8,10.0,53.2,58.4,0,0,0,0,0,0,0,0,2865,9453
2022/07/10 19:40:28,24.0,37.2,32.7,10.0,53.2,58.4,0,0,0,0,0,0,0,0,2865,9453
2022/07/10 19:42:26,23.9,37.1,32.7,10.0,53.1,58.4,0,0,0,0,0,0,0,0,2865,9453
2022/07/10 19:44:25,23.7,37.1,32.6,10.0,53.0,58.4,0,0,0,0,0,0,0,0,2865,9453
2022/07/10 19:46:24,23.6,37.0,32.6,10.0,53.0,58.4,0,0,0,0,0,0,0,0,2865,9453
2022/07/10 19:48:22,23.5,37.0,32.5,10.0,52.9,58.4,0,0,0,0,0,0,0,0,2865,9453
2022/07/10 19:50:20,23.4,36.9,32.5,10.0,52.8,58.4,0,0,0,0,0,0,0,0,2865,9453
2022/07/10 19:52:19,23.4,36.9,32.4,10.0,52.8,58.4,0,0,0,0,0,0,0,0,2865,9453
2022/07/10 19:54:18,23.3,36.8,32.4,10.0,52.7,58.4,0,0,0,0,0,0,0,0,2865,9453
2022/07/10 19:56:17,23.2,36.8,32.3,10.0,52.6,58.4,0,0,0,0,0,0,0,0,2865,9453
2022/07/10 19:58:16,23.1,36.7,32.3,10.0,52.6,58.4,0,0,0,0,0,0,0,0,2865,9453
2022/07/10 20:00:16,23.1,36.7,32.2,10.0,52.5,58.4,0,0,0,0,0,0,0,0,2865,9453
2022/07/10 20:02:15,23.0,36.6,32.2,10.0,52.4,58.4,0,0,0,0,0,0,0,0,2865,9453
2022/07/10 20:04:14,23.0,36.6,32.1,10.0,52.3,58.4,0,0,0,0,0,0,0,0,2865,9453
2022/07/10 20:06:12,22.9,36.5,32.1,10.0,52.3,58.4,0,0,0,0,0,0,0,0,2865,9453
2022/07/10 20:08:09,22.8,36.5,32.0,10.0,52.2,58.4,0,0,0,0,0,0,0,0,2865,9453
2022/07/10 20:10:08,22.8,36.4,32.0,10.0,52.1,58.4,0,0,0,0,0,0,0,0,2865,9453
2022/07/10 20:12:05,22.7,36.4,31.9,10.0,52.0,58.4,0,0,0,0,0,0,0,0,2865,9453
2022/07/10 20:14:04,22.7,36.3,31.9,10.0,52.0,58.4,0,0,0,0,0,0,0,0,2865,9453
2022/07/10 20:16:02,22.7,36.3,31.8,10.0,51.9,58.4,0,0,0,0,0,0,0,0,2865,9453
2022/07/10 20:18:02,22.6,36.2,31.8,10.0,51.8,58.4,0,0,0,0,0,0,0,0,2865,9453
2022/07/10 20:20:01,22.6,36.2,31.8,10.0,51.7,58.4,0,0,0,0,0,0,0,0,2865,9453
2022/07/10 20:22:00,22.5,36.1,31.7,10.0,51.6,58.4,0,0,0,0,0,0,0,0,2865,9453
2022/07/10 20:23:59,22.5,36.1,31.7,10.0,51.6,58.4,0,0,0,0,0,0,0,0,2865,9453
2022/07/10 20:25:58,22.4,36.0,31.6,10.0,51.5,58.4,0,0,0,0,0,0,0,0,2865,9453
2022/07/10 20:27:57,22.3,36.0,31.6,10.0,51.4,58.4,0,0,0,0,0,0,0,0,2865,9453
2022/07/10 20:29:57,22.3,35.9,31.5,10.0,51.3,58.4,0,0,0,0,0,0,0,0,2865,9453
2022/07/10 20:31:56,22.2,35.9,31.5,10.0,51.3,58.4,0,0,0,0,0,0,0,0,2865,9453
2022/07/10 20:33:56,22.2,35.9,31.5,10.0,51.2,58.4,0,0,0,0,0,0,0,0,2865,9453
2022/07/10 20:35:55,22.2,35.8,31.4,10.0,51.1,58.4,0,0,0,0,0,0,0,0,2865,9453
2022/07/10 20:37:54,22.1,35.8,31.4,10.0,51.0,58.4,0,0,0,0,0,0,0,0,2865,9453
2022/07/10 20:39:53,22.1,35.7,31.3,10.0,50.9,58.4,0,0,0,0,0,0,0,0,2865,9453
2022/07/10 20:41:52,22.1,35.7,31.3,10.0,50.8,58.4,0,0,0,0,0,0,0,0,2865,9453
2022/07/10 20:43:50,22.0,35.6,31.2,10.0,50.7,58.4,0,0,0,0,0,0,0,0,2865,9453
2022/07/10 20:45:48,22.0,35.6,31.2,10.0,50.6,58.4,0,0,0,0,0,0,0,0,2865,9453
2022/07/10 20:47:48,21.9,35.5,31.2,10.0,50.5,58.4,0,0,0,0,0,0,0,0,2865,9453
2022/07/10 20:49:47,21.9,38.4,38.0,10.0,50.4,52.0,0,0,1,0,0,1,1,0,2865,9453
2022/07/10 20:51:46,21.8,43.6,40.4,10.0,49.8,52.0,0,1,1,0,0,1,1,0,2865,9454
2022/07/10 20:53:46,21.8,45.9,42.1,10.0,49.3,52.0,0,1,1,0,0,1,1,0,2865,9455
2022/07/10 20:55:44,21.7,47.5,43.6,10.0,49.2,52.0,0,1,1,0,0,1,1,0,2865,9455
2022/07/10 20:58:42,21.7,48.7,44.5,10.0,49.3,52.0,0,1,1,0,0,1,1,0,2865,9456
2022/07/10 21:00:41,21.6,49.6,45.3,10.0,49.4,52.0,0,1,1,0,0,1,1,0,2865,9457
2022/07/10 21:02:40,21.5,50.4,46.0,10.0,49.6,52.0,0,1,1,0,0,1,1,0,2865,9458
2022/07/10 21:04:39,21.5,51.2,46.7,10.0,49.8,52.0,0,1,1,0,0,1,1,0,2865,9459
2022/07/10 21:06:38,21.4,52.1,47.3,10.0,49.9,52.0,0,1,1,0,0,1,1,0,2865,9459
2022/07/10 21:08:37,21.3,52.7,47.9,10.0,50.3,52.0,0,1,1,0,0,1,1,0,2865,9460
2022/07/10 21:10:34,21.3,53.3,48.5,10.0,50.7,52.0,0,1,1,0,0,1,1,0,2865,9461
2022/07/10 21:12:34,21.2,53.7,48.8,10.0,51.0,52.0,0,1,1,0,0,1,1,0,2865,9462
2022/07/10 21:14:32,21.2,54.0,49.1,10.0,51.4,52.0,0,1,1,0,0,1,1,0,2865,9462
2022/07/10 21:16:30,21.1,54.3,49.3,10.0,51.8,52.0,0,1,1,0,0,1,1,0,2865,9463
2022/07/10 21:18:29,21.0,52.4,49.6,10.0,52.1,52.0,0,0,1,0,0,0,1,0,2865,9463
2022/07/10 21:20:28,21.0,43.1,40.9,10.0,52.4,52.0,0,0,0,0,0,0,1,0,2865,9463
2022/07/10 21:22:27,20.9,42.6,40.3,10.0,52.5,52.0,0,0,0,0,0,0,0,0,2865,9463
2022/07/10 21:24:27,20.8,42.1,39.8,10.0,52.5,52.0,0,0,0,0,0,0,0,0,2865,9463
2022/07/10 21:26:26,20.8,41.7,39.5,10.0,52.4,52.0,0,0,0,0,0,0,0,0,2865,9463
2022/07/10 21:28:24,20.7,41.4,39.2,10.0,52.3,52.0,0,0,0,0,0,0,0,0,2865,9463
2022/07/10 21:30:22,20.7,41.1,38.9,10.0,52.3,52.0,0,0,0,0,0,0,0,0,2865,9463
2022/07/10 21:32:21,20.6,40.8,38.7,10.0,52.2,52.0,0,0,0,0,0,0,0,0,2865,9463
2022/07/10 21:34:20,20.6,40.7,38.5,10.0,52.1,52.0,0,0,0,0,0,0,0,0,2865,9463
2022/07/10 21:36:18,20.5,40.5,38.3,10.0,52.0,52.0,0,0,0,0,0,0,0,0,2865,9463
2022/07/10 21:38:17,20.4,40.4,38.1,10.0,51.9,52.0,0,0,0,0,0,0,0,0,2865,9463
2022/07/10 21:40:16,20.4,40.3,38.0,10.0,51.8,52.0,0,0,0,0,0,0,0,0,2865,9463
2022/07/10 21:42:14,20.4,40.2,37.8,10.0,51.8,52.0,0,0,0,0,0,0,0,0,2865,9463
2022/07/10 21:44:13,20.3,40.1,37.7,10.0,51.7,52.0,0,0,0,0,0,0,0,0,2865,9463
2022/07/10 21:46:12,20.3,40.0,37.5,10.0,51.6,52.0,0,0,0,0,0,0,0,0,2865,9463
2022/07/10 21:48:11,20.2,39.9,37.4,10.0,51.5,52.0,0,0,0,0,0,0,0,0,2865,9463
2022/07/10 21:50:09,20.1,39.8,37.2,10.0,51.4,52.0,0,0,0,0,0,0,0,0,2865,9463
2022/07/10 21:52:08,20.0,39.8,37.1,10.0,51.4,52.0,0,0,0,0,0,0,0,0,2865,9463
2022/07/10 21:54:07,19.9,39.7,37.0,10.0,51.3,52.0,0,0,0,0,0,0,0,0,2865,9463
2022/07/10 21:56:06,19.8,39.7,36.8,10.0,51.2,52.0,0,0,0,0,0,0,0,0,2865,9463
2022/07/10 21:58:04,19.7,39.6,36.7,10.0,51.1,52.0,0,0,0,0,0,0,0,0,2865,9463
2022/07/10 22:00:04,19.7,39.5,36.6,10.0,51.0,10.0,0,0,0,0,0,0,0,0,2865,9463
2022/07/10 22:02:02,19.6,39.5,36.5,10.0,50.9,10.0,0,0,0,0,0,0,0,0,2865,9463
2022/07/10 22:04:02,19.5,39.5,36.3,10.0,50.9,10.0,0,0,0,0,0,0,0,0,2865,9463
2022/07/10 22:06:01,19.5,39.4,36.2,10.0,50.9,10.0,0,0,0,0,0,0,0,0,2865,9463
2022/07/10 22:08:00,19.4,39.4,36.1,10.0,50.9,10.0,0,0,0,0,0,0,0,0,2865,9463
2022/07/10 22:09:58,19.3,39.3,36.0,10.0,50.9,10.0,0,0,0,0,0,0,0,0,2865,9463
2022/07/10 22:11:56,19.2,39.3,35.9,10.0,50.9,10.0,0,0,0,0,0,0,0,0,2865,9463
2022/07/10 22:13:55,19.2,39.2,35.8,10.0,50.9,10.0,0,0,0,0,0,0,0,0,2865,9463
2022/07/10 22:15:50,19.2,39.2,35.6,10.0,50.9,10.0,0,0,0,0,0,0,0,0,2865,9463
2022/07/10 22:17:49,19.1,39.2,35.5,10.0,50.9,10.0,0,0,0,0,0,0,0,0,2865,9463
2022/07/10 22:19:48,19.1,39.1,35.4,10.0,50.9,10.0,0,0,0,0,0,0,0,0,2865,9463
2022/07/10 22:21:45,19.0,39.0,35.3,10.0,50.9,10.0,0,0,0,0,0,0,0,0,2865,9463
2022/07/10 22:23:44,19.0,39.0,35.2,10.0,50.9,10.0,0,0,0,0,0,0,0,0,2865,9463
2022/07/10 22:26:42,18.9,39.0,35.1,10.0,50.9,10.0,0,0,0,0,0,0,0,0,2865,9463
2022/07/10 22:28:41,18.8,38.9,35.0,10.0,50.9,10.0,0,0,0,0,0,0,0,0,2865,9463
2022/07/10 22:30:40,18.8,38.9,34.9,10.0,50.9,10.0,0,0,0,0,0,0,0,0,2865,9463
2022/07/10 22:32:39,18.7,38.8,34.8,10.0,50.9,10.0,0,0,0,0,0,0,0,0,2865,9463
2022/07/10 22:34:38,18.7,38.8,34.7,10.0,50.8,10.0,0,0,0,0,0,0,0,0,2865,9463
2022/07/10 22:36:37,18.7,38.7,34.6,10.0,50.8,10.0,0,0,0,0,0,0,0,0,2865,9463
2022/07/10 22:38:36,18.6,38.7,34.5,10.0,50.8,10.0,0,0,0,0,0,0,0,0,2865,9463
2022/07/10 22:40:36,18.6,38.6,34.4,10.0,50.8,10.0,0,0,0,0,0,0,0,0,2865,9463
2022/07/10 22:42:34,18.5,38.5,34.4,10.0,50.8,10.0,0,0,0,0,0,0,0,0,2865,9463
2022/07/10 22:44:32,18.5,38.5,34.3,10.0,50.8,10.0,0,0,0,0,0,0,0,0,2865,9463
2022/07/10 22:46:30,18.4,38.4,34.2,10.0,50.8,10.0,0,0,0,0,0,0,0,0,2865,9463
2022/07/10 22:48:28,18.4,38.4,34.1,10.0,50.8,10.0,0,0,0,0,0,0,0,0,2865,9463
2022/07/10 22:50:27,18.3,38.3,34.0,10.0,50.7,10.0,0,0,0,0,0,0,0,0,2865,9463
2022/07/10 22:52:25,18.2,38.3,33.9,10.0,50.7,10.0,0,0,0,0,0,0,0,0,2865,9463
2022/07/10 22:54:24,18.2,38.2,33.9,10.0,50.7,10.0,0,0,0,0,0,0,0,0,2865,9463
2022/07/10 22:56:23,18.1,38.2,33.8,10.0,50.7,10.0,0,0,0,0,0,0,0,0,2865,9463
2022/07/10 22:58:22,18.0,38.1,33.7,10.0,50.7,10.0,0,0,0,0,0,0,0,0,2865,9463
2022/07/10 23:00:20,18.0,38.1,33.6,10.0,50.7,10.0,0,0,0,0,0,0,0,0,2865,9463
2022/07/10 23:02:18,17.9,38.0,33.6,10.0,50.6,10.0,0,0,0,0,0,0,0,0,2865,9463
2022/07/10 23:04:17,17.8,37.9,33.5,10.0,50.6,10.0,0,0,0,0,0,0,0,0,2865,9463
2022/07/10 23:06:14,17.7,37.9,33.4,10.0,50.6,10.0,0,0,0,0,0,0,0,0,2865,9463
2022/07/10 23:08:12,17.7,37.8,33.3,10.0,50.6,10.0,0,0,0,0,0,0,0,0,2865,9463
2022/07/10 23:10:12,17.6,37.8,33.3,10.0,50.6,10.0,0,0,0,0,0,0,0,0,2865,9463
2022/07/10 23:12:10,17.6,37.7,33.2,10.0,50.6,10.0,0,0,0,0,0,0,0,0,2865,9463
2022/07/10 23:14:09,17.6,37.6,33.1,10.0,50.5,10.0,0,0,0,0,0,0,0,0,2865,9463
2022/07/10 23:16:08,17.6,37.6,33.1,10.0,50.5,10.0,0,0,0,0,0,0,0,0,2865,9463
2022/07/10 23:18:07,17.5,37.5,33.0,10.0,50.5,10.0,0,0,0,0,0,0,0,0,2865,9463
2022/07/10 23:20:06,17.5,37.5,32.9,10.0,50.5,10.0,0,0,0,0,0,0,0,0,2865,9463
2022/07/10 23:22:05,17.4,37.4,32.9,10.0,50.5,10.0,0,0,0,0,0,0,0,0,2865,9463
2022/07/10 23:24:04,17.4,37.4,32.8,10.0,50.5,10.0,0,0,0,0,0,0,0,0,2865,9463
2022/07/10 23:26:03,17.4,37.3,32.7,10.0,50.4,10.0,0,0,0,0,0,0,0,0,2865,9463
2022/07/10 23:28:01,17.4,37.3,32.7,10.0,50.4,10.0,0,0,0,0,0,0,0,0,2865,9463
2022/07/10 23:30:00,17.4,37.2,32.6,10.0,50.4,10.0,0,0,0,0,0,0,0,0,2865,9463
2022/07/10 23:32:00,17.4,37.1,32.6,10.0,50.4,10.0,0,0,0,0,0,0,0,0,2865,9463
2022/07/10 23:33:58,17.4,37.1,32.5,10.0,50.4,10.0,0,0,0,0,0,0,0,0,2865,9463
2022/07/10 23:35:57,17.4,37.0,32.4,10.0,50.3,10.0,0,0,0,0,0,0,0,0,2865,9463
2022/07/10 23:37:56,17.4,37.0,32.4,10.0,50.3,10.0,0,0,0,0,0,0,0,0,2865,9463
2022/07/10 23:39:55,17.4,36.9,32.3,10.0,50.3,10.0,0,0,0,0,0,0,0,0,2865,9463
2022/07/10 23:41:54,17.4,36.9,32.3,10.0,50.3,10.0,0,0,0,0,0,0,0,0,2865,9463
2022/07/10 23:43:54,17.4,36.8,32.2,10.0,50.3,10.0,0,0,0,0,0,0,0,0,2865,9463
2022/07/10 23:45:54,17.4,36.7,32.1,10.0,50.2,10.0,0,0,0,0,0,0,0,0,2865,9463
2022/07/10 23:47:52,17.4,36.7,32.1,10.0,50.2,10.0,0,0,0,0,0,0,0,0,2865,9463
2022/07/10 23:49:49,17.4,36.6,32.0,10.0,50.2,10.0,0,0,0,0,0,0,0,0,2865,9463
2022/07/10 23:51:46,17.3,36.6,32.0,10.0,50.2,10.0,0,0,0,0,0,0,0,0,2865,9463
2022/07/10 23:53:45,17.3,36.5,31.9,10.0,50.2,10.0,0,0,0,0,0,0,0,0,2865,9463
2022/07/10 23:55:44,17.3,36.5,31.9,10.0,50.2,10.0,0,0,0,0,0,0,0,0,2865,9463
2022/07/10 23:58:42,17.3,36.4,31.8,10.0,50.1,10.0,0,0,0,0,0,0,0,0,2865,9463
