Type,Analog,Analog,Analog,Analog,Analog,Analog,Digital,Digital,Digital,Digital,Digital,Digital,Digital,Digital,Integer,Integer
Index,1,5,2,53,3,58,41,42,43,44,45,46,49,50,95,98
Name,R1,R9,R2,R2 Solltemperatur,R3,R3 Solltemperatur,M1,M3,M2/M11,E10,M13,M18,M16,E9,Waermemenge Heizen,Waermemenge Warmwasser
Description,Variable 1,Variable 2,Variable 3,Variable 4,Variable 5,Variable 6,Variable 7,Variable 8,Variable 9,Variable 10,Variable 11,Variable 12,Variable 13,Variable 14,Variable 15,Variable 16
2022/07/22 00:01:02,20.4,33.9,30.0,10.0,51.4,10.0,0,0,0,0,0,0,0,0,2865,38
2022/07/22 00:03:01,20.4,33.9,30.0,10.0,51.4,10.0,0,0,0,0,0,0,0,0,2865,38
2022/07/22 00:05:00,20.3,33.9,30.0,10.0,51.4,10.0,0,0,0,0,0,0,0,0,2865,38
2022/07/22 00:06:57,20.3,33.9,30.0,10.0,51.4,10.0,0,0,0,0,0,0,0,0,2865,38
2022/07/22 00:08:56,20.3,33.8,30.0,10.0,51.4,10.0,0,0,0,0,0,0,0,0,2865,38
2022/07/22 00:10:55,20.3,33.8,29.9,10.0,51.3,10.0,0,0,0,0,0,0,0,0,2865,38
2022/07/22 00:12:53,20.3,33.8,29.9,10.0,51.3,10.0,0,0,0,0,0,0,0,0,2865,38
2022/07/22 00:14:52,20.2,33.7,29.9,10.0,51.3,10.0,0,0,0,0,0,0,0,0,2865,38
2022/07/22 00:16:51,20.2,33.7,29.9,10.0,51.3,10.0,0,0,0,0,0,0,0,0,2865,38
2022/07/22 00:18:50,20.2,33.7,29.9,10.0,51.3,10.0,0,0,0,0,0,0,0,0,2865,38
2022/07/22 00:20:49,20.2,33.7,29.8,10.0,51.3,10.0,0,0,0,0,0,0,0,0,2865,38
2022/07/22 00:22:48,20.2,33.6,29.8,10.0,51.3,10.0,0,0,0,0,0,0,0,0,2865,38
2022/07/22 00:24:46,20.2,33.6,29.8,10.0,51.3,10.0,0,0,0,0,0,0,0,0,2865,38
2022/07/22 00:26:45,20.1,33.6,29.8,10.0,51.2,10.0,0,0,0,0,0,0,0,0,2865,38
2022/07/22 00:28:43,20.1,33.5,29.8,10.0,51.2,10.0,0,0,0,0,0,0,0,0,2865,38
2022/07/22 00:30:42,20.0,33.5,29.8,10.0,51.2,10.0,0,0,0,0,0,0,0,0,2865,38
2022/07/22 00:32:40,20.0,33.5,29.7,10.0,51.2,10.0,0,0,0,0,0,0,0,0,2865,38
2022/07/22 00:34:39,20.0,33.4,29.7,10.0,51.2,10.0,0,0,0,0,0,0,0,0,2865,38
2022/07/22 00:36:38,19.9,33.4,29.7,10.0,51.2,10.0,0,0,0,0,0,0,0,0,2865,38
2022/07/22 00:38:36,19.9,33.4,29.7,10.0,51.2,10.0,0,0,0,0,0,0,0,0,2865,38
2022/07/22 00:40:35,19.9,33.4,29.7,10.0,51.2,10.0,0,0,0,0,0,0,0,0,2865,38
2022/07/22 00:42:34,19.9,33.3,29.6,10.0,51.1,10.0,0,0,0,0,0,0,0,0,2865,38
2022/07/22 00:44:33,19.9,33.3,29.6,10.0,51.1,10.0,0,0,0,0,0,0,0,0,2865,38
2022/07/22 00:46:31,19.8,33.3,29.6,10.0,51.1,10.0,0,0,0,0,0,0,0,0,2865,38
2022/07/22 00:48:30,19.8,33.2,29.6,10.0,51.1,10.0,0,0,0,0,0,0,0,0,2865,38
2022/07/22 00:50:30,19.8,33.2,29.6,10.0,51.1,10.0,0,0,0,0,0,0,0,0,2865,38
2022/07/22 00:52:28,19.8,33.2,29.6,10.0,51.1,10.0,0,0,0,0,0,0,0,0,2865,38
2022/07/22 00:54:26,19.8,33.2,29.5,10.0,51.0,10.0,0,0,0,0,0,0,0,0,2865,38
2022/07/22 00:56:25,19.8,33.1,29.5,10.0,51.0,10.0,0,0,0,0,0,0,0,0,2865,38
2022/07/22 00:58:24,19.7,33.1,29.5,10.0,51.0,10.0,0,0,0,0,0,0,0,0,2865,38
2022/07/22 01:00:23,19.7,33.1,29.5,10.0,51.0,10.0,0,0,0,0,0,0,0,0,2865,38
2022/07/22 01:02:20,19.7,33.1,29.5,10.0,51.0,10.0,0,0,0,0,0,0,0,0,2865,38
2022/07/22 01:04:19,19.7,33.0,29.5,10.0,51.0,10.0,0,0,0,0,0,0,0,0,2865,38
2022/07/22 01:06:18,19.6,33.0,29.4,10.0,50.9,10.0,0,0,0,0,0,0,0,0,2865,38
2022/07/22 01:08:17,19.6,33.0,29.4,10.0,50.9,10.0,0,0,0,0,0,0,0,0,2865,38
2022/07/22 01:10:16,19.6,32.9,29.4,10.0,50.9,10.0,0,0,0,0,0,0,0,0,2865,38
2022/07/22 01:12:15,19.6,32.9,29.4,10.0,50.9,10.0,0,0,0,0,0,0,0,0,2865,38
2022/07/22 01:14:14,19.6,32.9,29.4,10.0,50.9,10.0,0,0,0,0,0,0,0,0,2865,38
2022/07/22 01:16:12,19.5,32.9,29.4,10.0,50.9,10.0,0,0,0,0,0,0,0,0,2865,38
2022/07/22 01:18:12,19.5,32.8,29.3,10.0,50.8,10.0,0,0,0,0,0,0,0,0,2865,38
2022/07/22 01:20:11,19.5,32.8,29.3,10.0,50.8,10.0,0,0,0,0,0,0,0,0,2865,38
2022/07/22 01:22:09,19.5,32.8,29.3,10.0,50.8,10.0,0,0,0,0,0,0,0,0,2865,38
2022/07/22 01:24:08,19.5,32.8,29.3,10.0,50.8,10.0,0,0,0,0,0,0,0,0,2865,38
2022/07/22 01:26:07,19.4,32.7,29.3,10.0,50.8,10.0,0,0,0,0,0,0,0,0,2865,38
2022/07/22 01:28:06,19.4,32.7,29.3,10.0,50.7,10.0,0,0,0,0,0,0,0,0,2865,38
2022/07/22 01:30:06,19.4,32.7,29.2,10.0,50.7,10.0,0,0,0,0,0,0,0,0,2865,38
2022/07/22 01:32:06,19.4,32.7,29.2,10.0,50.7,10.0,0,0,0,0,0,0,0,0,2865,38
2022/07/22 01:34:05,19.4,32.6,29.2,10.0,50.7,10.0,0,0,0,0,0,0,0,0,2865,38
2022/07/22 01:37:04,19.3,32.6,29.2,10.0,50.7,10.0,0,0,0,0,0,0,0,0,2865,38
2022/07/22 01:39:02,19.3,32.6,29.2,10.0,50.6,10.0,0,0,0,0,0,0,0,0,2865,38
2022/07/22 01:41:01,19.3,32.6,29.2,10.0,50.6,10.0,0,0,0,0,0,0,0,0,2865,38
2022/07/22 01:42:59,19.3,32.5,29.2,10.0,50.6,10.0,0,0,0,0,0,0,0,0,2865,38
2022/07/22 01:44:58,19.3,32.5,29.2,10.0,50.6,10.0,0,0,0,0,0,0,0,0,2865,38
2022/07/22 01:46:57,19.2,32.5,29.1,10.0,50.6,10.0,0,0,0,0,0,0,0,0,2865,38
2022/07/22 01:48:56,19.2,32.4,29.1,10.0,50.6,10.0,0,0,0,0,0,0,0,0,2865,38
2022/07/22 01:50:54,19.2,32.4,29.1,10.0,50.5,10.0,0,0,0,0,0,0,0,0,2865,38
2022/07/22 01:52:53,19.2,32.4,29.1,10.0,50.5,10.0,0,0,0,0,0,0,0,0,2865,38
2022/07/22 01:54:51,19.2,32.4,29.1,10.0,50.5,10.0,0,0,0,0,0,0,0,0,2865,38
2022/07/22 01:56:50,19.2,32.3,29.1,10.0,50.5,10.0,0,0,0,0,0,0,0,0,2865,38
2022/07/22 01:58:48,19.2,32.3,29.1,10.0,50.4,10.0,0,0,0,0,0,0,0,0,2865,38
2022/07/22 02:00:47,19.2,32.3,29.0,10.0,50.4,10.0,0,0,0,0,0,0,0,0,2865,38
2022/07/22 02:02:47,19.2,32.3,29.0,10.0,50.4,10.0,0,0,0,0,0,0,0,0,2865,38
2022/07/22 02:04:46,19.1,32.2,29.0,10.0,50.4,10.0,0,0,0,0,0,0,0,0,2865,38
2022/07/22 02:06:44,19.1,32.2,29.0,10.0,50.4,10.0,0,0,0,0,0,0,0,0,2865,38
2022/07/22 02:08:43,19.1,32.2,29.0,10.0,50.4,10.0,0,0,0,0,0,0,0,0,2865,38
2022/07/22 02:10:42,19.1,32.2,29.0,10.0,50.3,10.0,0,0,0,0,0,0,0,0,2865,38
2022/07/22 02:12:41,19.1,32.2,29.0,10.0,50.3,10.0,0,0,0,0,0,0,0,0,2865,38
2022/07/22 02:14:39,19.1,32.1,29.0,10.0,50.3,10.0,0,0,0,0,0,0,0,0,2865,38
2022/07/22 02:16:38,19.1,32.1,28.9,10.0,50.3,10.0,0,0,0,0,0,0,0,0,2865,38
2022/07/22 02:18:37,19.0,32.1,28.9,10.0,50.3,10.0,0,0,0,0,0,0,0,0,2865,38
2022/07/22 02:20:35,19.0,32.1,28.9,10.0,50.2,10.0,0,0,0,0,0,0,0,0,2865,38
2022/07/22 02:22:33,19.0,32.0,28.9,10.0,50.2,10.0,0,0,0,0,0,0,0,0,2865,38
2022/07/22 02:24:32,19.0,32.0,28.9,10.0,50.2,10.0,0,0,0,0,0,0,0,0,2865,38
2022/07/22 02:26:32,19.0,32.0,28.9,10.0,50.2,10.0,0,0,0,0,0,0,0,0,2865,38
2022/07/22 02:28:31,19.0,32.0,28.9,10.0,50.2,10.0,0,0,0,0,0,0,0,0,2865,38
2022/07/22 02:30:30,19.0,32.0,28.9,10.0,50.1,10.0,0,0,0,0,0,0,0,0,2865,38
2022/07/22 02:32:28,18.9,31.9,28.8,10.0,50.1,10.0,0,0,0,0,0,0,0,0,2865,38
2022/07/22 02:34:27,18.9,31.9,28.8,10.0,50.1,10.0,0,0,0,0,0,0,0,0,2865,38
2022/07/22 02:36:26,18.9,31.9,28.8,10.0,50.1,10.0,0,0,0,0,0,0,0,0,2865,38
2022/07/22 02:38:26,18.9,31.9,28.8,10.0,50.1,10.0,0,0,0,0,0,0,0,0,2865,38
2022/07/22 02:40:24,18.8,31.8,28.8,10.0,50.0,10.0,0,0,0,0,0,0,0,0,2865,38
2022/07/22 02:42:22,18.8,31.8,28.8,10.0,50.0,10.0,0,0,0,0,0,0,0,0,2865,38
2022/07/22 02:44:21,18.8,31.8,28.8,10.0,50.0,10.0,0,0,0,0,0,0,0,0,2865,38
2022/07/22 02:46:20,18.8,31.8,28.8,10.0,50.0,10.0,0,0,0,0,0,0,0,0,2865,38
2022/07/22 02:48:19,18.7,31.8,28.7,10.0,50.0,10.0,0,0,0,0,0,0,0,0,2865,38
2022/07/22 02:50:17,18.7,31.7,28.7,10.0,50.0,10.0,0,0,0,0,0,0,0,0,2865,38
2022/07/22 02:52:17,18.7,31.7,28.7,10.0,49.9,10.0,0,0,0,0,0,0,0,0,2865,38
2022/07/22 02:54:15,18.7,31.7,28.7,10.0,49.9,10.0,0,0,0,0,0,0,0,0,2865,38
2022/07/22 02:56:13,18.6,31.7,28.7,10.0,49.9,10.0,0,0,0,0,0,0,0,0,2865,38
2022/07/22 02:58:12,18.6,31.7,28.7,10.0,49.9,10.0,0,0,0,0,0,0,0,0,2865,38
2022/07/22 03:00:10,18.6,31.6,28.7,10.0,49.9,10.0,0,0,0,0,0,0,0,0,2865,38
2022/07/22 03:02:08,18.6,31.6,28.7,10.0,49.9,10.0,0,0,0,0,0,0,0,0,2865,38
2022/07/22 03:04:08,18.6,31.6,28.7,10.0,49.9,10.0,0,0,0,0,0,0,0,0,2865,38
2022/07/22 03:06:07,18.5,31.6,28.6,10.0,49.8,10.0,0,0,0,0,0,0,0,0,2865,38
2022/07/22 03:08:06,18.5,31.6,28.6,10.0,49.8,10.0,0,0,0,0,0,0,0,0,2865,38
2022/07/22 03:11:05,18.5,31.5,28.6,10.0,49.8,10.0,0,0,0,0,0,0,0,0,2865,38
2022/07/22 03:13:04,18.5,31.5,28.6,10.0,49.8,10.0,0,0,0,0,0,0,0,0,2865,38
2022/07/22 03:15:02,18.5,31.5,28.6,10.0,49.8,10.0,0,0,0,0,0,0,0,0,2865,38
2022/07/22 03:17:01,18.5,31.5,28.6,10.0,49.8,10.0,0,0,0,0,0,0,0,0,2865,38
2022/07/22 03:19:00,18.5,31.5,28.6,10.0,49.7,10.0,0,0,0,0,0,0,0,0,2865,38
2022/07/22 03:20:59,18.5,31.4,28.6,10.0,49.7,10.0,0,0,0,0,0,0,0,0,2865,38
2022/07/22 03:22:57,18.4,31.4,28.6,10.0,49.7,10.0,0,0,0,0,0,0,0,0,2865,38
2022/07/22 03:24:56,18.4,31.4,28.6,10.0,49.7,10.0,0,0,0,0,0,0,0,0,2865,38
2022/07/22 03:26:55,18.4,31.4,28.5,10.0,49.7,10.0,0,0,0,0,0,0,0,0,2865,38
2022/07/22 03:28:51,18.3,31.3,28.5,10.0,49.7,10.0,0,0,0,0,0,0,0,0,2865,38
2022/07/22 03:30:50,18.3,31.3,28.5,10.0,49.6,10.0,0,0,0,0,0,0,0,0,2865,38
2022/07/22 03:32:48,18.3,31.3,28.5,10.0,49.6,10.0,0,0,0,0,0,0,0,0,2865,38
2022/07/22 03:34:48,18.2,31.3,28.5,10.0,49.6,10.0,0,0,0,0,0,0,0,0,2865,38
2022/07/22 03:36:47,18.2,31.3,28.5,10.0,49.6,10.0,0,0,0,0,0,0,0,0,2865,38
2022/07/22 03:38:46,18.2,31.2,28.5,10.0,49.6,10.0,0,0,0,0,0,0,0,0,2865,38
2022/07/22 03:40:43,18.1,31.2,28.5,10.0,49.6,10.0,0,0,0,0,0,0,0,0,2865,38
2022/07/22 03:42:43,18.1,31.2,28.5,10.0,49.5,10.0,0,0,0,0,0,0,0,0,2865,38
2022/07/22 03:44:42,18.1,31.2,28.5,10.0,49.5,10.0,0,0,0,0,0,0,0,0,2865,38
2022/07/22 03:46:41,18.1,31.2,28.4,10.0,49.5,52.0,0,0,0,0,0,0,0,0,2865,38
2022/07/22 03:48:41,18.0,31.2,28.4,10.0,49.5,52.0,0,0,0,0,0,0,0,0,2865,38
2022/07/22 03:50:39,18.0,31.1,28.4,10.0,49.5,52.0,0,0,0,0,0,0,0,0,2865,38
2022/07/22 03:52:38,18.0,31.1,28.4,10.0,49.5,52.0,0,0,0,0,0,0,0,0,2865,38
2022/07/22 03:54:38,18.0,31.1,28.4,10.0,49.5,52.0,0,0,0,0,0,0,0,0,2865,38
2022/07/22 03:56:36,18.0,31.1,28.4,10.0,49.4,52.0,0,0,0,0,0,0,0,0,2865,38
2022/07/22 03:58:35,18.0,31.1,28.4,10.0,49.4,52.0,0,0,0,0,0,0,0,0,2865,38
2022/07/22 04:00:35,18.0,31.0,28.4,10.0,49.4,52.0,0,0,0,0,0,0,0,0,2865,38
2022/07/22 04:02:34,18.0,31.0,28.4,10.0,49.4,52.0,0,0,0,0,0,0,0,0,2865,38
2022/07/22 04:04:32,18.0,31.0,28.4,10.0,49.4,52.0,0,0,0,0,0,0,0,0,2865,38
2022/07/22 04:06:32,18.0,31.0,28.3,10.0,49.4,52.0,0,0,0,0,0,0,0,0,2865,38
2022/07/22 04:08:31,17.9,31.0,28.3,10.0,49.3,52.0,0,0,0,0,0,0,0,0,2865,38
2022/07/22 04:10:29,17.9,31.0,28.3,10.0,49.3,52.0,0,0,0,0,0,0,0,0,2865,38
2022/07/22 04:12:28,17.9,30.9,28.3,10.0,49.3,52.0,0,0,0,0,0,0,0,0,2865,38
2022/07/22 04:14:28,17.8,30.9,28.3,10.0,49.3,52.0,0,0,0,0,0,0,0,0,2865,38
2022/07/22 04:16:27,17.8,30.9,28.3,10.0,49.3,52.0,0,0,0,0,0,0,0,0,2865,38
2022/07/22 04:18:26,17.8,30.9,28.3,10.0,49.3,52.0,0,0,0,0,0,0,0,0,2865,38
2022/07/22 04:20:25,17.7,30.9,28.3,10.0,49.3,52.0,0,0,0,0,0,0,0,0,2865,38
2022/07/22 04:22:24,17.7,30.9,28.3,10.0,49.2,52.0,0,0,0,0,0,0,0,0,2865,38
2022/07/22 04:24:22,17.7,30.8,28.3,10.0,49.2,52.0,0,0,0,0,0,0,0,0,2865,38
2022/07/22 04:26:22,17.7,30.8,28.3,10.0,49.2,52.0,0,0,0,0,0,0,0,0,2865,38
2022/07/22 04:28:20,17.7,30.8,28.3,10.0,49.2,52.0,0,0,0,0,0,0,0,0,2865,38
2022/07/22 04:30:19,17.7,30.8,28.2,10.0,49.2,52.0,0,0,0,0,0,0,0,0,2865,38
2022/07/22 04:32:18,17.7,30.8,28.2,10.0,49.2,52.0,0,0,0,0,0,0,0,0,2865,38
2022/07/22 04:34:17,17.7,30.8,28.2,10.0,49.1,52.0,0,0,0,0,0,0,0,0,2865,38
2022/07/22 04:36:15,17.7,30.7,28.2,10.0,49.1,52.0,0,0,0,0,0,0,0,0,2865,38
2022/07/22 04:38:13,17.7,30.7,28.2,10.0,49.1,52.0,0,0,0,0,0,0,0,0,2865,38
2022/07/22 04:40:12,17.7,30.7,28.2,10.0,49.1,52.0,0,0,0,0,0,0,0,0,2865,38
2022/07/22 04:42:10,17.6,30.7,28.2,10.0,49.1,52.0,0,0,0,0,0,0,0,0,2865,38
2022/07/22 04:44:09,17.6,30.7,28.2,10.0,49.1,52.0,0,0,0,0,0,0,0,0,2865,38
2022/07/22 04:46:09,17.6,30.7,28.2,10.0,49.1,52.0,0,0,0,0,0,0,0,0,2865,38
2022/07/22 04:48:08,17.6,30.6,28.2,10.0,49.0,52.0,0,0,0,0,0,0,0,0,2865,38
2022/07/22 04:51:05,17.5,30.6,28.2,10.0,49.0,52.0,0,0,0,0,0,0,0,0,2865,38
2022/07/22 04:53:02,17.5,30.6,28.2,10.0,49.0,52.0,0,0,0,0,0,0,0,0,2865,38
2022/07/22 04:55:01,17.5,30.6,28.1,10.0,49.0,52.0,0,0,0,0,0,0,0,0,2865,38
2022/07/22 04:57:00,17.5,30.6,28.1,10.0,49.0,52.0,0,0,0,0,0,0,0,0,2865,38
2022/07/22 04:58:59,17.5,30.6,28.1,10.0,49.0,52.0,0,0,0,0,0,0,0,0,2865,38
2022/07/22 05:00:55,17.4,30.5,28.1,10.0,48.9,52.0,0,0,0,0,0,0,0,0,2865,38
2022/07/22 05:02:54,17.4,30.5,28.1,10.0,48.9,52.0,0,0,0,0,0,0,0,0,2865,38
2022/07/22 05:04:53,17.4,30.5,28.1,10.0,48.9,52.0,0,0,0,0,0,0,0,0,2865,38
2022/07/22 05:06:51,17.4,30.5,28.1,10.0,48.9,52.0,0,0,0,0,0,0,0,0,2865,38
2022/07/22 05:08:49,17.4,30.5,28.1,10.0,48.9,52.0,0,0,0,0,0,0,0,0,2865,38
2022/07/22 05:10:48,17.4,30.5,28.1,10.0,48.9,52.0,0,0,0,0,0,0,0,0,2865,38
2022/07/22 05:12:47,17.3,30.4,28.1,10.0,48.8,52.0,0,0,0,0,0,0,0,0,2865,38
2022/07/22 05:14:46,17.3,30.4,28.1,10.0,48.8,52.0,0,0,0,0,0,0,0,0,2865,38
2022/07/22 05:16:43,17.3,30.4,28.1,10.0,48.8,52.0,0,0,0,0,0,0,0,0,2865,38
2022/07/22 05:18:42,17.3,30.4,28.1,10.0,48.8,52.0,0,0,0,0,0,0,0,0,2865,38
2022/07/22 05:20:40,17.3,30.4,28.0,10.0,48.8,52.0,0,0,0,0,0,0,0,0,2865,38
2022/07/22 05:22:37,17.2,30.4,28.0,10.0,48.8,52.0,0,0,0,0,0,0,0,0,2865,38
2022/07/22 05:24:36,17.2,30.4,28.0,10.0,48.8,52.0,0,0,0,0,0,0,0,0,2865,38
2022/07/22 05:26:35,17.2,30.3,28.0,10.0,48.7,52.0,0,0,0,0,0,0,0,0,2865,38
2022/07/22 05:28:32,17.2,30.3,28.0,10.0,48.7,52.0,0,0,0,0,0,0,0,0,2865,38
2022/07/22 05:30:32,17.2,30.3,28.0,10.0,48.6,52.0,0,0,0,0,0,0,0,0,2865,38
2022/07/22 05:32:30,17.2,30.3,28.0,10.0,47.9,52.0,0,0,0,0,0,0,0,0,2865,38
2022/07/22 05:34:29,17.2,30.3,28.0,10.0,47.4,52.0,0,0,0,0,0,0,0,0,2865,38
2022/07/22 05:36:28,17.2,30.3,28.0,10.0,47.1,52.0,0,0,0,0,0,0,0,0,2865,38
2022/07/22 05:38:26,17.1,30.3,28.0,10.0,47.0,52.0,0,0,0,0,0,0,0,0,2865,38
2022/07/22 05:40:26,17.1,30.2,28.0,10.0,46.8,52.0,0,0,0,0,0,0,0,0,2865,38
2022/07/22 05:42:25,17.1,30.2,28.0,10.0,46.7,52.0,0,0,0,0,0,0,0,0,2865,38
2022/07/22 05:44:24,17.0,30.2,28.0,10.0,46.6,52.0,0,0,0,0,0,0,0,0,2865,38
2022/07/22 05:46:23,17.0,30.2,27.9,10.0,46.4,52.0,0,0,0,0,0,0,0,0,2865,38
2022/07/22 05:48:19,17.0,30.2,27.9,10.0,46.3,52.0,0,0,0,0,0,0,0,0,2865,38
2022/07/22 05:50:18,17.0,30.2,27.9,10.0,46.2,52.0,0,0,0,0,0,0,0,0,2865,38
2022/07/22 05:52:17,16.9,30.2,27.9,10.0,46.2,52.0,0,0,0,0,0,0,0,0,2865,38
2022/07/22 05:54:15,16.9,30.1,27.9,10.0,46.1,52.0,0,0,0,0,0,0,0,0,2865,38
2022/07/22 05:56:14,16.9,30.1,27.9,10.0,46.0,52.0,0,0,0,0,0,0,0,0,2865,38
2022/07/22 05:58:13,16.9,30.1,27.9,10.0,45.9,52.0,0,0,0,0,0,0,0,0,2865,38
2022/07/22 06:00:12,16.9,30.1,27.9,10.0,45.8,52.0,0,0,0,0,0,0,0,0,2865,38
2022/07/22 06:02:10,16.9,30.1,27.9,10.0,45.7,52.0,0,0,0,0,0,0,0,0,2865,38
2022/07/22 06:04:08,16.9,30.1,27.9,10.0,45.6,52.0,0,0,0,0,0,0,0,0,2865,38
2022/07/22 06:06:07,16.9,30.1,27.9,10.0,45.5,52.0,0,0,0,0,0,0,0,0,2865,38
2022/07/22 06:09:05,16.9,30.1,27.9,10.0,45.4,52.0,0,0,0,0,0,0,0,0,2865,38
2022/07/22 06:11:04,16.9,30.0,27.9,10.0,45.4,52.0,0,0,0,0,0,0,0,0,2865,38
2022/07/22 06:13:02,16.9,30.0,27.9,10.0,45.3,52.0,0,0,0,0,0,0,0,0,2865,38
2022/07/22 06:15:01,16.9,30.0,27.9,10.0,45.2,52.0,0,0,0,0,0,0,0,0,2865,38
2022/07/22 06:17:00,16.9,30.0,27.9,10.0,45.2,52.0,0,0,0,0,0,0,0,0,2865,38
2022/07/22 06:19:00,16.9,30.0,27.8,10.0,45.1,52.0,0,0,0,0,0,0,0,0,2865,38
2022/07/22 06:20:59,16.9,30.0,27.8,10.0,45.0,52.0,0,0,0,0,0,0,0,0,2865,38
2022/07/22 06:22:58,16.9,30.0,27.8,10.0,45.0,52.0,0,0,0,0,0,0,0,0,2865,38
2022/07/22 06:24:57,16.9,30.0,27.8,10.0,44.9,52.0,0,0,0,0,0,0,0,0,2865,38
2022/07/22 06:26:55,16.9,30.0,27.8,10.0,44.9,52.0,0,0,0,0,0,0,0,0,2865,38
2022/07/22 06:28:54,16.9,29.9,27.8,10.0,44.8,52.0,0,0,0,0,0,0,0,0,2865,38
2022/07/22 06:30:53,16.9,29.9,27.8,10.0,44.7,52.0,0,0,0,0,0,0,0,0,2865,38
2022/07/22 06:32:50,16.9,29.9,27.8,10.0,44.7,52.0,0,0,0,0,0,0,0,0,2865,38
2022/07/22 06:34:49,16.9,29.9,27.8,10.0,44.6,52.0,0,0,0,0,0,0,0,0,2865,38
2022/07/22 06:36:48,16.9,29.9,27.8,10.0,44.6,52.0,0,0,0,0,0,0,0,0,2865,38
2022/07/22 06:38:47,16.9,29.9,27.8,10.0,44.5,52.0,0,0,0,0,0,0,0,0,2865,38
2022/07/22 06:40:44,16.9,29.9,27.8,10.0,44.5,52.0,0,0,0,0,0,0,0,0,2865,38
2022/07/22 06:42:43,16.9,29.9,27.8,10.0,44.5,52.0,0,0,0,0,0,0,0,0,2865,38
2022/07/22 06:44:43,17.0,29.9,27.8,10.0,44.4,52.0,0,0,0,0,0,0,0,0,2865,38
2022/07/22 06:46:40,17.0,29.9,27.8,10.0,44.4,52.0,0,0,0,0,0,0,0,0,2865,38
2022/07/22 06:48:40,17.1,29.8,27.8,10.0,44.3,52.0,0,0,0,0,0,0,0,0,2865,38
2022/07/22 06:50:38,17.3,29.8,27.7,10.0,44.3,52.0,0,0,0,0,0,0,0,0,2865,38
2022/07/22 06:52:37,17.6,29.8,27.7,10.0,44.2,52.0,0,0,0,0,0,0,0,0,2865,38
2022/07/22 06:54:36,17.9,29.8,27.7,10.0,44.2,52.0,0,0,0,0,0,0,0,0,2865,38
2022/07/22 06:56:35,18.2,29.8,27.7,10.0,44.1,52.0,0,0,0,0,0,0,0,0,2865,38
2022/07/22 06:58:33,18.4,29.8,27.7,10.0,44.1,52.0,0,0,0,0,0,0,0,0,2865,38
2022/07/22 07:00:33,18.7,34.9,34.6,10.0,44.0,52.0,0,1,1,0,0,1,1,0,2865,38
2022/07/22 07:02:32,19.0,43.0,39.7,10.0,43.8,52.0,0,1,1,0,0,1,1,0,2865,39
2022/07/22 07:04:31,19.2,45.5,42.3,10.0,43.8,52.0,0,1,1,0,0,1,1,0,2865,40
2022/07/22 07:06:30,19.4,47.2,43.5,10.0,43.9,52.0,0,1,1,0,0,1,1,0,2865,41
2022/07/22 07:08:28,19.6,48.5,44.4,10.0,44.3,52.0,0,1,1,0,0,1,1,0,2865,42
2022/07/22 07:10:27,19.8,49.3,45.1,10.0,44.8,52.0,0,1,1,0,0,1,1,0,2865,42
2022/07/22 07:12:25,20.0,50.0,45.7,10.0,45.4,52.0,0,1,1,0,0,1,1,0,2865,43
2022/07/22 07:14:24,20.3,50.7,46.2,10.0,46.0,52.0,0,1,1,0,0,1,1,0,2865,44
2022/07/22 07:16:23,20.5,51.5,46.8,10.0,46.7,52.0,0,1,1,0,0,1,1,0,2865,45
2022/07/22 07:18:21,20.7,52.0,47.2,10.0,47.3,52.0,0,1,1,0,0,1,1,0,2865,46
2022/07/22 07:20:19,20.9,52.6,47.8,10.0,47.8,52.0,0,1,1,0,0,1,1,0,2865,46
2022/07/22 07:22:18,21.1,53.1,48.3,10.0,48.4,52.0,0,1,1,0,0,1,1,0,2865,47
2022/07/22 07:24:17,21.3,53.6,48.8,10.0,48.9,52.0,0,1,1,0,0,1,1,0,2865,48
2022/07/22 07:26:17,21.5,54.1,49.2,10.0,49.4,52.0,0,1,1,0,0,1,1,0,2865,48
2022/07/22 07:28:16,21.7,54.6,49.6,10.0,49.9,52.0,0,1,1,0,0,1,1,0,2865,49
2022/07/22 07:30:14,21.9,55.0,50.0,10.0,50.5,52.0,0,1,1,0,0,1,1,0,2865,50
2022/07/22 07:32:13,22.1,55.3,50.3,10.0,51.3,52.0,0,1,1,0,0,1,1,0,2865,51
2022/07/22 07:34:12,22.2,55.7,50.6,10.0,51.7,52.0,0,1,1,0,0,1,1,0,2865,51
2022/07/22 07:36:11,22.3,53.7,51.1,10.0,52.2,52.0,0,0,1,0,0,0,1,0,2865,52
2022/07/22 07:38:09,22.5,41.9,39.6,10.0,52.6,52.0,0,0,0,0,0,0,1,0,2865,52
2022/07/22 07:40:08,22.6,41.4,38.9,10.0,52.7,52.0,0,0,0,0,0,0,0,0,2865,52
2022/07/22 07:42:08,22.8,40.9,38.5,10.0,52.7,52.0,0,0,0,0,0,0,0,0,2865,52
2022/07/22 07:44:07,22.9,40.4,38.2,10.0,52.7,52.0,0,0,0,0,0,0,0,0,2865,52
2022/07/22 07:46:06,22.9,40.0,37.8,10.0,52.6,52.0,0,0,0,0,0,0,0,0,2865,52
2022/07/22 07:49:05,22.9,39.8,37.5,10.0,52.5,52.0,0,0,0,0,0,0,0,0,2865,52
2022/07/22 07:51:04,22.8,39.6,37.3,10.0,52.4,52.0,0,0,0,0,0,0,0,0,2865,52
2022/07/22 07:53:03,22.6,39.4,37.1,10.0,52.4,52.0,0,0,0,0,0,0,0,0,2865,52
2022/07/22 07:55:02,22.3,39.3,36.9,10.0,52.3,52.0,0,0,0,0,0,0,0,0,2865,52
2022/07/22 07:57:01,22.1,39.2,36.7,10.0,52.2,52.0,0,0,0,0,0,0,0,0,2865,52
2022/07/22 07:59:00,21.9,39.1,36.5,10.0,52.1,52.0,0,0,0,0,0,0,0,0,2865,52
2022/07/22 08:00:59,21.7,39.0,36.4,10.0,52.1,52.0,0,0,0,0,0,0,0,0,2865,52
2022/07/22 08:02:57,21.6,38.9,36.2,10.0,52.0,52.0,0,0,0,0,0,0,0,0,2865,52
2022/07/22 08:04:56,21.5,38.8,36.1,10.0,51.9,52.0,0,0,0,0,0,0,0,0,2865,52
2022/07/22 08:06:54,21.4,38.7,35.9,10.0,51.8,52.0,0,0,0,0,0,0,0,0,2865,52
2022/07/22 08:08:53,21.3,38.6,35.8,10.0,51.7,52.0,0,0,0,0,0,0,0,0,2865,52
2022/07/22 08:10:52,21.3,38.5,35.7,10.0,51.7,52.0,0,0,0,0,0,0,0,0,2865,52
2022/07/22 08:12:51,21.2,38.4,35.5,10.0,51.6,52.0,0,0,0,0,0,0,0,0,2865,52
2022/07/22 08:14:50,21.2,38.4,35.4,10.0,51.5,52.0,0,0,0,0,0,0,0,0,2865,52
2022/07/22 08:16:49,21.2,38.3,35.3,10.0,51.4,52.0,0,0,0,0,0,0,0,0,2865,52
2022/07/22 08:18:48,21.2,38.2,35.2,10.0,51.4,52.0,0,0,0,0,0,0,0,0,2865,52
2022/07/22 08:20:47,21.2,38.2,35.0,10.0,51.3,52.0,0,0,0,0,0,0,0,0,2865,52
2022/07/22 08:22:45,21.2,38.1,35.0,10.0,51.3,52.0,0,0,0,0,0,0,0,0,2865,52
2022/07/22 08:24:43,21.2,38.1,34.9,10.0,51.2,52.0,0,0,0,0,0,0,0,0,2865,52
2022/07/22 08:26:43,21.2,38.1,34.8,10.0,51.1,52.0,0,0,0,0,0,0,0,0,2865,52
2022/07/22 08:28:41,21.3,38.0,34.7,10.0,51.1,52.0,0,0,0,0,0,0,0,0,2865,52
2022/07/22 08:30:40,21.3,38.0,34.6,10.0,51.0,52.0,0,0,0,0,0,0,0,0,2865,52
2022/07/22 08:32:39,21.4,37.9,34.5,10.0,51.0,52.0,0,0,0,0,0,0,0,0,2865,52
2022/07/22 08:34:38,21.4,37.9,34.5,10.0,50.9,52.0,0,0,0,0,0,0,0,0,2865,52
2022/07/22 08:36:36,21.5,37.8,34.4,10.0,50.8,52.0,0,0,0,0,0,0,0,0,2865,52
2022/07/22 08:38:33,21.5,37.8,34.3,10.0,50.7,52.0,0,0,0,0,0,0,0,0,2865,52
2022/07/22 08:40:31,21.6,37.7,34.2,10.0,50.7,52.0,0,0,0,0,0,0,0,0,2865,52
2022/07/22 08:42:30,21.6,37.7,34.1,10.0,50.6,52.0,0,0,0,0,0,0,0,0,2865,52
2022/07/22 08:44:28,21.7,37.7,34.1,10.0,50.5,52.0,0,0,0,0,0,0,0,0,2865,52
2022/07/22 08:46:27,21.7,37.6,34.0,10.0,50.5,52.0,0,0,0,0,0,0,0,0,2865,52
2022/07/22 08:48:26,21.7,37.6,33.9,10.0,50.4,52.0,0,0,0,0,0,0,0,0,2865,52
2022/07/22 08:50:25,21.7,37.5,33.8,10.0,50.3,52.0,0,0,0,0,0,0,0,0,2865,52
2022/07/22 08:52:23,21.8,37.5,33.8,10.0,50.2,52.0,0,0,0,0,0,0,0,0,2865,52
2022/07/22 08:54:22,21.8,37.5,33.7,10.0,50.2,52.0,0,0,0,0,0,0,0,0,2865,52
2022/07/22 08:56:21,21.8,37.4,33.6,10.0,50.1,52.0,0,0,0,0,0,0,0,0,2865,52
2022/07/22 08:58:20,21.8,37.4,33.5,10.0,50.0,52.0,0,0,0,0,0,0,0,0,2865,52
2022/07/22 09:00:18,21.8,38.0,36.8,10.0,50.0,58.4,0,0,1,0,0,1,1,0,2865,52
2022/07/22 09:02:17,21.9,45.8,42.8,10.0,49.9,57.7,1,0,1,0,0,1,1,0,2865,52
2022/07/22 09:04:16,21.9,49.5,45.8,10.0,49.7,57.7,1,0,1,0,0,1,1,0,2865,53
2022/07/22 09:06:16,22.0,50.7,47.0,10.0,49.7,57.7,1,0,1,0,0,1,1,0,2865,54
2022/07/22 09:08:15,22.0,52.2,47.8,10.0,50.0,57.7,1,0,1,0,0,1,1,0,2865,55
2022/07/22 09:10:14,22.0,53.1,48.6,10.0,50.3,57.7,1,0,1,0,0,1,1,0,2865,56
2022/07/22 09:12:13,22.1,53.9,49.3,10.0,50.7,57.7,1,0,1,0,0,1,1,0,2865,56
2022/07/22 09:14:11,22.1,54.5,49.7,10.0,51.2,57.7,1,0,1,0,0,1,1,0,2865,57
2022/07/22 09:16:10,22.2,55.0,50.3,10.0,51.7,57.7,1,0,1,0,0,1,1,0,2865,58
2022/07/22 09:18:09,22.3,55.6,50.8,10.0,52.3,57.7,1,0,1,0,0,1,1,0,2865,59
2022/07/22 09:20:08,22.3,56.2,51.5,10.0,52.7,57.7,1,0,1,0,0,1,1,0,2865,59
2022/07/22 09:22:07,22.4,56.8,52.0,10.0,53.2,57.7,1,0,1,0,0,1,1,0,2865,60
2022/07/22 09:24:06,22.4,57.3,52.5,10.0,53.7,57.7,1,0,1,0,0,1,1,0,2865,61
2022/07/22 09:27:05,22.5,57.7,52.9,10.0,54.1,57.7,1,0,1,0,0,1,1,0,2865,61
2022/07/22 09:29:04,22.6,58.3,53.4,10.0,54.6,57.7,1,0,1,0,0,1,1,0,2865,62
2022/07/22 09:31:03,22.7,58.7,53.8,10.0,55.0,57.7,1,0,1,0,0,1,1,0,2865,63
2022/07/22 09:33:02,22.7,59.2,54.2,10.0,55.5,57.7,1,0,1,0,0,1,1,0,2865,64
2022/07/22 09:35:02,22.8,59.5,54.6,10.0,56.2,57.7,1,0,1,0,0,1,1,0,2865,64
2022/07/22 09:37:01,22.9,60.0,55.0,10.0,56.6,57.7,1,0,1,0,0,1,1,0,2865,65
2022/07/22 09:39:00,22.9,60.5,55.5,10.0,57.1,57.7,1,0,1,0,0,1,1,0,2865,66
2022/07/22 09:40:59,23.0,61.0,55.9,10.0,57.5,57.7,1,0,1,0,0,1,1,0,2865,66
2022/07/22 09:42:58,23.1,56.7,49.6,10.0,58.0,57.7,0,0,0,0,0,0,1,0,2865,67
2022/07/22 09:44:57,23.1,43.2,40.7,10.0,58.3,58.4,0,0,0,0,0,0,0,0,2865,67
2022/07/22 09:46:55,23.2,42.6,39.9,10.0,58.4,58.4,0,0,0,0,0,0,0,0,2865,67
2022/07/22 09:48:54,23.2,42.1,39.5,10.0,58.4,58.4,0,0,0,0,0,0,0,0,2865,67
2022/07/22 09:50:52,23.3,41.7,39.2,10.0,58.4,58.4,0,0,0,0,0,0,0,0,2865,67
2022/07/22 09:52:51,23.3,41.3,38.9,10.0,58.3,58.4,0,0,0,0,0,0,0,0,2865,67
2022/07/22 09:54:50,23.4,41.0,38.7,10.0,58.2,58.4,0,0,0,0,0,0,0,0,2865,67
2022/07/22 09:56:47,23.4,40.7,38.5,10.0,58.1,58.4,0,0,0,0,0,0,0,0,2865,67
2022/07/22 09:58:47,23.4,40.6,38.2,10.0,58.0,58.4,0,0,0,0,0,0,0,0,2865,67
2022/07/22 10:00:46,23.5,40.4,38.0,10.0,58.0,58.4,0,0,0,0,0,0,0,0,2865,67
2022/07/22 10:02:45,23.5,40.3,37.8,10.0,57.9,58.4,0,0,0,0,0,0,0,0,2865,67
2022/07/22 10:04:43,23.5,40.1,37.6,10.0,57.8,58.4,0,0,0,0,0,0,0,0,2865,67
2022/07/22 10:06:40,23.6,40.0,37.5,10.0,57.7,58.4,0,0,0,0,0,0,0,0,2865,67
2022/07/22 10:08:39,23.6,39.9,37.3,10.0,57.7,58.4,0,0,0,0,0,0,0,0,2865,67
2022/07/22 10:10:38,23.7,39.8,37.2,10.0,57.6,58.4,0,0,0,0,0,0,0,0,2865,67
2022/07/22 10:12:37,23.8,39.7,37.1,10.0,57.5,58.4,0,0,0,0,0,0,0,0,2865,67
2022/07/22 10:14:35,23.9,39.6,36.9,10.0,57.4,58.4,0,0,0,0,0,0,0,0,2865,67
2022/07/22 10:16:34,23.9,39.5,36.8,10.0,57.4,58.4,0,0,0,0,0,0,0,0,2865,67
2022/07/22 10:18:33,24.0,39.4,36.7,10.0,57.3,58.4,0,0,0,0,0,0,0,0,2865,67
2022/07/22 10:20:31,24.1,39.4,36.6,10.0,57.2,58.4,0,0,0,0,0,0,0,0,2865,67
2022/07/22 10:22:31,24.1,39.3,36.5,10.0,57.1,58.4,0,0,0,0,0,0,0,0,2865,67
2022/07/22 10:24:29,24.1,39.2,36.4,10.0,57.1,58.4,0,0,0,0,0,0,0,0,2865,67
2022/07/22 10:26:27,24.2,39.2,36.2,10.0,57.0,58.4,0,0,0,0,0,0,0,0,2865,67
2022/07/22 10:28:26,24.2,39.1,36.1,10.0,56.9,58.4,0,0,0,0,0,0,0,0,2865,67
2022/07/22 10:30:26,24.2,39.0,36.0,10.0,56.9,58.4,0,0,0,0,0,0,0,0,2865,67
2022/07/22 10:32:21,24.2,38.9,35.9,10.0,56.8,58.4,0,0,0,0,0,0,0,0,2865,67
2022/07/22 10:34:20,24.2,38.9,35.8,10.0,56.7,58.4,0,0,0,0,0,0,0,0,2865,67
2022/07/22 10:36:19,24.3,38.9,35.7,10.0,56.6,58.4,0,0,0,0,0,0,0,0,2865,67
2022/07/22 10:38:18,24.3,38.8,35.6,10.0,56.6,58.4,0,0,0,0,0,0,0,0,2865,67
2022/07/22 10:40:16,24.4,38.8,35.5,10.0,56.5,58.4,0,0,0,0,0,0,0,0,2865,67
2022/07/22 10:42:15,24.5,38.7,35.5,10.0,56.4,58.4,0,0,0,0,0,0,0,0,2865,67
2022/07/22 10:44:14,24.5,38.7,35.4,10.0,56.4,58.4,0,0,0,0,0,0,0,0,2865,67
2022/07/22 10:46:12,24.5,38.6,35.3,10.0,56.3,58.4,0,0,0,0,0,0,0,0,2865,67
2022/07/22 10:48:10,24.5,38.6,35.2,10.0,56.2,58.4,0,0,0,0,0,0,0,0,2865,67
2022/07/22 10:50:09,24.6,38.6,35.1,10.0,56.1,58.4,0,0,0,0,0,0,0,0,2865,67
2022/07/22 10:52:08,24.6,38.5,35.0,10.0,56.1,58.4,0,0,0,0,0,0,0,0,2865,67
2022/07/22 10:54:08,24.7,38.5,34.9,10.0,56.0,58.4,0,0,0,0,0,0,0,0,2865,67
2022/07/22 10:56:07,24.7,38.4,34.9,10.0,55.9,58.4,0,0,0,0,0,0,0,0,2865,67
2022/07/22 10:59:06,24.7,38.4,34.8,10.0,55.9,58.4,0,0,0,0,0,0,0,0,2865,67
2022/07/22 11:01:04,24.8,38.4,34.7,10.0,55.8,58.4,0,0,0,0,0,0,0,0,2865,67
2022/07/22 11:03:03,24.8,38.3,34.7,10.0,55.7,58.4,0,0,0,0,0,0,0,0,2865,67
2022/07/22 11:05:02,24.9,38.3,34.6,10.0,55.7,58.4,0,0,0,0,0,0,0,0,2865,67
2022/07/22 11:07:00,24.9,38.3,34.5,10.0,55.6,58.4,0,0,0,0,0,0,0,0,2865,67
2022/07/22 11:09:00,25.0,38.2,34.5,10.0,55.5,58.4,0,0,0,0,0,0,0,0,2865,67
2022/07/22 11:10:59,25.0,38.2,34.4,10.0,55.4,58.4,0,0,0,0,0,0,0,0,2865,67
2022/07/22 11:12:58,25.0,38.1,34.3,10.0,55.4,58.4,0,0,0,0,0,0,0,0,2865,67
2022/07/22 11:14:57,25.1,38.1,34.3,10.0,55.3,58.4,0,0,0,0,0,0,0,0,2865,67
2022/07/22 11:16:56,25.1,38.1,34.2,10.0,55.2,58.4,0,0,0,0,0,0,0,0,2865,67
2022/07/22 11:18:55,25.1,38.0,34.2,10.0,55.1,58.4,0,0,0,0,0,0,0,0,2865,67
2022/07/22 11:20:53,25.2,38.0,34.1,10.0,55.1,58.4,0,0,0,0,0,0,0,0,2865,67
2022/07/22 11:22:50,25.2,37.9,34.0,10.0,55.0,58.4,0,0,0,0,0,0,0,0,2865,67
2022/07/22 11:24:48,25.3,37.9,34.0,10.0,54.9,58.4,0,0,0,0,0,0,0,0,2865,67
2022/07/22 11:26:48,25.3,37.8,33.9,10.0,54.9,58.4,0,0,0,0,0,0,0,0,2865,67
2022/07/22 11:28:45,25.3,37.8,33.8,10.0,54.8,58.4,0,0,0,0,0,0,0,0,2865,67
2022/07/22 11:30:44,25.4,37.7,33.8,10.0,54.8,58.4,0,0,0,0,0,0,0,0,2865,67
2022/07/22 11:32:42,25.4,37.7,33.7,10.0,54.7,58.4,0,0,0,0,0,0,0,0,2865,67
2022/07/22 11:34:41,25.5,37.7,33.7,10.0,54.6,58.4,0,0,0,0,0,0,0,0,2865,67
2022/07/22 11:36:40,25.5,37.6,33.6,10.0,54.6,58.4,0,0,0,0,0,0,0,0,2865,67
2022/07/22 11:38:39,25.5,37.6,33.5,10.0,54.5,58.4,0,0,0,0,0,0,0,0,2865,67
2022/07/22 11:40:39,25.6,37.5,33.5,10.0,54.4,58.4,0,0,0,0,0,0,0,0,2865,67
2022/07/22 11:42:38,25.6,37.5,33.4,10.0,54.4,58.4,0,0,0,0,0,0,0,0,2865,67
2022/07/22 11:44:37,25.7,37.4,33.4,10.0,54.3,58.4,0,0,0,0,0,0,0,0,2865,67
2022/07/22 11:46:36,25.7,37.4,33.3,10.0,54.3,58.4,0,0,0,0,0,0,0,0,2865,67
2022/07/22 11:48:35,25.8,37.3,33.3,10.0,54.2,58.4,0,0,0,0,0,0,0,0,2865,67
2022/07/22 11:50:33,25.8,37.3,33.2,10.0,54.1,58.4,0,0,0,0,0,0,0,0,2865,67
2022/07/22 11:52:31,25.9,37.3,33.1,10.0,54.1,58.4,0,0,0,0,0,0,0,0,2865,67
2022/07/22 11:54:30,26.0,37.2,33.1,10.0,54.0,58.4,0,0,0,0,0,0,0,0,2865,67
2022/07/22 11:56:29,26.0,37.2,33.0,10.0,54.0,58.4,0,0,0,0,0,0,0,0,2865,67
2022/07/22 11:58:28,26.0,37.1,33.0,10.0,53.9,58.4,0,0,0,0,0,0,0,0,2865,67
2022/07/22 12:00:27,26.0,37.1,32.9,10.0,53.8,58.4,0,0,0,0,0,0,0,0,2865,67
2022/07/22 12:02:26,26.1,37.0,32.9,10.0,53.8,58.4,0,0,0,0,0,0,0,0,2865,67
2022/07/22 12:04:26,26.2,37.0,32.8,10.0,53.7,58.4,0,0,0,0,0,0,0,0,2865,67
2022/07/22 12:06:24,26.2,36.9,32.8,10.0,53.6,58.4,0,0,0,0,0,0,0,0,2865,67
2022/07/22 12:08:23,26.3,36.9,32.7,10.0,53.6,58.4,0,0,0,0,0,0,0,0,2865,67
2022/07/22 12:10:22,26.3,36.9,32.7,10.0,53.5,58.4,0,0,0,0,0,0,0,0,2865,67
2022/07/22 12:12:22,26.4,36.8,32.7,10.0,53.5,58.4,0,0,0,0,0,0,0,0,2865,67
2022/07/22 12:14:20,26.5,36.8,32.6,10.0,53.4,58.4,0,0,0,0,0,0,0,0,2865,67
2022/07/22 12:16:19,26.5,36.7,32.6,10.0,53.3,58.4,0,0,0,0,0,0,0,0,2865,67
2022/07/22 12:18:18,26.6,36.7,32.5,10.0,53.3,58.4,0,0,0,0,0,0,0,0,2865,67
2022/07/22 12:20:17,26.7,36.6,32.5,10.0,53.2,58.4,0,0,0,0,0,0,0,0,2865,67
2022/07/22 12:22:15,26.8,36.6,32.4,10.0,53.1,58.4,0,0,0,0,0,0,0,0,2865,67
2022/07/22 12:24:14,26.8,36.5,32.4,10.0,53.1,58.4,0,0,0,0,0,0,0,0,2865,67
2022/07/22 12:26:13,26.9,36.5,32.3,10.0,53.0,58.4,0,0,0,0,0,0,0,0,2865,67
2022/07/22 12:28:12,26.9,36.5,32.3,10.0,53.0,58.4,0,0,0,0,0,0,0,0,2865,67
2022/07/22 12:30:11,27.0,36.4,32.2,10.0,52.9,58.4,0,0,0,0,0,0,0,0,2865,67
2022/07/22 12:32:10,27.0,36.4,32.2,10.0,52.9,58.4,0,0,0,0,0,0,0,0,2865,67
2022/07/22 12:34:09,27.1,36.3,32.2,10.0,52.8,58.4,0,0,0,0,0,0,0,0,2865,67
2022/07/22 12:36:07,27.2,36.3,32.1,10.0,52.7,58.4,0,0,0,0,0,0,0,0,2865,67
2022/07/22 12:39:05,27.2,36.3,32.1,10.0,52.7,58.4,0,0,0,0,0,0,0,0,2865,67
2022/07/22 12:41:04,27.3,36.2,32.0,10.0,52.6,58.4,0,0,0,0,0,0,0,0,2865,67
2022/07/22 12:43:03,27.4,36.2,32.0,10.0,52.5,58.4,0,0,0,0,0,0,0,0,2865,67
2022/07/22 12:45:01,27.4,36.1,32.0,10.0,52.5,58.4,0,0,0,0,0,0,0,0,2865,67
2022/07/22 12:47:00,27.5,36.1,31.9,10.0,52.4,58.4,0,0,0,0,0,0,0,0,2865,67
2022/07/22 12:48:57,27.5,36.0,31.9,10.0,52.4,58.4,0,0,0,0,0,0,0,0,2865,67
2022/07/22 12:50:55,27.5,36.0,31.9,10.0,52.3,58.4,0,0,0,0,0,0,0,0,2865,67
2022/07/22 12:52:54,27.5,36.0,31.8,10.0,52.2,58.4,0,0,0,0,0,0,0,0,2865,67
2022/07/22 12:54:53,27.6,35.9,31.8,10.0,52.2,58.4,0,0,0,0,0,0,0,0,2865,67
2022/07/22 12:56:52,27.6,35.9,31.7,10.0,52.1,58.4,0,0,0,0,0,0,0,0,2865,67
2022/07/22 12:58:51,27.6,35.8,31.7,10.0,52.0,58.4,0,0,0,0,0,0,0,0,2865,67
2022/07/22 13:00:49,27.7,35.8,31.7,10.0,52.0,58.4,0,0,0,0,0,0,0,0,2865,67
2022/07/22 13:02:49,27.7,35.8,31.6,10.0,51.9,58.4,0,0,0,0,0,0,0,0,2865,67
2022/07/22 13:04:48,27.7,35.7,31.6,10.0,51.9,58.4,0,0,0,0,0,0,0,0,2865,67
2022/07/22 13:06:47,27.8,35.7,31.6,10.0,51.8,58.4,0,0,0,0,0,0,0,0,2865,67
2022/07/22 13:08:46,27.8,35.6,31.5,10.0,51.7,58.4,0,0,0,0,0,0,0,0,2865,67
2022/07/22 13:10:45,27.9,35.6,31.5,10.0,51.7,58.4,0,0,0,0,0,0,0,0,2865,67
2022/07/22 13:12:43,27.9,35.6,31.5,10.0,51.6,58.4,0,0,0,0,0,0,0,0,2865,67
2022/07/22 13:14:43,27.9,35.5,31.4,10.0,51.6,58.4,0,0,0,0,0,0,0,0,2865,67
2022/07/22 13:16:42,28.0,35.5,31.4,10.0,51.5,58.4,0,0,0,0,0,0,0,0,2865,67
2022/07/22 13:18:41,28.0,35.4,31.4,10.0,51.4,58.4,0,0,0,0,0,0,0,0,2865,67
2022/07/22 13:20:39,28.1,35.4,31.3,10.0,51.4,58.4,0,0,0,0,0,0,0,0,2865,67
2022/07/22 13:22:39,28.1,35.3,31.3,10.0,51.3,58.4,0,0,0,0,0,0,0,0,2865,67
2022/07/22 13:24:38,28.1,35.3,31.3,10.0,51.3,58.4,0,0,0,0,0,0,0,0,2865,67
2022/07/22 13:26:37,28.2,35.3,31.2,10.0,51.2,58.4,0,0,0,0,0,0,0,0,2865,67
2022/07/22 13:28:36,28.2,35.2,31.2,10.0,51.1,58.4,0,0,0,0,0,0,0,0,2865,67
2022/07/22 13:30:35,28.2,35.2,31.2,10.0,51.1,58.4,0,0,0,0,0,0,0,0,2865,67
2022/07/22 13:32:34,28.3,35.2,31.1,10.0,51.0,58.4,0,0,0,0,0,0,0,0,2865,67
2022/07/22 13:34:33,28.3,35.1,31.1,10.0,51.0,58.4,0,0,0,0,0,0,0,0,2865,67
2022/07/22 13:36:30,28.3,35.1,31.1,10.0,50.9,58.4,0,0,0,0,0,0,0,0,2865,67
2022/07/22 13:38:29,28.4,35.0,31.1,10.0,50.8,58.4,0,0,0,0,0,0,0,0,2865,67
2022/07/22 13:40:24,28.4,35.0,31.0,10.0,50.8,58.4,0,0,0,0,0,0,0,0,2865,67
2022/07/22 13:42:23,28.5,35.0,31.0,10.0,50.7,58.4,0,0,0,0,0,0,0,0,2865,67
2022/07/22 13:44:22,28.5,35.0,31.0,10.0,50.7,58.4,0,0,0,0,0,0,0,0,2865,67
2022/07/22 13:46:20,28.5,34.9,30.9,10.0,50.6,58.4,0,0,0,0,0,0,0,0,2865,67
2022/07/22 13:48:18,28.6,34.9,30.9,10.0,50.5,58.4,0,0,0,0,0,0,0,0,2865,67
2022/07/22 13:50:18,28.6,34.9,30.9,10.0,50.5,58.4,0,0,0,0,0,0,0,0,2865,67
2022/07/22 13:52:17,28.7,38.7,39.2,10.0,50.4,58.4,0,1,1,0,0,1,1,0,2865,67
2022/07/22 13:54:16,28.7,48.3,44.5,10.0,50.1,57.7,0,1,1,0,0,1,1,0,2865,67
2022/07/22 13:56:15,28.8,50.9,47.6,10.0,50.0,57.7,0,1,1,0,0,1,1,0,2865,68
2022/07/22 13:58:14,28.9,52.9,48.8,10.0,50.2,57.7,0,1,1,0,0,1,1,0,2865,69
2022/07/22 14:00:13,28.9,54.1,49.8,10.0,50.6,57.7,0,1,1,0,0,1,1,0,2865,70
2022/07/22 14:02:12,29.0,54.9,50.4,10.0,51.1,57.7,0,1,1,0,0,1,1,0,2865,70
2022/07/22 14:04:11,29.0,55.7,51.1,10.0,51.8,57.7,0,1,1,0,0,1,1,0,2865,71
2022/07/22 14:06:10,29.0,56.3,51.8,10.0,52.3,57.7,0,1,1,0,0,1,1,0,2865,72
2022/07/22 14:08:09,29.0,56.9,52.3,10.0,52.9,57.7,0,1,1,0,0,1,1,0,2865,73
2022/07/22 14:10:07,29.1,57.5,52.8,10.0,53.4,57.7,0,1,1,0,0,1,1,0,2865,73
2022/07/22 14:12:07,29.1,58.1,53.2,10.0,53.9,57.7,0,1,1,0,0,1,1,0,2865,74
2022/07/22 14:15:06,29.2,58.5,53.6,10.0,54.5,57.7,0,1,1,0,0,1,1,0,2865,75
2022/07/22 14:17:05,29.2,59.0,54.0,10.0,55.0,57.7,0,1,1,0,0,1,1,0,2865,75
2022/07/22 14:19:04,29.2,59.5,54.4,10.0,55.5,57.7,0,1,1,0,0,1,1,0,2865,76
2022/07/22 14:21:04,29.3,59.9,54.8,10.0,56.1,57.7,0,1,1,0,0,1,1,0,2865,77
2022/07/22 14:23:02,29.3,60.4,55.2,10.0,56.6,57.7,0,1,1,0,0,1,1,0,2865,77
2022/07/22 14:25:02,29.3,60.8,55.7,10.0,57.0,57.7,0,1,1,0,0,1,1,0,2865,78
2022/07/22 14:27:02,29.4,61.4,56.2,10.0,57.6,57.7,0,1,1,0,0,1,1,0,2865,79
2022/07/22 14:29:01,29.5,46.9,42.7,10.0,58.1,57.7,0,0,0,0,0,0,1,0,2865,79
2022/07/22 14:31:01,29.6,43.5,40.9,10.0,58.3,58.4,0,0,0,0,0,0,0,0,2865,79
2022/07/22 14:33:01,29.6,42.9,40.1,10.0,58.4,58.4,0,0,0,0,0,0,0,0,2865,79
2022/07/22 14:35:00,29.6,42.4,39.7,10.0,58.4,58.4,0,0,0,0,0,0,0,0,2865,79
2022/07/22 14:37:00,29.6,42.0,39.4,10.0,58.3,58.4,0,0,0,0,0,0,0,0,2865,79
2022/07/22 14:38:58,29.6,41.6,39.1,10.0,58.2,58.4,0,0,0,0,0,0,0,0,2865,79
2022/07/22 14:40:57,29.7,41.3,38.8,10.0,58.1,58.4,0,0,0,0,0,0,0,0,2865,79
2022/07/22 14:42:56,29.8,41.1,38.5,10.0,58.0,58.4,0,0,0,0,0,0,0,0,2865,79
2022/07/22 14:44:55,29.8,40.9,38.3,10.0,57.9,58.4,0,0,0,0,0,0,0,0,2865,79
2022/07/22 14:46:53,29.9,40.8,38.1,10.0,57.8,58.4,0,0,0,0,0,0,0,0,2865,79
2022/07/22 14:48:52,29.9,40.6,38.0,10.0,57.7,58.4,0,0,0,0,0,0,0,0,2865,79
2022/07/22 14:50:51,29.9,40.5,37.8,10.0,57.7,58.4,0,0,0,0,0,0,0,0,2865,79
2022/07/22 14:52:50,29.9,40.4,37.7,10.0,57.6,58.4,0,0,0,0,0,0,0,0,2865,79
2022/07/22 14:54:48,29.9,40.2,37.5,10.0,57.5,58.4,0,0,0,0,0,0,0,0,2865,79
2022/07/22 14:56:48,29.9,40.1,37.4,10.0,57.5,58.4,0,0,0,0,0,0,0,0,2865,79
2022/07/22 14:58:46,29.9,40.0,37.3,10.0,57.4,58.4,0,0,0,0,0,0,0,0,2865,79
2022/07/22 15:00:46,29.9,39.9,37.2,10.0,57.3,58.4,0,0,0,0,0,0,0,0,2865,79
2022/07/22 15:02:45,29.9,39.8,37.0,10.0,57.2,58.4,0,0,0,0,0,0,0,0,2865,79
2022/07/22 15:04:44,29.9,39.8,36.9,10.0,57.2,58.4,0,0,0,0,0,0,0,0,2865,79
2022/07/22 15:06:41,30.0,39.7,36.8,10.0,57.1,58.4,0,0,0,0,0,0,0,0,2865,79
2022/07/22 15:08:41,30.0,39.6,36.7,10.0,57.0,58.4,0,0,0,0,0,0,0,0,2865,79
2022/07/22 15:10:40,30.1,39.6,36.6,10.0,56.9,58.4,0,0,0,0,0,0,0,0,2865,79
2022/07/22 15:12:39,30.2,39.5,36.5,10.0,56.9,58.4,0,0,0,0,0,0,0,0,2865,79
2022/07/22 15:14:37,30.2,39.5,36.4,10.0,56.8,58.4,0,0,0,0,0,0,0,0,2865,79
2022/07/22 15:16:36,30.2,39.4,36.2,10.0,56.7,58.4,0,0,0,0,0,0,0,0,2865,79
2022/07/22 15:18:36,30.3,39.4,36.1,10.0,56.6,58.4,0,0,0,0,0,0,0,0,2865,79
2022/07/22 15:20:34,30.3,39.3,36.0,10.0,56.6,58.4,0,0,0,0,0,0,0,0,2865,79
2022/07/22 15:22:34,30.3,39.3,35.9,10.0,56.5,58.4,0,0,0,0,0,0,0,0,2865,79
2022/07/22 15:24:33,30.3,39.2,35.9,10.0,56.4,58.4,0,0,0,0,0,0,0,0,2865,79
2022/07/22 15:26:32,30.4,39.2,35.8,10.0,56.4,58.4,0,0,0,0,0,0,0,0,2865,79
2022/07/22 15:28:30,30.4,39.2,35.7,10.0,56.3,58.4,0,0,0,0,0,0,0,0,2865,79
2022/07/22 15:30:29,30.4,39.1,35.6,10.0,56.2,58.4,0,0,0,0,0,0,0,0,2865,79
2022/07/22 15:32:27,30.5,39.1,35.5,10.0,56.1,58.4,0,0,0,0,0,0,0,0,2865,79
2022/07/22 15:34:26,30.5,39.0,35.4,10.0,56.1,58.4,0,0,0,0,0,0,0,0,2865,79
2022/07/22 15:36:23,30.6,39.0,35.3,10.0,56.0,58.4,0,0,0,0,0,0,0,0,2865,79
2022/07/22 15:38:22,30.6,38.9,35.2,10.0,55.9,58.4,0,0,0,0,0,0,0,0,2865,79
2022/07/22 15:40:21,30.7,38.9,35.1,10.0,55.9,58.4,0,0,0,0,0,0,0,0,2865,79
2022/07/22 15:42:19,30.7,38.9,35.0,10.0,55.8,58.4,0,0,0,0,0,0,0,0,2865,79
2022/07/22 15:44:17,30.7,38.8,35.0,10.0,55.7,58.4,0,0,0,0,0,0,0,0,2865,79
2022/07/22 15:46:16,30.8,38.8,34.9,10.0,55.6,58.4,0,0,0,0,0,0,0,0,2865,79
2022/07/22 15:48:14,30.8,38.8,34.8,10.0,55.6,58.4,0,0,0,0,0,0,0,0,2865,79
2022/07/22 15:50:12,30.8,38.7,34.7,10.0,55.5,58.4,0,0,0,0,0,0,0,0,2865,79
2022/07/22 15:52:11,30.8,38.7,34.7,10.0,55.4,58.4,0,0,0,0,0,0,0,0,2865,79
2022/07/22 15:54:09,30.8,38.6,34.6,10.0,55.3,58.4,0,0,0,0,0,0,0,0,2865,79
2022/07/22 15:56:08,30.8,38.6,34.5,10.0,55.3,58.4,0,0,0,0,0,0,0,0,2865,79
2022/07/22 15:59:05,30.9,38.6,34.5,10.0,55.2,58.4,0,0,0,0,0,0,0,0,2865,79
2022/07/22 16:01:04,30.9,38.5,34.4,10.0,55.1,58.4,0,0,0,0,0,0,0,0,2865,79
2022/07/22 16:03:03,30.9,38.5,34.3,10.0,55.1,58.4,0,0,0,0,0,0,0,0,2865,79
2022/07/22 16:05:02,31.0,38.4,34.3,10.0,55.0,58.4,0,0,0,0,0,0,0,0,2865,79
2022/07/22 16:07:00,31.0,38.4,34.2,10.0,54.9,58.4,0,0,0,0,0,0,0,0,2865,79
2022/07/22 16:08:59,31.1,38.3,34.1,10.0,54.9,58.4,0,0,0,0,0,0,0,0,2865,79
2022/07/22 16:10:56,31.2,38.3,34.1,10.0,54.8,58.4,0,0,0,0,0,0,0,0,2865,79
2022/07/22 16:12:56,31.2,38.3,34.0,10.0,54.8,58.4,0,0,0,0,0,0,0,0,2865,79
2022/07/22 16:14:54,31.2,38.2,34.0,10.0,54.7,58.4,0,0,0,0,0,0,0,0,2865,79
2022/07/22 16:16:52,31.2,38.2,33.9,10.0,54.7,58.4,0,0,0,0,0,0,0,0,2865,79
2022/07/22 16:18:52,31.2,38.1,33.8,10.0,54.6,58.4,0,0,0,0,0,0,0,0,2865,79
2022/07/22 16:20:50,31.2,38.1,33.8,10.0,54.5,58.4,0,0,0,0,0,0,0,0,2865,79
2022/07/22 16:22:49,31.2,38.0,33.7,10.0,54.5,58.4,0,0,0,0,0,0,0,0,2865,79
2022/07/22 16:24:48,31.2,38.0,33.7,10.0,54.4,58.4,0,0,0,0,0,0,0,0,2865,79
2022/07/22 16:26:47,31.2,37.9,33.6,10.0,54.4,58.4,0,0,0,0,0,0,0,0,2865,79
2022/07/22 16:28:45,31.2,37.9,33.5,10.0,54.3,58.4,0,0,0,0,0,0,0,0,2865,79
2022/07/22 16:30:42,31.2,37.8,33.5,10.0,54.2,58.4,0,0,0,0,0,0,0,0,2865,79
2022/07/22 16:32:40,31.2,37.8,33.4,10.0,54.2,58.4,0,0,0,0,0,0,0,0,2865,79
2022/07/22 16:34:39,31.2,37.8,33.4,10.0,54.1,58.4,0,0,0,0,0,0,0,0,2865,79
2022/07/22 16:36:38,31.2,37.7,33.3,10.0,54.1,58.4,0,0,0,0,0,0,0,0,2865,79
2022/07/22 16:38:36,31.2,37.7,33.3,10.0,54.0,58.4,0,0,0,0,0,0,0,0,2865,79
2022/07/22 16:40:35,31.2,37.6,33.2,10.0,53.9,58.4,0,0,0,0,0,0,0,0,2865,79
2022/07/22 16:42:33,31.3,37.6,33.2,10.0,53.9,58.4,0,0,0,0,0,0,0,0,2865,79
2022/07/22 16:44:32,31.3,37.5,33.1,10.0,53.8,58.4,0,0,0,0,0,0,0,0,2865,79
2022/07/22 16:46:30,31.4,37.5,33.1,10.0,53.8,58.4,0,0,0,0,0,0,0,0,2865,79
2022/07/22 16:48:27,31.4,37.4,33.0,10.0,53.7,58.4,0,0,0,0,0,0,0,0,2865,79
2022/07/22 16:50:27,31.4,37.4,33.0,10.0,53.7,58.4,0,0,0,0,0,0,0,0,2865,79
2022/07/22 16:52:26,31.5,37.3,32.9,10.0,53.6,58.4,0,0,0,0,0,0,0,0,2865,79
2022/07/22 16:54:24,31.5,37.3,32.9,10.0,53.5,58.4,0,0,0,0,0,0,0,0,2865,79
2022/07/22 16:56:22,31.5,37.3,32.8,10.0,53.5,58.4,0,0,0,0,0,0,0,0,2865,79
2022/07/22 16:58:21,31.5,37.2,32.8,10.0,53.4,58.4,0,0,0,0,0,0,0,0,2865,79
2022/07/22 17:00:20,31.5,37.2,32.7,10.0,53.4,58.4,0,0,0,0,0,0,0,0,2865,79
2022/07/22 17:02:19,31.5,37.1,32.7,10.0,53.3,58.4,0,0,0,0,0,0,0,0,2865,79
2022/07/22 17:04:18,31.5,37.1,32.6,10.0,53.3,58.4,0,0,0,0,0,0,0,0,2865,79
2022/07/22 17:06:17,31.5,37.0,32.6,10.0,53.2,58.4,0,0,0,0,0,0,0,0,2865,79
2022/07/22 17:08:14,31.5,37.0,32.6,10.0,53.1,58.4,0,0,0,0,0,0,0,0,2865,79
2022/07/22 17:10:13,31.5,37.0,32.5,10.0,53.1,58.4,0,0,0,0,0,0,0,0,2865,79
2022/07/22 17:12:12,31.5,36.9,32.5,10.0,53.0,58.4,0,0,0,0,0,0,0,0,2865,79
2022/07/22 17:14:10,31.6,36.9,32.4,10.0,53.0,58.4,0,0,0,0,0,0,0,0,2865,79
2022/07/22 17:16:09,31.6,36.8,32.4,10.0,52.9,58.4,0,0,0,0,0,0,0,0,2865,79
2022/07/22 17:18:08,31.6,36.8,32.3,10.0,52.9,58.4,0,0,0,0,0,0,0,0,2865,79
2022/07/22 17:20:07,31.6,36.7,32.3,10.0,52.8,58.4,0,0,0,0,0,0,0,0,2865,79
2022/07/22 17:23:06,31.6,36.7,32.2,10.0,52.7,58.4,0,0,0,0,0,0,0,0,2865,79
2022/07/22 17:25:05,31.6,36.6,32.2,10.0,52.7,58.4,0,0,0,0,0,0,0,0,2865,79
2022/07/22 17:27:03,31.6,36.6,32.2,10.0,52.6,58.4,0,0,0,0,0,0,0,0,2865,79
2022/07/22 17:29:02,31.6,36.6,32.1,10.0,52.6,58.4,0,0,0,0,0,0,0,0,2865,79
2022/07/22 17:31:01,31.6,36.5,32.1,10.0,52.5,58.4,0,0,0,0,0,0,0,0,2865,79
2022/07/22 17:33:00,31.6,36.5,32.1,10.0,52.4,58.4,0,0,0,0,0,0,0,0,2865,79
2022/07/22 17:34:59,31.6,36.4,32.0,10.0,52.4,58.4,0,0,0,0,0,0,0,0,2865,79
2022/07/22 17:36:58,31.7,36.4,32.0,10.0,52.3,58.4,0,0,0,0,0,0,0,0,2865,79
2022/07/22 17:38:56,31.7,36.3,31.9,10.0,52.3,58.4,0,0,0,0,0,0,0,0,2865,79
2022/07/22 17:40:54,31.7,36.3,31.9,10.0,52.2,58.4,0,0,0,0,0,0,0,0,2865,79
2022/07/22 17:42:53,31.7,36.3,31.9,10.0,52.2,58.4,0,0,0,0,0,0,0,0,2865,79
2022/07/22 17:44:52,31.7,36.2,31.8,10.0,52.1,58.4,0,0,0,0,0,0,0,0,2865,79
2022/07/22 17:46:51,31.7,36.2,31.8,10.0,52.0,58.4,0,0,0,0,0,0,0,0,2865,79
2022/07/22 17:48:50,31.7,36.1,31.8,10.0,52.0,58.4,0,0,0,0,0,0,0,0,2865,79
2022/07/22 17:50:48,31.7,36.1,31.7,10.0,51.9,58.4,0,0,0,0,0,0,0,0,2865,79
2022/07/22 17:52:46,31.7,36.1,31.7,10.0,51.9,58.4,0,0,0,0,0,0,0,0,2865,79
2022/07/22 17:54:44,31.7,36.0,31.7,10.0,51.8,58.4,0,0,0,0,0,0,0,0,2865,79
2022/07/22 17:56:44,31.6,36.0,31.6,10.0,51.8,58.4,0,0,0,0,0,0,0,0,2865,79
2022/07/22 17:58:43,31.6,35.9,31.6,10.0,51.7,58.4,0,0,0,0,0,0,0,0,2865,79
2022/07/22 18:00:41,31.5,35.9,31.6,10.0,51.7,58.4,0,0,0,0,0,0,0,0,2865,79
2022/07/22 18:02:40,31.5,35.8,31.5,10.0,51.6,58.4,0,0,0,0,0,0,0,0,2865,79
2022/07/22 18:04:40,31.4,35.8,31.5,10.0,51.5,58.4,0,0,0,0,0,0,0,0,2865,79
2022/07/22 18:06:38,31.4,35.8,31.5,10.0,51.5,58.4,0,0,0,0,0,0,0,0,2865,79
2022/07/22 18:08:37,31.4,35.7,31.4,10.0,51.4,58.4,0,0,0,0,0,0,0,0,2865,79
2022/07/22 18:10:36,31.4,35.7,31.4,10.0,51.4,58.4,0,0,0,0,0,0,0,0,2865,79
2022/07/22 18:12:35,31.4,35.6,31.4,10.0,51.3,58.4,0,0,0,0,0,0,0,0,2865,79
2022/07/22 18:14:33,31.4,35.6,31.3,10.0,51.3,58.4,0,0,0,0,0,0,0,0,2865,79
2022/07/22 18:16:31,31.4,35.6,31.3,10.0,51.2,58.4,0,0,0,0,0,0,0,0,2865,79
2022/07/22 18:18:30,31.4,35.5,31.3,10.0,51.2,58.4,0,0,0,0,0,0,0,0,2865,79
2022/07/22 18:20:28,31.4,35.5,31.2,10.0,51.1,58.4,0,0,0,0,0,0,0,0,2865,79
2022/07/22 18:22:27,31.4,35.4,31.2,10.0,51.0,58.4,0,0,0,0,0,0,0,0,2865,79
2022/07/22 18:24:26,31.4,35.4,31.2,10.0,51.0,58.4,0,0,0,0,0,0,0,0,2865,79
2022/07/22 18:26:25,31.3,35.3,31.1,10.0,50.9,58.4,0,0,0,0,0,0,0,0,2865,79
2022/07/22 18:28:25,31.3,35.3,31.1,10.0,50.9,58.4,0,0,0,0,0,0,0,0,2865,79
2022/07/22 18:30:23,31.3,35.3,31.1,10.0,50.8,58.4,0,0,0,0,0,0,0,0,2865,79
2022/07/22 18:32:20,31.3,35.2,31.1,10.0,50.8,58.4,0,0,0,0,0,0,0,0,2865,79
2022/07/22 18:34:19,31.3,35.2,31.0,10.0,50.7,58.4,0,0,0,0,0,0,0,0,2865,79
2022/07/22 18:36:18,31.3,35.1,31.0,10.0,50.6,58.4,0,0,0,0,0,0,0,0,2865,79
2022/07/22 18:38:16,31.3,35.1,31.0,10.0,50.6,58.4,0,0,0,0,0,0,0,0,2865,79
2022/07/22 18:40:15,31.3,35.1,31.0,10.0,50.5,58.4,0,0,0,0,0,0,0,0,2865,79
2022/07/22 18:42:14,31.3,35.0,30.9,10.0,50.5,58.4,0,0,0,0,0,0,0,0,2865,79
2022/07/22 18:44:12,31.3,35.9,35.4,10.0,50.4,58.4,0,0,1,0,0,1,1,0,2865,79
2022/07/22 18:46:11,31.2,46.7,44.0,10.0,50.2,58.4,1,0,1,0,0,1,1,0,2865,79
2022/07/22 18:48:10,31.2,50.6,47.1,10.0,50.1,57.7,1,0,1,0,0,1,1,0,2865,80
2022/07/22 18:50:09,31.2,52.7,48.8,10.0,50.2,52.0,1,0,1,0,0,1,1,0,2865,81
2022/07/22 18:52:08,31.2,54.0,49.7,10.0,50.5,52.0,1,0,1,0,0,1,1,0,2865,82
2022/07/22 18:54:07,31.3,54.9,50.6,10.0,51.1,52.0,1,0,1,0,0,1,1,0,2865,82
2022/07/22 18:57:06,31.4,55.8,51.4,10.0,51.7,52.0,1,0,1,0,0,1,1,0,2865,83
2022/07/22 18:59:05,31.4,53.9,51.8,10.0,52.3,52.0,0,0,0,0,0,0,1,0,2865,83
2022/07/22 19:01:04,31.4,42.7,40.7,10.0,52.7,52.0,0,0,0,0,0,0,0,0,2865,83
2022/07/22 19:03:03,31.3,42.1,40.1,10.0,52.9,52.0,0,0,0,0,0,0,0,0,2865,83
2022/07/22 19:05:02,31.3,41.7,39.7,10.0,52.9,52.0,0,0,0,0,0,0,0,0,2865,83
2022/07/22 19:07:00,31.3,41.3,39.4,10.0,52.9,58.4,0,0,0,0,0,0,0,0,2865,83
2022/07/22 19:09:00,31.3,40.9,39.1,10.0,52.8,58.4,0,0,0,0,0,0,0,0,2865,83
2022/07/22 19:10:59,31.3,40.7,38.8,10.0,52.7,58.4,0,0,0,0,0,0,0,0,2865,83
2022/07/22 19:12:58,31.3,40.4,38.6,10.0,52.7,58.4,0,0,0,0,0,0,0,0,2865,83
2022/07/22 19:14:56,31.3,40.3,38.4,10.0,52.6,58.4,0,0,0,0,0,0,0,0,2865,83
2022/07/22 19:16:55,31.2,40.2,38.2,10.0,52.5,58.4,0,0,0,0,0,0,0,0,2865,83
2022/07/22 19:18:53,31.2,40.1,38.0,10.0,52.5,58.4,0,0,0,0,0,0,0,0,2865,83
2022/07/22 19:20:52,31.2,40.0,37.8,10.0,52.4,58.4,0,0,0,0,0,0,0,0,2865,83
2022/07/22 19:22:50,31.2,39.9,37.7,10.0,52.4,58.4,0,0,0,0,0,0,0,0,2865,83
2022/07/22 19:24:49,31.2,39.8,37.5,10.0,52.3,58.4,0,0,0,0,0,0,0,0,2865,83
2022/07/22 19:26:48,31.2,39.7,37.4,10.0,52.2,58.4,0,0,0,0,0,0,0,0,2865,83
2022/07/22 19:28:47,31.1,39.6,37.3,10.0,52.2,58.4,0,0,0,0,0,0,0,0,2865,83
2022/07/22 19:30:46,31.0,39.6,37.1,10.0,52.1,58.4,0,0,0,0,0,0,0,0,2865,83
2022/07/22 19:32:46,30.9,39.5,37.0,10.0,52.1,58.4,0,0,0,0,0,0,0,0,2865,83
2022/07/22 19:34:44,30.8,39.4,36.9,10.0,52.0,58.4,0,0,0,0,0,0,0,0,2865,83
2022/07/22 19:36:42,30.7,39.4,36.8,10.0,52.0,58.4,0,0,0,0,0,0,0,0,2865,83
2022/07/22 19:38:41,30.6,39.3,36.7,10.0,51.9,58.4,0,0,0,0,0,0,0,0,2865,83
2022/07/22 19:40:40,30.5,39.3,36.6,10.0,51.8,58.4,0,0,0,0,0,0,0,0,2865,83
2022/07/22 19:42:39,30.4,39.2,36.5,10.0,51.8,58.4,0,0,0,0,0,0,0,0,2865,83
2022/07/22 19:44:37,30.4,39.2,36.3,10.0,51.7,58.4,0,0,0,0,0,0,0,0,2865,83
2022/07/22 19:46:36,30.3,39.1,36.2,10.0,51.7,58.4,0,0,0,0,0,0,0,0,2865,83
2022/07/22 19:48:36,30.2,39.1,36.1,10.0,51.6,58.4,0,0,0,0,0,0,0,0,2865,83
2022/07/22 19:50:34,30.1,39.0,36.0,10.0,51.6,58.4,0,0,0,0,0,0,0,0,2865,83
2022/07/22 19:52:34,30.0,39.0,35.9,10.0,51.5,58.4,0,0,0,0,0,0,0,0,2865,83
2022/07/22 19:54:33,30.0,38.9,35.8,10.0,51.4,58.4,0,0,0,0,0,0,0,0,2865,83
2022/07/22 19:56:31,29.9,38.9,35.7,10.0,51.4,58.4,0,0,0,0,0,0,0,0,2865,83
2022/07/22 19:58:31,29.8,38.9,35.6,10.0,51.3,58.4,0,0,0,0,0,0,0,0,2865,83
2022/07/22 20:00:29,29.7,38.8,35.5,10.0,51.3,58.4,0,0,0,0,0,0,0,0,2865,83
2022/07/22 20:02:28,29.7,38.8,35.4,10.0,51.2,58.4,0,0,0,0,0,0,0,0,2865,83
2022/07/22 20:04:27,29.6,38.8,35.3,10.0,51.1,58.4,0,0,0,0,0,0,0,0,2865,83
2022/07/22 20:06:25,29.6,38.7,35.2,10.0,51.1,58.4,0,0,0,0,0,0,0,0,2865,83
2022/07/22 20:08:23,29.5,38.7,35.1,10.0,51.0,58.4,0,0,0,0,0,0,0,0,2865,83
2022/07/22 20:10:20,29.5,38.6,35.0,10.0,51.0,58.4,0,0,0,0,0,0,0,0,2865,83
2022/07/22 20:12:18,29.4,38.6,34.9,10.0,50.9,58.4,0,0,0,0,0,0,0,0,2865,83
2022/07/22 20:14:17,29.4,38.5,34.9,10.0,50.9,58.4,0,0,0,0,0,0,0,0,2865,83
2022/07/22 20:16:15,29.3,38.5,34.8,10.0,50.8,58.4,0,0,0,0,0,0,0,0,2865,83
2022/07/22 20:18:14,29.3,38.5,34.7,10.0,50.7,58.4,0,0,0,0,0,0,0,0,2865,83
2022/07/22 20:20:12,29.2,38.4,34.6,10.0,50.7,58.4,0,0,0,0,0,0,0,0,2865,83
2022/07/22 20:22:12,29.2,38.4,34.5,10.0,50.6,58.4,0,0,0,0,0,0,0,0,2865,83
2022/07/22 20:24:11,29.1,38.3,34.5,10.0,50.5,58.4,0,0,0,0,0,0,0,0,2865,83
2022/07/22 20:26:10,29.1,38.3,34.4,10.0,50.5,58.4,0,0,0,0,0,0,0,0,2865,83
2022/07/22 20:28:10,29.0,40.4,40.0,10.0,50.4,58.4,0,1,1,0,0,1,1,0,2865,83
2022/07/22 20:30:09,29.0,48.3,44.7,10.0,50.2,52.0,0,1,1,0,0,1,1,0,2865,84
2022/07/22 20:32:09,28.9,50.6,47.2,10.0,50.1,52.0,0,1,1,0,0,1,1,0,2865,85
2022/07/22 20:35:06,28.9,52.6,48.5,10.0,50.3,52.0,0,1,1,0,0,1,1,0,2865,86
2022/07/22 20:37:05,28.9,53.7,49.3,10.0,50.6,52.0,0,1,1,0,0,1,1,0,2865,87
2022/07/22 20:39:04,28.8,54.5,49.9,10.0,51.1,52.0,0,1,1,0,0,1,1,0,2865,87
2022/07/22 20:41:03,28.8,55.2,50.5,10.0,51.6,52.0,0,1,1,0,0,1,1,0,2865,88
2022/07/22 20:43:01,28.7,54.2,51.2,10.0,52.1,52.0,0,0,1,0,0,0,1,0,2865,89
2022/07/22 20:45:00,28.7,43.6,41.4,10.0,52.6,52.0,0,0,0,0,0,0,1,0,2865,89
2022/07/22 20:46:59,28.6,42.9,40.7,10.0,52.7,52.0,0,0,0,0,0,0,0,0,2865,89
2022/07/22 20:48:58,28.6,42.4,40.2,10.0,52.8,52.0,0,0,0,0,0,0,0,0,2865,89
2022/07/22 20:50:58,28.5,42.0,39.8,10.0,52.8,52.0,0,0,0,0,0,0,0,0,2865,89
2022/07/22 20:52:57,28.4,41.7,39.5,10.0,52.7,52.0,0,0,0,0,0,0,0,0,2865,89
2022/07/22 20:54:56,28.4,41.4,39.2,10.0,52.6,52.0,0,0,0,0,0,0,0,0,2865,89
2022/07/22 20:56:55,28.3,41.1,39.0,10.0,52.6,52.0,0,0,0,0,0,0,0,0,2865,89
2022/07/22 20:58:54,28.3,41.0,38.7,10.0,52.5,52.0,0,0,0,0,0,0,0,0,2865,89
2022/07/22 21:00:51,28.2,40.8,38.5,10.0,52.4,52.0,0,0,0,0,0,0,0,0,2865,89
2022/07/22 21:02:51,28.2,40.7,38.4,10.0,52.4,52.0,0,0,0,0,0,0,0,0,2865,89
2022/07/22 21:04:50,28.1,40.6,38.2,10.0,52.3,52.0,0,0,0,0,0,0,0,0,2865,89
2022/07/22 21:06:49,28.0,40.5,38.0,10.0,52.2,52.0,0,0,0,0,0,0,0,0,2865,89
2022/07/22 21:08:49,28.0,40.4,37.9,10.0,52.2,52.0,0,0,0,0,0,0,0,0,2865,89
2022/07/22 21:10:48,27.9,40.3,37.7,10.0,52.1,52.0,0,0,0,0,0,0,0,0,2865,89
2022/07/22 21:12:46,27.9,40.2,37.6,10.0,52.0,52.0,0,0,0,0,0,0,0,0,2865,89
2022/07/22 21:14:45,27.8,40.1,37.5,10.0,52.0,52.0,0,0,0,0,0,0,0,0,2865,89
2022/07/22 21:16:45,27.7,40.0,37.3,10.0,51.9,52.0,0,0,0,0,0,0,0,0,2865,89
2022/07/22 21:18:42,27.6,40.0,37.2,10.0,51.9,52.0,0,0,0,0,0,0,0,0,2865,89
2022/07/22 21:20:38,27.6,39.9,37.1,10.0,51.8,52.0,0,0,0,0,0,0,0,0,2865,89
2022/07/22 21:22:36,27.5,39.8,37.0,10.0,51.7,52.0,0,0,0,0,0,0,0,0,2865,89
2022/07/22 21:24:35,27.4,39.8,36.9,10.0,51.7,52.0,0,0,0,0,0,0,0,0,2865,89
2022/07/22 21:26:34,27.3,39.7,36.7,10.0,51.6,52.0,0,0,0,0,0,0,0,0,2865,89
2022/07/22 21:28:32,27.2,39.7,36.6,10.0,51.5,52.0,0,0,0,0,0,0,0,0,2865,89
2022/07/22 21:30:31,27.1,39.7,36.5,10.0,51.5,52.0,0,0,0,0,0,0,0,0,2865,89
2022/07/22 21:32:29,27.0,39.6,36.4,10.0,51.4,52.0,0,0,0,0,0,0,0,0,2865,89
2022/07/22 21:34:27,26.9,39.6,36.3,10.0,51.4,52.0,0,0,0,0,0,0,0,0,2865,89
2022/07/22 21:36:27,26.9,39.5,36.2,10.0,51.3,52.0,0,0,0,0,0,0,0,0,2865,89
2022/07/22 21:38:25,26.8,39.5,36.1,10.0,51.2,52.0,0,0,0,0,0,0,0,0,2865,89
2022/07/22 21:40:23,26.7,39.5,36.0,10.0,51.2,52.0,0,0,0,0,0,0,0,0,2865,89
2022/07/22 21:42:22,26.7,39.4,35.9,10.0,51.1,52.0,0,0,0,0,0,0,0,0,2865,89
2022/07/22 21:44:21,26.6,39.4,35.8,10.0,51.1,52.0,0,0,0,0,0,0,0,0,2865,89
2022/07/22 21:46:19,26.6,39.3,35.7,10.0,51.0,52.0,0,0,0,0,0,0,0,0,2865,89
2022/07/22 21:48:17,26.6,39.3,35.5,10.0,50.9,52.0,0,0,0,0,0,0,0,0,2865,89
2022/07/22 21:50:16,26.5,39.3,35.4,10.0,50.9,52.0,0,0,0,0,0,0,0,0,2865,89
2022/07/22 21:52:15,26.4,39.2,35.3,10.0,50.8,52.0,0,0,0,0,0,0,0,0,2865,89
2022/07/22 21:54:14,26.4,39.2,35.2,10.0,50.8,52.0,0,0,0,0,0,0,0,0,2865,89
2022/07/22 21:56:13,26.4,39.1,35.1,10.0,50.7,52.0,0,0,0,0,0,0,0,0,2865,89
2022/07/22 21:58:11,26.3,39.0,35.0,10.0,50.6,52.0,0,0,0,0,0,0,0,0,2865,89
2022/07/22 22:00:10,26.3,39.0,34.9,10.0,50.6,10.0,0,0,0,0,0,0,0,0,2865,89
2022/07/22 22:02:10,26.3,38.9,34.8,10.0,50.5,10.0,0,0,0,0,0,0,0,0,2865,89
2022/07/22 22:04:09,26.3,38.9,34.8,10.0,50.5,10.0,0,0,0,0,0,0,0,0,2865,89
2022/07/22 22:06:08,26.2,38.8,34.7,10.0,50.5,10.0,0,0,0,0,0,0,0,0,2865,89
2022/07/22 22:08:06,26.2,38.8,34.6,10.0,50.5,10.0,0,0,0,0,0,0,0,0,2865,89
2022/07/22 22:11:05,26.2,38.7,34.5,10.0,50.5,10.0,0,0,0,0,0,0,0,0,2865,89
2022/07/22 22:13:04,26.2,38.7,34.5,10.0,50.5,10.0,0,0,0,0,0,0,0,0,2865,89
2022/07/22 22:15:02,26.1,38.6,34.4,10.0,50.5,10.0,0,0,0,0,0,0,0,0,2865,89
2022/07/22 22:17:01,26.1,38.6,34.3,10.0,50.5,10.0,0,0,0,0,0,0,0,0,2865,89
2022/07/22 22:19:00,26.0,38.5,34.2,10.0,50.5,10.0,0,0,0,0,0,0,0,0,2865,89
2022/07/22 22:20:59,26.0,38.5,34.2,10.0,50.5,10.0,0,0,0,0,0,0,0,0,2865,89
2022/07/22 22:22:59,25.9,38.4,34.1,10.0,50.5,10.0,0,0,0,0,0,0,0,0,2865,89
2022/07/22 22:24:58,25.9,38.4,34.0,10.0,50.5,10.0,0,0,0,0,0,0,0,0,2865,89
2022/07/22 22:26:57,25.9,38.3,33.9,10.0,50.5,10.0,0,0,0,0,0,0,0,0,2865,89
2022/07/22 22:28:57,25.8,38.3,33.9,10.0,50.5,10.0,0,0,0,0,0,0,0,0,2865,89
2022/07/22 22:30:56,25.8,38.2,33.8,10.0,50.5,10.0,0,0,0,0,0,0,0,0,2865,89
2022/07/22 22:32:55,25.7,38.1,33.7,10.0,50.5,10.0,0,0,0,0,0,0,0,0,2865,89
2022/07/22 22:34:55,25.7,38.1,33.7,10.0,50.5,10.0,0,0,0,0,0,0,0,0,2865,89
2022/07/22 22:36:53,25.7,38.0,33.6,10.0,50.5,10.0,0,0,0,0,0,0,0,0,2865,89
2022/07/22 22:38:52,25.6,38.0,33.5,10.0,50.5,10.0,0,0,0,0,0,0,0,0,2865,89
2022/07/22 22:40:50,25.6,37.9,33.5,10.0,50.4,10.0,0,0,0,0,0,0,0,0,2865,89
2022/07/22 22:42:48,25.5,37.9,33.4,10.0,50.4,10.0,0,0,0,0,0,0,0,0,2865,89
2022/07/22 22:44:46,25.5,37.8,33.3,10.0,50.4,10.0,0,0,0,0,0,0,0,0,2865,89
2022/07/22 22:46:46,25.5,37.8,33.3,10.0,50.4,10.0,0,0,0,0,0,0,0,0,2865,89
2022/07/22 22:48:45,25.5,37.7,33.2,10.0,50.4,10.0,0,0,0,0,0,0,0,0,2865,89
2022/07/22 22:50:44,25.5,37.7,33.2,10.0,50.4,10.0,0,0,0,0,0,0,0,0,2865,89
2022/07/22 22:52:42,25.5,37.6,33.1,10.0,50.4,10.0,0,0,0,0,0,0,0,0,2865,89
2022/07/22 22:54:41,25.6,37.5,33.1,10.0,50.4,10.0,0,0,0,0,0,0,0,0,2865,89
2022/07/22 22:56:40,25.6,37.5,33.0,10.0,50.4,10.0,0,0,0,0,0,0,0,0,2865,89
2022/07/22 22:58:36,25.7,37.4,32.9,10.0,50.4,10.0,0,0,0,0,0,0,0,0,2865,89
2022/07/22 23:00:35,25.7,37.4,32.9,10.0,50.4,10.0,0,0,0,0,0,0,0,0,2865,89
2022/07/22 23:02:34,25.7,37.3,32.8,10.0,50.4,10.0,0,0,0,0,0,0,0,0,2865,89
2022/07/22 23:04:32,25.8,37.3,32.8,10.0,50.4,10.0,0,0,0,0,0,0,0,0,2865,89
2022/07/22 23:06:31,25.8,37.3,32.7,10.0,50.3,10.0,0,0,0,0,0,0,0,0,2865,89
2022/07/22 23:08:31,25.8,37.2,32.7,10.0,50.3,10.0,0,0,0,0,0,0,0,0,2865,89
2022/07/22 23:10:29,25.8,37.1,32.6,10.0,50.3,10.0,0,0,0,0,0,0,0,0,2865,89
2022/07/22 23:12:28,25.8,37.1,32.6,10.0,50.3,10.0,0,0,0,0,0,0,0,0,2865,89
2022/07/22 23:14:24,25.8,37.0,32.5,10.0,50.3,10.0,0,0,0,0,0,0,0,0,2865,89
2022/07/22 23:16:23,25.8,37.0,32.5,10.0,50.3,10.0,0,0,0,0,0,0,0,0,2865,89
2022/07/22 23:18:20,25.8,36.9,32.4,10.0,50.3,10.0,0,0,0,0,0,0,0,0,2865,89
2022/07/22 23:20:18,25.7,36.9,32.4,10.0,50.3,10.0,0,0,0,0,0,0,0,0,2865,89
2022/07/22 23:22:17,25.7,36.8,32.3,10.0,50.3,10.0,0,0,0,0,0,0,0,0,2865,89
2022/07/22 23:24:16,25.6,36.8,32.3,10.0,50.3,10.0,0,0,0,0,0,0,0,0,2865,89
2022/07/22 23:26:15,25.6,36.7,32.2,10.0,50.3,10.0,0,0,0,0,0,0,0,0,2865,89
2022/07/22 23:28:14,25.5,36.7,32.2,10.0,50.2,10.0,0,0,0,0,0,0,0,0,2865,89
2022/07/22 23:30:13,25.4,36.6,32.1,10.0,50.2,10.0,0,0,0,0,0,0,0,0,2865,89
2022/07/22 23:32:12,25.3,36.6,32.1,10.0,50.2,10.0,0,0,0,0,0,0,0,0,2865,89
2022/07/22 23:34:11,25.2,36.5,32.0,10.0,50.2,10.0,0,0,0,0,0,0,0,0,2865,89
2022/07/22 23:36:10,24.9,36.5,32.0,10.0,50.2,10.0,0,0,0,0,0,0,0,0,2865,89
2022/07/22 23:38:09,24.7,36.4,31.9,10.0,50.2,10.0,0,0,0,0,0,0,0,0,2865,89
2022/07/22 23:40:09,24.4,36.4,31.9,10.0,50.2,10.0,0,0,0,0,0,0,0,0,2865,89
2022/07/22 23:42:08,24.2,36.3,31.8,10.0,50.2,10.0,0,0,0,0,0,0,0,0,2865,89
2022/07/22 23:44:07,24.0,36.3,31.8,10.0,50.2,10.0,0,0,0,0,0,0,0,0,2865,89
2022/07/22 23:47:04,23.9,36.2,31.8,10.0,50.1,10.0,0,0,0,0,0,0,0,0,2865,89
2022/07/22 23:49:03,23.8,36.2,31.7,10.0,50.1,10.0,0,0,0,0,0,0,0,0,2865,89
2022/07/22 23:51:01,23.7,36.1,31.7,10.0,50.1,10.0,0,0,0,0,0,0,0,0,2865,89
2022/07/22 23:53:01,23.6,36.1,31.6,10.0,50.1,10.0,0,0,0,0,0,0,0,0,2865,89
2022/07/22 23:54:57,23.5,36.0,31.6,10.0,50.1,10.0,0,0,0,0,0,0,0,0,2865,89
2022/07/22 23:56:56,23.5,36.0,31.6,10.0,50.1,10.0,0,0,0,0,0,0,0,0,2865,89
2022/07/22 23:58:55,23.4,35.9,31.5,10.0,50.1,10.0,0,0,0,0,0,0,0,0,2865,89
