Type,Analog,Analog,Analog,Analog,Analog,Analog,Digital,Digital,Digital,Digital,Digital,Digital,Digital,Digital,Integer,Integer
Index,1,5,2,53,3,58,41,42,43,44,45,46,49,50,95,98
Name,R1,R9,R2,R2 Solltemperatur,R3,R3 Solltemperatur,M1,M3,M2/M11,E10,M13,M18,M16,E9,Waermemenge Heizen,Waermemenge Warmwasser
Description,Variable 1,Variable 2,Variable 3,Variable 4,Variable 5,Variable 6,Variable 7,Variable 8,Variable 9,Variable 10,Variable 11,Variable 12,Variable 13,Variable 14,Variable 15,Variable 16
2023/10/17 00:00:06,5.1,32.6,28.9,32.1,45.2,40.0,0,0,0,0,1,0,0,0,1163,8809
2023/10/17 00:02:01,5.1,32.5,28.9,32.1,45.2,40.0,0,0,0,0,1,0,0,0,1163,8809
2023/10/17 00:03:58,5.1,32.5,28.8,32.1,45.2,40.0,0,0,0,0,1,0,0,0,1163,8809
2023/10/17 00:05:52,5.1,32.4,28.7,32.1,45.2,40.0,0,0,0,0,1,0,0,0,1163,8809
2023/10/17 00:07:48,5.1,32.4,28.7,32.1,45.1,40.0,0,0,0,0,1,0,0,0,1163,8809
2023/10/17 00:10:43,5.1,32.4,28.6,32.1,45.1,40.0,0,0,0,0,1,0,0,0,1163,8809
2023/10/17 00:12:40,5.1,32.3,28.6,32.1,45.1,40.0,0,0,0,0,1,0,0,0,1163,8809
2023/10/17 00:14:37,5.1,32.3,28.5,32.1,45.1,40.0,0,0,0,0,1,0,0,0,1163,8809
2023/10/17 00:16:31,5.1,32.2,28.5,32.1,45.1,40.0,0,0,0,0,1,0,0,0,1163,8809
2023/10/17 00:18:26,5.0,32.2,28.4,32.1,45.0,40.0,0,0,0,0,1,0,0,0,1163,8809
2023/10/17 00:20:21,5.0,32.2,28.4,32.1,45.0,40.0,0,0,0,0,1,0,0,0,1163,8809
2023/10/17 00:22:12,5.0,32.1,28.3,32.1,45.0,40.0,0,0,0,0,1,0,0,0,1163,8809
2023/10/17 00:24:07,5.0,32.1,28.3,32.1,45.0,40.0,0,0,0,0,1,0,0,0,1163,8809
2023/10/17 00:26:01,4.9,32.1,28.3,32.8,45.0,40.0,0,0,0,0,1,0,0,0,1163,8809
2023/10/17 00:27:56,4.9,32.0,28.2,32.8,45.0,40.0,0,0,0,0,1,0,0,0,1163,8809
2023/10/17 00:29:48,4.9,32.0,28.2,32.8,44.9,40.0,0,0,0,0,1,0,0,0,1163,8809
2023/10/17 00:32:46,4.9,31.9,28.1,32.8,44.9,40.0,0,0,0,0,1,0,0,0,1163,8809
2023/10/17 00:34:42,4.9,31.9,28.1,32.8,44.9,40.0,0,0,0,0,1,0,0,0,1163,8809
2023/10/17 00:36:36,4.9,31.9,28.0,32.8,44.9,40.0,0,0,0,0,1,0,0,0,1163,8809
2023/10/17 00:38:30,4.9,31.8,28.0,32.8,44.9,40.0,0,0,0,0,1,0,0,0,1163,8809
2023/10/17 00:40:24,4.9,31.8,28.0,32.8,44.9,40.0,0,0,0,0,1,0,0,0,1163,8809
2023/10/17 00:42:17,4.9,31.8,27.9,32.8,44.8,40.0,0,0,0,0,1,0,0,0,1163,8809
2023/10/17 00:44:12,4.9,31.7,27.9,32.8,44.8,40.0,0,0,0,0,1,0,0,0,1163,8809
2023/10/17 00:46:06,4.8,31.7,27.8,32.8,44.8,40.0,0,0,0,0,1,0,0,0,1163,8809
2023/10/17 00:48:00,4.8,31.6,27.8,32.8,44.8,40.0,0,0,0,0,1,0,0,0,1163,8809
2023/10/17 00:49:57,4.8,31.6,27.8,32.8,44.8,40.0,0,0,0,0,1,0,0,0,1163,8809
2023/10/17 00:51:51,4.8,31.6,27.7,32.8,44.8,40.0,0,0,0,0,1,0,0,0,1163,8809
2023/10/17 00:54:47,4.8,31.5,27.7,32.8,44.7,40.0,0,0,0,0,1,0,0,0,1163,8809
2023/10/17 00:56:45,4.8,31.5,27.7,32.8,44.7,40.0,0,0,0,0,1,0,0,0,1163,8809
2023/10/17 00:58:40,4.7,31.5,27.6,32.8,44.7,40.0,0,0,0,0,1,0,0,0,1163,8809
2023/10/17 01:00:33,4.7,31.4,27.6,32.8,44.7,40.0,0,0,0,0,1,0,0,0,1163,8809
2023/10/17 01:02:30,4.7,31.4,27.6,32.8,44.7,40.0,0,0,0,0,1,0,0,0,1163,8809
2023/10/17 01:04:25,4.7,31.3,27.5,32.8,44.7,40.0,0,0,0,0,1,0,0,0,1163,8809
2023/10/17 01:06:19,4.7,31.3,27.5,32.8,44.6,40.0,0,0,0,0,1,0,0,0,1163,8809
2023/10/17 01:08:13,4.7,31.3,27.5,32.8,44.6,40.0,0,0,0,0,1,0,0,0,1163,8809
2023/10/17 01:10:08,4.7,31.2,27.4,32.8,44.6,40.0,0,0,0,0,1,0,0,0,1163,8809
2023/10/17 01:12:05,4.7,31.2,27.4,32.8,44.6,40.0,0,0,0,0,1,0,0,0,1163,8809
2023/10/17 01:14:01,4.7,31.2,27.4,32.8,44.6,40.0,0,0,0,0,1,0,0,0,1163,8809
2023/10/17 01:15:57,4.7,31.1,27.3,32.8,44.6,40.0,0,0,0,0,1,0,0,0,1163,8809
2023/10/17 01:17:54,4.7,31.1,27.3,32.8,44.5,40.0,0,0,0,0,1,0,0,0,1163,8809
2023/10/17 01:20:47,4.7,31.1,27.3,32.8,44.5,40.0,0,0,0,0,1,0,0,0,1163,8809
2023/10/17 01:22:42,4.7,31.0,27.3,32.8,44.5,40.0,0,0,0,0,1,0,0,0,1163,8809
2023/10/17 01:24:36,4.7,31.0,27.2,32.8,44.5,40.0,0,0,0,0,1,0,0,0,1163,8809
2023/10/17 01:26:32,4.7,31.0,27.2,32.8,44.5,40.0,0,0,0,0,1,0,0,0,1163,8809
2023/10/17 01:28:28,4.7,30.9,27.2,32.8,44.5,40.0,0,0,0,0,1,0,0,0,1163,8809
2023/10/17 01:30:26,4.7,29.5,28.6,32.8,44.4,40.0,0,0,1,0,1,0,1,0,1163,8809
2023/10/17 01:32:24,4.7,32.6,29.1,32.8,44.4,40.0,0,1,1,0,1,0,1,0,1164,8809
2023/10/17 01:34:23,4.7,33.0,29.4,32.8,44.4,40.0,0,1,1,0,1,0,1,0,1165,8809
2023/10/17 01:36:21,4.7,33.6,29.8,32.8,44.4,40.0,0,1,1,0,1,0,1,0,1166,8809
2023/10/17 01:38:17,4.7,34.3,30.1,32.8,44.4,40.0,0,1,1,0,1,0,1,0,1167,8809
2023/10/17 01:40:15,4.7,34.8,30.4,32.8,44.3,40.0,0,1,1,0,1,0,1,0,1168,8809
2023/10/17 01:42:11,4.7,35.2,30.8,32.8,44.3,40.0,0,1,1,0,1,0,1,0,1169,8809
2023/10/17 01:44:06,4.7,35.6,31.1,32.8,44.3,40.0,0,1,1,0,1,0,1,0,1169,8809
2023/10/17 01:46:01,4.7,36.0,31.5,32.8,44.3,40.0,0,1,1,0,1,0,1,0,1170,8809
2023/10/17 01:47:57,4.7,36.6,32.1,32.8,44.3,40.0,0,1,1,0,1,0,1,0,1171,8809
2023/10/17 01:49:51,4.7,37.1,32.5,32.8,44.3,40.0,0,1,1,0,1,0,1,0,1172,8809
2023/10/17 01:52:47,4.7,37.6,33.0,32.8,44.2,40.0,0,1,1,0,1,0,1,0,1173,8809
2023/10/17 01:54:47,4.7,38.0,33.4,32.8,44.2,40.0,0,1,1,0,1,0,1,0,1174,8809
2023/10/17 01:56:41,4.7,38.4,33.7,32.8,44.2,40.0,0,1,1,0,1,0,1,0,1174,8809
2023/10/17 01:58:38,4.7,38.8,34.1,32.8,44.2,40.0,0,1,1,0,1,0,1,0,1175,8809
2023/10/17 02:00:37,4.7,39.3,34.5,32.8,44.2,40.0,0,1,1,0,1,0,1,0,1176,8809
2023/10/17 02:02:36,4.6,37.8,34.9,32.8,44.2,40.0,0,0,1,0,1,0,1,0,1177,8809
2023/10/17 02:04:35,4.6,36.9,35.1,32.8,44.1,40.0,0,0,0,0,1,0,1,0,1177,8809
2023/10/17 02:06:30,4.6,36.9,34.9,32.8,44.1,40.0,0,0,0,0,1,0,0,0,1177,8809
2023/10/17 02:08:27,4.6,36.5,34.6,32.8,44.1,40.0,0,0,0,0,1,0,0,0,1177,8809
2023/10/17 02:10:20,4.6,36.2,34.4,32.8,44.1,40.0,0,0,0,0,1,0,0,0,1177,8809
2023/10/17 02:12:10,4.6,36.0,34.2,32.8,44.1,40.0,0,0,0,0,1,0,0,0,1177,8809
2023/10/17 02:14:09,4.6,35.8,34.0,32.8,44.1,40.0,0,0,0,0,1,0,0,0,1177,8809
2023/10/17 02:16:03,4.5,35.7,33.8,32.8,44.0,40.0,0,0,0,0,1,0,0,0,1177,8809
2023/10/17 02:18:00,4.5,35.5,33.6,32.8,44.0,40.0,0,0,0,0,1,0,0,0,1177,8809
2023/10/17 02:19:57,4.5,35.4,33.4,32.8,44.0,40.0,0,0,0,0,1,0,0,0,1177,8809
2023/10/17 02:21:51,4.5,35.3,33.3,32.8,44.0,40.0,0,0,0,0,1,0,0,0,1177,8809
2023/10/17 02:24:46,4.5,35.2,33.1,32.8,44.0,40.0,0,0,0,0,1,0,0,0,1177,8809
2023/10/17 02:26:44,4.4,35.1,33.0,32.8,44.0,40.0,0,0,0,0,1,0,0,0,1177,8809
2023/10/17 02:28:37,4.4,35.1,32.8,32.8,43.9,40.0,0,0,0,0,1,0,0,0,1177,8809
2023/10/17 02:30:36,4.4,35.0,32.7,32.8,43.9,40.0,0,0,0,0,1,0,0,0,1177,8809
2023/10/17 02:32:30,4.3,35.0,32.6,32.8,43.9,40.0,0,0,0,0,1,0,0,0,1177,8809
2023/10/17 02:34:25,4.3,34.9,32.5,32.8,43.9,40.0,0,0,0,0,1,0,0,0,1177,8809
2023/10/17 02:36:19,4.3,34.9,32.4,32.8,43.9,40.0,0,0,0,0,1,0,0,0,1177,8809
2023/10/17 02:38:16,4.3,34.8,32.3,32.8,43.9,40.0,0,0,0,0,1,0,0,0,1177,8809
2023/10/17 02:40:12,4.2,34.8,32.2,32.8,43.8,40.0,0,0,0,0,1,0,0,0,1177,8809
2023/10/17 02:42:06,4.2,34.7,32.0,32.8,43.8,40.0,0,0,0,0,1,0,0,0,1177,8809
2023/10/17 02:44:01,4.2,34.7,31.9,32.8,43.8,40.0,0,0,0,0,1,0,0,0,1177,8809
2023/10/17 02:46:00,4.2,34.7,31.9,32.8,43.8,40.0,0,0,0,0,1,0,0,0,1177,8809
2023/10/17 02:47:58,4.2,34.6,31.8,32.8,43.8,40.0,0,0,0,0,1,0,0,0,1177,8809
2023/10/17 02:49:55,4.2,34.6,31.7,32.8,43.8,40.0,0,0,0,0,1,0,0,0,1177,8809
2023/10/17 02:51:53,4.2,34.6,31.6,32.8,43.7,40.0,0,0,0,0,1,0,0,0,1177,8809
2023/10/17 02:54:46,4.2,34.5,31.5,32.8,43.7,40.0,0,0,0,0,1,0,0,0,1177,8809
2023/10/17 02:56:38,4.2,34.5,31.4,32.8,43.7,40.0,0,0,0,0,1,0,0,0,1177,8809
2023/10/17 02:58:35,4.3,34.5,31.3,32.8,43.7,40.0,0,0,0,0,1,0,0,0,1177,8809
2023/10/17 03:00:29,4.3,34.4,31.2,32.8,43.7,40.0,0,0,0,0,1,0,0,0,1177,8809
2023/10/17 03:02:26,4.3,34.4,31.1,32.8,43.6,40.0,0,0,0,0,1,0,0,0,1177,8809
2023/10/17 03:04:22,4.3,34.4,31.0,32.8,43.6,40.0,0,0,0,0,1,0,0,0,1177,8809
2023/10/17 03:06:17,4.3,34.3,30.9,32.8,43.6,40.0,0,0,0,0,1,0,0,0,1177,8809
2023/10/17 03:08:12,4.3,34.3,30.8,32.8,43.6,40.0,0,0,0,0,1,0,0,0,1177,8809
2023/10/17 03:10:11,4.3,34.2,30.7,32.8,43.6,40.0,0,0,0,0,1,0,0,0,1177,8809
2023/10/17 03:12:08,4.4,34.2,30.6,32.8,43.6,40.0,0,0,0,0,1,0,0,0,1177,8809
2023/10/17 03:14:03,4.4,34.2,30.6,32.8,43.5,40.0,0,0,0,0,1,0,0,0,1177,8809
2023/10/17 03:15:58,4.4,34.1,30.5,32.8,43.5,40.0,0,0,0,0,1,0,0,0,1177,8809
2023/10/17 03:17:56,4.4,34.1,30.4,32.8,43.5,40.0,0,0,0,0,1,0,0,0,1177,8809
2023/10/17 03:19:49,4.4,34.0,30.3,32.8,43.5,40.0,0,0,0,0,1,0,0,0,1177,8809
2023/10/17 03:22:44,4.4,34.0,30.2,32.8,43.5,40.0,0,0,0,0,1,0,0,0,1177,8809
2023/10/17 03:24:39,4.4,34.0,30.1,32.8,43.5,40.0,0,0,0,0,1,0,0,0,1177,8809
2023/10/17 03:26:36,4.5,33.9,30.0,32.8,43.4,40.0,0,0,0,0,1,0,0,0,1177,8809
2023/10/17 03:28:31,4.5,33.9,30.0,32.8,43.4,40.0,0,0,0,0,1,0,0,0,1177,8809
2023/10/17 03:30:25,4.5,33.8,29.9,32.8,43.4,40.0,0,0,0,0,1,0,0,0,1177,8809
2023/10/17 03:32:22,4.6,33.8,29.8,32.8,43.4,40.0,0,0,0,0,1,0,0,0,1177,8809
2023/10/17 03:34:17,4.6,33.8,29.8,32.8,43.4,40.0,0,0,0,0,1,0,0,0,1177,8809
2023/10/17 03:36:15,4.6,33.7,29.7,32.8,43.4,40.0,0,0,0,0,1,0,0,0,1177,8809
2023/10/17 03:38:10,4.6,33.7,29.7,32.8,43.3,40.0,0,0,0,0,1,0,0,0,1177,8809
2023/10/17 03:40:03,4.6,33.6,29.6,32.8,43.3,40.0,0,0,0,0,1,0,0,0,1177,8809
2023/10/17 03:42:01,4.6,33.6,29.5,32.8,43.3,40.0,0,0,0,0,1,0,0,0,1177,8809
2023/10/17 03:43:55,4.6,33.5,29.5,32.8,43.3,40.0,0,0,0,0,1,0,0,0,1177,8809
2023/10/17 03:45:50,4.6,33.5,29.4,32.8,43.3,40.0,0,0,0,0,1,0,0,0,1177,8809
2023/10/17 03:48:43,4.6,33.4,29.3,32.8,43.3,40.0,0,0,0,0,1,0,0,0,1177,8809
2023/10/17 03:50:37,4.6,33.4,29.3,32.8,43.2,40.0,0,0,0,0,1,0,0,0,1177,8809
2023/10/17 03:52:32,4.6,33.3,29.2,32.8,43.2,40.0,0,0,0,0,1,0,0,0,1177,8809
2023/10/17 03:54:27,4.6,33.3,29.2,32.8,43.2,40.0,0,0,0,0,1,0,0,0,1177,8809
2023/10/17 03:56:24,4.6,33.3,29.1,32.8,43.2,40.0,0,0,0,0,1,0,0,0,1177,8809
2023/10/17 03:58:21,4.6,33.2,29.1,32.8,43.2,40.0,0,0,0,0,1,0,0,0,1177,8809
2023/10/17 04:00:16,4.6,33.2,29.0,32.8,43.2,40.0,0,0,0,0,1,0,0,0,1177,8809
2023/10/17 04:02:11,4.6,33.1,29.0,32.8,43.1,40.0,0,0,0,0,1,0,0,0,1177,8809
2023/10/17 04:04:06,4.6,33.1,28.9,32.8,43.1,40.0,0,0,0,0,1,0,0,0,1177,8809
2023/10/17 04:06:01,4.6,33.1,28.9,32.8,43.1,40.0,0,0,0,0,1,0,0,0,1177,8809
2023/10/17 04:07:59,4.6,33.0,28.8,32.8,43.1,40.0,0,0,0,0,1,0,0,0,1177,8809
2023/10/17 04:09:55,4.6,33.0,28.8,32.8,43.1,40.0,0,0,0,0,1,0,0,0,1177,8809
2023/10/17 04:11:53,4.6,32.9,28.7,32.8,43.1,40.0,0,0,0,0,1,0,0,0,1177,8809
2023/10/17 04:13:48,4.5,32.9,28.7,32.8,43.0,40.0,0,0,0,0,1,0,0,0,1177,8809
2023/10/17 04:16:45,4.5,32.8,28.6,32.8,43.0,40.0,0,0,0,0,1,0,0,0,1177,8809
2023/10/17 04:18:41,4.4,32.8,28.6,32.8,43.0,40.0,0,0,0,0,1,0,0,0,1177,8809
2023/10/17 04:20:37,4.4,32.8,28.5,32.8,43.0,40.0,0,0,0,0,1,0,0,0,1177,8809
2023/10/17 04:22:30,4.4,32.7,28.5,32.8,43.0,40.0,0,0,0,0,1,0,0,0,1177,8809
2023/10/17 04:24:27,4.4,32.7,28.4,32.8,43.0,40.0,0,0,0,0,1,0,0,0,1177,8809
2023/10/17 04:26:19,4.3,32.6,28.4,32.8,42.9,40.0,0,0,0,0,1,0,0,0,1177,8809
2023/10/17 04:28:15,4.3,32.6,28.4,32.8,42.9,40.0,0,0,0,0,1,0,0,0,1177,8809
2023/10/17 04:30:09,4.3,32.5,28.3,32.8,42.9,40.0,0,0,0,0,1,0,0,0,1177,8809
2023/10/17 04:32:03,4.3,32.5,28.3,32.8,42.9,40.0,0,0,0,0,1,0,0,0,1177,8809
2023/10/17 04:33:59,4.3,32.4,28.2,32.8,42.9,40.0,0,0,0,0,1,0,0,0,1177,8809
2023/10/17 04:35:55,4.3,32.4,28.2,32.8,42.9,40.0,0,0,0,0,1,0,0,0,1177,8809
2023/10/17 04:37:48,4.3,32.4,28.2,32.8,42.8,40.0,0,0,0,0,1,0,0,0,1177,8809
2023/10/17 04:40:41,4.3,32.3,28.1,32.8,42.8,40.0,0,0,0,0,1,0,0,0,1177,8809
2023/10/17 04:42:35,4.3,32.3,28.1,32.8,42.8,40.0,0,0,0,0,1,0,0,0,1177,8809
2023/10/17 04:44:30,4.2,32.2,28.0,32.8,42.8,40.0,0,0,0,0,1,0,0,0,1177,8809
2023/10/17 04:46:22,4.2,32.2,28.0,32.8,42.8,40.0,0,0,0,0,1,0,0,0,1177,8809
2023/10/17 04:48:18,4.2,32.2,28.0,32.8,42.8,40.0,0,0,0,0,1,0,0,0,1177,8809
2023/10/17 04:50:11,4.2,32.1,27.9,32.8,42.7,40.0,0,0,0,0,1,0,0,0,1177,8809
2023/10/17 04:52:03,4.2,32.1,27.9,32.8,42.7,40.0,0,0,0,0,1,0,0,0,1177,8809
2023/10/17 04:54:02,4.2,32.0,27.9,32.8,42.7,40.0,0,0,0,0,1,0,0,0,1177,8809
2023/10/17 04:55:59,4.2,32.0,27.8,32.8,42.7,40.0,0,0,0,0,1,0,0,0,1177,8809
2023/10/17 04:57:57,4.2,32.0,27.8,32.8,42.7,40.0,0,0,0,0,1,0,0,0,1177,8809
2023/10/17 04:59:49,4.2,31.9,27.8,32.8,42.7,40.0,0,0,0,0,1,0,0,0,1177,8809
2023/10/17 05:02:43,4.2,31.9,27.7,32.8,42.6,40.0,0,0,0,0,1,0,0,0,1177,8809
2023/10/17 05:04:41,4.2,31.8,27.7,32.8,42.6,40.0,0,0,0,0,1,0,0,0,1177,8809
2023/10/17 05:06:34,4.2,31.8,27.7,32.8,42.6,40.0,0,0,0,0,1,0,0,0,1177,8809
2023/10/17 05:08:32,4.2,31.8,27.6,32.8,42.6,40.0,0,0,0,0,1,0,0,0,1177,8809
2023/10/17 05:10:27,4.2,31.7,27.6,32.8,42.6,40.0,0,0,0,0,1,0,0,0,1177,8809
2023/10/17 05:12:20,4.2,31.7,27.6,32.8,42.6,40.0,0,0,0,0,1,0,0,0,1177,8809
2023/10/17 05:14:14,4.2,31.6,27.5,32.8,42.5,40.0,0,0,0,0,1,0,0,0,1177,8809
2023/10/17 05:16:13,4.2,31.7,29.9,32.8,42.5,52.0,0,0,1,0,0,1,1,0,1177,8809
2023/10/17 05:18:12,4.2,36.4,33.6,32.8,42.1,52.0,1,0,1,0,0,1,1,0,1177,8809
2023/10/17 05:20:09,4.2,39.4,35.6,32.8,41.4,52.0,1,0,1,0,0,1,1,0,1177,8810
2023/10/17 05:22:09,4.2,41.6,37.6,32.8,41.3,52.0,1,0,1,0,0,1,1,0,1177,8811
2023/10/17 05:24:08,4.2,42.9,38.7,32.8,41.4,52.0,1,0,1,0,0,1,1,0,1177,8812
2023/10/17 05:26:07,4.2,44.0,39.7,32.8,42.0,52.0,1,0,1,0,0,1,1,0,1177,8813
2023/10/17 05:28:04,4.2,44.9,40.5,32.8,42.5,52.0,1,0,1,0,0,1,1,0,1177,8813
2023/10/17 05:30:00,4.1,45.6,41.2,32.8,43.0,52.0,1,0,1,0,0,1,1,0,1177,8814
2023/10/17 05:31:59,4.1,46.2,41.7,32.8,43.1,52.0,1,0,1,0,0,1,1,0,1177,8815
2023/10/17 05:33:56,4.1,46.7,42.1,32.8,43.3,52.0,1,0,1,0,0,1,1,0,1177,8816
2023/10/17 05:35:52,4.1,47.3,42.7,32.8,43.5,52.0,1,0,1,0,0,1,1,0,1177,8817
2023/10/17 05:37:50,4.0,50.5,44.0,32.8,43.8,52.0,1,1,1,0,0,1,1,0,1177,8818
2023/10/17 05:39:49,4.0,52.4,45.1,32.8,44.4,52.0,1,1,1,0,0,1,1,0,1177,8819
2023/10/17 05:42:48,4.0,53.5,46.2,32.8,45.1,52.0,1,1,1,0,0,1,1,0,1177,8820
2023/10/17 05:44:46,4.0,54.5,47.1,32.8,46.1,52.0,1,1,1,0,0,1,1,0,1177,8822
2023/10/17 05:46:42,3.9,55.5,48.1,33.4,47.0,52.0,1,1,1,0,0,1,1,0,1177,8823
2023/10/17 05:48:39,3.9,56.5,48.9,33.4,47.9,52.0,1,1,1,0,0,1,1,0,1177,8824
2023/10/17 05:50:34,3.9,57.4,49.8,33.4,48.9,52.0,1,1,1,0,0,1,1,0,1177,8826
2023/10/17 05:52:30,3.9,58.4,50.8,33.4,49.8,52.0,1,1,1,0,0,1,1,0,1177,8827
2023/10/17 05:54:27,3.9,59.3,51.8,33.4,50.8,52.0,1,1,1,0,0,1,1,0,1177,8828
2023/10/17 05:56:25,3.8,60.1,52.8,33.4,51.8,52.0,1,1,1,0,0,1,1,0,1177,8829
2023/10/17 05:58:24,3.7,44.1,35.7,33.4,52.8,52.0,0,1,1,0,1,0,1,0,1178,8829
2023/10/17 06:00:22,3.7,37.9,32.4,33.4,53.2,52.0,0,1,1,0,1,0,1,0,1179,8829
2023/10/17 06:02:18,3.7,37.4,32.3,33.4,53.3,52.0,0,1,1,0,1,0,1,0,1180,8829
2023/10/17 06:04:16,3.6,38.4,33.4,33.4,53.3,52.0,0,1,1,0,1,0,1,0,1180,8829
2023/10/17 06:06:13,3.6,38.6,33.6,33.4,53.2,52.0,0,1,1,0,1,0,1,0,1181,8829
2023/10/17 06:08:11,3.6,38.6,33.7,33.4,53.1,52.0,0,1,1,0,1,0,1,0,1182,8829
2023/10/17 06:10:06,3.6,38.5,33.6,33.4,53.0,52.0,0,1,1,0,1,0,1,0,1183,8829
2023/10/17 06:12:01,3.6,38.3,33.5,33.4,52.9,52.0,0,1,1,0,1,0,1,0,1184,8829
2023/10/17 06:14:00,3.6,38.4,33.7,33.4,52.8,52.0,0,1,1,0,1,0,1,0,1185,8829
2023/10/17 06:15:55,3.6,38.6,33.9,33.4,52.8,52.0,0,1,1,0,1,0,1,0,1185,8829
2023/10/17 06:17:51,3.6,38.7,34.0,33.4,52.7,52.0,0,1,1,0,1,0,1,0,1186,8829
2023/10/17 06:20:47,3.6,38.8,34.1,33.4,52.6,52.0,0,1,1,0,1,0,1,0,1187,8829
2023/10/17 06:22:44,3.6,38.9,34.3,33.4,52.6,52.0,0,1,1,0,1,0,1,0,1188,8829
2023/10/17 06:24:43,3.5,39.3,34.5,33.4,52.5,52.0,0,1,1,0,1,0,1,0,1189,8829
2023/10/17 06:26:40,3.5,39.4,34.6,33.4,52.4,52.0,0,1,1,0,1,0,1,0,1190,8829
2023/10/17 06:28:33,3.5,39.5,34.7,33.4,52.3,52.0,0,1,1,0,1,0,1,0,1190,8829
2023/10/17 06:30:27,3.5,39.7,34.9,33.4,52.2,52.0,0,1,1,0,1,0,1,0,1191,8829
2023/10/17 06:32:23,3.5,39.8,35.1,33.4,52.1,52.0,0,1,1,0,1,0,1,0,1192,8829
2023/10/17 06:34:20,3.5,39.9,35.2,33.4,52.0,52.0,0,1,1,0,1,0,1,0,1193,8829
2023/10/17 06:36:17,3.5,38.1,35.6,33.4,51.9,52.0,0,0,1,0,1,0,1,0,1193,8829
2023/10/17 06:38:15,3.5,37.3,35.6,33.4,51.9,52.0,0,0,0,0,1,0,1,0,1193,8829
2023/10/17 06:40:11,3.5,37.3,35.4,33.4,51.8,52.0,0,0,0,0,1,0,0,0,1193,8829
2023/10/17 06:42:08,3.5,37.0,35.0,33.4,51.7,52.0,0,0,0,0,1,0,0,0,1193,8829
2023/10/17 06:44:00,3.5,36.7,34.8,33.4,51.6,52.0,0,0,0,0,1,0,0,0,1193,8829
2023/10/17 06:45:59,3.5,36.5,34.6,33.4,51.5,52.0,0,0,0,0,1,0,0,0,1193,8829
2023/10/17 06:47:53,3.6,36.3,34.4,33.4,51.5,52.0,0,0,0,0,1,0,0,0,1193,8829
2023/10/17 06:49:49,3.6,36.2,34.3,33.4,51.4,52.0,0,0,0,0,1,0,0,0,1193,8829
2023/10/17 06:52:44,3.6,36.0,34.1,33.4,51.3,52.0,0,0,0,0,1,0,0,0,1193,8829
2023/10/17 06:54:34,3.6,35.9,33.9,33.4,51.2,52.0,0,0,0,0,1,0,0,0,1193,8829
2023/10/17 06:56:31,3.6,35.8,33.8,33.4,51.2,52.0,0,0,0,0,1,0,0,0,1193,8829
2023/10/17 06:58:27,3.5,35.8,33.6,33.4,51.1,52.0,0,0,0,0,1,0,0,0,1193,8829
2023/10/17 07:00:22,3.5,35.7,33.5,33.4,51.0,52.0,0,0,0,0,1,0,0,0,1193,8829
2023/10/17 07:02:18,3.5,35.6,33.3,33.4,50.9,52.0,0,0,0,0,1,0,0,0,1193,8829
2023/10/17 07:04:14,3.4,35.5,33.1,33.4,50.9,52.0,0,0,0,0,1,0,0,0,1193,8829
2023/10/17 07:06:12,3.3,35.4,33.0,33.4,50.8,52.0,0,0,0,0,1,0,0,0,1193,8829
2023/10/17 07:08:05,3.3,35.4,32.8,33.4,50.7,52.0,0,0,0,0,1,0,0,0,1193,8829
2023/10/17 07:10:01,3.3,35.3,32.6,33.4,50.6,52.0,0,0,0,0,1,0,0,0,1193,8829
2023/10/17 07:11:58,3.2,35.2,32.4,33.4,50.5,52.0,0,0,0,0,1,0,0,0,1193,8829
2023/10/17 07:13:54,3.2,35.2,32.3,33.4,50.4,52.0,0,0,0,0,1,0,0,0,1193,8829
2023/10/17 07:16:47,3.2,35.1,32.1,33.4,50.3,52.0,0,0,0,0,1,0,0,0,1193,8829
2023/10/17 07:18:44,3.2,35.1,31.9,33.4,50.3,52.0,0,0,0,0,1,0,0,0,1193,8829
2023/10/17 07:20:40,3.3,35.0,31.8,33.4,50.2,52.0,0,0,0,0,1,0,0,0,1193,8829
2023/10/17 07:22:37,3.3,35.0,31.7,33.4,50.1,52.0,0,0,0,0,1,0,0,0,1193,8829
2023/10/17 07:24:34,3.4,35.0,31.5,33.4,50.0,52.0,0,0,0,0,1,0,0,0,1193,8829
2023/10/17 07:26:26,3.4,34.9,31.4,33.4,50.0,52.0,0,0,0,0,1,0,0,0,1193,8829
2023/10/17 07:28:24,3.5,34.9,31.2,33.4,49.9,52.0,0,0,0,0,1,0,0,0,1193,8829
2023/10/17 07:30:18,3.5,34.9,31.1,33.4,49.8,52.0,0,0,0,0,1,0,0,0,1193,8829
2023/10/17 07:32:13,3.5,34.8,31.0,33.4,49.8,52.0,0,0,0,0,1,0,0,0,1193,8829
2023/10/17 07:34:07,3.6,34.8,30.9,33.4,49.7,52.0,0,0,0,0,1,0,0,0,1193,8829
2023/10/17 07:36:02,3.6,34.7,30.7,33.4,49.6,52.0,0,0,0,0,1,0,0,0,1193,8829
2023/10/17 07:37:59,3.7,34.7,30.6,33.4,49.6,52.0,0,0,0,0,1,0,0,0,1193,8829
2023/10/17 07:39:54,3.7,34.7,30.5,33.4,49.5,52.0,0,0,0,0,1,0,0,0,1193,8829
2023/10/17 07:42:48,3.8,34.7,30.4,33.4,49.4,52.0,0,0,0,0,1,0,0,0,1193,8829
2023/10/17 07:44:43,3.8,34.6,30.3,33.4,49.4,52.0,0,0,0,0,1,0,0,0,1193,8829
2023/10/17 07:46:43,3.8,34.6,30.2,33.4,49.3,52.0,0,0,0,0,1,0,0,0,1193,8829
2023/10/17 07:48:40,3.8,34.6,30.1,33.4,49.2,52.0,0,0,0,0,1,0,0,0,1193,8829
2023/10/17 07:50:37,3.8,34.5,30.0,33.4,49.2,52.0,0,0,0,0,1,0,0,0,1193,8829
2023/10/17 07:52:33,3.8,34.5,29.9,33.4,49.1,52.0,0,0,0,0,1,0,0,0,1193,8829
2023/10/17 07:54:32,3.8,29.5,28.3,33.4,49.0,52.0,0,0,1,0,1,0,1,0,1193,8829
2023/10/17 07:56:29,3.8,31.9,28.4,33.4,49.0,52.0,1,0,1,0,1,0,1,0,1194,8829
2023/10/17 07:58:28,3.8,32.9,29.2,33.4,48.9,52.0,1,0,1,0,1,0,1,0,1195,8829
2023/10/17 08:00:24,3.8,33.4,29.6,33.4,48.8,52.0,1,0,1,0,1,0,1,0,1196,8829
2023/10/17 08:02:19,3.8,33.7,29.8,33.4,48.8,52.0,1,0,1,0,1,0,1,0,1197,8829
2023/10/17 08:04:17,3.8,33.9,30.0,33.4,48.7,52.0,1,0,1,0,1,0,1,0,1198,8829
2023/10/17 08:06:13,3.8,34.6,30.1,33.4,48.7,52.0,1,0,1,0,1,0,1,0,1198,8829
2023/10/17 08:08:09,3.8,34.6,30.2,33.4,48.6,52.0,1,0,1,0,1,0,1,0,1199,8829
2023/10/17 08:10:08,3.8,34.9,30.4,33.4,48.5,52.0,1,0,1,0,1,0,1,0,1200,8829
2023/10/17 08:12:04,3.9,35.2,30.6,33.4,48.4,52.0,1,0,1,0,1,0,1,0,1201,8829
2023/10/17 08:14:03,3.9,35.4,30.9,33.4,48.4,52.0,1,0,1,0,1,0,1,0,1202,8829
2023/10/17 08:16:00,3.9,35.8,31.2,33.4,48.3,52.0,1,0,1,0,1,0,1,0,1203,8829
2023/10/17 08:17:58,4.0,36.0,31.4,32.8,48.3,52.0,1,0,1,0,1,0,1,0,1203,8829
2023/10/17 08:19:51,4.0,36.3,31.8,32.8,48.2,52.0,1,0,1,0,1,0,1,0,1204,8829
2023/10/17 08:22:47,4.0,36.5,31.9,32.8,48.1,52.0,1,0,1,0,1,0,1,0,1205,8829
2023/10/17 08:24:45,4.0,36.9,32.2,32.8,48.1,52.0,1,0,1,0,1,0,1,0,1206,8829
2023/10/17 08:26:44,4.0,37.2,32.5,32.8,48.0,52.0,1,0,1,0,1,0,1,0,1207,8829
2023/10/17 08:28:41,4.1,37.3,32.7,32.8,47.9,52.0,1,0,1,0,1,0,1,0,1208,8829
2023/10/17 08:30:39,4.1,37.6,32.9,32.8,47.8,52.0,1,0,1,0,1,0,1,0,1208,8829
2023/10/17 08:32:35,4.1,37.8,33.1,32.8,47.8,52.0,1,0,1,0,1,0,1,0,1209,8829
2023/10/17 08:34:28,4.1,38.1,33.4,32.8,47.7,52.0,1,0,1,0,1,0,1,0,1210,8829
2023/10/17 08:36:27,4.2,38.3,33.6,32.8,47.7,52.0,1,0,1,0,1,0,1,0,1211,8829
2023/10/17 08:38:25,4.2,38.4,33.7,32.8,47.6,52.0,1,0,1,0,1,0,1,0,1212,8829
2023/10/17 08:40:19,4.3,38.7,33.9,32.8,47.5,52.0,1,0,1,0,1,0,1,0,1212,8829
2023/10/17 08:42:16,4.3,38.9,34.1,32.8,47.5,52.0,1,0,1,0,1,0,1,0,1213,8829
2023/10/17 08:44:11,4.3,39.1,34.3,32.8,47.4,52.0,1,0,1,0,1,0,1,0,1214,8829
2023/10/17 08:46:06,4.4,39.3,34.5,32.8,47.3,52.0,1,0,1,0,1,0,1,0,1215,8829
2023/10/17 08:48:00,4.4,39.5,34.7,32.8,47.2,52.0,1,0,1,0,1,0,1,0,1216,8829
2023/10/17 08:49:59,4.5,36.8,34.8,32.8,47.2,52.0,0,0,0,0,1,0,1,0,1216,8829
2023/10/17 08:51:57,4.5,37.0,35.3,32.8,47.1,52.0,0,0,0,0,1,0,0,0,1216,8829
2023/10/17 08:53:53,4.5,36.6,34.8,32.8,47.0,52.0,0,0,0,0,1,0,0,0,1216,8829
2023/10/17 08:56:48,4.6,36.3,34.6,32.8,47.0,52.0,0,0,0,0,1,0,0,0,1216,8829
2023/10/17 08:58:43,4.6,36.1,34.3,32.8,46.9,52.0,0,0,0,0,1,0,0,0,1216,8829
2023/10/17 09:00:39,4.7,35.8,34.1,32.8,46.9,52.0,0,0,0,0,1,0,0,0,1216,8829
2023/10/17 09:02:34,4.7,35.7,33.9,32.8,46.8,52.0,0,0,0,0,1,0,0,0,1216,8829
2023/10/17 09:04:26,4.8,35.5,33.7,32.8,46.7,52.0,0,0,0,0,1,0,0,0,1216,8829
2023/10/17 09:06:18,4.8,35.3,33.6,32.8,46.6,52.0,0,0,0,0,1,0,0,0,1216,8829
2023/10/17 09:08:15,4.8,35.2,33.4,32.8,46.6,52.0,0,0,0,0,1,0,0,0,1216,8829
2023/10/17 09:10:08,4.9,35.2,33.2,32.8,46.5,52.0,0,0,0,0,1,0,0,0,1216,8829
2023/10/17 09:12:05,4.9,35.1,33.0,32.8,46.4,52.0,0,0,0,0,1,0,0,0,1216,8829
2023/10/17 09:14:04,4.9,35.0,32.9,32.8,46.4,52.0,0,0,0,0,1,0,0,0,1216,8829
2023/10/17 09:16:02,5.0,35.0,32.7,32.1,46.3,52.0,0,0,0,0,1,0,0,0,1216,8829
2023/10/17 09:17:57,5.1,34.9,32.5,32.1,46.2,52.0,0,0,0,0,1,0,0,0,1216,8829
2023/10/17 09:19:53,5.2,34.9,32.3,32.1,46.1,52.0,0,0,0,0,1,0,0,0,1216,8829
2023/10/17 09:21:48,5.2,34.8,32.2,32.1,46.1,52.0,0,0,0,0,1,0,0,0,1216,8829
2023/10/17 09:24:45,5.2,34.8,32.0,32.1,46.0,52.0,0,0,0,0,1,0,0,0,1216,8829
2023/10/17 09:26:40,5.3,34.7,31.8,32.1,45.9,52.0,0,0,0,0,1,0,0,0,1216,8829
2023/10/17 09:28:34,5.3,34.7,31.6,32.1,45.8,52.0,0,0,0,0,1,0,0,0,1216,8829
2023/10/17 09:30:29,5.4,34.7,31.5,32.1,45.7,52.0,0,0,0,0,1,0,0,0,1216,8829
2023/10/17 09:32:24,5.4,34.6,31.3,32.1,45.6,52.0,0,0,0,0,1,0,0,0,1216,8829
2023/10/17 09:34:18,5.4,34.6,31.2,32.1,45.5,52.0,0,0,0,0,1,0,0,0,1216,8829
2023/10/17 09:36:13,5.5,34.6,31.0,32.1,45.4,52.0,0,0,0,0,1,0,0,0,1216,8829
2023/10/17 09:38:11,5.5,34.5,30.9,32.1,45.3,52.0,0,0,0,0,1,0,0,0,1216,8829
2023/10/17 09:40:10,5.6,34.5,30.8,32.1,45.3,52.0,0,0,0,0,1,0,0,0,1216,8829
2023/10/17 09:42:04,5.6,34.5,30.6,32.1,45.2,52.0,0,0,0,0,1,0,0,0,1216,8829
2023/10/17 09:43:59,5.6,34.4,30.5,32.1,45.1,52.0,0,0,0,0,1,0,0,0,1216,8829
2023/10/17 09:45:55,5.7,34.4,30.4,32.1,45.0,52.0,0,0,0,0,1,0,0,0,1216,8829
2023/10/17 09:47:50,5.8,34.4,30.2,32.1,45.0,52.0,0,0,0,0,1,0,0,0,1216,8829
2023/10/17 09:50:43,5.8,34.3,30.1,32.1,44.9,52.0,0,0,0,0,1,0,0,0,1216,8829
2023/10/17 09:52:40,5.9,34.3,30.0,32.1,44.8,52.0,0,0,0,0,1,0,0,0,1216,8829
2023/10/17 09:54:35,5.9,34.3,29.9,32.1,44.8,52.0,0,0,0,0,1,0,0,0,1216,8829
2023/10/17 09:56:31,6.0,34.2,29.8,31.4,44.7,52.0,0,0,0,0,1,0,0,0,1216,8829
2023/10/17 09:58:25,6.0,34.2,29.7,31.4,44.6,52.0,0,0,0,0,1,0,0,0,1216,8829
2023/10/17 10:00:24,6.1,34.2,29.7,31.4,44.6,52.0,0,0,0,0,1,0,0,0,1216,8829
2023/10/17 10:02:23,6.1,34.1,29.6,31.4,44.5,52.0,0,0,0,0,1,0,0,0,1216,8829
2023/10/17 10:04:22,6.1,34.1,29.5,31.4,44.4,52.0,0,0,0,0,1,0,0,0,1216,8829
2023/10/17 10:06:19,6.1,34.0,29.4,31.4,44.4,52.0,0,0,0,0,1,0,0,0,1216,8829
2023/10/17 10:08:11,6.1,34.0,29.4,31.4,44.3,52.0,0,0,0,0,1,0,0,0,1216,8829
2023/10/17 10:10:06,6.1,33.9,29.3,31.4,44.3,52.0,0,0,0,0,1,0,0,0,1216,8829
2023/10/17 10:12:00,6.1,33.9,29.2,31.4,44.2,52.0,0,0,0,0,1,0,0,0,1216,8829
2023/10/17 10:13:57,6.1,33.9,29.2,31.4,44.2,52.0,0,0,0,0,1,0,0,0,1216,8829
2023/10/17 10:15:55,6.1,33.8,29.1,31.4,44.1,52.0,0,0,0,0,1,0,0,0,1216,8829
2023/10/17 10:17:52,6.1,33.6,30.3,31.4,44.0,52.0,0,0,1,0,0,1,1,0,1216,8829
2023/10/17 10:19:51,6.2,33.1,28.8,31.4,42.7,52.0,0,1,1,0,0,1,1,0,1216,8829
2023/10/17 10:21:50,6.2,36.4,32.5,31.4,41.1,52.0,0,1,1,0,0,1,1,0,1216,8830
2023/10/17 10:24:45,6.2,37.8,33.7,31.4,40.2,52.0,0,1,1,0,0,1,1,0,1216,8831
2023/10/17 10:26:43,6.3,39.1,34.8,31.4,39.9,52.0,0,1,1,0,0,1,1,0,1216,8832
2023/10/17 10:28:39,6.3,40.1,35.9,31.4,39.8,52.0,0,1,1,0,0,1,1,0,1216,8833
2023/10/17 10:30:36,6.4,41.2,36.9,31.4,40.1,52.0,0,1,1,0,0,1,1,0,1216,8834
2023/10/17 10:32:34,6.4,42.2,37.8,31.4,40.5,52.0,0,1,1,0,0,1,1,0,1216,8834
2023/10/17 10:34:29,6.4,43.1,38.6,31.4,41.2,52.0,0,1,1,0,0,1,1,0,1216,8835
2023/10/17 10:36:24,6.5,44.0,39.4,31.4,41.9,52.0,0,1,1,0,0,1,1,0,1216,8836
2023/10/17 10:38:19,6.6,44.7,40.1,31.4,42.6,52.0,0,1,1,0,0,1,1,0,1216,8837
2023/10/17 10:40:17,6.7,47.9,41.5,31.4,43.1,52.0,1,1,1,0,0,1,1,0,1216,8838
2023/10/17 10:42:16,6.8,50.4,43.4,31.4,43.7,52.0,1,1,1,0,0,1,1,0,1216,8839
2023/10/17 10:44:11,6.9,52.2,44.8,31.4,44.4,52.0,1,1,1,0,0,1,1,0,1216,8841
2023/10/17 10:46:05,6.9,53.4,46.0,31.4,45.2,52.0,1,1,1,0,0,1,1,0,1216,8842
2023/10/17 10:48:04,7.0,54.4,47.0,30.7,46.1,52.0,1,1,1,0,0,1,1,0,1216,8843
2023/10/17 10:50:01,7.1,55.5,48.1,30.7,47.0,52.0,1,1,1,0,0,1,1,0,1216,8844
2023/10/17 10:51:59,7.1,56.6,49.1,30.7,48.0,52.0,1,1,1,0,0,1,1,0,1216,8846
2023/10/17 10:53:59,7.2,57.6,49.9,30.7,48.9,52.0,1,1,1,0,0,1,1,0,1216,8847
2023/10/17 10:55:56,7.3,58.5,50.9,30.7,49.8,52.0,1,1,1,0,0,1,1,0,1216,8848
2023/10/17 10:57:53,7.3,59.4,52.0,30.7,50.9,52.0,1,1,1,0,0,1,1,0,1216,8849
2023/10/17 10:59:49,7.5,60.3,52.9,30.7,52.1,52.0,1,0,1,0,1,1,1,0,1216,8850
2023/10/17 11:02:48,7.5,37.8,31.5,30.7,52.9,52.0,1,0,1,0,1,0,1,0,1216,8850
2023/10/17 11:04:46,7.6,34.3,29.2,30.7,53.2,52.0,1,0,1,0,1,0,1,0,1217,8850
2023/10/17 11:06:44,7.7,33.6,28.8,30.7,53.3,52.0,1,0,1,0,1,0,1,0,1218,8850
2023/10/17 11:08:42,7.8,34.8,29.9,30.7,53.3,52.0,1,0,1,0,1,0,1,0,1219,8850
2023/10/17 11:10:41,7.9,35.2,30.3,30.7,53.2,52.0,1,0,1,0,1,0,1,0,1220,8850
2023/10/17 11:12:40,8.0,35.1,30.2,29.9,53.1,52.0,1,0,1,0,1,0,1,0,1220,8850
2023/10/17 11:14:36,8.1,35.1,30.3,29.9,53.0,52.0,1,0,1,0,1,0,1,0,1221,8850
2023/10/17 11:16:33,8.2,35.3,30.6,29.9,52.8,52.0,1,0,1,0,1,0,1,0,1222,8850
2023/10/17 11:18:28,8.2,35.6,30.9,29.9,52.7,52.0,1,0,1,0,1,0,1,0,1223,8850
2023/10/17 11:20:22,8.3,35.8,31.1,29.9,52.7,52.0,1,0,1,0,1,0,1,0,1224,8850
2023/10/17 11:22:19,8.4,35.9,31.3,29.9,52.6,52.0,1,0,1,0,1,0,1,0,1225,8850
2023/10/17 11:24:11,8.5,36.2,31.5,29.9,52.5,52.0,1,0,1,0,1,0,1,0,1225,8850
2023/10/17 11:26:06,8.6,36.5,31.8,29.9,52.5,52.0,1,0,1,0,1,0,1,0,1226,8850
2023/10/17 11:28:04,8.7,33.7,32.0,29.9,52.4,52.0,0,0,0,0,1,0,1,0,1226,8850
2023/10/17 11:30:01,8.7,34.1,32.3,29.9,52.4,52.0,0,0,0,0,1,0,0,0,1226,8850
2023/10/17 11:31:58,8.8,33.9,31.9,29.9,52.3,52.0,0,0,0,0,1,0,0,0,1226,8850
2023/10/17 11:33:52,8.8,33.7,31.7,29.9,52.2,52.0,0,0,0,0,1,0,0,0,1226,8850
2023/10/17 11:35:49,8.9,33.5,31.5,29.9,52.2,52.0,0,0,0,0,1,0,0,0,1226,8850
2023/10/17 11:38:44,9.0,33.4,31.4,29.2,52.1,52.0,0,0,0,0,1,0,0,0,1226,8850
2023/10/17 11:40:41,9.1,33.3,31.2,29.2,52.0,52.0,0,0,0,0,1,0,0,0,1226,8850
2023/10/17 11:42:34,9.1,33.2,31.1,29.2,51.9,52.0,0,0,0,0,1,0,0,0,1226,8850
2023/10/17 11:44:29,9.2,33.1,31.0,29.2,51.9,52.0,0,0,0,0,1,0,0,0,1226,8850
2023/10/17 11:46:25,9.2,33.0,30.8,29.2,51.8,52.0,0,0,0,0,1,0,0,0,1226,8850
2023/10/17 11:48:17,9.3,32.9,30.7,29.2,51.7,52.0,0,0,0,0,1,0,0,0,1226,8850
2023/10/17 11:50:10,9.3,32.9,30.6,29.2,51.7,52.0,0,0,0,0,1,0,0,0,1226,8850
2023/10/17 11:52:09,9.4,32.8,30.5,48.2,51.6,57.1,0,0,0,0,1,0,0,0,1226,8850
2023/10/17 11:54:07,9.4,32.0,29.7,48.2,51.5,57.1,0,1,1,0,1,0,1,0,1227,8850
2023/10/17 11:56:05,9.4,34.2,30.4,48.2,51.4,58.2,0,1,1,0,1,0,1,0,1228,8850
2023/10/17 11:58:00,9.5,35.0,30.9,48.2,51.4,58.2,0,1,1,0,1,0,1,0,1228,8850
2023/10/17 11:59:59,9.6,35.4,31.1,48.2,51.3,58.2,0,1,1,0,1,0,1,0,1229,8850
2023/10/17 12:01:56,9.6,35.8,31.4,48.2,51.2,58.2,0,1,1,0,1,0,1,0,1230,8850
2023/10/17 12:03:49,9.7,36.2,31.7,48.2,51.2,58.2,0,1,1,0,1,0,1,0,1231,8850
2023/10/17 12:06:47,9.7,36.4,31.8,48.2,51.1,58.2,0,1,1,0,1,0,1,0,1232,8850
2023/10/17 12:08:44,9.8,36.7,32.1,48.2,51.0,58.2,0,1,1,0,1,0,1,0,1232,8850
2023/10/17 12:10:38,9.8,37.0,32.3,48.2,51.0,58.2,0,1,1,0,1,0,1,0,1233,8850
2023/10/17 12:12:36,9.8,37.3,32.7,48.2,50.9,58.2,0,1,1,0,1,0,1,0,1234,8850
2023/10/17 12:14:32,9.9,37.7,33.0,48.2,50.9,58.2,0,1,1,0,1,0,1,0,1235,8850
2023/10/17 12:16:27,10.0,37.9,33.2,48.2,50.8,58.2,0,1,1,0,1,0,1,0,1236,8850
2023/10/17 12:18:23,10.0,38.1,33.4,47.5,50.7,58.2,0,1,1,0,1,0,1,0,1237,8850
2023/10/17 12:20:21,10.1,38.4,33.7,47.5,50.7,58.2,0,1,1,0,1,0,1,0,1237,8850
2023/10/17 12:22:18,10.2,38.7,34.0,47.5,50.6,58.2,0,1,1,0,1,0,1,0,1238,8850
2023/10/17 12:24:14,10.3,38.9,34.2,47.5,50.5,58.2,0,1,1,0,1,0,1,0,1239,8850
2023/10/17 12:26:13,10.3,39.2,34.4,47.5,50.5,58.2,0,1,1,0,1,0,1,0,1240,8850
2023/10/17 12:28:10,10.4,39.5,34.7,47.5,50.4,58.2,0,1,1,0,1,0,1,0,1241,8850
2023/10/17 12:30:05,10.4,39.8,34.9,47.5,50.3,58.2,0,1,1,0,1,0,1,0,1241,8850
2023/10/17 12:32:00,10.5,39.9,35.2,47.5,50.3,58.2,0,1,1,0,1,0,1,0,1242,8850
2023/10/17 12:34:00,10.5,42.7,37.3,47.5,50.2,58.2,1,1,1,0,0,1,1,0,1243,8850
2023/10/17 12:35:59,10.6,52.3,45.4,47.5,50.1,52.0,1,1,1,0,0,1,1,0,1243,8852
2023/10/17 12:37:55,10.6,55.8,49.0,28.5,50.2,52.0,1,1,1,0,0,1,1,0,1243,8853
2023/10/17 12:39:55,10.7,57.9,50.6,28.5,50.8,52.0,1,1,1,0,0,1,1,0,1243,8854
2023/10/17 12:41:52,10.8,59.3,52.1,28.5,51.8,52.0,1,1,1,0,0,1,1,0,1243,8855
2023/10/17 12:44:48,10.9,48.3,39.9,28.5,52.8,52.0,1,0,1,0,1,0,1,0,1243,8855
2023/10/17 12:46:46,10.9,43.2,37.7,28.5,53.2,52.0,1,0,1,0,1,0,1,0,1244,8855
2023/10/17 12:48:45,11.0,43.2,37.9,27.6,53.4,52.0,1,0,1,0,1,0,1,0,1245,8855
2023/10/17 12:50:42,11.1,41.7,38.6,27.6,53.4,52.0,0,0,1,0,1,0,1,0,1245,8855
2023/10/17 12:52:41,11.2,41.0,39.0,27.6,53.4,52.0,0,0,0,0,1,0,1,0,1245,8855
2023/10/17 12:54:37,11.2,40.6,38.3,46.6,53.3,57.1,0,0,0,0,1,0,0,0,1245,8855
2023/10/17 12:56:34,11.3,40.4,38.7,46.6,53.2,57.1,0,0,1,0,1,0,1,0,1245,8855
2023/10/17 12:58:33,11.4,42.0,38.8,46.6,53.1,57.1,0,1,1,0,1,0,1,0,1246,8855
2023/10/17 13:00:31,11.4,43.2,39.0,46.6,53.0,58.2,0,1,1,0,1,0,1,0,1247,8855
2023/10/17 13:02:29,11.5,43.7,39.1,46.6,52.9,58.2,0,1,1,0,1,0,1,0,1248,8855
2023/10/17 13:04:29,11.5,44.0,39.3,46.6,52.9,58.2,0,1,1,0,1,0,1,0,1248,8855
2023/10/17 13:06:24,11.5,44.4,39.7,46.6,52.8,58.2,0,1,1,0,1,0,1,0,1249,8855
2023/10/17 13:08:21,11.5,44.6,39.9,46.6,52.8,58.2,0,1,1,0,1,0,1,0,1250,8855
2023/10/17 13:10:18,11.6,45.7,40.3,46.6,52.7,58.2,0,1,1,0,1,0,1,0,1251,8855
2023/10/17 13:12:12,11.6,45.9,40.4,46.6,52.6,58.2,0,1,1,0,1,0,1,0,1251,8855
2023/10/17 13:14:07,11.6,46.1,40.6,46.6,52.6,58.2,0,1,1,0,1,0,1,0,1252,8855
2023/10/17 13:16:06,11.7,46.5,41.0,46.6,52.5,58.2,0,1,1,0,1,0,1,0,1253,8855
2023/10/17 13:18:02,11.7,47.0,41.5,46.6,52.5,58.2,0,1,1,0,1,0,1,0,1254,8855
2023/10/17 13:19:59,11.7,47.3,41.7,46.6,52.4,58.2,0,1,1,0,1,0,1,0,1254,8855
2023/10/17 13:21:53,11.8,47.5,41.9,46.6,52.3,58.2,0,1,1,0,1,0,1,0,1255,8855
2023/10/17 13:23:50,11.9,47.9,42.3,46.6,52.3,58.2,0,1,1,0,1,0,1,0,1256,8855
2023/10/17 13:26:46,11.9,48.3,42.7,46.6,52.2,58.2,0,1,1,0,1,0,1,0,1257,8855
2023/10/17 13:28:41,12.0,48.6,43.0,45.9,52.1,58.2,0,1,1,0,1,0,1,0,1257,8855
2023/10/17 13:30:38,12.0,48.9,43.3,45.9,52.1,58.2,0,1,1,0,1,0,1,0,1258,8855
2023/10/17 13:32:38,12.1,49.2,43.6,45.9,52.0,58.2,0,1,1,0,1,0,1,0,1259,8855
2023/10/17 13:34:35,12.2,49.6,44.0,45.9,51.9,58.2,0,1,1,0,1,0,1,0,1260,8855
2023/10/17 13:36:31,12.2,49.9,44.4,45.9,51.9,58.2,0,1,1,0,1,0,1,0,1260,8855
2023/10/17 13:38:29,12.3,51.1,45.4,45.9,51.8,58.2,0,1,1,0,1,0,1,0,1261,8855
2023/10/17 13:40:26,12.3,51.7,45.8,45.9,51.8,58.2,0,1,1,0,1,0,1,0,1262,8855
2023/10/17 13:42:20,12.4,52.2,46.3,45.9,51.7,58.2,0,1,1,0,1,0,1,0,1262,8855
2023/10/17 13:44:18,12.4,52.7,46.8,45.9,51.6,58.2,0,1,1,0,1,0,1,0,1263,8855
2023/10/17 13:46:13,12.5,53.1,47.3,45.9,51.6,58.2,0,1,1,0,1,0,1,0,1264,8855
2023/10/17 13:48:10,12.5,53.6,47.8,45.9,51.5,58.2,0,1,1,0,1,0,1,0,1265,8855
2023/10/17 13:50:07,12.5,50.4,47.9,45.9,51.4,57.1,0,0,0,0,1,0,1,0,1265,8855
2023/10/17 13:52:04,12.6,50.1,47.5,45.9,51.4,57.1,0,0,0,0,1,0,0,0,1265,8855
2023/10/17 13:54:01,12.6,49.3,46.6,45.9,51.3,57.1,0,0,0,0,1,0,0,0,1265,8855
2023/10/17 13:55:57,12.7,48.9,46.1,45.9,51.3,57.1,0,0,0,0,1,0,0,0,1265,8855
2023/10/17 13:57:54,12.7,48.5,45.7,45.9,51.2,57.1,0,0,0,0,1,0,0,0,1265,8855
2023/10/17 13:59:51,12.8,48.3,45.4,45.9,51.1,57.1,0,0,0,0,1,0,0,0,1265,8855
2023/10/17 14:02:47,12.8,48.1,45.1,45.9,51.1,57.1,0,0,0,0,1,0,0,0,1265,8855
2023/10/17 14:04:42,12.8,47.9,44.8,45.9,51.0,57.1,0,0,0,0,1,0,0,0,1265,8855
2023/10/17 14:06:37,12.9,47.8,44.5,45.9,51.0,57.1,0,0,0,0,1,0,0,0,1265,8855
2023/10/17 14:08:34,13.0,47.7,44.3,45.9,50.9,58.2,0,0,0,0,1,0,0,0,1265,8855
2023/10/17 14:10:31,13.0,47.5,44.0,45.1,50.8,58.2,0,0,0,0,1,0,0,0,1265,8855
2023/10/17 14:12:22,13.0,47.5,43.8,45.1,50.8,58.2,0,0,0,0,1,0,0,0,1265,8855
2023/10/17 14:14:16,13.1,47.4,43.6,45.1,50.7,58.2,0,0,0,0,1,0,0,0,1265,8855
2023/10/17 14:16:10,13.1,47.3,43.4,45.1,50.7,58.2,0,0,0,0,1,0,0,0,1265,8855
2023/10/17 14:18:05,13.2,47.2,43.1,45.1,50.6,58.2,0,0,0,0,1,0,0,0,1265,8855
2023/10/17 14:20:01,13.2,47.1,42.8,45.1,50.5,58.2,0,0,0,0,1,0,0,0,1265,8855
2023/10/17 14:21:59,13.3,47.1,42.6,45.1,50.5,58.2,0,0,0,0,1,0,0,0,1265,8855
2023/10/17 14:23:53,13.3,47.0,42.3,45.1,50.4,58.2,0,0,0,0,1,0,0,0,1265,8855
2023/10/17 14:25:48,13.4,46.9,42.0,45.1,50.4,58.2,0,0,0,0,1,0,0,0,1265,8855
2023/10/17 14:28:44,13.4,46.9,41.8,45.1,50.3,58.2,0,0,0,0,1,0,0,0,1265,8855
2023/10/17 14:30:40,13.4,44.0,41.6,45.1,50.2,57.1,0,0,1,0,0,1,1,0,1265,8855
2023/10/17 14:32:39,13.4,47.5,44.3,45.1,50.0,57.1,1,0,1,0,0,1,1,0,1265,8855
2023/10/17 14:34:37,13.5,49.7,45.9,45.1,49.9,57.1,1,0,1,0,0,1,1,0,1265,8856
2023/10/17 14:36:32,13.5,51.9,47.6,45.1,49.9,57.1,1,0,1,0,0,1,1,0,1265,8857
2023/10/17 14:38:29,13.6,53.0,48.5,45.1,50.1,57.1,1,0,1,0,0,1,1,0,1265,8858
2023/10/17 14:40:27,13.6,53.8,49.1,26.1,50.5,52.0,1,0,1,0,0,1,1,0,1265,8858
2023/10/17 14:42:22,13.6,54.4,49.6,26.1,51.0,52.0,1,0,1,0,0,1,1,0,1265,8859
2023/10/17 14:44:21,13.6,54.9,50.1,26.1,51.5,52.0,1,0,1,0,0,1,1,0,1265,8860
2023/10/17 14:46:18,13.6,55.5,50.9,26.1,52.0,52.0,0,0,1,0,1,1,1,0,1265,8860
2023/10/17 14:48:18,13.7,46.7,44.3,26.1,52.5,52.0,0,0,0,0,1,0,1,0,1265,8860
2023/10/17 14:50:16,13.7,46.9,45.0,26.1,52.6,52.0,0,0,0,0,1,0,0,0,1265,8860
2023/10/17 14:52:14,13.7,46.3,44.4,26.1,52.6,52.0,0,0,0,0,1,0,0,0,1265,8860
2023/10/17 14:54:09,13.8,45.7,44.0,26.1,52.6,52.0,0,0,0,0,1,0,0,0,1265,8860
2023/10/17 14:56:06,13.8,45.2,43.7,26.1,52.6,52.0,0,0,0,0,1,0,0,0,1265,8860
2023/10/17 14:58:02,13.8,44.9,43.3,26.1,52.5,52.0,0,0,0,0,1,0,0,0,1265,8860
2023/10/17 15:00:00,13.9,44.7,43.0,26.1,52.4,52.0,0,0,0,0,1,0,0,0,1265,8860
2023/10/17 15:01:55,13.9,44.6,42.7,26.1,52.3,52.0,0,0,0,0,1,0,0,0,1265,8860
2023/10/17 15:03:51,13.9,44.5,42.5,45.1,52.2,58.2,0,0,0,0,1,0,0,0,1265,8860
2023/10/17 15:06:47,13.9,42.2,41.7,45.1,52.2,57.1,0,0,1,0,1,0,1,0,1265,8860
2023/10/17 15:08:45,13.9,47.3,44.4,45.1,52.1,57.1,0,1,1,0,1,0,1,0,1266,8860
2023/10/17 15:10:41,13.9,49.2,44.8,45.1,52.1,57.1,0,1,1,0,1,0,1,0,1267,8860
2023/10/17 15:12:38,14.0,50.0,45.0,44.2,52.0,57.1,0,1,1,0,1,0,1,0,1268,8860
2023/10/17 15:14:36,14.0,50.7,45.5,44.2,51.9,57.1,0,1,1,0,1,0,1,0,1268,8860
2023/10/17 15:16:33,14.0,51.2,45.9,44.2,51.9,57.1,0,1,1,0,1,0,1,0,1269,8860
2023/10/17 15:18:30,14.0,49.0,46.4,44.2,51.8,57.1,0,0,0,0,1,0,1,0,1269,8860
2023/10/17 15:20:28,14.0,48.9,46.7,44.2,51.8,57.1,0,0,0,0,1,0,0,0,1269,8860
2023/10/17 15:22:21,14.1,48.2,45.7,44.2,51.7,57.1,0,0,0,0,1,0,0,0,1269,8860
2023/10/17 15:24:17,14.1,47.7,45.2,44.2,51.6,57.1,0,0,0,0,1,0,0,0,1269,8860
2023/10/17 15:26:11,14.1,47.4,44.8,44.2,51.6,57.1,0,0,0,0,1,0,0,0,1269,8860
2023/10/17 15:28:06,14.1,47.1,44.5,44.2,51.5,57.1,0,0,0,0,1,0,0,0,1269,8860
2023/10/17 15:30:04,14.2,46.9,44.2,44.2,51.5,57.1,0,0,0,0,1,0,0,0,1269,8860
2023/10/17 15:31:59,14.2,46.7,44.0,44.2,51.4,58.2,0,0,0,0,1,0,0,0,1269,8860
2023/10/17 15:33:52,14.2,46.6,43.7,44.2,51.3,58.2,0,0,0,0,1,0,0,0,1269,8860
2023/10/17 15:36:48,14.2,46.5,43.4,44.2,51.3,58.2,0,0,0,0,1,0,0,0,1269,8860
2023/10/17 15:38:40,14.2,46.4,43.2,44.2,51.2,58.2,0,0,0,0,1,0,0,0,1269,8860
2023/10/17 15:40:35,14.3,46.2,42.9,44.2,51.2,58.2,0,0,0,0,1,0,0,0,1269,8860
2023/10/17 15:42:34,14.3,46.2,42.7,44.2,51.1,58.2,0,0,0,0,1,0,0,0,1269,8860
2023/10/17 15:44:29,14.3,46.1,42.5,44.2,51.1,58.2,0,0,0,0,1,0,0,0,1269,8860
2023/10/17 15:46:22,14.3,46.0,42.2,44.2,51.0,58.2,0,0,0,0,1,0,0,0,1269,8860
2023/10/17 15:48:19,14.3,45.9,42.0,44.2,50.9,58.2,0,0,0,0,1,0,0,0,1269,8860
2023/10/17 15:50:11,14.3,45.9,41.7,44.2,50.9,58.2,0,0,0,0,1,0,0,0,1269,8860
2023/10/17 15:52:06,14.3,45.8,41.5,44.2,50.8,58.2,0,0,0,0,1,0,0,0,1269,8860
2023/10/17 15:54:01,14.3,45.5,41.2,44.2,50.8,58.2,0,0,0,0,1,0,0,0,1269,8860
2023/10/17 15:55:57,14.3,45.5,40.9,44.2,50.7,58.2,0,0,0,0,1,0,0,0,1269,8860
2023/10/17 15:57:53,14.3,45.4,40.7,44.2,50.6,58.2,0,0,0,0,1,0,0,0,1269,8860
2023/10/17 16:00:49,14.3,45.3,40.4,44.2,50.6,58.2,0,0,0,0,1,0,0,0,1269,8860
2023/10/17 16:02:44,14.3,45.2,40.1,44.2,50.5,58.2,0,0,0,0,1,0,0,0,1269,8860
2023/10/17 16:04:41,14.3,45.1,39.9,44.2,50.5,58.2,0,0,0,0,1,0,0,0,1269,8860
2023/10/17 16:06:38,14.3,45.1,39.7,44.2,50.4,58.2,0,0,0,0,1,0,0,0,1269,8860
2023/10/17 16:08:37,14.3,45.0,39.5,44.2,50.4,58.2,0,0,0,0,1,0,0,0,1269,8860
2023/10/17 16:10:30,14.3,44.9,39.3,44.2,50.3,58.2,0,0,0,0,1,0,0,0,1269,8860
2023/10/17 16:12:22,14.3,44.8,39.0,44.2,50.2,58.2,0,0,1,0,1,1,1,0,1269,8860
2023/10/17 16:14:20,14.3,46.4,43.2,44.2,50.1,57.1,1,0,1,0,0,1,1,0,1269,8861
2023/10/17 16:16:17,14.3,49.4,46.1,44.2,50.0,57.1,1,0,1,0,0,1,1,0,1269,8862
2023/10/17 16:18:15,14.3,51.8,47.7,44.2,50.0,57.1,1,0,1,0,0,1,1,0,1269,8862
2023/10/17 16:20:13,14.3,53.3,48.9,44.2,50.1,57.1,1,0,1,0,0,1,1,0,1269,8863
2023/10/17 16:22:11,14.3,54.1,49.5,44.2,50.7,52.0,1,0,1,0,0,1,1,0,1269,8864
2023/10/17 16:24:09,14.3,54.8,50.1,25.2,51.1,52.0,1,0,1,0,0,1,1,0,1269,8864
2023/10/17 16:26:06,14.3,55.4,50.6,25.2,51.6,52.0,1,0,1,0,0,1,1,0,1269,8865
2023/10/17 16:28:04,14.3,53.6,51.2,25.2,52.2,52.0,0,0,1,0,1,0,1,0,1269,8865
2023/10/17 16:30:03,14.3,43.8,41.6,25.2,52.6,52.0,0,0,0,0,1,0,1,0,1269,8865
2023/10/17 16:32:00,14.3,43.2,40.9,25.2,52.7,52.0,0,0,0,0,1,0,0,0,1269,8865
2023/10/17 16:33:57,14.3,42.6,40.4,25.2,52.7,52.0,0,0,0,0,1,0,0,0,1269,8865
2023/10/17 16:35:53,14.3,42.2,40.0,25.2,52.7,52.0,0,0,0,0,1,0,0,0,1269,8865
2023/10/17 16:38:46,14.2,41.8,39.7,25.2,52.6,52.0,0,0,0,0,1,0,0,0,1269,8865
2023/10/17 16:40:39,14.2,41.5,39.4,25.2,52.5,52.0,0,0,0,0,1,0,0,0,1269,8865
2023/10/17 16:42:32,14.2,41.3,39.1,25.2,52.4,52.0,0,0,0,0,1,0,0,0,1269,8865
2023/10/17 16:44:28,14.2,41.1,38.9,25.2,52.3,52.0,0,0,0,0,1,0,0,0,1269,8865
2023/10/17 16:46:24,14.2,41.0,38.7,25.2,52.3,52.0,0,0,0,0,1,0,0,0,1269,8865
2023/10/17 16:48:18,14.2,40.9,38.5,25.2,52.2,52.0,0,0,0,0,1,0,0,0,1269,8865
2023/10/17 16:50:14,14.2,40.8,38.3,25.2,52.2,52.0,0,0,0,0,1,0,0,0,1269,8865
2023/10/17 16:52:09,14.1,40.6,38.1,25.2,52.1,52.0,0,0,0,0,1,0,0,0,1269,8865
2023/10/17 16:54:07,14.1,40.5,38.0,25.2,52.1,52.0,0,0,0,0,1,0,0,0,1269,8865
2023/10/17 16:56:05,14.1,40.4,37.8,25.2,52.0,52.0,0,0,0,0,1,0,0,0,1269,8865
2023/10/17 16:58:01,14.0,40.3,37.6,25.2,51.9,52.0,0,0,0,0,1,0,0,0,1269,8865
2023/10/17 16:59:59,14.0,40.2,37.5,25.2,51.9,52.0,0,0,0,0,1,0,0,0,1269,8865
2023/10/17 17:01:50,14.0,40.2,37.3,25.2,51.8,52.0,0,0,0,0,1,0,0,0,1269,8865
2023/10/17 17:04:47,14.0,40.1,37.1,25.2,51.8,52.0,0,0,0,0,1,0,0,0,1269,8865
2023/10/17 17:06:42,13.9,40.0,37.0,26.1,51.7,52.0,0,0,0,0,1,0,0,0,1269,8865
2023/10/17 17:08:38,13.9,40.4,39.2,26.1,51.7,52.0,0,0,0,0,1,0,1,0,1269,8865
2023/10/17 17:10:37,13.9,42.6,41.5,26.1,51.6,52.0,0,0,0,0,1,0,1,0,1269,8865
2023/10/17 17:12:31,13.8,42.2,40.9,26.1,51.5,52.0,0,0,0,0,1,0,0,0,1269,8865
2023/10/17 17:14:28,13.8,41.8,40.4,26.1,51.5,52.0,0,0,0,0,1,0,0,0,1269,8865
2023/10/17 17:16:27,13.8,41.6,40.1,26.1,51.4,52.0,0,0,0,0,1,0,0,0,1269,8865
2023/10/17 17:18:22,13.7,41.4,39.9,26.1,51.3,52.0,0,0,0,0,1,0,0,0,1269,8865
2023/10/17 17:20:18,13.7,41.3,39.7,26.1,51.3,52.0,0,0,0,0,1,0,0,0,1269,8865
2023/10/17 17:22:15,13.7,41.1,39.5,26.1,51.2,52.0,0,0,0,0,1,0,0,0,1269,8865
2023/10/17 17:24:09,13.6,41.0,39.3,26.1,51.2,52.0,0,0,0,0,1,0,0,0,1269,8865
2023/10/17 17:26:04,13.6,40.9,39.1,26.1,51.1,52.0,0,0,0,0,1,0,0,0,1269,8865
2023/10/17 17:28:02,13.6,40.8,38.9,26.1,51.0,52.0,0,0,0,0,1,0,0,0,1269,8865
2023/10/17 17:29:58,13.6,40.8,38.8,26.1,51.0,52.0,0,0,0,0,1,0,0,0,1269,8865
2023/10/17 17:31:54,13.5,40.7,38.6,26.1,50.9,52.0,0,0,0,0,1,0,0,0,1269,8865
2023/10/17 17:33:49,13.5,40.6,38.4,26.1,50.8,52.0,0,0,0,0,1,0,0,0,1269,8865
2023/10/17 17:36:46,13.5,40.6,38.3,26.1,50.8,52.0,0,0,0,0,1,0,0,0,1269,8865
2023/10/17 17:38:40,13.4,40.5,38.1,26.1,50.7,52.0,0,0,0,0,1,0,0,0,1269,8865
2023/10/17 17:40:36,13.4,40.4,38.0,26.1,50.7,52.0,0,0,0,0,1,0,0,0,1269,8865
2023/10/17 17:42:32,13.3,40.4,37.8,26.1,50.6,52.0,0,0,0,0,1,0,0,0,1269,8865
2023/10/17 17:44:28,13.3,40.3,37.7,26.1,50.6,52.0,0,0,0,0,1,0,0,0,1269,8865
2023/10/17 17:46:24,13.2,40.3,37.5,26.1,50.5,52.0,0,0,0,0,1,0,0,0,1269,8865
2023/10/17 17:48:16,13.2,40.3,37.3,26.1,50.4,52.0,0,0,0,0,1,0,0,0,1269,8865
2023/10/17 17:50:12,13.2,40.2,37.2,26.1,50.4,52.0,0,0,0,0,1,0,0,0,1269,8865
2023/10/17 17:52:06,13.1,40.2,37.0,26.1,50.3,52.0,0,0,0,0,1,0,0,0,1269,8865
2023/10/17 17:54:04,13.1,40.1,36.8,26.1,50.2,52.0,0,0,0,0,1,0,0,0,1269,8865
2023/10/17 17:55:59,13.0,40.1,36.7,26.1,50.2,52.0,0,0,0,0,1,0,0,0,1269,8865
2023/10/17 17:57:55,13.0,40.0,36.5,26.1,50.1,52.0,0,0,0,0,1,0,0,0,1269,8865
2023/10/17 18:00:49,12.9,40.0,36.4,26.9,50.1,52.0,0,0,0,0,1,0,0,0,1269,8865
2023/10/17 18:02:43,12.9,39.9,36.2,26.9,50.0,52.0,0,0,0,0,1,0,0,0,1269,8865
2023/10/17 18:04:42,12.8,39.9,36.1,26.9,50.0,52.0,0,0,0,0,1,0,0,0,1269,8865
2023/10/17 18:06:38,12.8,39.8,35.9,26.9,49.9,52.0,0,0,0,0,1,0,0,0,1269,8865
2023/10/17 18:08:34,12.7,39.8,35.8,26.9,49.9,52.0,0,0,0,0,1,0,0,0,1269,8865
2023/10/17 18:10:31,12.6,39.7,35.6,26.9,49.8,52.0,0,0,0,0,1,0,0,0,1269,8865
2023/10/17 18:12:26,12.6,39.7,35.4,26.9,49.7,52.0,0,0,0,0,1,0,0,0,1269,8865
2023/10/17 18:14:19,12.5,39.6,35.3,26.9,49.7,52.0,0,0,0,0,1,0,0,0,1269,8865
2023/10/17 18:16:14,12.5,39.5,35.1,26.9,49.6,52.0,0,0,0,0,1,0,0,0,1269,8865
2023/10/17 18:18:13,12.4,39.5,35.0,26.9,49.6,52.0,0,0,0,0,1,0,0,0,1269,8865
2023/10/17 18:20:08,12.4,39.4,34.9,26.9,49.5,52.0,0,0,0,0,1,0,0,0,1269,8865
2023/10/17 18:22:04,12.3,39.3,34.8,26.9,49.4,52.0,0,0,0,0,1,0,0,0,1269,8865
2023/10/17 18:24:02,12.3,39.3,34.7,26.9,49.4,52.0,0,0,0,0,1,0,0,0,1269,8865
2023/10/17 18:25:58,12.2,39.2,34.5,26.9,49.3,52.0,0,0,0,0,1,0,0,0,1269,8865
2023/10/17 18:27:53,12.2,39.2,34.4,26.9,49.3,52.0,0,0,0,0,1,0,0,0,1269,8865
2023/10/17 18:30:47,12.1,39.1,34.3,26.9,49.2,52.0,0,0,0,0,1,0,0,0,1269,8865
2023/10/17 18:32:43,12.1,39.0,34.2,26.9,49.1,52.0,0,0,0,0,1,0,0,0,1269,8865
2023/10/17 18:34:35,12.0,38.9,34.1,26.9,49.1,52.0,0,0,0,0,1,0,0,0,1269,8865
2023/10/17 18:36:31,11.9,38.9,34.0,27.6,49.0,52.0,0,0,0,0,1,0,0,0,1269,8865
2023/10/17 18:38:30,11.9,38.8,33.9,27.6,49.0,52.0,0,0,0,0,1,0,0,0,1269,8865
2023/10/17 18:40:22,11.8,38.7,33.8,27.6,48.9,52.0,0,0,0,0,1,0,0,0,1269,8865
2023/10/17 18:42:19,11.8,38.7,33.7,27.6,48.8,52.0,0,0,0,0,1,0,0,0,1269,8865
2023/10/17 18:44:15,11.7,38.6,33.6,27.6,48.8,52.0,0,0,0,0,1,0,0,0,1269,8865
2023/10/17 18:46:09,11.7,38.5,33.5,27.6,48.7,52.0,0,0,0,0,1,0,0,0,1269,8865
2023/10/17 18:48:03,11.7,38.5,33.5,27.6,48.7,52.0,0,0,0,0,1,0,0,0,1269,8865
2023/10/17 18:49:58,11.6,38.4,33.4,27.6,48.6,52.0,0,0,0,0,1,0,0,0,1269,8865
2023/10/17 18:51:54,11.6,38.3,33.3,27.6,48.5,52.0,0,0,0,0,1,0,0,0,1269,8865
2023/10/17 18:54:46,11.5,38.3,33.2,27.6,48.5,52.0,0,0,0,0,1,0,0,0,1269,8865
2023/10/17 18:56:44,11.4,38.2,33.1,27.6,48.4,52.0,0,0,0,0,1,0,0,0,1269,8865
2023/10/17 18:58:39,11.4,38.1,33.0,27.6,48.4,52.0,0,0,0,0,1,0,0,0,1269,8865
2023/10/17 19:00:34,11.3,38.1,32.9,27.6,48.3,52.0,0,0,0,0,1,0,0,0,1269,8865
2023/10/17 19:02:31,11.3,38.0,32.9,27.6,48.2,52.0,0,0,0,0,1,0,0,0,1269,8865
2023/10/17 19:04:25,11.2,38.0,32.8,27.6,48.2,52.0,0,0,0,0,1,0,0,0,1269,8865
2023/10/17 19:06:19,11.2,37.9,32.7,27.6,48.1,52.0,0,0,0,0,1,0,0,0,1269,8865
2023/10/17 19:08:13,11.2,37.8,32.6,27.6,48.1,52.0,0,0,0,0,1,0,0,0,1269,8865
2023/10/17 19:10:08,11.1,37.8,32.5,27.6,48.0,52.0,0,0,0,0,1,0,0,0,1269,8865
2023/10/17 19:12:04,11.1,37.7,32.5,27.6,47.9,52.0,0,0,0,0,1,0,0,0,1269,8865
2023/10/17 19:14:01,11.0,37.6,32.4,27.6,47.9,52.0,0,0,0,0,1,0,0,0,1269,8865
2023/10/17 19:15:53,11.0,37.6,32.3,27.6,47.8,52.0,0,0,0,0,1,0,0,0,1269,8865
2023/10/17 19:17:50,10.9,37.5,32.2,28.5,47.8,52.0,0,0,0,0,1,0,0,0,1269,8865
2023/10/17 19:20:48,10.9,39.5,38.3,28.5,47.7,52.0,0,0,0,0,1,0,1,0,1269,8865
2023/10/17 19:22:43,10.9,40.0,39.0,28.5,47.6,52.0,0,0,0,0,1,0,1,0,1269,8865
2023/10/17 19:24:40,10.8,39.6,38.6,28.5,47.6,52.0,0,0,0,0,1,0,0,0,1269,8865
2023/10/17 19:26:37,10.8,39.4,38.3,28.5,47.5,52.0,0,0,0,0,1,0,0,0,1269,8865
2023/10/17 19:28:32,10.8,39.2,38.0,28.5,47.5,52.0,0,0,0,0,1,0,0,0,1269,8865
2023/10/17 19:30:27,10.8,39.0,37.8,28.5,47.4,52.0,0,0,0,0,1,0,0,0,1269,8865
2023/10/17 19:32:20,10.8,38.9,37.6,28.5,47.3,52.0,0,0,0,0,1,0,0,0,1269,8865
2023/10/17 19:34:15,10.7,38.7,37.5,28.5,47.3,52.0,0,0,0,0,1,0,0,0,1269,8865
2023/10/17 19:36:12,10.7,38.7,37.3,28.5,47.2,52.0,0,0,0,0,1,0,0,0,1269,8865
2023/10/17 19:38:08,10.7,38.6,37.1,28.5,47.2,52.0,0,0,0,0,1,0,0,0,1269,8865
2023/10/17 19:40:02,10.6,38.5,37.0,28.5,47.1,52.0,0,0,0,0,1,0,0,0,1269,8865
2023/10/17 19:42:02,10.6,38.4,36.8,28.5,47.0,52.0,0,0,0,0,1,0,0,0,1269,8865
2023/10/17 19:43:57,10.5,38.4,36.7,28.5,47.0,52.0,0,0,0,0,1,0,0,0,1269,8865
2023/10/17 19:45:52,10.5,38.3,36.5,28.5,46.9,52.0,0,0,0,0,1,0,0,0,1269,8865
2023/10/17 19:47:49,10.5,38.3,36.4,28.5,46.8,52.0,0,0,0,0,1,0,0,0,1269,8865
2023/10/17 19:50:47,10.5,38.2,36.2,28.5,46.8,52.0,0,0,0,0,1,0,0,0,1269,8865
2023/10/17 19:52:41,10.5,38.2,36.1,28.5,46.7,52.0,0,0,0,0,1,0,0,0,1269,8865
2023/10/17 19:54:35,10.4,38.1,36.0,28.5,46.7,52.0,0,0,0,0,1,0,0,0,1269,8865
2023/10/17 19:56:32,10.4,38.1,35.8,28.5,46.6,52.0,0,0,0,0,1,0,0,0,1269,8865
2023/10/17 19:58:27,10.4,38.1,35.7,28.5,46.5,52.0,0,0,0,0,1,0,0,0,1269,8865
2023/10/17 20:00:24,10.4,38.1,35.6,28.5,46.5,52.0,0,0,0,0,1,0,0,0,1269,8865
2023/10/17 20:02:20,10.4,38.0,35.5,28.5,46.4,52.0,0,0,0,0,1,0,0,0,1269,8865
2023/10/17 20:04:13,10.4,38.0,35.3,28.5,46.3,52.0,0,0,0,0,1,0,0,0,1269,8865
2023/10/17 20:06:04,10.4,38.0,35.2,28.5,46.3,52.0,0,0,0,0,1,0,0,0,1269,8865
2023/10/17 20:08:00,10.4,37.9,35.0,28.5,46.2,52.0,0,0,0,0,1,0,0,0,1269,8865
2023/10/17 20:09:53,10.4,37.9,34.9,28.5,46.2,52.0,0,0,0,0,1,0,0,0,1269,8865
2023/10/17 20:12:48,10.3,37.8,34.8,28.5,46.1,52.0,0,0,0,0,1,0,0,0,1269,8865
2023/10/17 20:14:43,10.3,37.8,34.7,28.5,46.0,52.0,0,0,0,0,1,0,0,0,1269,8865
2023/10/17 20:16:39,10.3,37.8,34.6,28.5,46.0,52.0,0,0,0,0,1,0,0,0,1269,8865
2023/10/17 20:18:34,10.3,37.7,34.5,28.5,45.9,52.0,0,0,0,0,1,0,0,0,1269,8865
2023/10/17 20:20:28,10.3,37.7,34.4,28.5,45.8,52.0,0,0,0,0,1,0,0,0,1269,8865
2023/10/17 20:22:22,10.2,37.6,34.3,28.5,45.7,52.0,0,0,0,0,1,0,0,0,1269,8865
2023/10/17 20:24:18,10.2,37.6,34.2,28.5,45.6,52.0,0,0,0,0,1,0,0,0,1269,8865
2023/10/17 20:26:13,10.2,37.5,34.1,28.5,45.6,52.0,0,0,0,0,1,0,0,0,1269,8865
2023/10/17 20:28:08,10.2,37.5,34.0,28.5,45.5,52.0,0,0,0,0,1,0,0,0,1269,8865
2023/10/17 20:30:04,10.2,37.4,33.9,28.5,45.4,52.0,0,0,0,0,1,0,0,0,1269,8865
2023/10/17 20:32:03,10.1,37.4,33.8,28.5,45.4,52.0,0,0,0,0,1,0,0,0,1269,8865
2023/10/17 20:34:00,10.1,37.3,33.7,28.5,45.3,52.0,0,0,0,0,1,0,0,0,1269,8865
2023/10/17 20:35:56,10.1,37.3,33.7,28.5,45.2,52.0,0,0,0,0,1,0,0,0,1269,8865
2023/10/17 20:37:53,10.1,37.2,33.6,28.5,45.2,52.0,0,0,0,0,1,0,0,0,1269,8865
2023/10/17 20:40:48,10.1,37.2,33.5,28.5,45.1,52.0,0,0,0,0,1,0,0,0,1269,8865
2023/10/17 20:42:43,10.1,37.1,33.4,28.5,45.0,52.0,0,0,0,0,1,0,0,0,1269,8865
2023/10/17 20:44:38,10.0,37.1,33.3,28.5,45.0,52.0,0,0,0,0,1,0,0,0,1269,8865
2023/10/17 20:46:36,10.0,37.0,33.2,28.5,44.9,52.0,0,0,0,0,1,0,0,0,1269,8865
2023/10/17 20:48:30,10.0,37.0,33.1,28.5,44.8,52.0,0,0,0,0,1,0,0,0,1269,8865
2023/10/17 20:50:22,10.0,36.9,33.0,28.5,44.8,52.0,0,0,0,0,1,0,0,0,1269,8865
2023/10/17 20:52:17,10.0,36.8,33.0,28.5,44.7,52.0,0,0,0,0,1,0,0,0,1269,8865
2023/10/17 20:54:12,10.0,36.8,32.9,28.5,44.6,52.0,0,0,0,0,1,0,0,0,1269,8865
2023/10/17 20:56:10,10.0,36.7,32.8,28.5,44.5,52.0,0,0,0,0,1,0,0,0,1269,8865
2023/10/17 20:58:05,10.0,36.7,32.7,28.5,44.4,52.0,0,0,0,0,1,0,0,0,1269,8865
2023/10/17 21:00:02,9.9,36.6,32.6,29.2,44.3,52.0,0,0,0,0,1,0,0,0,1269,8865
2023/10/17 21:01:55,9.9,36.5,32.6,29.2,44.1,52.0,0,0,0,0,1,0,0,0,1269,8865
2023/10/17 21:03:50,9.9,31.6,31.2,29.2,43.9,52.0,0,1,1,0,0,1,1,0,1269,8866
2023/10/17 21:06:48,9.9,36.8,32.6,29.2,42.0,52.0,0,1,1,0,0,1,1,0,1269,8867
2023/10/17 21:08:47,9.9,37.6,33.8,29.2,40.9,52.0,0,1,1,0,0,1,1,0,1269,8867
2023/10/17 21:10:43,9.9,38.7,34.5,29.2,40.3,52.0,0,1,1,0,0,1,1,0,1269,8868
2023/10/17 21:12:42,9.9,39.7,35.5,29.2,40.1,52.0,0,1,1,0,0,1,1,0,1269,8869
2023/10/17 21:14:39,9.8,40.7,36.4,29.2,40.0,52.0,0,1,1,0,0,1,1,0,1269,8870
2023/10/17 21:16:33,9.8,41.7,37.4,29.2,40.3,52.0,0,1,1,0,0,1,1,0,1269,8871
2023/10/17 21:18:30,9.8,42.6,38.2,29.2,40.8,52.0,0,1,1,0,0,1,1,0,1269,8872
2023/10/17 21:20:27,9.8,43.5,39.1,29.2,41.5,52.0,0,1,1,0,0,1,1,0,1269,8872
2023/10/17 21:22:20,9.8,44.3,39.8,29.2,42.2,52.0,0,1,1,0,0,1,1,0,1269,8873
2023/10/17 21:24:15,9.8,45.1,40.6,29.2,42.9,52.0,0,1,1,0,0,1,1,0,1269,8874
2023/10/17 21:26:13,9.8,45.9,41.4,29.2,43.4,52.0,0,1,1,0,0,1,1,0,1269,8875
2023/10/17 21:28:12,9.7,46.6,42.0,29.2,43.8,52.0,0,1,1,0,0,1,1,0,1269,8875
2023/10/17 21:30:08,9.7,47.3,42.6,29.2,44.1,52.0,0,1,1,0,0,1,1,0,1269,8876
2023/10/17 21:32:05,9.7,47.9,43.2,29.2,44.5,52.0,0,1,1,0,0,1,1,0,1269,8877
2023/10/17 21:34:01,9.7,48.4,43.7,29.2,44.8,52.0,0,1,1,0,0,1,1,0,1269,8878
2023/10/17 21:36:00,9.6,49.0,44.3,29.2,45.2,52.0,0,1,1,0,0,1,1,0,1269,8879
2023/10/17 21:37:58,9.6,49.5,44.7,29.2,45.7,52.0,0,1,1,0,0,1,1,0,1269,8879
2023/10/17 21:39:55,9.6,50.1,45.3,29.2,46.1,52.0,0,1,1,0,0,1,1,0,1269,8880
2023/10/17 21:41:51,9.6,50.7,45.9,29.2,46.6,52.0,0,1,1,0,0,1,1,0,1269,8881
2023/10/17 21:44:47,9.6,51.2,46.4,29.2,47.0,52.0,0,1,1,0,0,1,1,0,1269,8882
2023/10/17 21:46:44,9.6,51.6,46.6,29.2,47.4,52.0,0,1,1,0,0,1,1,0,1269,8882
2023/10/17 21:48:41,9.5,51.9,46.8,29.2,48.0,52.0,0,1,1,0,0,1,1,0,1269,8883
2023/10/17 21:50:37,9.5,52.2,47.1,29.2,48.5,52.0,0,1,1,0,0,1,1,0,1269,8884
2023/10/17 21:52:36,9.5,52.7,47.6,29.2,48.9,52.0,0,1,1,0,0,1,1,0,1269,8884
2023/10/17 21:54:34,9.5,53.1,48.1,29.2,49.4,52.0,0,1,1,0,0,1,1,0,1269,8885
2023/10/17 21:56:33,9.5,53.6,48.5,29.2,49.7,52.0,0,1,1,0,0,1,1,0,1269,8886
2023/10/17 21:58:29,9.5,54.1,49.0,29.2,50.2,52.0,0,1,1,0,0,1,1,0,1269,8887
2023/10/17 22:00:26,9.5,54.5,49.4,29.2,50.7,52.0,0,1,1,0,0,1,1,0,1269,8887
2023/10/17 22:02:21,9.4,54.9,49.8,29.2,51.2,52.0,0,1,1,0,0,1,1,0,1269,8888
2023/10/17 22:04:19,9.4,55.5,50.4,29.2,51.8,52.0,0,1,1,0,0,1,1,0,1269,8889
2023/10/17 22:06:18,9.4,51.4,44.6,29.2,52.4,52.0,0,0,0,0,1,0,1,0,1269,8889
2023/10/17 22:08:15,9.4,39.4,37.0,29.2,52.8,52.0,0,0,0,0,1,0,0,0,1269,8889
2023/10/17 22:10:09,9.4,38.8,36.2,29.2,53.0,52.0,0,0,0,0,1,0,0,0,1269,8889
2023/10/17 22:12:01,9.4,38.3,35.8,29.2,53.1,52.0,0,0,0,0,1,0,0,0,1269,8889
2023/10/17 22:13:58,9.4,37.9,35.4,29.2,53.1,52.0,0,0,0,0,1,0,0,0,1269,8889
2023/10/17 22:15:51,9.4,37.6,35.0,29.2,53.1,52.0,0,0,0,0,1,0,0,0,1269,8889
2023/10/17 22:17:51,9.4,37.3,34.8,29.2,53.1,52.0,0,0,0,0,1,0,0,0,1269,8889
2023/10/17 22:19:49,9.3,37.0,34.5,29.2,53.1,52.0,0,0,0,0,1,0,0,0,1269,8889
2023/10/17 22:22:47,9.3,36.9,34.3,29.2,53.1,52.0,0,0,0,0,1,0,0,0,1269,8889
2023/10/17 22:24:41,9.3,36.7,34.1,29.2,53.1,52.0,0,0,0,0,1,0,0,0,1269,8889
2023/10/17 22:26:38,9.3,36.6,34.0,29.2,53.1,52.0,0,0,0,0,1,0,0,0,1269,8889
2023/10/17 22:28:33,9.3,36.5,33.8,29.2,53.1,52.0,0,0,0,0,1,0,0,0,1269,8889
2023/10/17 22:30:24,9.3,36.4,33.7,29.2,53.1,40.0,0,0,0,0,1,0,0,0,1269,8889
2023/10/17 22:32:22,9.3,36.3,33.6,29.2,53.1,40.0,0,0,0,0,1,0,0,0,1269,8889
2023/10/17 22:34:15,9.3,36.1,33.4,29.2,53.1,40.0,0,0,0,0,1,0,0,0,1269,8889
2023/10/17 22:36:12,9.3,36.0,33.3,29.2,53.1,40.0,0,0,0,0,1,0,0,0,1269,8889
2023/10/17 22:38:08,9.3,35.9,33.1,29.2,53.0,40.0,0,0,0,0,1,0,0,0,1269,8889
2023/10/17 22:40:02,9.3,35.8,33.0,29.2,53.0,40.0,0,0,0,0,1,0,0,0,1269,8889
2023/10/17 22:41:58,9.2,35.8,32.8,29.2,53.0,40.0,0,0,0,0,1,0,0,0,1269,8889
2023/10/17 22:43:54,9.2,35.7,32.7,29.2,53.0,40.0,0,0,0,0,1,0,0,0,1269,8889
2023/10/17 22:45:51,9.2,35.6,32.5,29.2,53.0,40.0,0,0,0,0,1,0,0,0,1269,8889
2023/10/17 22:48:48,9.2,35.5,32.4,29.2,52.9,40.0,0,0,0,0,1,0,0,0,1269,8889
2023/10/17 22:50:43,9.2,35.4,32.2,29.2,52.9,40.0,0,0,0,0,1,0,0,0,1269,8889
2023/10/17 22:52:37,9.2,35.3,32.1,29.2,52.9,40.0,0,0,0,0,1,0,0,0,1269,8889
2023/10/17 22:54:33,9.2,35.3,32.0,29.2,52.9,40.0,0,0,0,0,1,0,0,0,1269,8889
2023/10/17 22:56:27,9.2,35.2,31.8,29.2,52.9,40.0,0,0,0,0,1,0,0,0,1269,8889
2023/10/17 22:58:22,9.1,35.1,31.7,29.2,52.9,40.0,0,0,0,0,1,0,0,0,1269,8889
2023/10/17 23:00:20,9.1,35.1,31.6,29.2,52.8,40.0,0,0,0,0,1,0,0,0,1269,8889
2023/10/17 23:02:15,9.1,35.0,31.5,29.2,52.8,40.0,0,0,0,0,1,0,0,0,1269,8889
2023/10/17 23:04:11,9.1,35.0,31.3,29.2,52.8,40.0,0,0,0,0,1,0,0,0,1269,8889
2023/10/17 23:06:10,9.1,34.9,31.2,29.2,52.8,40.0,0,0,0,0,1,0,0,0,1269,8889
2023/10/17 23:08:09,9.0,34.9,31.1,29.2,52.8,40.0,0,0,0,0,1,0,0,0,1269,8889
2023/10/17 23:10:05,9.0,34.9,31.0,29.2,52.8,40.0,0,0,0,0,1,0,0,0,1269,8889
2023/10/17 23:12:00,9.0,34.8,30.9,29.2,52.7,40.0,0,0,0,0,1,0,0,0,1269,8889
2023/10/17 23:13:59,9.0,34.8,30.8,29.2,52.7,40.0,0,0,0,0,1,0,0,0,1269,8889
2023/10/17 23:15:57,9.0,34.7,30.7,29.2,52.7,40.0,0,0,0,0,1,0,0,0,1269,8889
2023/10/17 23:17:52,8.9,34.7,30.6,29.2,52.7,40.0,0,0,0,0,1,0,0,0,1269,8889
2023/10/17 23:20:49,8.9,34.7,30.6,29.9,52.7,40.0,0,0,0,0,1,0,0,0,1269,8889
2023/10/17 23:22:45,8.9,34.6,30.5,29.9,52.7,40.0,0,0,0,0,1,0,0,0,1269,8889
2023/10/17 23:24:41,8.9,34.6,30.4,29.9,52.6,40.0,0,0,0,0,1,0,0,0,1269,8889
2023/10/17 23:26:38,8.9,34.6,30.3,29.9,52.6,40.0,0,0,0,0,1,0,0,0,1269,8889
2023/10/17 23:28:31,8.9,34.5,30.3,29.9,52.6,40.0,0,0,0,0,1,0,0,0,1269,8889
2023/10/17 23:30:24,8.9,34.5,30.2,29.9,52.6,40.0,0,0,0,0,1,0,0,0,1269,8889
2023/10/17 23:32:20,8.9,34.5,30.1,29.9,52.6,40.0,0,0,0,0,1,0,0,0,1269,8889
2023/10/17 23:34:12,8.8,34.4,30.1,29.9,52.5,40.0,0,0,0,0,1,0,0,0,1269,8889
2023/10/17 23:36:10,8.8,34.4,30.0,29.9,52.5,40.0,0,0,0,0,1,0,0,0,1269,8889
2023/10/17 23:38:06,8.8,34.4,29.9,29.9,52.5,40.0,0,0,0,0,1,0,0,0,1269,8889
2023/10/17 23:40:02,8.8,34.3,29.9,29.9,52.5,40.0,0,0,0,0,1,0,0,0,1269,8889
2023/10/17 23:42:00,8.8,34.3,29.8,29.9,52.5,40.0,0,0,0,0,1,0,0,0,1269,8889
2023/10/17 23:43:55,8.8,34.2,29.8,29.9,52.4,40.0,0,0,0,0,1,0,0,0,1269,8889
2023/10/17 23:46:49,8.8,34.2,29.8,29.9,52.4,40.0,0,0,0,0,1,0,0,0,1269,8889
2023/10/17 23:48:48,8.8,34.2,29.7,29.9,52.4,40.0,0,0,0,0,1,0,0,0,1269,8889
2023/10/17 23:50:43,8.8,34.1,29.7,29.9,52.4,40.0,0,0,0,0,1,0,0,0,1269,8889
2023/10/17 23:52:38,8.8,34.1,29.6,29.9,52.3,40.0,0,0,0,0,1,0,0,0,1269,8889
2023/10/17 23:54:32,8.8,34.1,29.6,29.9,52.3,40.0,0,0,0,0,1,0,0,0,1269,8889
2023/10/17 23:56:30,8.8,34.0,29.5,29.9,52.3,40.0,0,0,0,0,1,0,0,0,1269,8889
2023/10/17 23:58:23,8.8,34.0,29.5,29.9,52.3,40.0,0,0,0,0,1,0,0,0,1269,8889
