Type,Analog,Analog,Analog,Analog,Analog,Analog,Digital,Digital,Digital,Digital,Digital,Digital,Digital,Digital,Integer,Integer
Index,1,5,2,53,3,58,41,42,43,44,45,46,49,50,95,98
Name,R1,R9,R2,R2 Solltemperatur,R3,R3 Solltemperatur,M1,M3,M2/M11,E10,M13,M18,M16,E9,Waermemenge Heizen,Waermemenge Warmwasser
Description,Variable 1,Variable 2,Variable 3,Variable 4,Variable 5,Variable 6,Variable 7,Variable 8,Variable 9,Variable 10,Variable 11,Variable 12,Variable 13,Variable 14,Variable 15,Variable 16
2022/10/14 00:01:11,12.9,32.2,28.3,10.0,48.2,10.0,0,0,0,0,0,0,0,0,2865,4573
2022/10/14 00:03:08,12.9,32.1,28.3,10.0,48.2,10.0,0,0,0,0,0,0,0,0,2865,4573
2022/10/14 00:05:07,12.9,32.1,28.3,10.0,48.2,10.0,0,0,0,0,0,0,0,0,2865,4573
2022/10/14 00:07:05,12.9,32.0,28.2,10.0,48.2,10.0,0,0,0,0,0,0,0,0,2865,4573
2022/10/14 00:09:04,12.9,32.0,28.2,10.0,48.2,10.0,0,0,0,0,0,0,0,0,2865,4573
2022/10/14 00:11:04,12.9,32.0,28.2,10.0,48.2,10.0,0,0,0,0,0,0,0,0,2865,4573
2022/10/14 00:13:03,12.9,31.9,28.2,10.0,48.2,10.0,0,0,0,0,0,0,0,0,2865,4573
2022/10/14 00:16:02,12.9,31.9,28.1,10.0,48.2,10.0,0,0,0,0,0,0,0,0,2865,4573
2022/10/14 00:18:01,12.9,31.9,28.1,10.0,48.1,10.0,0,0,0,0,0,0,0,0,2865,4573
2022/10/14 00:20:00,12.9,31.8,28.1,10.0,48.1,10.0,0,0,0,0,0,0,0,0,2865,4573
2022/10/14 00:21:58,12.9,31.8,28.1,10.0,48.1,10.0,0,0,0,0,0,0,0,0,2865,4573
2022/10/14 00:23:56,12.9,31.7,28.0,10.0,48.1,10.0,0,0,0,0,0,0,0,0,2865,4573
2022/10/14 00:25:55,12.9,31.7,28.0,10.0,48.1,10.0,0,0,0,0,0,0,0,0,2865,4573
2022/10/14 00:27:53,12.9,31.7,28.0,10.0,48.1,10.0,0,0,0,0,0,0,0,0,2865,4573
2022/10/14 00:29:51,12.9,31.6,28.0,10.0,48.1,10.0,0,0,0,0,0,0,0,0,2865,4573
2022/10/14 00:31:48,12.9,31.6,27.9,10.0,48.1,10.0,0,0,0,0,0,0,0,0,2865,4573
2022/10/14 00:33:47,12.9,31.6,27.9,10.0,48.0,10.0,0,0,0,0,0,0,0,0,2865,4573
2022/10/14 00:35:46,12.9,31.5,27.9,10.0,48.0,10.0,0,0,0,0,0,0,0,0,2865,4573
2022/10/14 00:37:46,12.9,31.5,27.9,10.0,48.0,10.0,0,0,0,0,0,0,0,0,2865,4573
2022/10/14 00:39:42,12.9,31.5,27.8,10.0,48.0,10.0,0,0,0,0,0,0,0,0,2865,4573
2022/10/14 00:41:40,12.9,31.4,27.8,10.0,48.0,10.0,0,0,0,0,0,0,0,0,2865,4573
2022/10/14 00:43:40,12.9,31.4,27.8,10.0,48.0,10.0,0,0,0,0,0,0,0,0,2865,4573
2022/10/14 00:45:39,12.9,31.3,27.8,10.0,48.0,10.0,0,0,0,0,0,0,0,0,2865,4573
2022/10/14 00:47:35,12.9,31.3,27.7,10.0,48.0,10.0,0,0,0,0,0,0,0,0,2865,4573
2022/10/14 00:49:33,12.9,31.3,27.7,10.0,47.9,10.0,0,0,0,0,0,0,0,0,2865,4573
2022/10/14 00:51:32,12.9,31.2,27.7,10.0,47.9,10.0,0,0,0,0,0,0,0,0,2865,4573
2022/10/14 00:53:31,12.9,31.2,27.7,10.0,47.9,10.0,0,0,0,0,0,0,0,0,2865,4573
2022/10/14 00:55:29,12.9,31.2,27.6,10.0,47.9,10.0,0,0,0,0,0,0,0,0,2865,4573
2022/10/14 00:57:28,12.9,31.1,27.6,10.0,47.9,10.0,0,0,0,0,0,0,0,0,2865,4573
2022/10/14 00:59:25,12.9,31.1,27.6,10.0,47.9,10.0,0,0,0,0,0,0,0,0,2865,4573
2022/10/14 01:01:24,12.9,31.0,27.6,10.0,47.8,10.0,0,0,0,0,0,0,0,0,2865,4573
2022/10/14 01:03:23,12.9,31.0,27.6,10.0,47.8,10.0,0,0,0,0,0,0,0,0,2865,4573
2022/10/14 01:05:20,12.9,31.0,27.5,10.0,47.8,10.0,0,0,0,0,0,0,0,0,2865,4573
2022/10/14 01:07:19,12.9,30.9,27.5,10.0,47.8,10.0,0,0,0,0,0,0,0,0,2865,4573
2022/10/14 01:09:18,12.9,30.9,27.5,10.0,47.8,10.0,0,0,0,0,0,0,0,0,2865,4573
2022/10/14 01:11:17,12.9,30.9,27.5,10.0,47.8,10.0,0,0,0,0,0,0,0,0,2865,4573
2022/10/14 01:13:15,12.9,30.8,27.5,10.0,47.7,10.0,0,0,0,0,0,0,0,0,2865,4573
2022/10/14 01:15:15,12.9,30.8,27.4,10.0,47.7,10.0,0,0,0,0,0,0,0,0,2865,4573
2022/10/14 01:17:14,12.9,30.8,27.4,10.0,47.7,10.0,0,0,0,0,0,0,0,0,2865,4573
2022/10/14 01:19:12,12.8,30.7,27.4,10.0,47.7,10.0,0,0,0,0,0,0,0,0,2865,4573
2022/10/14 01:21:08,12.8,30.7,27.4,10.0,47.7,10.0,0,0,0,0,0,0,0,0,2865,4573
2022/10/14 01:23:07,12.8,30.7,27.3,10.0,47.6,10.0,0,0,0,0,0,0,0,0,2865,4573
2022/10/14 01:25:06,12.8,30.6,27.3,10.0,47.6,10.0,0,0,0,0,0,0,0,0,2865,4573
2022/10/14 01:28:03,12.8,30.6,27.3,10.0,47.6,10.0,0,0,0,0,0,0,0,0,2865,4573
2022/10/14 01:30:02,12.8,30.6,27.3,10.0,47.6,10.0,0,0,0,0,0,0,0,0,2865,4573
2022/10/14 01:32:01,12.8,30.5,27.3,10.0,47.6,10.0,0,0,0,0,0,0,0,0,2865,4573
2022/10/14 01:34:00,12.7,30.5,27.2,10.0,47.6,10.0,0,0,0,0,0,0,0,0,2865,4573
2022/10/14 01:35:57,12.7,30.5,27.2,10.0,47.5,10.0,0,0,0,0,0,0,0,0,2865,4573
2022/10/14 01:37:57,12.7,30.4,27.2,10.0,47.5,10.0,0,0,0,0,0,0,0,0,2865,4573
2022/10/14 01:39:55,12.7,30.4,27.2,10.0,47.5,10.0,0,0,0,0,0,0,0,0,2865,4573
2022/10/14 01:41:54,12.6,30.4,27.2,10.0,47.5,10.0,0,0,0,0,0,0,0,0,2865,4573
2022/10/14 01:43:53,12.6,30.3,27.2,10.0,47.5,10.0,0,0,0,0,0,0,0,0,2865,4573
2022/10/14 01:45:52,12.6,30.3,27.1,10.0,47.5,10.0,0,0,0,0,0,0,0,0,2865,4573
2022/10/14 01:47:51,12.6,30.3,27.1,10.0,47.4,10.0,0,0,0,0,0,0,0,0,2865,4573
2022/10/14 01:49:50,12.5,30.2,27.1,10.0,47.4,10.0,0,0,0,0,0,0,0,0,2865,4573
2022/10/14 01:51:49,12.5,30.2,27.1,10.0,47.4,10.0,0,0,0,0,0,0,0,0,2865,4573
2022/10/14 01:53:48,12.5,30.2,27.1,10.0,47.4,10.0,0,0,0,0,0,0,0,0,2865,4573
2022/10/14 01:55:47,12.5,30.2,27.0,10.0,47.4,10.0,0,0,0,0,0,0,0,0,2865,4573
2022/10/14 01:57:46,12.5,30.1,27.0,10.0,47.3,10.0,0,0,0,0,0,0,0,0,2865,4573
2022/10/14 01:59:44,12.4,30.1,27.0,10.0,47.3,10.0,0,0,0,0,0,0,0,0,2865,4573
2022/10/14 02:01:44,12.4,30.1,27.0,10.0,47.3,10.0,0,0,0,0,0,0,0,0,2865,4573
2022/10/14 02:03:42,12.4,30.0,27.0,10.0,47.3,10.0,0,0,0,0,0,0,0,0,2865,4573
2022/10/14 02:05:40,12.4,30.0,26.9,10.0,47.3,10.0,0,0,0,0,0,0,0,0,2865,4573
2022/10/14 02:07:39,12.4,30.0,26.9,10.0,47.3,10.0,0,0,0,0,0,0,0,0,2865,4573
2022/10/14 02:09:38,12.4,30.0,26.9,10.0,47.2,10.0,0,0,0,0,0,0,0,0,2865,4573
2022/10/14 02:11:37,12.4,29.9,26.9,10.0,47.2,10.0,0,0,0,0,0,0,0,0,2865,4573
2022/10/14 02:13:36,12.4,29.9,26.9,10.0,47.2,10.0,0,0,0,0,0,0,0,0,2865,4573
2022/10/14 02:15:35,12.4,29.9,26.9,10.0,47.2,10.0,0,0,0,0,0,0,0,0,2865,4573
2022/10/14 02:17:32,12.4,29.9,26.8,10.0,47.2,10.0,0,0,0,0,0,0,0,0,2865,4573
2022/10/14 02:19:31,12.5,29.8,26.8,10.0,47.2,10.0,0,0,0,0,0,0,0,0,2865,4573
2022/10/14 02:21:31,12.5,29.8,26.8,10.0,47.1,10.0,0,0,0,0,0,0,0,0,2865,4573
2022/10/14 02:23:30,12.6,29.8,26.8,10.0,47.1,10.0,0,0,0,0,0,0,0,0,2865,4573
2022/10/14 02:25:29,12.6,29.8,26.8,10.0,47.1,10.0,0,0,0,0,0,0,0,0,2865,4573
2022/10/14 02:27:28,12.6,29.7,26.8,10.0,47.1,10.0,0,0,0,0,0,0,0,0,2865,4573
2022/10/14 02:29:28,12.7,29.7,26.7,10.0,47.1,10.0,0,0,0,0,0,0,0,0,2865,4573
2022/10/14 02:31:27,12.7,29.7,26.7,10.0,47.0,10.0,0,0,0,0,0,0,0,0,2865,4573
2022/10/14 02:33:25,12.7,29.7,26.7,10.0,47.0,10.0,0,0,0,0,0,0,0,0,2865,4573
2022/10/14 02:35:24,12.8,29.6,26.7,10.0,47.0,10.0,0,0,0,0,0,0,0,0,2865,4573
2022/10/14 02:37:23,12.8,29.6,26.7,10.0,47.0,10.0,0,0,0,0,0,0,0,0,2865,4573
2022/10/14 02:39:21,12.8,29.6,26.7,10.0,47.0,10.0,0,0,0,0,0,0,0,0,2865,4573
2022/10/14 02:41:20,12.8,29.6,26.7,10.0,47.0,10.0,0,0,0,0,0,0,0,0,2865,4573
2022/10/14 02:43:19,12.8,29.5,26.6,10.0,46.9,10.0,0,0,0,0,0,0,0,0,2865,4573
2022/10/14 02:45:18,12.8,29.5,26.6,10.0,46.9,10.0,0,0,0,0,0,0,0,0,2865,4573
2022/10/14 02:47:17,12.8,29.5,26.6,10.0,46.9,10.0,0,0,0,0,0,0,0,0,2865,4573
2022/10/14 02:49:13,12.9,29.5,26.6,10.0,46.9,10.0,0,0,0,0,0,0,0,0,2865,4573
2022/10/14 02:51:11,12.9,29.4,26.6,10.0,46.9,10.0,0,0,0,0,0,0,0,0,2865,4573
2022/10/14 02:53:11,12.9,29.4,26.6,10.0,46.9,10.0,0,0,0,0,0,0,0,0,2865,4573
2022/10/14 02:55:09,12.9,29.4,26.5,10.0,46.8,10.0,0,0,0,0,0,0,0,0,2865,4573
2022/10/14 02:57:09,12.9,29.4,26.5,10.0,46.8,10.0,0,0,0,0,0,0,0,0,2865,4573
2022/10/14 02:59:08,12.9,29.4,26.5,10.0,46.8,10.0,0,0,0,0,0,0,0,0,2865,4573
2022/10/14 03:01:07,12.9,29.3,26.5,10.0,46.8,10.0,0,0,0,0,0,0,0,0,2865,4573
2022/10/14 03:03:05,12.9,29.3,26.5,10.0,46.8,10.0,0,0,0,0,0,0,0,0,2865,4573
2022/10/14 03:06:04,12.9,29.3,26.5,10.0,46.8,10.0,0,0,0,0,0,0,0,0,2865,4573
2022/10/14 03:08:03,12.9,29.3,26.5,10.0,46.7,10.0,0,0,0,0,0,0,0,0,2865,4573
2022/10/14 03:10:01,12.9,29.2,26.4,10.0,46.7,10.0,0,0,0,0,0,0,0,0,2865,4573
2022/10/14 03:12:01,12.9,29.2,26.4,10.0,46.7,10.0,0,0,0,0,0,0,0,0,2865,4573
2022/10/14 03:14:00,12.9,29.2,26.4,10.0,46.7,10.0,0,0,0,0,0,0,0,0,2865,4573
2022/10/14 03:15:58,12.9,29.2,26.4,10.0,46.7,10.0,0,0,0,0,0,0,0,0,2865,4573
2022/10/14 03:17:58,12.9,29.2,26.4,10.0,46.6,10.0,0,0,0,0,0,0,0,0,2865,4573
2022/10/14 03:19:56,12.9,29.2,26.4,10.0,46.6,10.0,0,0,0,0,0,0,0,0,2865,4573
2022/10/14 03:21:56,12.9,29.1,26.4,10.0,46.6,10.0,0,0,0,0,0,0,0,0,2865,4573
2022/10/14 03:23:52,12.9,29.1,26.4,10.0,46.6,10.0,0,0,0,0,0,0,0,0,2865,4573
2022/10/14 03:25:51,12.9,29.1,26.3,10.0,46.6,10.0,0,0,0,0,0,0,0,0,2865,4573
2022/10/14 03:27:50,12.9,29.1,26.3,10.0,46.6,10.0,0,0,0,0,0,0,0,0,2865,4573
2022/10/14 03:29:49,12.9,29.0,26.3,10.0,46.5,10.0,0,0,0,0,0,0,0,0,2865,4573
2022/10/14 03:31:48,12.9,29.0,26.3,10.0,46.5,10.0,0,0,0,0,0,0,0,0,2865,4573
2022/10/14 03:33:47,12.9,29.0,26.3,10.0,46.5,10.0,0,0,0,0,0,0,0,0,2865,4573
2022/10/14 03:35:45,12.9,29.0,26.3,10.0,46.5,10.0,0,0,0,0,0,0,0,0,2865,4573
2022/10/14 03:37:44,12.9,29.0,26.3,10.0,46.5,10.0,0,0,0,0,0,0,0,0,2865,4573
2022/10/14 03:39:43,12.9,28.9,26.3,10.0,46.5,10.0,0,0,0,0,0,0,0,0,2865,4573
2022/10/14 03:41:43,12.9,28.9,26.2,10.0,46.4,10.0,0,0,0,0,0,0,0,0,2865,4573
2022/10/14 03:43:42,12.9,28.9,26.2,10.0,46.4,10.0,0,0,0,0,0,0,0,0,2865,4573
2022/10/14 03:45:41,12.9,28.9,26.2,10.0,46.4,52.0,0,0,0,0,0,0,0,0,2865,4573
2022/10/14 03:47:39,12.8,28.9,26.2,10.0,46.4,52.0,0,0,0,0,0,0,0,0,2865,4573
2022/10/14 03:49:37,12.8,28.8,26.2,10.0,46.4,52.0,0,0,0,0,0,0,0,0,2865,4573
2022/10/14 03:51:36,12.8,28.8,26.2,10.0,46.4,52.0,0,0,0,0,0,0,0,0,2865,4573
2022/10/14 03:53:35,12.8,28.8,26.2,10.0,46.3,52.0,0,0,0,0,0,0,0,0,2865,4573
2022/10/14 03:55:35,12.8,28.8,26.1,10.0,46.3,52.0,0,0,0,0,0,0,0,0,2865,4573
2022/10/14 03:57:33,12.8,28.8,26.1,10.0,46.3,52.0,0,0,0,0,0,0,0,0,2865,4573
2022/10/14 03:59:32,12.8,28.7,26.1,10.0,46.3,52.0,0,0,0,0,0,0,0,0,2865,4573
2022/10/14 04:01:31,12.8,28.7,26.1,10.0,46.3,52.0,0,0,0,0,0,0,0,0,2865,4573
2022/10/14 04:03:30,12.8,28.7,26.1,10.0,46.2,52.0,0,0,0,0,0,0,0,0,2865,4573
2022/10/14 04:05:30,12.8,28.7,26.1,10.0,46.2,52.0,0,0,0,0,0,0,0,0,2865,4573
2022/10/14 04:07:29,12.8,28.7,26.1,10.0,46.2,52.0,0,0,0,0,0,0,0,0,2865,4573
2022/10/14 04:09:27,12.8,28.6,26.1,10.0,46.2,52.0,0,0,0,0,0,0,0,0,2865,4573
2022/10/14 04:11:25,12.8,28.6,26.1,10.0,46.2,52.0,0,0,0,0,0,0,0,0,2865,4573
2022/10/14 04:13:24,12.8,28.6,26.0,10.0,46.2,52.0,0,0,0,0,0,0,0,0,2865,4573
2022/10/14 04:15:23,12.8,28.6,26.0,10.0,46.1,52.0,0,0,0,0,0,0,0,0,2865,4573
2022/10/14 04:17:21,12.8,28.6,26.0,10.0,46.1,52.0,0,0,0,0,0,0,0,0,2865,4573
2022/10/14 04:19:19,12.8,28.6,26.0,10.0,46.1,52.0,0,0,0,0,0,0,0,0,2865,4573
2022/10/14 04:21:16,12.8,28.5,26.0,10.0,46.1,52.0,0,0,0,0,0,0,0,0,2865,4573
2022/10/14 04:23:15,12.8,28.5,26.0,10.0,46.1,52.0,0,0,0,0,0,0,0,0,2865,4573
2022/10/14 04:25:15,12.8,28.5,26.0,10.0,46.1,52.0,0,0,0,0,0,0,0,0,2865,4573
2022/10/14 04:27:12,12.8,28.5,26.0,10.0,46.0,52.0,0,0,0,0,0,0,0,0,2865,4573
2022/10/14 04:29:12,12.8,28.5,26.0,10.0,46.0,52.0,0,0,0,0,0,0,0,0,2865,4573
2022/10/14 04:31:11,12.8,28.4,25.9,10.0,46.0,52.0,0,0,0,0,0,0,0,0,2865,4573
2022/10/14 04:33:09,12.8,28.4,25.9,10.0,46.0,52.0,0,0,0,0,0,0,0,0,2865,4573
2022/10/14 04:35:05,12.8,28.4,25.9,10.0,46.0,52.0,0,0,0,0,0,0,0,0,2865,4573
2022/10/14 04:37:04,12.8,28.4,25.9,10.0,46.0,52.0,0,0,0,0,0,0,0,0,2865,4573
2022/10/14 04:39:03,12.8,28.4,25.9,10.0,45.9,52.0,0,0,0,0,0,0,0,0,2865,4573
2022/10/14 04:42:03,12.8,28.4,25.9,10.0,45.9,52.0,0,0,0,0,0,0,0,0,2865,4573
2022/10/14 04:44:02,12.8,28.3,25.9,10.0,45.9,52.0,0,0,0,0,0,0,0,0,2865,4573
2022/10/14 04:46:00,12.8,28.3,25.9,10.0,45.9,52.0,0,0,0,0,0,0,0,0,2865,4573
2022/10/14 04:47:59,12.8,28.3,25.9,10.0,45.9,52.0,0,0,0,0,0,0,0,0,2865,4573
2022/10/14 04:49:54,12.8,28.3,25.9,10.0,45.9,52.0,0,0,0,0,0,0,0,0,2865,4573
2022/10/14 04:51:53,12.8,28.3,25.8,10.0,45.8,52.0,0,0,0,0,0,0,0,0,2865,4573
2022/10/14 04:53:52,12.8,28.3,25.8,10.0,45.8,52.0,0,0,0,0,0,0,0,0,2865,4573
2022/10/14 04:55:51,12.8,28.2,25.8,10.0,45.8,52.0,0,0,0,0,0,0,0,0,2865,4573
2022/10/14 04:57:50,12.8,28.2,25.8,10.0,45.7,52.0,0,0,0,0,0,0,0,0,2865,4573
2022/10/14 04:59:49,12.8,28.2,25.8,10.0,45.7,52.0,0,0,0,0,0,0,0,0,2865,4573
2022/10/14 05:01:49,12.8,28.2,25.8,10.0,45.7,52.0,0,0,0,0,0,0,0,0,2865,4573
2022/10/14 05:03:47,12.8,28.2,25.8,10.0,45.7,52.0,0,0,0,0,0,0,0,0,2865,4573
2022/10/14 05:05:44,12.8,28.2,25.8,10.0,45.6,52.0,0,0,0,0,0,0,0,0,2865,4573
2022/10/14 05:07:42,12.8,28.1,25.8,10.0,45.6,52.0,0,0,0,0,0,0,0,0,2865,4573
2022/10/14 05:09:41,12.8,28.1,25.7,10.0,45.6,52.0,0,0,0,0,0,0,0,0,2865,4573
2022/10/14 05:11:40,12.8,28.1,25.7,10.0,45.6,52.0,0,0,0,0,0,0,0,0,2865,4573
2022/10/14 05:13:39,12.8,28.1,25.7,10.0,45.6,52.0,0,0,0,0,0,0,0,0,2865,4573
2022/10/14 05:15:36,12.8,28.1,25.7,10.0,45.6,52.0,0,0,0,0,0,0,0,0,2865,4573
2022/10/14 05:17:35,12.7,28.1,25.7,10.0,45.5,52.0,0,0,0,0,0,0,0,0,2865,4573
2022/10/14 05:19:33,12.7,28.0,25.7,10.0,45.5,52.0,0,0,0,0,0,0,0,0,2865,4573
2022/10/14 05:21:32,12.7,28.0,25.7,10.0,45.5,52.0,0,0,0,0,0,0,0,0,2865,4573
2022/10/14 05:23:31,12.7,28.0,25.7,10.0,45.5,52.0,0,0,0,0,0,0,0,0,2865,4573
2022/10/14 05:25:29,12.7,28.0,25.7,10.0,45.5,52.0,0,0,0,0,0,0,0,0,2865,4573
2022/10/14 05:27:26,12.7,28.0,25.7,10.0,45.4,52.0,0,0,0,0,0,0,0,0,2865,4573
2022/10/14 05:29:24,12.7,28.0,25.7,10.0,45.4,52.0,0,0,0,0,0,0,0,0,2865,4573
2022/10/14 05:31:22,12.7,28.0,25.6,10.0,45.0,52.0,0,0,0,0,0,0,0,0,2865,4573
2022/10/14 05:33:22,12.7,27.9,25.6,10.0,44.4,52.0,0,0,0,0,0,0,0,0,2865,4573
2022/10/14 05:35:22,12.7,27.9,25.6,10.0,44.1,52.0,0,0,0,0,0,0,0,0,2865,4573
2022/10/14 05:37:21,12.7,38.6,36.3,10.0,43.8,52.0,1,0,1,0,0,1,1,0,2865,4574
2022/10/14 05:39:20,12.7,42.7,39.6,10.0,43.5,52.0,1,0,1,0,0,1,1,0,2865,4574
2022/10/14 05:41:18,12.7,45.3,41.8,10.0,43.4,52.0,1,0,1,0,0,1,1,0,2865,4575
2022/10/14 05:43:18,12.7,46.9,43.0,10.0,43.6,52.0,1,0,1,0,0,1,1,0,2865,4576
2022/10/14 05:45:16,12.7,47.9,43.8,10.0,43.9,52.0,1,0,1,0,0,1,1,0,2865,4577
2022/10/14 05:47:15,12.7,48.7,44.4,10.0,44.4,52.0,1,0,1,0,0,1,1,0,2865,4578
2022/10/14 05:49:14,12.7,49.3,44.9,10.0,44.8,52.0,1,0,1,0,0,1,1,0,2865,4578
2022/10/14 05:51:12,12.7,49.9,45.5,10.0,45.4,52.0,1,0,1,0,0,1,1,0,2865,4579
2022/10/14 05:53:12,12.7,50.5,46.1,10.0,46.0,52.0,1,0,1,0,0,1,1,0,2865,4580
2022/10/14 05:55:10,12.7,51.1,46.6,10.0,46.6,52.0,1,0,1,0,0,1,1,0,2865,4581
2022/10/14 05:57:10,12.7,51.9,47.1,10.0,47.2,52.0,1,0,1,0,0,1,1,0,2865,4581
2022/10/14 05:59:07,12.6,52.4,47.6,10.0,47.7,52.0,1,0,1,0,0,1,1,0,2865,4582
2022/10/14 06:01:06,12.6,52.9,48.1,10.0,48.3,52.0,1,0,1,0,0,1,1,0,2865,4583
2022/10/14 06:03:05,12.6,53.3,48.5,10.0,48.9,52.0,1,0,1,0,0,1,1,0,2865,4584
2022/10/14 06:05:05,12.6,53.8,49.0,10.0,49.3,52.0,1,0,1,0,0,1,1,0,2865,4584
2022/10/14 06:07:04,12.6,54.3,49.4,10.0,49.8,52.0,1,0,1,0,0,1,1,0,2865,4585
2022/10/14 06:10:03,12.6,54.7,49.8,10.0,50.4,52.0,1,0,1,0,0,1,1,0,2865,4586
2022/10/14 06:12:02,12.6,55.1,50.2,10.0,51.2,52.0,1,0,1,0,0,1,1,0,2865,4587
2022/10/14 06:14:00,12.6,55.6,50.7,10.0,51.5,52.0,1,0,1,0,0,1,1,0,2865,4587
2022/10/14 06:16:00,12.6,55.9,51.2,10.0,52.1,52.0,0,0,1,0,0,1,1,0,2865,4588
2022/10/14 06:17:58,12.6,41.1,38.5,10.0,52.5,52.0,0,0,0,0,0,0,1,0,2865,4588
2022/10/14 06:19:57,12.6,39.8,37.8,10.0,52.7,52.0,0,0,0,0,0,0,0,0,2865,4588
2022/10/14 06:21:57,12.6,39.3,37.2,10.0,52.7,52.0,0,0,0,0,0,0,0,0,2865,4588
2022/10/14 06:23:56,12.6,38.8,36.8,10.0,52.7,52.0,0,0,0,0,0,0,0,0,2865,4588
2022/10/14 06:25:55,12.6,38.4,36.5,10.0,52.6,52.0,0,0,0,0,0,0,0,0,2865,4588
2022/10/14 06:27:54,12.6,38.1,36.2,10.0,52.5,52.0,0,0,0,0,0,0,0,0,2865,4588
2022/10/14 06:29:53,12.5,37.8,35.8,10.0,52.4,52.0,0,0,0,0,0,0,0,0,2865,4588
2022/10/14 06:31:52,12.5,37.7,35.6,10.0,52.3,52.0,0,0,0,0,0,0,0,0,2865,4588
2022/10/14 06:33:51,12.5,37.5,35.4,10.0,52.2,52.0,0,0,0,0,0,0,0,0,2865,4588
2022/10/14 06:35:50,12.5,37.4,35.1,10.0,52.1,52.0,0,0,0,0,0,0,0,0,2865,4588
2022/10/14 06:37:49,12.5,37.3,35.0,10.0,52.0,52.0,0,0,0,0,0,0,0,0,2865,4588
2022/10/14 06:39:47,12.5,37.1,34.8,10.0,52.0,52.0,0,0,0,0,0,0,0,0,2865,4588
2022/10/14 06:41:46,12.5,37.0,34.7,10.0,51.9,52.0,0,0,0,0,0,0,0,0,2865,4588
2022/10/14 06:43:45,12.5,36.9,34.6,10.0,51.8,52.0,0,0,0,0,0,0,0,0,2865,4588
2022/10/14 06:45:43,12.5,36.8,34.4,10.0,51.7,52.0,0,0,0,0,0,0,0,0,2865,4588
2022/10/14 06:47:41,12.5,36.7,34.3,10.0,51.7,52.0,0,0,0,0,0,0,0,0,2865,4588
2022/10/14 06:49:40,12.5,36.6,34.2,10.0,51.6,52.0,0,0,0,0,0,0,0,0,2865,4588
2022/10/14 06:51:39,12.5,36.5,34.1,10.0,51.5,52.0,0,0,0,0,0,0,0,0,2865,4588
2022/10/14 06:53:38,12.5,36.4,34.0,10.0,51.4,52.0,0,0,0,0,0,0,0,0,2865,4588
2022/10/14 06:55:37,12.5,36.3,33.9,10.0,51.4,52.0,0,0,0,0,0,0,0,0,2865,4588
2022/10/14 06:57:36,12.5,36.3,33.8,10.0,51.3,52.0,0,0,0,0,0,0,0,0,2865,4588
2022/10/14 06:59:35,12.5,36.2,33.7,10.0,51.2,52.0,0,0,0,0,0,0,0,0,2865,4588
2022/10/14 07:01:32,12.5,36.1,33.6,10.0,51.1,52.0,0,0,0,0,0,0,0,0,2865,4588
2022/10/14 07:03:30,12.5,36.1,33.5,10.0,51.1,52.0,0,0,0,0,0,0,0,0,2865,4588
2022/10/14 07:05:30,12.5,36.0,33.4,10.0,51.0,52.0,0,0,0,0,0,0,0,0,2865,4588
2022/10/14 07:07:29,12.5,36.0,33.3,10.0,50.9,52.0,0,0,0,0,0,0,0,0,2865,4588
2022/10/14 07:09:27,12.5,35.9,33.2,10.0,50.9,52.0,0,0,0,0,0,0,0,0,2865,4588
2022/10/14 07:11:26,12.5,35.9,33.1,10.0,50.8,52.0,0,0,0,0,0,0,0,0,2865,4588
2022/10/14 07:13:25,12.5,35.8,33.0,10.0,50.7,52.0,0,0,0,0,0,0,0,0,2865,4588
2022/10/14 07:15:25,12.5,35.8,32.9,10.0,50.6,52.0,0,0,0,0,0,0,0,0,2865,4588
2022/10/14 07:17:24,12.5,35.7,32.9,10.0,50.6,52.0,0,0,0,0,0,0,0,0,2865,4588
2022/10/14 07:19:22,12.5,35.7,32.8,10.0,50.5,52.0,0,0,0,0,0,0,0,0,2865,4588
2022/10/14 07:21:20,12.5,35.6,32.7,10.0,50.4,52.0,0,0,0,0,0,0,0,0,2865,4588
2022/10/14 07:23:20,12.5,35.6,32.6,10.0,50.4,52.0,0,0,0,0,0,0,0,0,2865,4588
2022/10/14 07:25:19,12.5,35.6,32.5,10.0,50.3,52.0,0,0,0,0,0,0,0,0,2865,4588
2022/10/14 07:27:18,12.5,35.5,32.4,10.0,50.2,52.0,0,0,0,0,0,0,0,0,2865,4588
2022/10/14 07:29:16,12.5,35.5,32.3,10.0,50.2,52.0,0,0,0,0,0,0,0,0,2865,4588
2022/10/14 07:31:15,12.5,35.4,32.2,10.0,50.1,52.0,0,0,0,0,0,0,0,0,2865,4588
2022/10/14 07:33:11,12.5,35.4,32.2,10.0,50.0,52.0,0,0,0,0,0,0,0,0,2865,4588
2022/10/14 07:35:09,12.5,35.3,32.1,10.0,50.0,52.0,0,0,0,0,0,0,0,0,2865,4588
2022/10/14 07:37:08,12.5,35.3,32.0,10.0,49.9,52.0,0,0,0,0,0,0,0,0,2865,4588
2022/10/14 07:39:06,12.5,35.2,31.9,10.0,49.8,52.0,0,0,0,0,0,0,0,0,2865,4588
2022/10/14 07:42:04,12.5,35.2,31.8,10.0,49.8,52.0,0,0,0,0,0,0,0,0,2865,4588
2022/10/14 07:44:02,12.5,35.1,31.7,10.0,49.7,52.0,0,0,0,0,0,0,0,0,2865,4588
2022/10/14 07:46:01,12.5,35.1,31.7,10.0,49.6,52.0,0,0,0,0,0,0,0,0,2865,4588
2022/10/14 07:48:00,12.5,35.0,31.6,10.0,49.6,52.0,0,0,0,0,0,0,0,0,2865,4588
2022/10/14 07:49:59,12.5,35.0,31.5,10.0,49.5,52.0,0,0,0,0,0,0,0,0,2865,4588
2022/10/14 07:51:57,12.5,34.9,31.4,10.0,49.4,52.0,0,0,0,0,0,0,0,0,2865,4588
2022/10/14 07:53:56,12.5,34.9,31.3,10.0,49.4,52.0,0,0,0,0,0,0,0,0,2865,4588
2022/10/14 07:55:56,12.5,34.8,31.3,10.0,49.3,52.0,0,0,0,0,0,0,0,0,2865,4588
2022/10/14 07:57:54,12.5,34.8,31.2,10.0,49.2,52.0,0,0,0,0,0,0,0,0,2865,4588
2022/10/14 07:59:53,12.5,34.7,31.1,10.0,49.2,52.0,0,0,0,0,0,0,0,0,2865,4588
2022/10/14 08:01:52,12.6,34.7,31.0,10.0,49.1,52.0,0,0,0,0,0,0,0,0,2865,4588
2022/10/14 08:03:50,12.6,34.7,31.0,10.0,49.0,52.0,0,0,0,0,0,0,0,0,2865,4588
2022/10/14 08:05:49,12.6,34.6,30.9,10.0,49.0,52.0,0,0,0,0,0,0,0,0,2865,4588
2022/10/14 08:07:48,12.6,34.6,30.8,10.0,48.9,52.0,0,0,0,0,0,0,0,0,2865,4588
2022/10/14 08:09:47,12.6,34.5,30.8,10.0,48.8,52.0,0,0,0,0,0,0,0,0,2865,4588
2022/10/14 08:11:46,12.6,34.5,30.7,10.0,48.7,52.0,0,0,0,0,0,0,0,0,2865,4588
2022/10/14 08:13:45,12.6,34.4,30.6,10.0,48.6,52.0,0,0,0,0,0,0,0,0,2865,4588
2022/10/14 08:15:43,12.6,34.4,30.6,10.0,48.6,52.0,0,0,0,0,0,0,0,0,2865,4588
2022/10/14 08:17:42,12.6,34.3,30.5,10.0,48.5,52.0,0,0,0,0,0,0,0,0,2865,4588
2022/10/14 08:19:41,12.6,34.3,30.4,10.0,48.5,52.0,0,0,0,0,0,0,0,0,2865,4588
2022/10/14 08:21:41,12.6,34.2,30.3,10.0,48.4,52.0,0,0,0,0,0,0,0,0,2865,4588
2022/10/14 08:23:40,12.6,34.2,30.3,10.0,48.3,52.0,0,0,0,0,0,0,0,0,2865,4588
2022/10/14 08:25:37,12.7,34.1,30.2,10.0,48.2,52.0,0,0,0,0,0,0,0,0,2865,4588
2022/10/14 08:27:35,12.7,34.1,30.2,10.0,48.2,52.0,0,0,0,0,0,0,0,0,2865,4588
2022/10/14 08:29:33,12.7,34.0,30.1,10.0,48.1,52.0,0,0,0,0,0,0,0,0,2865,4588
2022/10/14 08:31:32,12.7,34.0,30.0,10.0,48.0,52.0,0,0,0,0,0,0,0,0,2865,4588
2022/10/14 08:33:30,12.7,33.9,30.0,10.0,47.9,52.0,0,0,0,0,0,0,0,0,2865,4588
2022/10/14 08:35:30,12.7,33.9,29.9,10.0,47.9,52.0,0,0,0,0,0,0,0,0,2865,4588
2022/10/14 08:37:28,12.7,33.9,29.9,10.0,47.8,52.0,0,0,0,0,0,0,0,0,2865,4588
2022/10/14 08:39:27,12.7,33.8,29.9,10.0,47.7,52.0,0,0,0,0,0,0,0,0,2865,4588
2022/10/14 08:41:26,12.7,33.8,29.8,10.0,47.7,52.0,0,0,0,0,0,0,0,0,2865,4588
2022/10/14 08:43:25,12.7,33.7,29.8,10.0,47.6,52.0,0,0,0,0,0,0,0,0,2865,4588
2022/10/14 08:45:23,12.7,33.7,29.7,10.0,47.5,52.0,0,0,0,0,0,0,0,0,2865,4588
2022/10/14 08:47:22,12.8,33.6,29.7,10.0,47.5,52.0,0,0,0,0,0,0,0,0,2865,4588
2022/10/14 08:49:21,12.8,33.6,29.6,10.0,47.4,52.0,0,0,0,0,0,0,0,0,2865,4588
2022/10/14 08:51:20,12.8,33.5,29.6,10.0,47.3,52.0,0,0,0,0,0,0,0,0,2865,4588
2022/10/14 08:53:18,12.8,33.5,29.5,10.0,47.2,52.0,0,0,0,0,0,0,0,0,2865,4588
2022/10/14 08:55:18,12.8,33.4,29.5,10.0,47.2,52.0,0,0,0,0,0,0,0,0,2865,4588
2022/10/14 08:57:16,12.8,33.4,29.5,10.0,47.1,52.0,0,0,0,0,0,0,0,0,2865,4588
2022/10/14 08:59:15,12.9,33.3,29.4,10.0,47.0,52.0,0,0,0,0,0,0,0,0,2865,4588
2022/10/14 09:01:14,12.9,33.3,29.4,10.0,47.0,52.0,0,0,0,0,0,0,0,0,2865,4588
2022/10/14 09:03:13,12.9,33.3,29.3,10.0,46.9,52.0,0,0,0,0,0,0,0,0,2865,4588
2022/10/14 09:05:13,12.9,33.2,29.3,10.0,46.8,52.0,0,0,0,0,0,0,0,0,2865,4588
2022/10/14 09:07:12,12.9,33.2,29.3,10.0,46.8,52.0,0,0,0,0,0,0,0,0,2865,4588
2022/10/14 09:09:12,12.9,33.1,29.2,10.0,46.7,52.0,0,0,0,0,0,0,0,0,2865,4588
2022/10/14 09:11:10,13.0,33.1,29.2,10.0,46.6,52.0,0,0,0,0,0,0,0,0,2865,4588
2022/10/14 09:13:09,13.0,33.1,29.1,10.0,46.5,52.0,0,0,0,0,0,0,0,0,2865,4588
2022/10/14 09:15:07,13.0,33.0,29.1,10.0,46.5,52.0,0,0,0,0,0,0,0,0,2865,4588
2022/10/14 09:17:06,13.0,33.0,29.0,10.0,46.4,52.0,0,0,0,0,0,0,0,0,2865,4588
2022/10/14 09:19:05,13.0,32.9,28.9,10.0,46.3,52.0,0,0,0,0,0,0,0,0,2865,4588
2022/10/14 09:22:04,13.1,32.9,28.8,10.0,46.3,52.0,0,0,0,0,0,0,0,0,2865,4588
2022/10/14 09:24:03,13.1,32.8,28.8,10.0,46.2,52.0,0,0,0,0,0,0,0,0,2865,4588
2022/10/14 09:26:01,13.1,32.8,28.7,10.0,46.1,52.0,0,0,0,0,0,0,0,0,2865,4588
2022/10/14 09:28:00,13.1,32.8,28.6,10.0,46.1,52.0,0,0,0,0,0,0,0,0,2865,4588
2022/10/14 09:29:59,13.1,32.7,28.6,10.0,46.0,52.0,0,0,0,0,0,0,0,0,2865,4588
2022/10/14 09:31:57,13.2,32.7,28.5,10.0,45.9,52.0,0,0,0,0,0,0,0,0,2865,4588
2022/10/14 09:33:57,13.2,32.6,28.5,10.0,45.8,52.0,0,0,0,0,0,0,0,0,2865,4588
2022/10/14 09:35:55,13.2,32.6,28.4,10.0,45.7,52.0,0,0,0,0,0,0,0,0,2865,4588
2022/10/14 09:37:54,13.2,32.6,28.4,10.0,45.6,52.0,0,0,0,0,0,0,0,0,2865,4588
2022/10/14 09:39:53,13.2,32.5,28.4,10.0,45.6,52.0,0,0,0,0,0,0,0,0,2865,4588
2022/10/14 09:41:52,13.2,32.5,28.3,10.0,45.5,52.0,0,0,0,0,0,0,0,0,2865,4588
2022/10/14 09:43:51,13.3,32.4,28.3,10.0,45.4,52.0,0,0,0,0,0,0,0,0,2865,4588
2022/10/14 09:45:49,13.3,32.4,28.2,10.0,45.3,52.0,0,0,0,0,0,0,0,0,2865,4588
2022/10/14 09:47:47,13.3,32.3,28.2,10.0,45.3,52.0,0,0,0,0,0,0,0,0,2865,4588
2022/10/14 09:49:46,13.4,32.3,28.2,10.0,45.2,52.0,0,0,0,0,0,0,0,0,2865,4588
2022/10/14 09:51:45,13.4,32.3,28.1,10.0,45.1,52.0,0,0,0,0,0,0,0,0,2865,4588
2022/10/14 09:53:43,13.5,32.2,28.1,10.0,45.1,52.0,0,0,0,0,0,0,0,0,2865,4588
2022/10/14 09:55:42,13.5,32.2,28.1,10.0,45.0,52.0,0,0,0,0,0,0,0,0,2865,4588
2022/10/14 09:57:42,13.5,32.1,28.0,10.0,45.0,52.0,0,0,0,0,0,0,0,0,2865,4588
2022/10/14 09:59:41,13.6,32.1,28.0,10.0,44.9,52.0,0,0,0,0,0,0,0,0,2865,4588
2022/10/14 10:01:41,13.6,32.1,28.0,10.0,44.8,52.0,0,0,0,0,0,0,0,0,2865,4588
2022/10/14 10:03:39,13.6,32.0,27.9,10.0,44.8,52.0,0,0,0,0,0,0,0,0,2865,4588
2022/10/14 10:05:38,13.6,32.0,27.9,10.0,44.7,52.0,0,0,0,0,0,0,0,0,2865,4588
2022/10/14 10:07:38,13.6,31.9,27.9,10.0,44.7,52.0,0,0,0,0,0,0,0,0,2865,4588
2022/10/14 10:09:36,13.6,31.9,27.9,10.0,44.6,52.0,0,0,0,0,0,0,0,0,2865,4588
2022/10/14 10:11:35,13.6,31.9,27.8,10.0,44.6,52.0,0,0,0,0,0,0,0,0,2865,4588
2022/10/14 10:13:34,13.6,31.8,27.8,10.0,44.5,52.0,0,0,0,0,0,0,0,0,2865,4588
2022/10/14 10:15:32,13.7,31.8,27.8,10.0,44.5,52.0,0,0,0,0,0,0,0,0,2865,4588
2022/10/14 10:17:31,13.7,31.7,27.8,10.0,44.4,52.0,0,0,0,0,0,0,0,0,2865,4588
2022/10/14 10:19:29,13.7,31.7,27.7,10.0,44.3,52.0,0,0,0,0,0,0,0,0,2865,4588
2022/10/14 10:21:28,13.7,31.7,27.7,10.0,44.3,52.0,0,0,0,0,0,0,0,0,2865,4588
2022/10/14 10:23:26,13.8,31.6,27.7,10.0,44.2,52.0,0,0,0,0,0,0,0,0,2865,4588
2022/10/14 10:25:25,13.8,31.6,27.7,10.0,44.2,52.0,0,0,0,0,0,0,0,0,2865,4588
2022/10/14 10:27:25,13.9,31.6,27.6,10.0,44.1,52.0,0,0,0,0,0,0,0,0,2865,4588
2022/10/14 10:29:24,13.9,31.5,27.6,10.0,44.0,52.0,0,0,1,0,0,1,1,0,2865,4588
2022/10/14 10:31:22,13.9,39.5,36.3,10.0,43.9,52.0,0,1,1,0,0,1,1,0,2865,4588
2022/10/14 10:33:22,13.9,43.6,40.1,10.0,43.7,52.0,0,1,1,0,0,1,1,0,2865,4589
2022/10/14 10:35:20,14.0,45.6,41.9,10.0,43.7,52.0,0,1,1,0,0,1,1,0,2865,4590
2022/10/14 10:37:19,14.0,47.1,43.1,10.0,43.9,52.0,0,1,1,0,0,1,1,0,2865,4591
2022/10/14 10:39:16,14.1,48.0,43.9,10.0,44.3,52.0,0,1,1,0,0,1,1,0,2865,4592
2022/10/14 10:41:16,14.1,48.8,44.4,10.0,44.8,52.0,0,1,1,0,0,1,1,0,2865,4592
2022/10/14 10:43:14,14.2,49.5,45.0,10.0,45.2,52.0,0,1,1,0,0,1,1,0,2865,4593
2022/10/14 10:45:13,14.2,50.0,45.6,10.0,45.8,52.0,0,1,1,0,0,1,1,0,2865,4594
2022/10/14 10:47:12,14.3,50.7,46.1,10.0,46.4,52.0,0,1,1,0,0,1,1,0,2865,4595
2022/10/14 10:49:11,14.3,51.5,46.7,10.0,46.9,52.0,0,1,1,0,0,1,1,0,2865,4595
2022/10/14 10:51:09,14.3,52.0,47.1,10.0,47.5,52.0,0,1,1,0,0,1,1,0,2865,4596
2022/10/14 10:53:08,14.4,52.5,47.6,10.0,48.0,52.0,0,1,1,0,0,1,1,0,2865,4597
2022/10/14 10:55:07,14.4,53.0,48.1,10.0,48.5,52.0,0,1,1,0,0,1,1,0,2865,4598
2022/10/14 10:57:06,14.5,53.5,48.5,10.0,49.1,52.0,0,1,1,0,0,1,1,0,2865,4598
2022/10/14 10:59:05,14.5,53.9,49.0,10.0,49.5,52.0,0,1,1,0,0,1,1,0,2865,4599
2022/10/14 11:02:04,14.6,54.3,49.3,10.0,50.0,52.0,0,1,1,0,0,1,1,0,2865,4600
2022/10/14 11:04:02,14.6,54.8,49.8,10.0,50.6,52.0,0,1,1,0,0,1,1,0,2865,4601
2022/10/14 11:06:01,14.7,55.3,50.2,10.0,51.2,52.0,0,1,1,0,0,1,1,0,2865,4601
2022/10/14 11:07:59,14.8,55.8,50.7,10.0,51.7,52.0,0,1,1,0,0,1,1,0,2865,4602
2022/10/14 11:09:58,14.8,53.7,50.0,10.0,52.3,52.0,0,0,0,0,0,0,1,0,2865,4602
2022/10/14 11:11:57,14.9,40.3,38.1,10.0,52.6,52.0,0,0,0,0,0,0,0,0,2865,4602
2022/10/14 11:13:57,14.9,39.7,37.4,10.0,52.7,52.0,0,0,0,0,0,0,0,0,2865,4602
2022/10/14 11:15:55,14.9,39.2,36.9,10.0,52.7,52.0,0,0,0,0,0,0,0,0,2865,4602
2022/10/14 11:17:54,15.0,38.8,36.5,10.0,52.7,52.0,0,0,0,0,0,0,0,0,2865,4602
2022/10/14 11:19:53,15.0,38.4,36.2,10.0,52.6,52.0,0,0,0,0,0,0,0,0,2865,4602
2022/10/14 11:21:50,15.1,38.1,35.9,10.0,52.5,52.0,0,0,0,0,0,0,0,0,2865,4602
2022/10/14 11:23:48,15.1,37.9,35.6,10.0,52.4,52.0,0,0,0,0,0,0,0,0,2865,4602
2022/10/14 11:25:48,15.1,37.7,35.3,10.0,52.3,52.0,0,0,0,0,0,0,0,0,2865,4602
2022/10/14 11:27:47,15.2,37.6,35.1,10.0,52.2,52.0,0,0,0,0,0,0,0,0,2865,4602
2022/10/14 11:29:44,15.2,37.4,35.0,10.0,52.2,52.0,0,0,0,0,0,0,0,0,2865,4602
2022/10/14 11:31:43,15.3,37.3,34.8,10.0,52.1,52.0,0,0,0,0,0,0,0,0,2865,4602
2022/10/14 11:33:41,15.4,37.2,34.7,10.0,52.0,52.0,0,0,0,0,0,0,0,0,2865,4602
2022/10/14 11:35:40,15.4,37.1,34.6,10.0,51.9,52.0,0,0,0,0,0,0,0,0,2865,4602
2022/10/14 11:37:37,15.5,37.0,34.4,10.0,51.9,52.0,0,0,0,0,0,0,0,0,2865,4602
2022/10/14 11:39:36,15.6,36.9,34.3,10.0,51.8,52.0,0,0,0,0,0,0,0,0,2865,4602
2022/10/14 11:41:35,15.6,36.8,34.2,10.0,51.7,52.0,0,0,0,0,0,0,0,0,2865,4602
2022/10/14 11:43:35,15.6,36.7,34.1,10.0,51.6,52.0,0,0,0,0,0,0,0,0,2865,4602
2022/10/14 11:45:33,15.7,36.6,34.0,10.0,51.6,52.0,0,0,0,0,0,0,0,0,2865,4602
2022/10/14 11:47:32,15.7,36.5,33.9,10.0,51.5,52.0,0,0,0,0,0,0,0,0,2865,4602
2022/10/14 11:49:32,15.7,36.5,33.8,10.0,51.4,52.0,0,0,0,0,0,0,0,0,2865,4602
2022/10/14 11:51:30,15.7,36.4,33.7,10.0,51.4,52.0,0,0,0,0,0,0,0,0,2865,4602
2022/10/14 11:53:30,15.7,36.3,33.6,10.0,51.3,52.0,0,0,0,0,0,0,0,0,2865,4602
2022/10/14 11:55:29,15.7,36.3,33.5,10.0,51.2,52.0,0,0,0,0,0,0,0,0,2865,4602
2022/10/14 11:57:27,15.7,36.2,33.4,10.0,51.1,52.0,0,0,0,0,0,0,0,0,2865,4602
2022/10/14 11:59:26,15.7,36.2,33.3,10.0,51.1,52.0,0,0,0,0,0,0,0,0,2865,4602
2022/10/14 12:01:25,15.6,36.1,33.2,10.0,51.0,52.0,0,0,0,0,0,0,0,0,2865,4602
2022/10/14 12:03:24,15.6,36.0,33.1,10.0,50.9,52.0,0,0,0,0,0,0,0,0,2865,4602
2022/10/14 12:05:22,15.6,36.0,33.0,10.0,50.9,52.0,0,0,0,0,0,0,0,0,2865,4602
2022/10/14 12:07:21,15.6,35.9,32.9,10.0,50.8,52.0,0,0,0,0,0,0,0,0,2865,4602
2022/10/14 12:09:19,15.6,35.9,32.9,10.0,50.7,52.0,0,0,0,0,0,0,0,0,2865,4602
2022/10/14 12:11:17,15.6,35.9,32.8,10.0,50.7,52.0,0,0,0,0,0,0,0,0,2865,4602
2022/10/14 12:13:16,15.7,35.8,32.7,10.0,50.6,52.0,0,0,0,0,0,0,0,0,2865,4602
2022/10/14 12:15:16,15.7,35.8,32.6,10.0,50.5,52.0,0,0,0,0,0,0,0,0,2865,4602
2022/10/14 12:17:15,15.8,35.7,32.5,10.0,50.5,52.0,0,0,0,0,0,0,0,0,2865,4602
2022/10/14 12:19:14,15.8,35.7,32.4,10.0,50.4,52.0,0,0,0,0,0,0,0,0,2865,4602
2022/10/14 12:21:13,15.8,35.6,32.3,10.0,50.3,52.0,0,0,0,0,0,0,0,0,2865,4602
2022/10/14 12:23:12,15.8,35.6,32.3,10.0,50.3,52.0,0,0,0,0,0,0,0,0,2865,4602
2022/10/14 12:25:10,15.8,35.6,32.2,10.0,50.2,52.0,0,0,0,0,0,0,0,0,2865,4602
2022/10/14 12:27:08,15.8,35.5,32.1,10.0,50.1,52.0,0,0,0,0,0,0,0,0,2865,4602
2022/10/14 12:29:06,15.8,35.4,32.0,10.0,50.0,52.0,0,0,0,0,0,0,0,0,2865,4602
2022/10/14 12:31:05,15.8,35.4,31.9,10.0,50.0,52.0,0,0,0,0,0,0,0,0,2865,4602
2022/10/14 12:34:04,15.8,35.4,31.8,10.0,49.9,52.0,0,0,0,0,0,0,0,0,2865,4602
2022/10/14 12:36:03,15.8,35.3,31.8,10.0,49.8,52.0,0,0,0,0,0,0,0,0,2865,4602
2022/10/14 12:38:01,15.8,35.3,31.7,10.0,49.7,52.0,0,0,0,0,0,0,0,0,2865,4602
2022/10/14 12:40:00,15.8,35.2,31.6,10.0,49.6,52.0,0,0,0,0,0,0,0,0,2865,4602
2022/10/14 12:42:00,15.8,35.2,31.5,10.0,49.6,52.0,0,0,0,0,0,0,0,0,2865,4602
2022/10/14 12:43:59,15.8,35.1,31.4,10.0,49.5,52.0,0,0,0,0,0,0,0,0,2865,4602
2022/10/14 12:45:58,15.8,35.1,31.4,10.0,49.5,52.0,0,0,0,0,0,0,0,0,2865,4602
2022/10/14 12:47:57,15.8,35.0,31.3,10.0,49.4,52.0,0,0,0,0,0,0,0,0,2865,4602
2022/10/14 12:49:55,15.8,35.0,31.2,10.0,49.3,52.0,0,0,0,0,0,0,0,0,2865,4602
2022/10/14 12:51:53,15.8,34.9,31.1,10.0,49.2,52.0,0,0,0,0,0,0,0,0,2865,4602
2022/10/14 12:53:52,15.8,34.9,31.1,10.0,49.2,52.0,0,0,0,0,0,0,0,0,2865,4602
2022/10/14 12:55:51,15.8,34.8,31.0,10.0,49.1,52.0,0,0,0,0,0,0,0,0,2865,4602
2022/10/14 12:57:49,15.8,34.8,30.9,10.0,49.0,52.0,0,0,0,0,0,0,0,0,2865,4602
2022/10/14 12:59:48,15.9,34.7,30.9,10.0,48.9,52.0,0,0,0,0,0,0,0,0,2865,4602
2022/10/14 13:01:46,16.0,34.7,30.8,10.0,48.9,52.0,0,0,0,0,0,0,0,0,2865,4602
2022/10/14 13:03:45,16.0,34.7,30.7,10.0,48.8,52.0,0,0,0,0,0,0,0,0,2865,4602
2022/10/14 13:05:45,16.1,34.6,30.7,10.0,48.7,52.0,0,0,0,0,0,0,0,0,2865,4602
2022/10/14 13:07:43,16.1,34.6,30.6,10.0,48.6,52.0,0,0,0,0,0,0,0,0,2865,4602
2022/10/14 13:09:40,16.2,34.5,30.5,10.0,48.6,52.0,0,0,0,0,0,0,0,0,2865,4602
2022/10/14 13:11:38,16.3,34.5,30.5,10.0,48.5,52.0,0,0,0,0,0,0,0,0,2865,4602
2022/10/14 13:13:37,16.3,34.4,30.4,10.0,48.4,52.0,0,0,0,0,0,0,0,0,2865,4602
2022/10/14 13:15:35,16.3,34.4,30.3,10.0,48.4,52.0,0,0,0,0,0,0,0,0,2865,4602
2022/10/14 13:17:33,16.3,34.4,30.3,10.0,48.3,52.0,0,0,0,0,0,0,0,0,2865,4602
2022/10/14 13:19:32,16.3,34.3,30.2,10.0,48.2,52.0,0,0,0,0,0,0,0,0,2865,4602
2022/10/14 13:21:30,16.3,34.3,30.1,10.0,48.1,52.0,0,0,0,0,0,0,0,0,2865,4602
2022/10/14 13:23:29,16.3,34.2,30.1,10.0,48.1,52.0,0,0,0,0,0,0,0,0,2865,4602
2022/10/14 13:25:28,16.3,34.2,30.0,10.0,48.0,52.0,0,0,0,0,0,0,0,0,2865,4602
2022/10/14 13:27:28,16.3,34.1,30.0,10.0,47.9,52.0,0,0,0,0,0,0,0,0,2865,4602
2022/10/14 13:29:27,16.4,34.1,29.9,10.0,47.9,52.0,0,0,0,0,0,0,0,0,2865,4602
2022/10/14 13:31:25,16.5,34.0,29.9,10.0,47.8,52.0,0,0,0,0,0,0,0,0,2865,4602
2022/10/14 13:33:24,16.5,34.0,29.9,10.0,47.7,52.0,0,0,0,0,0,0,0,0,2865,4602
2022/10/14 13:35:23,16.6,34.0,29.8,10.0,47.7,52.0,0,0,0,0,0,0,0,0,2865,4602
2022/10/14 13:37:21,16.6,33.9,29.8,10.0,47.6,52.0,0,0,0,0,0,0,0,0,2865,4602
2022/10/14 13:39:19,16.7,33.9,29.7,10.0,47.5,52.0,0,0,0,0,0,0,0,0,2865,4602
2022/10/14 13:41:18,16.7,33.8,29.7,10.0,47.4,52.0,0,0,0,0,0,0,0,0,2865,4602
2022/10/14 13:43:17,16.7,33.8,29.6,10.0,47.4,52.0,0,0,0,0,0,0,0,0,2865,4602
2022/10/14 13:45:16,16.7,33.7,29.6,10.0,47.3,52.0,0,0,0,0,0,0,0,0,2865,4602
2022/10/14 13:47:14,16.7,33.7,29.5,10.0,47.2,52.0,0,0,0,0,0,0,0,0,2865,4602
2022/10/14 13:49:12,16.7,33.7,29.5,10.0,47.2,52.0,0,0,0,0,0,0,0,0,2865,4602
2022/10/14 13:51:10,16.7,33.6,29.5,10.0,47.1,52.0,0,0,0,0,0,0,0,0,2865,4602
2022/10/14 13:53:09,16.7,33.6,29.4,10.0,47.0,52.0,0,0,0,0,0,0,0,0,2865,4602
2022/10/14 13:55:07,16.7,33.5,29.4,10.0,46.9,52.0,0,0,0,0,0,0,0,0,2865,4602
2022/10/14 13:57:06,16.7,33.5,29.3,10.0,46.8,52.0,0,0,0,0,0,0,0,0,2865,4602
2022/10/14 13:59:05,16.7,33.4,29.3,10.0,46.8,52.0,0,0,0,0,0,0,0,0,2865,4602
2022/10/14 14:02:04,16.7,33.4,29.3,10.0,46.7,52.0,0,0,0,0,0,0,0,0,2865,4602
2022/10/14 14:04:03,16.8,33.3,29.2,10.0,46.7,52.0,0,0,0,0,0,0,0,0,2865,4602
2022/10/14 14:06:02,16.8,33.3,29.2,10.0,46.6,52.0,0,0,0,0,0,0,0,0,2865,4602
2022/10/14 14:08:02,16.9,33.3,29.2,10.0,46.5,52.0,0,0,0,0,0,0,0,0,2865,4602
2022/10/14 14:10:00,16.9,33.2,29.1,10.0,46.4,52.0,0,0,0,0,0,0,0,0,2865,4602
2022/10/14 14:11:58,17.0,33.2,29.1,10.0,46.4,52.0,0,0,0,0,0,0,0,0,2865,4602
2022/10/14 14:13:57,17.1,33.1,29.1,10.0,46.3,52.0,0,0,0,0,0,0,0,0,2865,4602
2022/10/14 14:15:57,17.1,33.1,29.0,10.0,46.2,52.0,0,0,0,0,0,0,0,0,2865,4602
2022/10/14 14:17:55,17.1,33.1,29.0,10.0,46.1,52.0,0,0,0,0,0,0,0,0,2865,4602
2022/10/14 14:19:54,17.2,33.0,28.9,10.0,46.1,52.0,0,0,0,0,0,0,0,0,2865,4602
2022/10/14 14:21:53,17.2,33.0,28.9,10.0,46.0,52.0,0,0,0,0,0,0,0,0,2865,4602
2022/10/14 14:23:52,17.2,32.9,28.9,10.0,45.9,52.0,0,0,0,0,0,0,0,0,2865,4602
2022/10/14 14:25:51,17.2,32.9,28.8,10.0,45.8,52.0,0,0,0,0,0,0,0,0,2865,4602
2022/10/14 14:27:50,17.2,32.9,28.8,10.0,45.7,52.0,0,0,0,0,0,0,0,0,2865,4602
2022/10/14 14:29:49,17.3,32.8,28.8,10.0,45.6,52.0,0,0,0,0,0,0,0,0,2865,4602
2022/10/14 14:31:48,17.3,32.8,28.7,10.0,45.5,52.0,0,0,0,0,0,0,0,0,2865,4602
2022/10/14 14:33:46,17.4,32.7,28.7,10.0,45.5,52.0,0,0,0,0,0,0,0,0,2865,4602
2022/10/14 14:35:45,17.4,32.7,28.7,10.0,45.4,52.0,0,0,0,0,0,0,0,0,2865,4602
2022/10/14 14:37:43,17.5,32.7,28.7,10.0,45.3,52.0,0,0,0,0,0,0,0,0,2865,4602
2022/10/14 14:39:41,17.5,32.6,28.6,10.0,45.2,52.0,0,0,0,0,0,0,0,0,2865,4602
2022/10/14 14:41:39,17.5,32.6,28.6,10.0,45.2,52.0,0,0,0,0,0,0,0,0,2865,4602
2022/10/14 14:43:38,17.5,32.5,28.6,10.0,45.1,52.0,0,0,0,0,0,0,0,0,2865,4602
2022/10/14 14:45:37,17.5,32.5,28.5,10.0,45.0,52.0,0,0,0,0,0,0,0,0,2865,4602
2022/10/14 14:47:36,17.5,32.4,28.5,10.0,45.0,52.0,0,0,0,0,0,0,0,0,2865,4602
2022/10/14 14:49:35,17.6,32.4,28.5,10.0,44.9,52.0,0,0,0,0,0,0,0,0,2865,4602
2022/10/14 14:51:35,17.6,32.4,28.4,10.0,44.9,52.0,0,0,0,0,0,0,0,0,2865,4602
2022/10/14 14:53:34,17.6,32.3,28.4,10.0,44.8,52.0,0,0,0,0,0,0,0,0,2865,4602
2022/10/14 14:55:33,17.6,32.3,28.4,10.0,44.7,52.0,0,0,0,0,0,0,0,0,2865,4602
2022/10/14 14:57:32,17.6,32.3,28.4,10.0,44.7,52.0,0,0,0,0,0,0,0,0,2865,4602
2022/10/14 14:59:30,17.6,32.2,28.3,10.0,44.6,52.0,0,0,0,0,0,0,0,0,2865,4602
2022/10/14 15:01:29,17.5,32.2,28.3,10.0,44.6,52.0,0,0,0,0,0,0,0,0,2865,4602
2022/10/14 15:03:29,17.5,32.1,28.3,10.0,44.5,52.0,0,0,0,0,0,0,0,0,2865,4602
2022/10/14 15:05:28,17.4,32.1,28.2,10.0,44.4,52.0,0,0,0,0,0,0,0,0,2865,4602
2022/10/14 15:07:28,17.4,32.1,28.2,10.0,44.4,52.0,0,0,0,0,0,0,0,0,2865,4602
2022/10/14 15:09:27,17.4,32.0,28.2,10.0,44.3,52.0,0,0,0,0,0,0,0,0,2865,4602
2022/10/14 15:11:26,17.3,32.0,28.2,10.0,44.2,52.0,0,0,0,0,0,0,0,0,2865,4602
2022/10/14 15:13:24,17.3,32.0,28.1,10.0,44.2,52.0,0,0,0,0,0,0,0,0,2865,4602
2022/10/14 15:15:23,17.2,31.9,28.1,10.0,44.1,52.0,0,0,0,0,0,0,0,0,2865,4602
2022/10/14 15:17:22,17.2,31.9,28.1,10.0,44.1,52.0,0,0,0,0,0,0,0,0,2865,4602
2022/10/14 15:19:20,17.2,34.7,34.7,10.0,44.0,52.0,1,0,1,0,0,1,1,0,2865,4602
2022/10/14 15:21:18,17.2,41.7,37.9,10.0,43.7,52.0,1,0,1,0,0,1,1,0,2865,4603
2022/10/14 15:23:18,17.1,44.0,40.4,10.0,43.6,52.0,1,0,1,0,0,1,1,0,2865,4604
2022/10/14 15:25:16,17.1,45.6,41.7,10.0,43.6,52.0,1,0,1,0,0,1,1,0,2865,4605
2022/10/14 15:27:16,17.1,46.7,42.6,10.0,43.9,52.0,1,0,1,0,0,1,1,0,2865,4606
2022/10/14 15:29:15,17.1,47.6,43.4,10.0,44.2,52.0,1,0,1,0,0,1,1,0,2865,4606
2022/10/14 15:31:14,17.1,48.3,43.9,10.0,44.7,52.0,1,0,1,0,0,1,1,0,2865,4607
2022/10/14 15:33:13,17.1,49.0,44.5,10.0,45.1,52.0,1,0,1,0,0,1,1,0,2865,4608
2022/10/14 15:35:12,17.1,49.5,44.9,10.0,45.6,52.0,1,0,1,0,0,1,1,0,2865,4609
2022/10/14 15:37:10,17.0,50.0,45.5,10.0,46.2,52.0,1,0,1,0,0,1,1,0,2865,4610
2022/10/14 15:39:09,17.0,50.6,46.0,10.0,46.7,52.0,1,0,1,0,0,1,1,0,2865,4610
2022/10/14 15:41:08,17.0,51.2,46.6,10.0,47.2,52.0,1,0,1,0,0,1,1,0,2865,4611
2022/10/14 15:43:07,17.0,51.8,47.1,10.0,47.7,52.0,1,0,1,0,0,1,1,0,2865,4612
2022/10/14 15:46:05,17.0,52.4,47.5,10.0,48.2,52.0,1,0,1,0,0,1,1,0,2865,4613
2022/10/14 15:48:04,17.0,52.9,48.1,10.0,48.6,52.0,1,0,1,0,0,1,1,0,2865,4613
2022/10/14 15:49:03,17.0,53.3,48.5,10.0,49.1,52.0,1,0,1,0,0,1,1,0,2865,4614
2022/10/14 15:52:01,17.0,53.8,49.0,10.0,49.7,52.0,1,0,1,0,0,1,1,0,2865,4615
2022/10/14 15:54:01,17.0,54.3,49.4,10.0,50.1,52.0,1,0,1,0,0,1,1,0,2865,4615
2022/10/14 15:56:01,17.0,54.7,49.8,10.0,50.7,52.0,1,0,1,0,0,1,1,0,2865,4616
2022/10/14 15:57:59,17.0,55.2,50.3,10.0,51.2,52.0,1,0,1,0,0,1,1,0,2865,4617
2022/10/14 15:59:57,17.0,55.7,50.8,10.0,51.8,52.0,1,0,1,0,0,1,1,0,2865,4618
2022/10/14 16:01:56,17.0,52.4,45.5,10.0,52.3,52.0,0,0,0,0,0,0,1,0,2865,4618
2022/10/14 16:03:56,17.0,40.4,38.4,10.0,52.6,52.0,0,0,0,0,0,0,0,0,2865,4618
2022/10/14 16:05:54,17.0,39.8,37.6,10.0,52.7,52.0,0,0,0,0,0,0,0,0,2865,4618
2022/10/14 16:07:53,17.0,39.3,37.2,10.0,52.7,52.0,0,0,0,0,0,0,0,0,2865,4618
2022/10/14 16:09:51,17.0,38.9,36.9,10.0,52.6,52.0,0,0,0,0,0,0,0,0,2865,4618
2022/10/14 16:11:48,16.9,38.6,36.5,10.0,52.5,52.0,0,0,0,0,0,0,0,0,2865,4618
2022/10/14 16:13:47,16.9,38.3,36.2,10.0,52.4,52.0,0,0,0,0,0,0,0,0,2865,4618
2022/10/14 16:15:46,16.9,38.1,35.9,10.0,52.4,52.0,0,0,0,0,0,0,0,0,2865,4618
2022/10/14 16:17:44,16.8,37.9,35.7,10.0,52.3,52.0,0,0,0,0,0,0,0,0,2865,4618
2022/10/14 16:19:41,16.8,37.8,35.5,10.0,52.2,52.0,0,0,0,0,0,0,0,0,2865,4618
2022/10/14 16:21:39,16.8,37.7,35.3,10.0,52.1,52.0,0,0,0,0,0,0,0,0,2865,4618
2022/10/14 16:23:38,16.8,37.5,35.1,10.0,52.0,52.0,0,0,0,0,0,0,0,0,2865,4618
2022/10/14 16:25:37,16.8,37.4,35.0,10.0,51.9,52.0,0,0,0,0,0,0,0,0,2865,4618
2022/10/14 16:27:36,16.8,37.3,34.9,10.0,51.9,52.0,0,0,0,0,0,0,0,0,2865,4618
2022/10/14 16:29:35,16.8,37.2,34.7,10.0,51.8,52.0,0,0,0,0,0,0,0,0,2865,4618
2022/10/14 16:31:35,16.8,37.1,34.6,10.0,51.7,52.0,0,0,0,0,0,0,0,0,2865,4618
2022/10/14 16:33:33,16.8,37.0,34.5,10.0,51.6,52.0,0,0,0,0,0,0,0,0,2865,4618
2022/10/14 16:35:31,16.8,36.9,34.4,10.0,51.6,52.0,0,0,0,0,0,0,0,0,2865,4618
2022/10/14 16:37:30,16.8,36.8,34.3,10.0,51.5,52.0,0,0,0,0,0,0,0,0,2865,4618
2022/10/14 16:39:30,16.8,36.7,34.2,10.0,51.4,52.0,0,0,0,0,0,0,0,0,2865,4618
2022/10/14 16:41:29,16.7,36.6,34.1,10.0,51.4,52.0,0,0,0,0,0,0,0,0,2865,4618
2022/10/14 16:43:28,16.7,36.6,34.0,10.0,51.3,52.0,0,0,0,0,0,0,0,0,2865,4618
2022/10/14 16:45:27,16.7,36.5,33.9,10.0,51.2,52.0,0,0,0,0,0,0,0,0,2865,4618
2022/10/14 16:47:25,16.6,36.4,33.8,10.0,51.2,52.0,0,0,0,0,0,0,0,0,2865,4618
2022/10/14 16:49:25,16.6,36.4,33.7,10.0,51.1,52.0,0,0,0,0,0,0,0,0,2865,4618
2022/10/14 16:51:23,16.5,36.3,33.6,10.0,51.0,52.0,0,0,0,0,0,0,0,0,2865,4618
2022/10/14 16:53:22,16.5,36.3,33.5,10.0,51.0,52.0,0,0,0,0,0,0,0,0,2865,4618
2022/10/14 16:55:21,16.4,36.2,33.4,10.0,50.9,52.0,0,0,0,0,0,0,0,0,2865,4618
2022/10/14 16:57:19,16.4,36.2,33.3,10.0,50.8,52.0,0,0,0,0,0,0,0,0,2865,4618
2022/10/14 16:59:18,16.4,36.1,33.2,10.0,50.8,52.0,0,0,0,0,0,0,0,0,2865,4618
2022/10/14 17:01:17,16.4,36.1,33.2,10.0,50.7,52.0,0,0,0,0,0,0,0,0,2865,4618
2022/10/14 17:03:14,16.3,36.0,33.1,10.0,50.6,52.0,0,0,0,0,0,0,0,0,2865,4618
2022/10/14 17:05:14,16.3,36.0,33.0,10.0,50.6,52.0,0,0,0,0,0,0,0,0,2865,4618
2022/10/14 17:07:12,16.3,35.9,32.9,10.0,50.5,52.0,0,0,0,0,0,0,0,0,2865,4618
2022/10/14 17:09:10,16.3,35.9,32.8,10.0,50.4,52.0,0,0,0,0,0,0,0,0,2865,4618
2022/10/14 17:11:09,16.3,35.9,32.7,10.0,50.4,52.0,0,0,0,0,0,0,0,0,2865,4618
2022/10/14 17:13:08,16.3,35.8,32.6,10.0,50.3,52.0,0,0,0,0,0,0,0,0,2865,4618
2022/10/14 17:15:06,16.2,35.8,32.5,10.0,50.2,52.0,0,0,0,0,0,0,0,0,2865,4618
2022/10/14 17:17:05,16.2,35.7,32.5,10.0,50.2,52.0,0,0,0,0,0,0,0,0,2865,4618
2022/10/14 17:20:04,16.2,35.7,32.4,10.0,50.1,52.0,0,0,0,0,0,0,0,0,2865,4618
2022/10/14 17:22:03,16.2,35.6,32.3,10.0,50.0,52.0,0,0,0,0,0,0,0,0,2865,4618
2022/10/14 17:24:01,16.2,35.6,32.2,10.0,50.0,52.0,0,0,0,0,0,0,0,0,2865,4618
2022/10/14 17:26:00,16.1,35.5,32.1,10.0,49.9,52.0,0,0,0,0,0,0,0,0,2865,4618
2022/10/14 17:27:59,16.1,35.5,32.0,10.0,49.9,52.0,0,0,0,0,0,0,0,0,2865,4618
2022/10/14 17:29:57,16.1,35.4,32.0,10.0,49.8,52.0,0,0,0,0,0,0,0,0,2865,4618
2022/10/14 17:31:56,16.1,35.4,31.9,10.0,49.8,52.0,0,0,0,0,0,0,0,0,2865,4618
2022/10/14 17:33:55,16.0,35.3,31.8,10.0,49.7,52.0,0,0,0,0,0,0,0,0,2865,4618
2022/10/14 17:35:54,16.0,35.3,31.7,10.0,49.7,52.0,0,0,0,0,0,0,0,0,2865,4618
2022/10/14 17:37:53,16.0,35.2,31.7,10.0,49.6,52.0,0,0,0,0,0,0,0,0,2865,4618
2022/10/14 17:39:51,16.0,35.2,31.6,10.0,49.6,52.0,0,0,0,0,0,0,0,0,2865,4618
2022/10/14 17:41:50,16.0,35.1,31.5,10.0,49.5,52.0,0,0,0,0,0,0,0,0,2865,4618
2022/10/14 17:43:49,15.9,35.0,31.4,10.0,49.5,52.0,0,0,0,0,0,0,0,0,2865,4618
2022/10/14 17:45:47,15.9,35.0,31.4,10.0,49.4,52.0,0,0,0,0,0,0,0,0,2865,4618
2022/10/14 17:47:44,15.9,35.0,31.3,10.0,49.4,52.0,0,0,0,0,0,0,0,0,2865,4618
2022/10/14 17:49:43,15.9,34.9,31.2,10.0,49.3,52.0,0,0,0,0,0,0,0,0,2865,4618
2022/10/14 17:51:43,15.8,34.9,31.2,10.0,49.2,52.0,0,0,0,0,0,0,0,0,2865,4618
2022/10/14 17:53:40,15.8,34.8,31.1,10.0,49.2,52.0,0,0,0,0,0,0,0,0,2865,4618
2022/10/14 17:55:40,15.8,34.8,31.0,10.0,49.1,52.0,0,0,0,0,0,0,0,0,2865,4618
2022/10/14 17:57:39,15.7,34.7,30.9,10.0,49.1,52.0,0,0,0,0,0,0,0,0,2865,4618
2022/10/14 17:59:38,15.7,34.7,30.9,10.0,49.0,52.0,0,0,0,0,0,0,0,0,2865,4618
2022/10/14 18:01:37,15.7,34.6,30.8,10.0,49.0,52.0,0,0,0,0,0,0,0,0,2865,4618
2022/10/14 18:03:36,15.6,34.6,30.7,10.0,48.9,52.0,0,0,0,0,0,0,0,0,2865,4618
2022/10/14 18:05:34,15.6,34.5,30.7,10.0,48.9,52.0,0,0,0,0,0,0,0,0,2865,4618
2022/10/14 18:07:33,15.6,34.5,30.6,10.0,48.8,52.0,0,0,0,0,0,0,0,0,2865,4618
2022/10/14 18:09:32,15.6,34.5,30.6,10.0,48.8,52.0,0,0,0,0,0,0,0,0,2865,4618
2022/10/14 18:11:32,15.5,34.4,30.5,10.0,48.7,52.0,0,0,0,0,0,0,0,0,2865,4618
2022/10/14 18:13:31,15.5,34.4,30.4,10.0,48.7,52.0,0,0,0,0,0,0,0,0,2865,4618
2022/10/14 18:15:30,15.5,34.3,30.4,10.0,48.6,52.0,0,0,0,0,0,0,0,0,2865,4618
2022/10/14 18:17:30,15.5,34.3,30.3,10.0,48.5,52.0,0,0,0,0,0,0,0,0,2865,4618
2022/10/14 18:19:29,15.4,34.2,30.3,10.0,48.5,52.0,0,0,0,0,0,0,0,0,2865,4618
2022/10/14 18:21:28,15.4,34.2,30.2,10.0,48.4,52.0,0,0,0,0,0,0,0,0,2865,4618
2022/10/14 18:23:25,15.4,34.1,30.1,10.0,48.4,52.0,0,0,0,0,0,0,0,0,2865,4618
2022/10/14 18:25:24,15.4,34.1,30.1,10.0,48.3,52.0,0,0,0,0,0,0,0,0,2865,4618
2022/10/14 18:27:22,15.3,34.0,30.0,10.0,48.3,52.0,0,0,0,0,0,0,0,0,2865,4618
2022/10/14 18:29:20,15.3,34.0,30.0,10.0,48.2,52.0,0,0,0,0,0,0,0,0,2865,4618
2022/10/14 18:31:20,15.3,33.9,30.0,10.0,48.2,52.0,0,0,0,0,0,0,0,0,2865,4618
2022/10/14 18:33:19,15.2,33.9,29.9,10.0,48.1,52.0,0,0,0,0,0,0,0,0,2865,4618
2022/10/14 18:35:18,15.2,33.9,29.9,10.0,48.1,52.0,0,0,0,0,0,0,0,0,2865,4618
2022/10/14 18:37:17,15.2,33.8,29.8,10.0,48.0,52.0,0,0,0,0,0,0,0,0,2865,4618
2022/10/14 18:39:17,15.1,33.8,29.8,10.0,48.0,52.0,0,0,0,0,0,0,0,0,2865,4618
2022/10/14 18:41:15,15.1,33.7,29.7,10.0,47.9,52.0,0,0,0,0,0,0,0,0,2865,4618
2022/10/14 18:43:14,15.1,33.7,29.7,10.0,47.9,52.0,0,0,0,0,0,0,0,0,2865,4618
2022/10/14 18:45:13,15.1,33.6,29.7,10.0,47.8,52.0,0,0,0,0,0,0,0,0,2865,4618
2022/10/14 18:47:12,15.0,33.6,29.6,10.0,47.7,52.0,0,0,0,0,0,0,0,0,2865,4618
2022/10/14 18:49:11,15.0,33.6,29.6,10.0,47.7,52.0,0,0,0,0,0,0,0,0,2865,4618
2022/10/14 18:51:11,15.0,33.5,29.5,10.0,47.6,52.0,0,0,0,0,0,0,0,0,2865,4618
2022/10/14 18:53:10,15.0,33.5,29.5,10.0,47.6,52.0,0,0,0,0,0,0,0,0,2865,4618
2022/10/14 18:55:08,15.0,33.4,29.4,10.0,47.5,52.0,0,0,0,0,0,0,0,0,2865,4618
2022/10/14 18:57:07,15.0,33.4,29.4,10.0,47.5,52.0,0,0,0,0,0,0,0,0,2865,4618
2022/10/14 19:00:05,14.9,33.3,29.4,10.0,47.4,52.0,0,0,0,0,0,0,0,0,2865,4618
2022/10/14 19:02:04,14.9,33.3,29.3,10.0,47.4,52.0,0,0,0,0,0,0,0,0,2865,4618
2022/10/14 19:04:03,14.9,33.2,29.3,10.0,47.3,52.0,0,0,0,0,0,0,0,0,2865,4618
2022/10/14 19:06:01,14.9,33.2,29.3,10.0,47.3,52.0,0,0,0,0,0,0,0,0,2865,4618
2022/10/14 19:08:00,14.9,33.2,29.2,10.0,47.2,52.0,0,0,0,0,0,0,0,0,2865,4618
2022/10/14 19:09:59,14.9,33.1,29.2,10.0,47.2,52.0,0,0,0,0,0,0,0,0,2865,4618
2022/10/14 19:11:58,14.8,33.1,29.1,10.0,47.1,52.0,0,0,0,0,0,0,0,0,2865,4618
2022/10/14 19:13:57,14.8,33.0,29.1,10.0,47.0,52.0,0,0,0,0,0,0,0,0,2865,4618
2022/10/14 19:15:56,14.8,33.0,29.1,10.0,47.0,52.0,0,0,0,0,0,0,0,0,2865,4618
2022/10/14 19:17:53,14.8,33.0,29.0,10.0,46.9,52.0,0,0,0,0,0,0,0,0,2865,4618
2022/10/14 19:19:52,14.8,32.9,29.0,10.0,46.9,52.0,0,0,0,0,0,0,0,0,2865,4618
2022/10/14 19:21:52,14.8,32.9,29.0,10.0,46.8,52.0,0,0,0,0,0,0,0,0,2865,4618
2022/10/14 19:23:51,14.8,32.8,28.9,10.0,46.8,52.0,0,0,0,0,0,0,0,0,2865,4618
2022/10/14 19:25:50,14.7,32.8,28.9,10.0,46.7,52.0,0,0,0,0,0,0,0,0,2865,4618
2022/10/14 19:27:49,14.7,32.8,28.9,10.0,46.6,52.0,0,0,0,0,0,0,0,0,2865,4618
2022/10/14 19:29:48,14.7,32.7,28.8,10.0,46.6,52.0,0,0,0,0,0,0,0,0,2865,4618
2022/10/14 19:31:47,14.7,32.7,28.8,10.0,46.5,52.0,0,0,0,0,0,0,0,0,2865,4618
2022/10/14 19:33:46,14.7,32.6,28.8,10.0,46.5,52.0,0,0,0,0,0,0,0,0,2865,4618
2022/10/14 19:35:44,14.7,32.6,28.7,10.0,46.4,52.0,0,0,0,0,0,0,0,0,2865,4618
2022/10/14 19:37:43,14.7,32.6,28.7,10.0,46.4,52.0,0,0,0,0,0,0,0,0,2865,4618
2022/10/14 19:39:41,14.7,32.5,28.7,10.0,46.3,52.0,0,0,0,0,0,0,0,0,2865,4618
2022/10/14 19:41:40,14.7,32.5,28.6,10.0,46.3,52.0,0,0,0,0,0,0,0,0,2865,4618
2022/10/14 19:43:39,14.7,32.4,28.6,10.0,46.2,52.0,0,0,0,0,0,0,0,0,2865,4618
2022/10/14 19:45:38,14.7,32.4,28.6,10.0,46.2,52.0,0,0,0,0,0,0,0,0,2865,4618
2022/10/14 19:47:36,14.7,32.3,28.5,10.0,46.1,52.0,0,0,0,0,0,0,0,0,2865,4618
2022/10/14 19:49:35,14.6,32.3,28.5,10.0,46.0,52.0,0,0,0,0,0,0,0,0,2865,4618
2022/10/14 19:51:34,14.6,32.3,28.5,10.0,46.0,52.0,0,0,0,0,0,0,0,0,2865,4618
2022/10/14 19:53:32,14.6,32.2,28.4,10.0,45.9,52.0,0,0,0,0,0,0,0,0,2865,4618
2022/10/14 19:55:31,14.6,32.2,28.4,10.0,45.9,52.0,0,0,0,0,0,0,0,0,2865,4618
2022/10/14 19:57:30,14.6,32.1,28.4,10.0,45.8,52.0,0,0,0,0,0,0,0,0,2865,4618
2022/10/14 19:59:28,14.6,32.1,28.4,10.0,45.7,52.0,0,0,0,0,0,0,0,0,2865,4618
2022/10/14 20:01:26,14.6,32.1,28.3,10.0,45.6,52.0,0,0,0,0,0,0,0,0,2865,4618
2022/10/14 20:03:23,14.6,32.0,28.3,10.0,45.6,52.0,0,0,0,0,0,0,0,0,2865,4618
2022/10/14 20:05:22,14.6,32.0,28.3,10.0,45.5,52.0,0,0,0,0,0,0,0,0,2865,4618
2022/10/14 20:07:20,14.6,31.9,28.2,10.0,45.4,52.0,0,0,0,0,0,0,0,0,2865,4618
2022/10/14 20:09:18,14.6,31.9,28.2,10.0,45.4,52.0,0,0,0,0,0,0,0,0,2865,4618
2022/10/14 20:11:17,14.6,31.9,28.2,10.0,45.3,52.0,0,0,0,0,0,0,0,0,2865,4618
2022/10/14 20:13:16,14.6,31.8,28.2,10.0,45.3,52.0,0,0,0,0,0,0,0,0,2865,4618
2022/10/14 20:15:15,14.6,31.8,28.1,10.0,45.2,52.0,0,0,0,0,0,0,0,0,2865,4618
2022/10/14 20:17:13,14.6,31.7,28.1,10.0,45.2,52.0,0,0,0,0,0,0,0,0,2865,4618
2022/10/14 20:19:10,14.6,31.7,28.1,10.0,45.1,52.0,0,0,0,0,0,0,0,0,2865,4618
2022/10/14 20:21:08,14.6,31.7,28.0,10.0,45.1,52.0,0,0,0,0,0,0,0,0,2865,4618
2022/10/14 20:23:07,14.6,31.6,28.0,10.0,45.0,52.0,0,0,0,0,0,0,0,0,2865,4618
2022/10/14 20:26:05,14.6,31.6,28.0,10.0,45.0,52.0,0,0,0,0,0,0,0,0,2865,4618
2022/10/14 20:28:04,14.6,31.6,28.0,10.0,44.9,52.0,0,0,0,0,0,0,0,0,2865,4618
2022/10/14 20:30:02,14.6,31.5,27.9,10.0,44.9,52.0,0,0,0,0,0,0,0,0,2865,4618
2022/10/14 20:32:01,14.6,31.5,27.9,10.0,44.8,52.0,0,0,0,0,0,0,0,0,2865,4618
2022/10/14 20:34:01,14.6,31.5,27.9,10.0,44.8,52.0,0,0,0,0,0,0,0,0,2865,4618
2022/10/14 20:36:00,14.6,31.4,27.9,10.0,44.7,52.0,0,0,0,0,0,0,0,0,2865,4618
2022/10/14 20:37:59,14.6,31.4,27.8,10.0,44.7,52.0,0,0,0,0,0,0,0,0,2865,4618
2022/10/14 20:39:57,14.6,31.3,27.8,10.0,44.6,52.0,0,0,0,0,0,0,0,0,2865,4618
2022/10/14 20:41:57,14.6,31.3,27.8,10.0,44.6,52.0,0,0,0,0,0,0,0,0,2865,4618
2022/10/14 20:43:55,14.6,31.3,27.8,10.0,44.5,52.0,0,0,0,0,0,0,0,0,2865,4618
2022/10/14 20:45:54,14.6,31.2,27.7,10.0,44.4,52.0,0,0,0,0,0,0,0,0,2865,4618
2022/10/14 20:47:52,14.5,31.2,27.7,10.0,44.4,52.0,0,0,0,0,0,0,0,0,2865,4618
2022/10/14 20:49:51,14.5,31.2,27.7,10.0,44.3,52.0,0,0,0,0,0,0,0,0,2865,4618
2022/10/14 20:51:50,14.5,31.1,27.7,10.0,44.3,52.0,0,0,0,0,0,0,0,0,2865,4618
2022/10/14 20:53:48,14.5,31.1,27.6,10.0,44.2,52.0,0,0,0,0,0,0,0,0,2865,4618
2022/10/14 20:55:46,14.5,31.1,27.6,10.0,44.2,52.0,0,0,0,0,0,0,0,0,2865,4618
2022/10/14 20:57:45,14.5,31.0,27.6,10.0,44.1,52.0,0,0,0,0,0,0,0,0,2865,4618
2022/10/14 20:59:44,14.5,31.0,27.6,10.0,44.1,52.0,0,0,0,0,0,0,0,0,2865,4618
2022/10/14 21:01:43,14.5,38.6,36.8,10.0,43.9,52.0,0,1,1,0,0,1,1,0,2865,4618
2022/10/14 21:03:41,14.5,42.2,38.9,10.0,43.7,52.0,0,1,1,0,0,1,1,0,2865,4619
2022/10/14 21:05:40,14.5,44.8,41.1,10.0,43.6,52.0,0,1,1,0,0,1,1,0,2865,4620
2022/10/14 21:07:39,14.4,46.3,42.4,10.0,43.7,52.0,0,1,1,0,0,1,1,0,2865,4621
2022/10/14 21:09:37,14.4,47.3,43.2,10.0,44.1,52.0,0,1,1,0,0,1,1,0,2865,4621
2022/10/14 21:11:36,14.4,48.2,43.9,10.0,44.5,52.0,0,1,1,0,0,1,1,0,2865,4622
2022/10/14 21:13:36,14.4,48.9,44.4,10.0,44.9,52.0,0,1,1,0,0,1,1,0,2865,4623
2022/10/14 21:15:34,14.4,49.5,45.0,10.0,45.4,52.0,0,1,1,0,0,1,1,0,2865,4624
2022/10/14 21:17:34,14.4,50.0,45.5,10.0,46.0,52.0,0,1,1,0,0,1,1,0,2865,4624
2022/10/14 21:19:32,14.4,50.6,46.0,10.0,46.5,52.0,0,1,1,0,0,1,1,0,2865,4625
2022/10/14 21:21:31,14.4,51.4,46.6,10.0,47.1,52.0,0,1,1,0,0,1,1,0,2865,4626
2022/10/14 21:23:31,14.4,52.0,47.1,10.0,47.6,52.0,0,1,1,0,0,1,1,0,2865,4627
2022/10/14 21:25:30,14.4,52.5,47.6,10.0,48.1,52.0,0,1,1,0,0,1,1,0,2865,4627
2022/10/14 21:27:29,14.4,53.0,48.1,10.0,48.6,52.0,0,1,1,0,0,1,1,0,2865,4628
2022/10/14 21:29:28,14.4,53.5,48.6,10.0,49.2,52.0,0,1,1,0,0,1,1,0,2865,4629
2022/10/14 21:31:26,14.4,54.0,49.0,10.0,49.6,52.0,0,1,1,0,0,1,1,0,2865,4630
2022/10/14 21:33:24,14.4,54.4,49.4,10.0,50.1,52.0,0,1,1,0,0,1,1,0,2865,4630
2022/10/14 21:35:23,14.3,54.8,49.8,10.0,50.7,52.0,0,1,1,0,0,1,1,0,2865,4631
2022/10/14 21:37:22,14.3,55.3,50.3,10.0,51.3,52.0,0,1,1,0,0,1,1,0,2865,4632
2022/10/14 21:39:21,14.3,55.9,50.8,10.0,51.8,52.0,0,1,1,0,0,1,1,0,2865,4633
2022/10/14 21:41:21,14.3,52.0,44.9,10.0,52.3,52.0,0,0,0,0,0,0,1,0,2865,4633
2022/10/14 21:43:20,14.3,40.4,38.3,10.0,52.7,52.0,0,0,0,0,0,0,0,0,2865,4633
2022/10/14 21:45:19,14.3,39.8,37.7,10.0,52.7,52.0,0,0,0,0,0,0,0,0,2865,4633
2022/10/14 21:47:18,14.3,39.3,37.3,10.0,52.7,52.0,0,0,0,0,0,0,0,0,2865,4633
2022/10/14 21:49:18,14.3,38.9,36.9,10.0,52.6,52.0,0,0,0,0,0,0,0,0,2865,4633
2022/10/14 21:51:17,14.3,38.5,36.6,10.0,52.5,52.0,0,0,0,0,0,0,0,0,2865,4633
2022/10/14 21:53:15,14.3,38.2,36.3,10.0,52.5,52.0,0,0,0,0,0,0,0,0,2865,4633
2022/10/14 21:55:14,14.3,38.0,36.0,10.0,52.4,52.0,0,0,0,0,0,0,0,0,2865,4633
2022/10/14 21:57:14,14.3,37.9,35.8,10.0,52.3,52.0,0,0,0,0,0,0,0,0,2865,4633
2022/10/14 21:59:12,14.3,37.7,35.6,10.0,52.2,10.0,0,0,0,0,0,0,0,0,2865,4633
2022/10/14 22:01:11,14.3,37.6,35.4,10.0,52.1,10.0,0,0,0,0,0,0,0,0,2865,4633
2022/10/14 22:03:08,14.3,37.5,35.2,10.0,52.1,10.0,0,0,0,0,0,0,0,0,2865,4633
2022/10/14 22:05:07,14.3,37.4,35.0,10.0,52.1,10.0,0,0,0,0,0,0,0,0,2865,4633
2022/10/14 22:07:05,14.3,37.3,34.9,10.0,52.1,10.0,0,0,0,0,0,0,0,0,2865,4633
2022/10/14 22:09:05,14.3,37.2,34.8,10.0,52.1,10.0,0,0,0,0,0,0,0,0,2865,4633
2022/10/14 22:12:05,14.3,37.1,34.7,10.0,52.1,10.0,0,0,0,0,0,0,0,0,2865,4633
2022/10/14 22:14:04,14.3,37.0,34.5,10.0,52.1,10.0,0,0,0,0,0,0,0,0,2865,4633
2022/10/14 22:16:02,14.3,36.9,34.4,10.0,52.1,10.0,0,0,0,0,0,0,0,0,2865,4633
2022/10/14 22:18:02,14.3,36.8,34.3,10.0,52.1,10.0,0,0,0,0,0,0,0,0,2865,4633
2022/10/14 22:20:00,14.3,36.7,34.2,10.0,52.1,10.0,0,0,0,0,0,0,0,0,2865,4633
2022/10/14 22:21:59,14.3,36.7,34.1,10.0,52.1,10.0,0,0,0,0,0,0,0,0,2865,4633
2022/10/14 22:23:57,14.3,36.6,34.0,10.0,52.1,10.0,0,0,0,0,0,0,0,0,2865,4633
2022/10/14 22:25:56,14.3,36.6,33.9,10.0,52.1,10.0,0,0,0,0,0,0,0,0,2865,4633
2022/10/14 22:27:55,14.3,36.5,33.8,10.0,52.0,10.0,0,0,0,0,0,0,0,0,2865,4633
2022/10/14 22:29:54,14.3,36.4,33.7,10.0,52.0,10.0,0,0,0,0,0,0,0,0,2865,4633
2022/10/14 22:31:53,14.3,36.4,33.6,10.0,52.0,10.0,0,0,0,0,0,0,0,0,2865,4633
2022/10/14 22:33:51,14.3,36.4,33.5,10.0,52.0,10.0,0,0,0,0,0,0,0,0,2865,4633
2022/10/14 22:35:50,14.3,36.3,33.4,10.0,52.0,10.0,0,0,0,0,0,0,0,0,2865,4633
2022/10/14 22:37:46,14.3,36.3,33.3,10.0,52.0,10.0,0,0,0,0,0,0,0,0,2865,4633
2022/10/14 22:39:45,14.3,36.2,33.3,10.0,52.0,10.0,0,0,0,0,0,0,0,0,2865,4633
2022/10/14 22:41:43,14.2,36.2,33.2,10.0,52.0,10.0,0,0,0,0,0,0,0,0,2865,4633
2022/10/14 22:43:42,14.2,36.1,33.1,10.0,52.0,10.0,0,0,0,0,0,0,0,0,2865,4633
2022/10/14 22:45:41,14.2,36.1,33.0,10.0,51.9,10.0,0,0,0,0,0,0,0,0,2865,4633
2022/10/14 22:47:40,14.2,36.1,32.9,10.0,51.9,10.0,0,0,0,0,0,0,0,0,2865,4633
2022/10/14 22:49:40,14.2,36.0,32.8,10.0,51.9,10.0,0,0,0,0,0,0,0,0,2865,4633
2022/10/14 22:51:39,14.2,36.0,32.7,10.0,51.9,10.0,0,0,0,0,0,0,0,0,2865,4633
2022/10/14 22:53:37,14.2,35.9,32.6,10.0,51.9,10.0,0,0,0,0,0,0,0,0,2865,4633
2022/10/14 22:55:37,14.2,35.9,32.5,10.0,51.9,10.0,0,0,0,0,0,0,0,0,2865,4633
2022/10/14 22:57:36,14.2,35.8,32.4,10.0,51.9,10.0,0,0,0,0,0,0,0,0,2865,4633
2022/10/14 22:59:35,14.2,35.8,32.3,10.0,51.9,10.0,0,0,0,0,0,0,0,0,2865,4633
2022/10/14 23:01:34,14.2,35.8,32.3,10.0,51.8,10.0,0,0,0,0,0,0,0,0,2865,4633
2022/10/14 23:03:32,14.2,35.7,32.2,10.0,51.8,10.0,0,0,0,0,0,0,0,0,2865,4633
2022/10/14 23:05:30,14.2,35.7,32.1,10.0,51.8,10.0,0,0,0,0,0,0,0,0,2865,4633
2022/10/14 23:07:29,14.2,35.6,32.0,10.0,51.8,10.0,0,0,0,0,0,0,0,0,2865,4633
2022/10/14 23:09:26,14.2,35.6,31.9,10.0,51.8,10.0,0,0,0,0,0,0,0,0,2865,4633
2022/10/14 23:11:25,14.2,35.5,31.8,10.0,51.8,10.0,0,0,0,0,0,0,0,0,2865,4633
2022/10/14 23:13:24,14.2,35.4,31.8,10.0,51.8,10.0,0,0,0,0,0,0,0,0,2865,4633
2022/10/14 23:15:23,14.2,35.4,31.7,10.0,51.8,10.0,0,0,0,0,0,0,0,0,2865,4633
2022/10/14 23:17:22,14.2,35.3,31.6,10.0,51.7,10.0,0,0,0,0,0,0,0,0,2865,4633
2022/10/14 23:19:20,14.2,35.3,31.5,10.0,51.7,10.0,0,0,0,0,0,0,0,0,2865,4633
2022/10/14 23:21:19,14.2,35.2,31.4,10.0,51.7,10.0,0,0,0,0,0,0,0,0,2865,4633
2022/10/14 23:23:19,14.2,35.1,31.4,10.0,51.7,10.0,0,0,0,0,0,0,0,0,2865,4633
2022/10/14 23:25:17,14.2,35.1,31.3,10.0,51.7,10.0,0,0,0,0,0,0,0,0,2865,4633
2022/10/14 23:27:12,14.2,35.0,31.2,10.0,51.7,10.0,0,0,0,0,0,0,0,0,2865,4633
2022/10/14 23:29:12,14.2,35.0,31.1,10.0,51.7,10.0,0,0,0,0,0,0,0,0,2865,4633
2022/10/14 23:31:10,14.2,34.9,31.1,10.0,51.7,10.0,0,0,0,0,0,0,0,0,2865,4633
2022/10/14 23:33:08,14.2,34.9,31.0,10.0,51.6,10.0,0,0,0,0,0,0,0,0,2865,4633
2022/10/14 23:35:08,14.2,34.8,30.9,10.0,51.6,10.0,0,0,0,0,0,0,0,0,2865,4633
2022/10/14 23:37:06,14.2,34.8,30.9,10.0,51.6,10.0,0,0,0,0,0,0,0,0,2865,4633
2022/10/14 23:39:05,14.2,34.7,30.8,10.0,51.6,10.0,0,0,0,0,0,0,0,0,2865,4633
2022/10/14 23:42:05,14.2,34.7,30.7,10.0,51.6,10.0,0,0,0,0,0,0,0,0,2865,4633
2022/10/14 23:44:03,14.2,34.7,30.7,10.0,51.6,10.0,0,0,0,0,0,0,0,0,2865,4633
2022/10/14 23:46:01,14.2,34.6,30.6,10.0,51.6,10.0,0,0,0,0,0,0,0,0,2865,4633
2022/10/14 23:48:00,14.2,34.6,30.5,10.0,51.6,10.0,0,0,0,0,0,0,0,0,2865,4633
2022/10/14 23:49:58,14.2,34.5,30.5,10.0,51.5,10.0,0,0,0,0,0,0,0,0,2865,4633
2022/10/14 23:51:58,14.2,34.5,30.4,10.0,51.5,10.0,0,0,0,0,0,0,0,0,2865,4633
2022/10/14 23:53:56,14.2,34.4,30.3,10.0,51.5,10.0,0,0,0,0,0,0,0,0,2865,4633
2022/10/14 23:55:55,14.2,34.4,30.3,10.0,51.5,10.0,0,0,0,0,0,0,0,0,2865,4633
2022/10/14 23:57:54,14.2,34.3,30.2,10.0,51.5,10.0,0,0,0,0,0,0,0,0,2865,4633
2022/10/14 23:59:53,14.2,34.3,30.2,10.0,51.5,10.0,0,0,0,0,0,0,0,0,2865,4633
