Type,Analog,Analog,Analog,Analog,Analog,Analog,Digital,Digital,Digital,Digital,Digital,Digital,Digital,Digital,Integer,Integer
Index,1,5,2,53,3,58,41,42,43,44,45,46,49,50,95,98
Name,R1,R9,R2,R2 Solltemperatur,R3,R3 Solltemperatur,M1,M3,M2/M11,E10,M13,M18,M16,E9,Waermemenge Heizen,Waermemenge Warmwasser
Description,Variable 1,Variable 2,Variable 3,Variable 4,Variable 5,Variable 6,Variable 7,Variable 8,Variable 9,Variable 10,Variable 11,Variable 12,Variable 13,Variable 14,Variable 15,Variable 16
2022/06/29 00:00:08,16.4,34.9,31.0,10.0,51.8,10.0,0,0,0,0,0,0,0,0,2865,8741
2022/06/29 00:02:06,16.4,34.9,30.9,10.0,51.8,10.0,0,0,0,0,0,0,0,0,2865,8741
2022/06/29 00:04:05,16.4,34.8,30.8,10.0,51.8,10.0,0,0,0,0,0,0,0,0,2865,8741
2022/06/29 00:06:03,16.4,34.8,30.8,10.0,51.7,10.0,0,0,0,0,0,0,0,0,2865,8741
2022/06/29 00:08:02,16.5,34.7,30.7,10.0,51.7,10.0,0,0,0,0,0,0,0,0,2865,8741
2022/06/29 00:10:01,16.5,34.7,30.7,10.0,51.7,10.0,0,0,0,0,0,0,0,0,2865,8741
2022/06/29 00:12:00,16.5,34.7,30.6,10.0,51.7,10.0,0,0,0,0,0,0,0,0,2865,8741
2022/06/29 00:13:59,16.5,34.6,30.6,10.0,51.7,10.0,0,0,0,0,0,0,0,0,2865,8741
2022/06/29 00:15:58,16.6,34.6,30.5,10.0,51.7,10.0,0,0,0,0,0,0,0,0,2865,8741
2022/06/29 00:17:58,16.6,34.5,30.4,10.0,51.7,10.0,0,0,0,0,0,0,0,0,2865,8741
2022/06/29 00:19:56,16.6,34.5,30.4,10.0,51.6,10.0,0,0,0,0,0,0,0,0,2865,8741
2022/06/29 00:21:53,16.7,34.4,30.3,10.0,51.6,10.0,0,0,0,0,0,0,0,0,2865,8741
2022/06/29 00:23:53,16.7,34.4,30.3,10.0,51.6,10.0,0,0,0,0,0,0,0,0,2865,8741
2022/06/29 00:25:52,16.7,34.4,30.2,10.0,51.6,10.0,0,0,0,0,0,0,0,0,2865,8741
2022/06/29 00:27:51,16.8,34.3,30.2,10.0,51.6,10.0,0,0,0,0,0,0,0,0,2865,8741
2022/06/29 00:29:51,16.8,34.3,30.1,10.0,51.6,10.0,0,0,0,0,0,0,0,0,2865,8741
2022/06/29 00:31:49,16.8,34.2,30.1,10.0,51.6,10.0,0,0,0,0,0,0,0,0,2865,8741
2022/06/29 00:33:48,16.8,34.2,30.0,10.0,51.5,10.0,0,0,0,0,0,0,0,0,2865,8741
2022/06/29 00:35:44,16.8,34.1,30.0,10.0,51.5,10.0,0,0,0,0,0,0,0,0,2865,8741
2022/06/29 00:37:43,16.8,34.1,30.0,10.0,51.5,10.0,0,0,0,0,0,0,0,0,2865,8741
2022/06/29 00:39:42,16.8,34.1,29.9,10.0,51.5,10.0,0,0,0,0,0,0,0,0,2865,8741
2022/06/29 00:41:41,16.8,34.0,29.9,10.0,51.5,10.0,0,0,0,0,0,0,0,0,2865,8741
2022/06/29 00:43:39,16.8,34.0,29.8,10.0,51.5,10.0,0,0,0,0,0,0,0,0,2865,8741
2022/06/29 00:45:38,16.8,33.9,29.8,10.0,51.4,10.0,0,0,0,0,0,0,0,0,2865,8741
2022/06/29 00:47:37,16.8,33.9,29.8,10.0,51.4,10.0,0,0,0,0,0,0,0,0,2865,8741
2022/06/29 00:49:36,16.8,33.9,29.7,10.0,51.4,10.0,0,0,0,0,0,0,0,0,2865,8741
2022/06/29 00:51:35,16.8,33.8,29.7,10.0,51.4,10.0,0,0,0,0,0,0,0,0,2865,8741
2022/06/29 00:53:33,16.8,33.8,29.6,10.0,51.4,10.0,0,0,0,0,0,0,0,0,2865,8741
2022/06/29 00:55:31,16.8,33.7,29.6,10.0,51.3,10.0,0,0,0,0,0,0,0,0,2865,8741
2022/06/29 00:57:29,16.9,33.7,29.6,10.0,51.3,10.0,0,0,0,0,0,0,0,0,2865,8741
2022/06/29 00:59:27,16.9,33.7,29.5,10.0,51.3,10.0,0,0,0,0,0,0,0,0,2865,8741
2022/06/29 01:01:27,16.9,33.6,29.5,10.0,51.3,10.0,0,0,0,0,0,0,0,0,2865,8741
2022/06/29 01:03:25,16.9,33.6,29.5,10.0,51.3,10.0,0,0,0,0,0,0,0,0,2865,8741
2022/06/29 01:05:23,16.9,33.5,29.4,10.0,51.2,10.0,0,0,0,0,0,0,0,0,2865,8741
2022/06/29 01:07:22,16.9,33.5,29.4,10.0,51.2,10.0,0,0,0,0,0,0,0,0,2865,8741
2022/06/29 01:09:21,16.9,33.5,29.3,10.0,51.2,10.0,0,0,0,0,0,0,0,0,2865,8741
2022/06/29 01:11:20,16.9,33.4,29.3,10.0,51.2,10.0,0,0,0,0,0,0,0,0,2865,8741
2022/06/29 01:13:20,16.9,33.4,29.3,10.0,51.1,10.0,0,0,0,0,0,0,0,0,2865,8741
2022/06/29 01:15:19,16.9,33.3,29.2,10.0,51.1,10.0,0,0,0,0,0,0,0,0,2865,8741
2022/06/29 01:18:18,16.9,33.3,29.2,10.0,51.1,10.0,0,0,0,0,0,0,0,0,2865,8741
2022/06/29 01:20:16,16.9,33.3,29.2,10.0,51.1,10.0,0,0,0,0,0,0,0,0,2865,8741
2022/06/29 01:22:15,16.9,33.2,29.1,10.0,51.1,10.0,0,0,0,0,0,0,0,0,2865,8741
2022/06/29 01:24:14,16.9,33.2,29.1,10.0,51.0,10.0,0,0,0,0,0,0,0,0,2865,8741
2022/06/29 01:26:13,16.9,33.1,29.1,10.0,51.0,10.0,0,0,0,0,0,0,0,0,2865,8741
2022/06/29 01:28:12,16.9,33.1,29.1,10.0,51.0,10.0,0,0,0,0,0,0,0,0,2865,8741
2022/06/29 01:30:11,16.9,33.1,29.0,10.0,51.0,10.0,0,0,0,0,0,0,0,0,2865,8741
2022/06/29 01:32:09,16.9,33.0,29.0,10.0,50.9,10.0,0,0,0,0,0,0,0,0,2865,8741
2022/06/29 01:34:08,16.9,33.0,29.0,10.0,50.9,10.0,0,0,0,0,0,0,0,0,2865,8741
2022/06/29 01:36:06,16.9,33.0,28.9,10.0,50.9,10.0,0,0,0,0,0,0,0,0,2865,8741
2022/06/29 01:38:05,16.9,32.9,28.9,10.0,50.9,10.0,0,0,0,0,0,0,0,0,2865,8741
2022/06/29 01:40:04,16.9,32.9,28.9,10.0,50.9,10.0,0,0,0,0,0,0,0,0,2865,8741
2022/06/29 01:42:03,16.9,32.8,28.9,10.0,50.8,10.0,0,0,0,0,0,0,0,0,2865,8741
2022/06/29 01:44:01,16.8,32.8,28.8,10.0,50.8,10.0,0,0,0,0,0,0,0,0,2865,8741
2022/06/29 01:46:00,16.8,32.8,28.8,10.0,50.8,10.0,0,0,0,0,0,0,0,0,2865,8741
2022/06/29 01:47:59,16.8,32.7,28.8,10.0,50.8,10.0,0,0,0,0,0,0,0,0,2865,8741
2022/06/29 01:49:58,16.7,32.7,28.7,10.0,50.7,10.0,0,0,0,0,0,0,0,0,2865,8741
2022/06/29 01:51:57,16.7,32.7,28.7,10.0,50.7,10.0,0,0,0,0,0,0,0,0,2865,8741
2022/06/29 01:53:56,16.6,32.6,28.7,10.0,50.7,10.0,0,0,0,0,0,0,0,0,2865,8741
2022/06/29 01:55:55,16.6,32.6,28.7,10.0,50.7,10.0,0,0,0,0,0,0,0,0,2865,8741
2022/06/29 01:57:54,16.6,32.6,28.6,10.0,50.7,10.0,0,0,0,0,0,0,0,0,2865,8741
2022/06/29 01:59:52,16.5,32.5,28.6,10.0,50.6,10.0,0,0,0,0,0,0,0,0,2865,8741
2022/06/29 02:01:51,16.5,32.5,28.6,10.0,50.6,10.0,0,0,0,0,0,0,0,0,2865,8741
2022/06/29 02:03:50,16.5,32.4,28.5,10.0,50.6,10.0,0,0,0,0,0,0,0,0,2865,8741
2022/06/29 02:05:48,16.4,32.4,28.5,10.0,50.6,10.0,0,0,0,0,0,0,0,0,2865,8741
2022/06/29 02:07:45,16.4,32.3,28.5,10.0,50.6,10.0,0,0,0,0,0,0,0,0,2865,8741
2022/06/29 02:09:45,16.4,32.3,28.5,10.0,50.5,10.0,0,0,0,0,0,0,0,0,2865,8741
2022/06/29 02:11:44,16.3,32.3,28.4,10.0,50.5,10.0,0,0,0,0,0,0,0,0,2865,8741
2022/06/29 02:13:43,16.3,32.2,28.4,10.0,50.5,10.0,0,0,0,0,0,0,0,0,2865,8741
2022/06/29 02:15:40,16.2,32.2,28.4,10.0,50.5,10.0,0,0,0,0,0,0,0,0,2865,8741
2022/06/29 02:17:39,16.2,32.2,28.4,10.0,50.4,10.0,0,0,0,0,0,0,0,0,2865,8741
2022/06/29 02:19:38,16.1,32.1,28.3,10.0,50.4,10.0,0,0,0,0,0,0,0,0,2865,8741
2022/06/29 02:21:37,16.1,32.1,28.3,10.0,50.4,10.0,0,0,0,0,0,0,0,0,2865,8741
2022/06/29 02:23:37,16.0,32.1,28.3,10.0,50.4,10.0,0,0,0,0,0,0,0,0,2865,8741
2022/06/29 02:25:36,16.0,32.0,28.3,10.0,50.4,10.0,0,0,0,0,0,0,0,0,2865,8741
2022/06/29 02:27:35,16.0,32.0,28.3,10.0,50.3,10.0,0,0,0,0,0,0,0,0,2865,8741
2022/06/29 02:29:34,15.9,32.0,28.2,10.0,50.3,10.0,0,0,0,0,0,0,0,0,2865,8741
2022/06/29 02:31:34,15.9,31.9,28.2,10.0,50.3,10.0,0,0,0,0,0,0,0,0,2865,8741
2022/06/29 02:33:33,15.9,31.9,28.2,10.0,50.3,10.0,0,0,0,0,0,0,0,0,2865,8741
2022/06/29 02:35:31,15.9,31.9,28.2,10.0,50.2,10.0,0,0,0,0,0,0,0,0,2865,8741
2022/06/29 02:37:30,15.9,31.8,28.1,10.0,50.2,10.0,0,0,0,0,0,0,0,0,2865,8741
2022/06/29 02:39:29,15.8,31.8,28.1,10.0,50.2,10.0,0,0,0,0,0,0,0,0,2865,8741
2022/06/29 02:41:27,15.8,31.8,28.1,10.0,50.2,10.0,0,0,0,0,0,0,0,0,2865,8741
2022/06/29 02:43:26,15.7,31.7,28.1,10.0,50.2,10.0,0,0,0,0,0,0,0,0,2865,8741
2022/06/29 02:45:25,15.7,31.7,28.0,10.0,50.1,10.0,0,0,0,0,0,0,0,0,2865,8741
2022/06/29 02:47:24,15.7,31.7,28.0,10.0,50.1,10.0,0,0,0,0,0,0,0,0,2865,8741
2022/06/29 02:49:22,15.6,31.6,28.0,10.0,50.1,10.0,0,0,0,0,0,0,0,0,2865,8741
2022/06/29 02:51:21,15.6,31.6,28.0,10.0,50.1,10.0,0,0,0,0,0,0,0,0,2865,8741
2022/06/29 02:53:20,15.6,31.6,28.0,10.0,50.0,10.0,0,0,0,0,0,0,0,0,2865,8741
2022/06/29 02:55:18,15.6,31.5,27.9,10.0,50.0,10.0,0,0,0,0,0,0,0,0,2865,8741
2022/06/29 02:58:17,15.6,31.5,27.9,10.0,50.0,10.0,0,0,0,0,0,0,0,0,2865,8741
2022/06/29 03:00:16,15.5,31.5,27.9,10.0,50.0,10.0,0,0,0,0,0,0,0,0,2865,8741
2022/06/29 03:02:15,15.5,31.4,27.9,10.0,50.0,10.0,0,0,0,0,0,0,0,0,2865,8741
2022/06/29 03:04:13,15.5,31.4,27.9,10.0,50.0,10.0,0,0,0,0,0,0,0,0,2865,8741
2022/06/29 03:06:12,15.4,31.4,27.8,10.0,49.9,10.0,0,0,0,0,0,0,0,0,2865,8741
2022/06/29 03:08:11,15.4,31.3,27.8,10.0,49.9,10.0,0,0,0,0,0,0,0,0,2865,8741
2022/06/29 03:10:10,15.4,31.3,27.8,10.0,49.9,10.0,0,0,0,0,0,0,0,0,2865,8741
2022/06/29 03:12:09,15.4,31.3,27.8,10.0,49.9,10.0,0,0,0,0,0,0,0,0,2865,8741
2022/06/29 03:14:08,15.4,31.2,27.8,10.0,49.9,10.0,0,0,0,0,0,0,0,0,2865,8741
2022/06/29 03:16:06,15.3,31.2,27.7,10.0,49.9,10.0,0,0,0,0,0,0,0,0,2865,8741
2022/06/29 03:18:05,15.3,31.2,27.7,10.0,49.8,10.0,0,0,0,0,0,0,0,0,2865,8741
2022/06/29 03:20:04,15.3,31.2,27.7,10.0,49.8,10.0,0,0,0,0,0,0,0,0,2865,8741
2022/06/29 03:22:01,15.2,31.1,27.7,10.0,49.8,10.0,0,0,0,0,0,0,0,0,2865,8741
2022/06/29 03:24:00,15.2,31.1,27.7,10.0,49.8,10.0,0,0,0,0,0,0,0,0,2865,8741
2022/06/29 03:25:59,15.2,31.1,27.6,10.0,49.8,10.0,0,0,0,0,0,0,0,0,2865,8741
2022/06/29 03:27:58,15.1,31.0,27.6,10.0,49.7,10.0,0,0,0,0,0,0,0,0,2865,8741
2022/06/29 03:29:56,15.1,31.0,27.6,10.0,49.7,10.0,0,0,0,0,0,0,0,0,2865,8741
2022/06/29 03:31:54,15.1,31.0,27.6,10.0,49.7,10.0,0,0,0,0,0,0,0,0,2865,8741
2022/06/29 03:33:53,15.1,30.9,27.6,10.0,49.7,10.0,0,0,0,0,0,0,0,0,2865,8741
2022/06/29 03:35:51,15.0,30.9,27.6,10.0,49.7,10.0,0,0,0,0,0,0,0,0,2865,8741
2022/06/29 03:37:50,15.0,30.9,27.5,10.0,49.7,10.0,0,0,0,0,0,0,0,0,2865,8741
2022/06/29 03:39:49,15.0,30.9,27.5,10.0,49.6,10.0,0,0,0,0,0,0,0,0,2865,8741
2022/06/29 03:41:48,15.0,30.8,27.5,10.0,49.6,10.0,0,0,0,0,0,0,0,0,2865,8741
2022/06/29 03:43:46,15.0,30.8,27.5,10.0,49.6,10.0,0,0,0,0,0,0,0,0,2865,8741
2022/06/29 03:45:45,15.0,30.8,27.5,10.0,49.6,52.0,0,0,0,0,0,0,0,0,2865,8741
2022/06/29 03:47:43,15.0,30.8,27.5,10.0,49.6,52.0,0,0,0,0,0,0,0,0,2865,8741
2022/06/29 03:49:42,15.0,30.7,27.4,10.0,49.5,52.0,0,0,0,0,0,0,0,0,2865,8741
2022/06/29 03:51:41,14.9,30.7,27.4,10.0,49.5,52.0,0,0,0,0,0,0,0,0,2865,8741
2022/06/29 03:53:40,14.9,30.7,27.4,10.0,49.5,52.0,0,0,0,0,0,0,0,0,2865,8741
2022/06/29 03:55:38,14.9,30.6,27.4,10.0,49.5,52.0,0,0,0,0,0,0,0,0,2865,8741
2022/06/29 03:57:37,14.9,30.6,27.4,10.0,49.5,52.0,0,0,0,0,0,0,0,0,2865,8741
2022/06/29 03:59:35,14.9,30.6,27.3,10.0,49.5,52.0,0,0,0,0,0,0,0,0,2865,8741
2022/06/29 04:01:33,14.9,30.5,27.3,10.0,49.4,52.0,0,0,0,0,0,0,0,0,2865,8741
2022/06/29 04:03:32,14.9,30.5,27.3,10.0,49.4,52.0,0,0,0,0,0,0,0,0,2865,8741
2022/06/29 04:05:30,14.8,30.5,27.3,10.0,49.4,52.0,0,0,0,0,0,0,0,0,2865,8741
2022/06/29 04:07:29,14.8,30.5,27.3,10.0,49.4,52.0,0,0,0,0,0,0,0,0,2865,8741
2022/06/29 04:09:27,14.8,30.4,27.3,10.0,49.4,52.0,0,0,0,0,0,0,0,0,2865,8741
2022/06/29 04:11:27,14.8,30.4,27.3,10.0,49.4,52.0,0,0,0,0,0,0,0,0,2865,8741
2022/06/29 04:13:26,14.8,30.4,27.2,10.0,49.3,52.0,0,0,0,0,0,0,0,0,2865,8741
2022/06/29 04:15:26,14.8,30.3,27.2,10.0,49.3,52.0,0,0,0,0,0,0,0,0,2865,8741
2022/06/29 04:17:25,14.8,30.3,27.2,10.0,49.3,52.0,0,0,0,0,0,0,0,0,2865,8741
2022/06/29 04:19:24,14.7,30.3,27.2,10.0,49.3,52.0,0,0,0,0,0,0,0,0,2865,8741
2022/06/29 04:21:23,14.7,30.3,27.2,10.0,49.3,52.0,0,0,0,0,0,0,0,0,2865,8741
2022/06/29 04:23:21,14.7,30.2,27.2,10.0,49.2,52.0,0,0,0,0,0,0,0,0,2865,8741
2022/06/29 04:25:20,14.7,30.2,27.1,10.0,49.2,52.0,0,0,0,0,0,0,0,0,2865,8741
2022/06/29 04:27:20,14.7,30.2,27.1,10.0,49.2,52.0,0,0,0,0,0,0,0,0,2865,8741
2022/06/29 04:29:18,14.7,30.2,27.1,10.0,49.2,52.0,0,0,0,0,0,0,0,0,2865,8741
2022/06/29 04:32:17,14.7,30.1,27.1,10.0,49.2,52.0,0,0,0,0,0,0,0,0,2865,8741
2022/06/29 04:34:16,14.7,30.1,27.1,10.0,49.2,52.0,0,0,0,0,0,0,0,0,2865,8741
2022/06/29 04:36:15,14.7,30.1,27.1,10.0,49.1,52.0,0,0,0,0,0,0,0,0,2865,8741
2022/06/29 04:38:14,14.7,30.1,27.0,10.0,49.1,52.0,0,0,0,0,0,0,0,0,2865,8741
2022/06/29 04:40:13,14.7,30.0,27.0,10.0,49.1,52.0,0,0,0,0,0,0,0,0,2865,8741
2022/06/29 04:42:12,14.7,30.0,27.0,10.0,49.1,52.0,0,0,0,0,0,0,0,0,2865,8741
2022/06/29 04:44:09,14.7,30.0,27.0,10.0,49.1,52.0,0,0,0,0,0,0,0,0,2865,8741
2022/06/29 04:46:07,14.7,30.0,27.0,10.0,49.0,52.0,0,0,0,0,0,0,0,0,2865,8741
2022/06/29 04:48:06,14.7,30.0,27.0,10.0,49.0,52.0,0,0,0,0,0,0,0,0,2865,8741
2022/06/29 04:50:05,14.7,29.9,27.0,10.0,49.0,52.0,0,0,0,0,0,0,0,0,2865,8741
2022/06/29 04:52:04,14.7,29.9,26.9,10.0,49.0,52.0,0,0,0,0,0,0,0,0,2865,8741
2022/06/29 04:54:02,14.7,29.9,26.9,10.0,49.0,52.0,0,0,0,0,0,0,0,0,2865,8741
2022/06/29 04:56:00,14.7,29.9,26.9,10.0,49.0,52.0,0,0,0,0,0,0,0,0,2865,8741
2022/06/29 04:58:00,14.7,29.9,26.9,10.0,48.9,52.0,0,0,0,0,0,0,0,0,2865,8741
2022/06/29 04:59:59,14.7,29.8,26.9,10.0,48.9,52.0,0,0,0,0,0,0,0,0,2865,8741
2022/06/29 05:01:59,14.7,29.8,26.9,10.0,48.9,52.0,0,0,0,0,0,0,0,0,2865,8741
2022/06/29 05:03:57,14.7,29.8,26.9,10.0,48.9,52.0,0,0,0,0,0,0,0,0,2865,8741
2022/06/29 05:05:56,14.6,29.8,26.9,10.0,48.9,52.0,0,0,0,0,0,0,0,0,2865,8741
2022/06/29 05:07:55,14.6,29.8,26.8,10.0,48.9,52.0,0,0,0,0,0,0,0,0,2865,8741
2022/06/29 05:09:55,14.6,29.7,26.8,10.0,48.8,52.0,0,0,0,0,0,0,0,0,2865,8741
2022/06/29 05:11:53,14.6,29.7,26.8,10.0,48.8,52.0,0,0,0,0,0,0,0,0,2865,8741
2022/06/29 05:13:51,14.6,29.7,26.8,10.0,48.8,52.0,0,0,0,0,0,0,0,0,2865,8741
2022/06/29 05:15:51,14.5,29.7,26.8,10.0,48.8,52.0,0,0,0,0,0,0,0,0,2865,8741
2022/06/29 05:17:49,14.5,29.7,26.8,10.0,48.8,52.0,0,0,0,0,0,0,0,0,2865,8741
2022/06/29 05:19:48,14.5,29.6,26.8,10.0,48.8,52.0,0,0,0,0,0,0,0,0,2865,8741
2022/06/29 05:21:46,14.5,29.6,26.7,10.0,48.7,52.0,0,0,0,0,0,0,0,0,2865,8741
2022/06/29 05:23:45,14.5,29.6,26.7,10.0,48.7,52.0,0,0,0,0,0,0,0,0,2865,8741
2022/06/29 05:25:43,14.4,29.6,26.7,10.0,48.7,52.0,0,0,0,0,0,0,0,0,2865,8741
2022/06/29 05:27:42,14.4,29.5,26.7,10.0,48.7,52.0,0,0,0,0,0,0,0,0,2865,8741
2022/06/29 05:29:40,14.4,29.5,26.7,10.0,48.7,52.0,0,0,0,0,0,0,0,0,2865,8741
2022/06/29 05:31:40,14.4,29.5,26.7,10.0,48.1,52.0,0,0,0,0,0,0,0,0,2865,8741
2022/06/29 05:33:39,14.4,29.5,26.7,10.0,47.4,52.0,0,0,0,0,0,0,0,0,2865,8741
2022/06/29 05:35:38,14.4,29.5,26.7,10.0,47.0,52.0,0,0,0,0,0,0,0,0,2865,8741
2022/06/29 05:37:37,14.4,29.5,26.7,10.0,46.8,52.0,0,0,0,0,0,0,0,0,2865,8741
2022/06/29 05:39:36,14.3,29.4,26.6,10.0,46.6,52.0,0,0,0,0,0,0,0,0,2865,8741
2022/06/29 05:41:35,14.3,29.4,26.6,10.0,46.5,52.0,0,0,0,0,0,0,0,0,2865,8741
2022/06/29 05:43:34,14.3,29.4,26.6,10.0,46.4,52.0,0,0,0,0,0,0,0,0,2865,8741
2022/06/29 05:45:33,14.3,29.4,26.6,10.0,46.2,52.0,0,0,0,0,0,0,0,0,2865,8741
2022/06/29 05:47:31,14.3,29.4,26.6,10.0,46.1,52.0,0,0,0,0,0,0,0,0,2865,8741
2022/06/29 05:49:31,14.3,29.4,26.6,10.0,46.0,52.0,0,0,0,0,0,0,0,0,2865,8741
2022/06/29 05:51:30,14.3,29.3,26.6,10.0,45.9,52.0,0,0,0,0,0,0,0,0,2865,8741
2022/06/29 05:53:26,14.2,29.3,26.6,10.0,45.8,52.0,0,0,0,0,0,0,0,0,2865,8741
2022/06/29 05:55:25,14.2,29.3,26.6,10.0,45.6,52.0,0,0,0,0,0,0,0,0,2865,8741
2022/06/29 05:57:24,14.2,29.3,26.5,10.0,45.5,52.0,0,0,0,0,0,0,0,0,2865,8741
2022/06/29 05:59:22,14.2,29.3,26.5,10.0,45.4,52.0,0,0,0,0,0,0,0,0,2865,8741
2022/06/29 06:01:19,14.2,29.2,26.5,10.0,45.4,52.0,0,0,0,0,0,0,0,0,2865,8741
2022/06/29 06:04:18,14.2,29.2,26.5,10.0,45.3,52.0,0,0,0,0,0,0,0,0,2865,8741
2022/06/29 06:06:17,14.2,29.2,26.5,10.0,45.2,52.0,0,0,0,0,0,0,0,0,2865,8741
2022/06/29 06:08:16,14.2,29.2,26.5,10.0,45.1,52.0,0,0,0,0,0,0,0,0,2865,8741
2022/06/29 06:10:15,14.2,29.2,26.5,10.0,45.1,52.0,0,0,0,0,0,0,0,0,2865,8741
2022/06/29 06:12:15,14.2,29.2,26.5,10.0,45.0,52.0,0,0,0,0,0,0,0,0,2865,8741
2022/06/29 06:14:13,14.3,29.2,26.5,10.0,44.9,52.0,0,0,0,0,0,0,0,0,2865,8741
2022/06/29 06:16:12,14.3,29.1,26.4,10.0,44.9,52.0,0,0,0,0,0,0,0,0,2865,8741
2022/06/29 06:18:11,14.3,29.1,26.4,10.0,44.8,52.0,0,0,0,0,0,0,0,0,2865,8741
2022/06/29 06:20:10,14.3,29.1,26.4,10.0,44.8,52.0,0,0,0,0,0,0,0,0,2865,8741
2022/06/29 06:22:09,14.4,29.1,26.4,10.0,44.7,52.0,0,0,0,0,0,0,0,0,2865,8741
2022/06/29 06:24:08,14.4,29.1,26.4,10.0,44.6,52.0,0,0,0,0,0,0,0,0,2865,8741
2022/06/29 06:26:05,14.5,29.1,26.4,10.0,44.6,52.0,0,0,0,0,0,0,0,0,2865,8741
2022/06/29 06:28:04,14.5,29.0,26.4,10.0,44.5,52.0,0,0,0,0,0,0,0,0,2865,8741
2022/06/29 06:30:04,14.6,29.0,26.4,10.0,44.4,52.0,0,0,0,0,0,0,0,0,2865,8741
2022/06/29 06:32:03,14.7,29.0,26.4,10.0,44.4,52.0,0,0,0,0,0,0,0,0,2865,8741
2022/06/29 06:34:02,14.8,29.0,26.4,10.0,44.3,52.0,0,0,0,0,0,0,0,0,2865,8741
2022/06/29 06:36:01,14.9,29.0,26.3,10.0,44.3,52.0,0,0,0,0,0,0,0,0,2865,8741
2022/06/29 06:38:00,14.9,29.0,26.3,10.0,44.2,52.0,0,0,0,0,0,0,0,0,2865,8741
2022/06/29 06:40:00,15.0,29.0,26.3,10.0,44.1,52.0,0,0,0,0,0,0,0,0,2865,8741
2022/06/29 06:41:59,15.1,28.9,26.3,10.0,44.1,52.0,0,0,0,0,0,0,0,0,2865,8741
2022/06/29 06:43:58,15.2,31.1,32.2,10.0,44.0,52.0,0,0,1,0,0,1,1,0,2865,8741
2022/06/29 06:45:57,15.3,39.1,36.4,10.0,43.7,52.0,0,1,1,0,0,1,1,0,2865,8741
2022/06/29 06:47:57,15.6,42.8,39.2,10.0,43.5,52.0,0,1,1,0,0,1,1,0,2865,8742
2022/06/29 06:49:56,15.9,44.4,40.7,10.0,43.5,52.0,0,1,1,0,0,1,1,0,2865,8743
2022/06/29 06:51:55,16.2,45.6,41.7,10.0,43.6,52.0,0,1,1,0,0,1,1,0,2865,8744
2022/06/29 06:53:54,16.5,46.6,42.4,10.0,43.9,52.0,0,1,1,0,0,1,1,0,2865,8745
2022/06/29 06:55:53,16.7,47.3,43.0,10.0,44.3,52.0,0,1,1,0,0,1,1,0,2865,8745
2022/06/29 06:57:50,17.0,48.0,43.6,10.0,44.6,52.0,0,1,1,0,0,1,1,0,2865,8746
2022/06/29 06:59:49,17.2,48.7,44.1,10.0,45.0,52.0,0,1,1,0,0,1,1,0,2865,8747
2022/06/29 07:01:48,17.4,49.2,44.5,10.0,45.6,52.0,0,1,1,0,0,1,1,0,2865,8748
2022/06/29 07:03:47,17.7,49.7,45.0,10.0,46.0,52.0,0,1,1,0,0,1,1,0,2865,8749
2022/06/29 07:05:46,17.9,50.2,45.5,10.0,46.5,52.0,0,1,1,0,0,1,1,0,2865,8749
2022/06/29 07:07:45,18.1,50.7,46.0,10.0,46.9,52.0,0,1,1,0,0,1,1,0,2865,8750
2022/06/29 07:09:44,18.3,51.2,46.4,10.0,47.4,52.0,0,1,1,0,0,1,1,0,2865,8751
2022/06/29 07:11:42,18.4,51.9,46.9,10.0,47.9,52.0,0,1,1,0,0,1,1,0,2865,8752
2022/06/29 07:13:41,18.6,52.4,47.4,10.0,48.4,52.0,0,1,1,0,0,1,1,0,2865,8752
2022/06/29 07:15:40,18.8,52.8,47.9,10.0,48.8,52.0,0,1,1,0,0,1,1,0,2865,8753
2022/06/29 07:17:39,18.9,53.3,48.3,10.0,49.3,52.0,0,1,1,0,0,1,1,0,2865,8754
2022/06/29 07:19:38,19.1,53.8,48.8,10.0,49.7,52.0,0,1,1,0,0,1,1,0,2865,8755
2022/06/29 07:21:37,19.3,54.2,49.2,10.0,50.2,52.0,0,1,1,0,0,1,1,0,2865,8755
2022/06/29 07:23:35,19.4,54.6,49.6,10.0,50.8,52.0,0,1,1,0,0,1,1,0,2865,8756
2022/06/29 07:25:33,19.6,55.0,50.0,10.0,51.3,52.0,0,1,1,0,0,1,1,0,2865,8757
2022/06/29 07:27:32,19.7,55.5,50.5,10.0,51.8,52.0,0,1,1,0,0,1,1,0,2865,8758
2022/06/29 07:29:31,19.8,52.6,45.6,10.0,52.3,52.0,0,0,0,0,0,0,1,0,2865,8758
2022/06/29 07:31:30,19.9,40.4,38.3,10.0,52.6,52.0,0,0,0,0,0,0,0,0,2865,8758
2022/06/29 07:33:29,20.1,39.9,37.6,10.0,52.7,52.0,0,0,0,0,0,0,0,0,2865,8758
2022/06/29 07:35:27,20.2,39.5,37.1,10.0,52.7,52.0,0,0,0,0,0,0,0,0,2865,8758
2022/06/29 07:37:26,20.4,39.1,36.8,10.0,52.6,52.0,0,0,0,0,0,0,0,0,2865,8758
2022/06/29 07:39:25,20.5,38.7,36.4,10.0,52.5,52.0,0,0,0,0,0,0,0,0,2865,8758
2022/06/29 07:41:24,20.7,38.5,36.1,10.0,52.4,52.0,0,0,0,0,0,0,0,0,2865,8758
2022/06/29 07:43:22,20.8,38.2,35.9,10.0,52.3,52.0,0,0,0,0,0,0,0,0,2865,8758
2022/06/29 07:45:21,20.9,38.1,35.6,10.0,52.2,52.0,0,0,0,0,0,0,0,0,2865,8758
2022/06/29 07:47:20,21.0,38.0,35.4,10.0,52.1,52.0,0,0,0,0,0,0,0,0,2865,8758
2022/06/29 07:49:19,20.9,37.8,35.2,10.0,52.0,52.0,0,0,0,0,0,0,0,0,2865,8758
2022/06/29 07:52:17,20.6,37.7,35.0,10.0,52.0,52.0,0,0,0,0,0,0,0,0,2865,8758
2022/06/29 07:54:16,20.3,37.6,34.9,10.0,51.9,52.0,0,0,0,0,0,0,0,0,2865,8758
2022/06/29 07:56:16,20.0,37.5,34.8,10.0,51.8,52.0,0,0,0,0,0,0,0,0,2865,8758
2022/06/29 07:58:15,19.7,37.4,34.7,10.0,51.7,52.0,0,0,0,0,0,0,0,0,2865,8758
2022/06/29 08:00:14,19.4,37.3,34.6,10.0,51.6,52.0,0,0,0,0,0,0,0,0,2865,8758
2022/06/29 08:02:12,19.3,37.2,34.4,10.0,51.6,52.0,0,0,0,0,0,0,0,0,2865,8758
2022/06/29 08:04:11,19.1,37.1,34.3,10.0,51.5,52.0,0,0,0,0,0,0,0,0,2865,8758
2022/06/29 08:06:11,19.0,37.1,34.2,10.0,51.4,52.0,0,0,0,0,0,0,0,0,2865,8758
2022/06/29 08:08:09,18.9,37.0,34.1,10.0,51.3,52.0,0,0,0,0,0,0,0,0,2865,8758
2022/06/29 08:10:08,18.8,36.9,33.8,10.0,51.2,52.0,0,0,0,0,0,0,0,0,2865,8758
2022/06/29 08:12:07,18.8,36.9,33.5,10.0,51.2,52.0,0,0,0,0,0,0,0,0,2865,8758
2022/06/29 08:14:06,18.8,36.8,33.3,10.0,51.1,52.0,0,0,0,0,0,0,0,0,2865,8758
2022/06/29 08:16:05,18.8,36.7,33.1,10.0,51.0,52.0,0,0,0,0,0,0,0,0,2865,8758
2022/06/29 08:18:03,18.8,36.7,32.9,10.0,51.0,52.0,0,0,0,0,0,0,0,0,2865,8758
2022/06/29 08:20:03,18.8,36.6,32.7,10.0,50.9,52.0,0,0,0,0,0,0,0,0,2865,8758
2022/06/29 08:22:01,18.8,36.6,32.6,10.0,50.8,52.0,0,0,0,0,0,0,0,0,2865,8758
2022/06/29 08:24:00,18.8,36.5,32.4,10.0,50.7,52.0,0,0,0,0,0,0,0,0,2865,8758
2022/06/29 08:25:59,18.8,36.5,32.2,10.0,50.7,52.0,0,0,0,0,0,0,0,0,2865,8758
2022/06/29 08:27:58,18.8,36.4,32.1,10.0,50.6,52.0,0,0,0,0,0,0,0,0,2865,8758
2022/06/29 08:29:57,18.9,36.4,31.9,10.0,50.5,52.0,0,0,0,0,0,0,0,0,2865,8758
2022/06/29 08:31:55,18.9,36.3,31.8,10.0,50.4,52.0,0,0,0,0,0,0,0,0,2865,8758
2022/06/29 08:33:54,19.0,36.3,31.7,10.0,50.4,52.0,0,0,0,0,0,0,0,0,2865,8758
2022/06/29 08:35:53,19.1,36.3,31.6,10.0,50.3,52.0,0,0,0,0,0,0,0,0,2865,8758
2022/06/29 08:37:52,19.1,36.2,31.5,10.0,50.2,52.0,0,0,0,0,0,0,0,0,2865,8758
2022/06/29 08:39:50,19.2,36.2,31.4,10.0,50.2,52.0,0,0,0,0,0,0,0,0,2865,8758
2022/06/29 08:41:49,19.3,36.1,31.3,10.0,50.1,52.0,0,0,0,0,0,0,0,0,2865,8758
2022/06/29 08:43:47,19.3,36.1,31.3,10.0,50.0,52.0,0,0,0,0,0,0,0,0,2865,8758
2022/06/29 08:45:46,19.4,36.0,31.2,10.0,50.0,52.0,0,0,0,0,0,0,0,0,2865,8758
2022/06/29 08:47:45,19.4,36.0,31.1,10.0,49.9,52.0,0,0,0,0,0,0,0,0,2865,8758
2022/06/29 08:49:44,19.5,36.0,31.0,10.0,49.9,52.0,0,0,0,0,0,0,0,0,2865,8758
2022/06/29 08:51:42,19.5,35.9,31.0,10.0,49.8,52.0,0,0,0,0,0,0,0,0,2865,8758
2022/06/29 08:53:40,19.5,35.9,30.9,10.0,49.8,52.0,0,0,0,0,0,0,0,0,2865,8758
2022/06/29 08:55:39,19.5,37.2,36.1,10.0,49.7,58.4,0,0,1,0,0,1,1,0,2865,8758
2022/06/29 08:57:38,19.6,46.7,43.4,10.0,49.6,57.7,1,0,1,0,0,1,1,0,2865,8759
2022/06/29 08:59:37,19.6,49.4,45.9,10.0,49.4,57.7,1,0,1,0,0,1,1,0,2865,8759
2022/06/29 09:01:36,19.7,51.5,47.4,10.0,49.5,57.7,1,0,1,0,0,1,1,0,2865,8760
2022/06/29 09:03:34,19.7,52.8,48.5,10.0,49.8,57.7,1,0,1,0,0,1,1,0,2865,8761
2022/06/29 09:05:33,19.8,53.7,49.1,10.0,50.3,57.7,1,0,1,0,0,1,1,0,2865,8762
2022/06/29 09:07:32,19.8,54.4,49.7,10.0,50.8,57.7,1,0,1,0,0,1,1,0,2865,8762
2022/06/29 09:09:31,19.8,55.0,50.3,10.0,51.3,57.7,1,0,1,0,0,1,1,0,2865,8763
2022/06/29 09:11:29,19.8,55.6,50.8,10.0,51.9,57.7,1,0,1,0,0,1,1,0,2865,8764
2022/06/29 09:13:28,19.9,56.3,51.6,10.0,52.4,57.7,1,0,1,0,0,1,1,0,2865,8764
2022/06/29 09:15:27,19.9,56.8,52.1,10.0,52.9,57.7,1,0,1,0,0,1,1,0,2865,8765
2022/06/29 09:17:25,19.9,57.3,52.6,10.0,53.5,57.7,1,0,1,0,0,1,1,0,2865,8766
2022/06/29 09:19:25,20.0,57.8,53.0,10.0,54.0,57.7,1,0,1,0,0,1,1,0,2865,8767
2022/06/29 09:21:24,20.0,58.3,53.5,10.0,54.4,57.7,1,0,1,0,0,1,1,0,2865,8767
2022/06/29 09:23:22,20.1,58.8,53.9,10.0,54.9,57.7,1,0,1,0,0,1,1,0,2865,8768
2022/06/29 09:25:20,20.1,59.2,54.2,10.0,55.4,57.7,1,0,1,0,0,1,1,0,2865,8769
2022/06/29 09:28:18,20.2,59.7,54.7,10.0,56.0,57.7,1,0,1,0,0,1,1,0,2865,8769
2022/06/29 09:30:18,20.3,60.1,55.1,10.0,56.5,57.7,1,0,1,0,0,1,1,0,2865,8770
2022/06/29 09:32:16,20.3,60.6,55.6,10.0,57.0,57.7,1,0,1,0,0,1,1,0,2865,8771
2022/06/29 09:34:15,20.4,61.1,56.0,10.0,57.5,57.7,1,0,1,0,0,1,1,0,2865,8771
2022/06/29 09:36:13,20.5,57.9,50.8,10.0,57.9,57.7,0,0,0,0,0,0,1,0,2865,8772
2022/06/29 09:38:13,20.5,41.7,39.3,10.0,58.3,57.7,0,0,0,0,0,0,0,0,2865,8772
2022/06/29 09:40:12,20.5,41.1,38.6,10.0,58.4,58.4,0,0,0,0,0,0,0,0,2865,8772
2022/06/29 09:42:10,20.6,40.5,38.2,10.0,58.4,58.4,0,0,0,0,0,0,0,0,2865,8772
2022/06/29 09:44:09,20.6,40.0,37.8,10.0,58.3,58.4,0,0,0,0,0,0,0,0,2865,8772
2022/06/29 09:46:07,20.7,39.7,37.4,10.0,58.2,58.4,0,0,0,0,0,0,0,0,2865,8772
2022/06/29 09:48:06,20.7,39.4,37.1,10.0,58.1,58.4,0,0,0,0,0,0,0,0,2865,8772
2022/06/29 09:50:03,20.8,39.2,36.8,10.0,58.1,58.4,0,0,0,0,0,0,0,0,2865,8772
2022/06/29 09:52:02,20.8,39.0,36.6,10.0,58.1,58.4,0,0,0,0,0,0,0,0,2865,8772
2022/06/29 09:54:01,20.9,38.9,36.4,10.0,58.0,58.4,0,0,0,0,0,0,0,0,2865,8772
2022/06/29 09:56:00,20.9,38.8,36.2,10.0,57.9,58.4,0,0,0,0,0,0,0,0,2865,8772
2022/06/29 09:57:59,21.0,38.7,36.0,10.0,57.8,58.4,0,0,0,0,0,0,0,0,2865,8772
2022/06/29 09:59:57,21.0,38.5,35.9,10.0,57.7,58.4,0,0,0,0,0,0,0,0,2865,8772
2022/06/29 10:01:55,21.1,38.4,35.8,10.0,57.6,58.4,0,0,0,0,0,0,0,0,2865,8772
2022/06/29 10:03:55,21.1,38.3,35.6,10.0,57.5,58.4,0,0,0,0,0,0,0,0,2865,8772
2022/06/29 10:05:54,21.2,38.2,35.5,10.0,57.5,58.4,0,0,0,0,0,0,0,0,2865,8772
2022/06/29 10:07:53,21.2,38.1,35.3,10.0,57.4,58.4,0,0,0,0,0,0,0,0,2865,8772
2022/06/29 10:09:53,21.3,38.0,35.2,10.0,57.3,58.4,0,0,0,0,0,0,0,0,2865,8772
2022/06/29 10:11:51,21.4,37.9,35.1,10.0,57.2,58.4,0,0,0,0,0,0,0,0,2865,8772
2022/06/29 10:13:50,21.4,37.8,34.9,10.0,57.1,58.4,0,0,0,0,0,0,0,0,2865,8772
2022/06/29 10:15:46,21.4,37.7,34.8,10.0,57.0,58.4,0,0,0,0,0,0,0,0,2865,8772
2022/06/29 10:17:45,21.4,37.6,34.8,10.0,56.9,58.4,0,0,0,0,0,0,0,0,2865,8772
2022/06/29 10:19:44,21.4,37.6,34.7,10.0,56.9,58.4,0,0,0,0,0,0,0,0,2865,8772
2022/06/29 10:21:43,21.5,37.5,34.6,10.0,56.8,58.4,0,0,0,0,0,0,0,0,2865,8772
2022/06/29 10:23:43,21.5,37.4,34.5,10.0,56.7,58.4,0,0,0,0,0,0,0,0,2865,8772
2022/06/29 10:25:41,21.6,37.4,34.4,10.0,56.6,58.4,0,0,0,0,0,0,0,0,2865,8772
2022/06/29 10:27:40,21.6,37.3,34.3,10.0,56.5,58.4,0,0,0,0,0,0,0,0,2865,8772
2022/06/29 10:29:39,21.6,37.3,34.2,10.0,56.5,58.4,0,0,0,0,0,0,0,0,2865,8772
2022/06/29 10:31:37,21.6,37.2,34.1,10.0,56.4,58.4,0,0,0,0,0,0,0,0,2865,8772
2022/06/29 10:33:36,21.6,37.2,34.0,10.0,56.3,58.4,0,0,0,0,0,0,0,0,2865,8772
2022/06/29 10:35:35,21.7,37.1,34.0,10.0,56.2,58.4,0,0,0,0,0,0,0,0,2865,8772
2022/06/29 10:37:34,21.8,37.1,33.9,10.0,56.1,58.4,0,0,0,0,0,0,0,0,2865,8772
2022/06/29 10:39:32,21.9,37.0,33.8,10.0,56.0,58.4,0,0,0,0,0,0,0,0,2865,8772
2022/06/29 10:41:29,21.9,37.0,33.7,10.0,56.0,58.4,0,0,0,0,0,0,0,0,2865,8772
2022/06/29 10:43:28,22.0,36.9,33.7,10.0,55.9,58.4,0,0,0,0,0,0,0,0,2865,8772
2022/06/29 10:45:26,22.0,36.9,33.6,10.0,55.8,58.4,0,0,0,0,0,0,0,0,2865,8772
2022/06/29 10:47:24,22.1,36.9,33.5,10.0,55.7,58.4,0,0,0,0,0,0,0,0,2865,8772
2022/06/29 10:49:23,22.1,36.8,33.4,10.0,55.6,58.4,0,0,0,0,0,0,0,1,2865,8772
2022/06/29 10:51:22,22.1,36.8,33.4,10.0,55.6,58.4,0,0,0,0,0,0,0,1,2865,8772
2022/06/29 10:53:20,22.2,36.7,33.3,10.0,55.5,58.4,0,0,0,0,0,0,0,1,2865,8772
2022/06/29 10:56:18,22.2,36.7,33.2,10.0,55.4,58.4,0,0,0,0,0,0,0,1,2865,8772
2022/06/29 10:58:18,22.3,36.6,33.1,10.0,55.3,58.4,0,0,0,0,0,0,0,1,2865,8772
2022/06/29 11:00:17,22.3,36.6,33.1,10.0,55.3,58.4,0,0,0,0,0,0,0,1,2865,8772
2022/06/29 11:02:17,22.4,36.6,33.0,10.0,55.2,58.4,0,0,0,0,0,0,0,1,2865,8772
2022/06/29 11:04:16,22.4,36.5,32.9,10.0,55.1,58.4,0,0,0,0,0,0,0,1,2865,8772
2022/06/29 11:06:14,22.5,36.5,32.9,10.0,55.0,58.4,0,0,0,0,0,0,0,1,2865,8772
2022/06/29 11:08:14,22.5,36.4,32.8,10.0,55.0,58.4,0,0,0,0,0,0,0,1,2865,8772
2022/06/29 11:10:13,22.5,36.4,32.7,10.0,54.9,58.4,0,0,0,0,0,0,0,1,2865,8772
2022/06/29 11:12:12,22.5,36.4,32.7,10.0,54.8,58.4,0,0,0,0,0,0,0,1,2865,8772
2022/06/29 11:14:11,22.5,36.3,32.6,10.0,54.8,58.4,0,0,0,0,0,0,0,1,2865,8772
2022/06/29 11:16:09,22.6,36.3,32.5,10.0,54.7,58.4,0,0,0,0,0,0,0,1,2865,8772
2022/06/29 11:18:08,22.7,36.2,32.5,10.0,54.6,58.4,0,0,0,0,0,0,0,1,2865,8772
2022/06/29 11:20:07,22.7,36.2,32.4,10.0,54.6,58.4,0,0,0,0,0,0,0,1,2865,8772
2022/06/29 11:22:06,22.8,36.1,32.3,10.0,54.5,58.4,0,0,0,0,0,0,0,1,2865,8772
2022/06/29 11:24:05,22.9,36.1,32.3,10.0,54.4,58.4,0,0,0,0,0,0,0,1,2865,8772
2022/06/29 11:26:04,22.9,36.0,32.2,10.0,54.4,58.4,0,0,0,0,0,0,0,1,2865,8772
2022/06/29 11:28:03,23.0,36.0,32.1,10.0,54.3,58.4,0,0,0,0,0,0,0,1,2865,8772
2022/06/29 11:30:02,23.0,35.9,32.1,10.0,54.2,58.4,0,0,0,0,0,0,0,1,2865,8772
2022/06/29 11:32:02,23.0,35.9,32.0,10.0,54.2,58.4,0,0,0,0,0,0,0,1,2865,8772
2022/06/29 11:34:01,23.0,35.9,31.9,10.0,54.1,58.4,0,0,0,0,0,0,0,1,2865,8772
2022/06/29 11:36:00,23.1,35.8,31.9,10.0,54.0,58.4,0,0,0,0,0,0,0,1,2865,8772
2022/06/29 11:37:57,23.1,35.8,31.8,10.0,54.0,58.4,0,0,0,0,0,0,0,1,2865,8772
2022/06/29 11:39:56,23.2,35.7,31.8,10.0,53.9,58.4,0,0,0,0,0,0,0,1,2865,8772
2022/06/29 11:41:55,23.2,35.7,31.7,10.0,53.8,58.4,0,0,0,0,0,0,0,1,2865,8772
2022/06/29 11:43:55,23.3,35.6,31.6,10.0,53.8,58.4,0,0,0,0,0,0,0,1,2865,8772
2022/06/29 11:45:53,23.4,35.6,31.6,10.0,53.7,58.4,0,0,0,0,0,0,0,1,2865,8772
2022/06/29 11:47:53,23.5,35.5,31.5,10.0,53.6,58.4,0,0,0,0,0,0,0,1,2865,8772
2022/06/29 11:49:52,23.6,35.5,31.5,10.0,53.6,58.4,0,0,0,0,0,0,0,1,2865,8772
2022/06/29 11:51:51,23.7,35.4,31.4,10.0,53.5,58.4,0,0,0,0,0,0,0,1,2865,8772
2022/06/29 11:53:49,23.7,35.4,31.4,10.0,53.4,58.4,0,0,0,0,0,0,0,1,2865,8772
2022/06/29 11:55:48,23.7,35.3,31.3,10.0,53.4,58.4,0,0,0,0,0,0,0,1,2865,8772
2022/06/29 11:57:46,23.8,35.3,31.3,10.0,53.3,58.4,0,0,0,0,0,0,0,1,2865,8772
2022/06/29 11:59:46,23.9,35.2,31.2,10.0,53.2,58.4,0,0,0,0,0,0,0,1,2865,8772
2022/06/29 12:01:46,24.0,35.2,31.2,10.0,53.2,58.4,0,0,0,0,0,0,0,1,2865,8772
2022/06/29 12:03:45,24.1,35.1,31.1,10.0,53.1,58.4,0,0,0,0,0,0,0,1,2865,8772
2022/06/29 12:05:44,24.2,35.1,31.1,10.0,53.0,58.4,0,0,0,0,0,0,0,1,2865,8772
2022/06/29 12:07:43,24.2,35.0,31.0,10.0,53.0,58.4,0,0,0,0,0,0,0,1,2865,8772
2022/06/29 12:09:42,24.2,35.0,31.0,10.0,52.9,58.4,0,0,0,0,0,0,0,1,2865,8772
2022/06/29 12:11:42,24.2,35.0,30.9,10.0,52.8,58.4,0,0,0,0,0,0,0,1,2865,8772
2022/06/29 12:13:41,24.2,34.9,30.9,10.0,52.7,58.4,0,0,0,0,0,0,0,1,2865,8772
2022/06/29 12:15:40,24.2,34.9,30.8,10.0,52.7,58.4,0,0,0,0,0,0,0,1,2865,8772
2022/06/29 12:17:40,24.2,34.9,30.8,10.0,52.6,58.4,0,0,0,0,0,0,0,1,2865,8772
2022/06/29 12:19:38,24.2,34.8,30.7,10.0,52.5,58.4,0,0,0,0,0,0,0,1,2865,8772
2022/06/29 12:21:36,24.2,34.8,30.7,10.0,52.5,58.4,0,0,0,0,0,0,0,1,2865,8772
2022/06/29 12:23:35,24.2,34.7,30.6,10.0,52.4,58.4,0,0,0,0,0,0,0,1,2865,8772
2022/06/29 12:25:34,24.1,34.7,30.6,10.0,52.3,58.4,0,0,0,0,0,0,0,1,2865,8772
2022/06/29 12:27:32,24.1,34.7,30.5,10.0,52.3,58.4,0,0,0,0,0,0,0,1,2865,8772
2022/06/29 12:29:30,24.1,34.6,30.5,10.0,52.2,58.4,0,0,0,0,0,0,0,1,2865,8772
2022/06/29 12:31:29,24.1,34.6,30.5,10.0,52.1,58.4,0,0,0,0,0,0,0,1,2865,8772
2022/06/29 12:33:28,24.1,34.6,30.4,10.0,52.0,58.4,0,0,0,0,0,0,0,1,2865,8772
2022/06/29 12:35:28,24.2,34.5,30.4,10.0,52.0,58.4,0,0,0,0,0,0,0,1,2865,8772
2022/06/29 12:37:27,24.2,34.5,30.3,10.0,51.9,58.4,0,0,0,0,0,0,0,1,2865,8772
2022/06/29 12:39:26,24.3,34.4,30.3,10.0,51.8,58.4,0,0,0,0,0,0,0,1,2865,8772
2022/06/29 12:41:25,24.4,34.4,30.2,10.0,51.8,58.4,0,0,0,0,0,0,0,1,2865,8772
2022/06/29 12:43:23,24.4,34.4,30.2,10.0,51.7,58.4,0,0,0,0,0,0,0,1,2865,8772
2022/06/29 12:45:22,24.4,34.3,30.2,10.0,51.6,58.4,0,0,0,0,0,0,0,1,2865,8772
2022/06/29 12:47:21,24.4,34.3,30.1,10.0,51.6,58.4,0,0,0,0,0,0,0,1,2865,8772
2022/06/29 12:49:20,24.4,34.3,30.1,10.0,51.5,58.4,0,0,0,0,0,0,0,1,2865,8772
2022/06/29 12:52:19,24.4,34.2,30.0,10.0,51.4,58.4,0,0,0,0,0,0,0,1,2865,8772
2022/06/29 12:54:17,24.5,34.2,30.0,10.0,51.3,58.4,0,0,0,0,0,0,0,1,2865,8772
2022/06/29 12:56:15,24.5,34.2,30.0,10.0,51.3,58.4,0,0,0,0,0,0,0,1,2865,8772
2022/06/29 12:58:14,24.5,34.1,30.0,10.0,51.2,58.4,0,0,0,0,0,0,0,1,2865,8772
2022/06/29 13:00:13,24.5,34.1,29.9,10.0,51.1,58.4,0,0,0,0,0,0,0,1,2865,8772
2022/06/29 13:02:13,24.5,34.0,29.9,10.0,51.0,58.4,0,0,0,0,0,0,0,1,2865,8772
2022/06/29 13:04:12,24.6,34.0,29.9,10.0,51.0,58.4,0,0,0,0,0,0,0,1,2865,8772
2022/06/29 13:06:10,24.6,34.0,29.8,10.0,50.9,58.4,0,0,0,0,0,0,0,1,2865,8772
2022/06/29 13:08:09,24.7,33.9,29.8,10.0,50.8,58.4,0,0,0,0,0,0,0,1,2865,8772
2022/06/29 13:10:07,24.8,33.9,29.8,10.0,50.8,58.4,0,0,0,0,0,0,0,1,2865,8772
2022/06/29 13:12:06,24.9,33.9,29.7,10.0,50.7,58.4,0,0,0,0,0,0,0,1,2865,8772
2022/06/29 13:14:05,25.1,33.8,29.7,10.0,50.6,58.4,0,0,0,0,0,0,0,1,2865,8772
2022/06/29 13:16:05,25.1,33.8,29.7,10.0,50.5,58.4,0,0,0,0,0,0,0,1,2865,8772
2022/06/29 13:18:04,25.2,33.8,29.7,10.0,50.5,58.4,0,0,0,0,0,0,0,1,2865,8772
2022/06/29 13:20:04,25.3,43.4,40.1,10.0,50.2,58.4,0,1,1,0,0,1,1,1,2865,8772
2022/06/29 13:22:02,25.3,47.3,44.2,10.0,49.8,57.7,0,1,1,0,0,1,1,1,2865,8773
2022/06/29 13:24:01,25.4,49.6,46.0,10.0,49.8,57.7,0,1,1,0,0,1,1,1,2865,8774
2022/06/29 13:26:00,25.4,51.4,47.3,10.0,49.8,57.7,0,1,1,0,0,1,1,1,2865,8774
2022/06/29 13:28:00,25.3,52.6,48.3,10.0,50.2,57.7,0,1,1,0,0,1,1,1,2865,8775
2022/06/29 13:29:59,25.2,53.5,49.0,10.0,50.5,57.7,0,1,1,0,0,1,1,1,2865,8776
2022/06/29 13:31:57,25.0,54.1,49.5,10.0,51.0,57.7,0,1,1,0,0,1,1,1,2865,8777
2022/06/29 13:33:55,24.9,54.7,50.0,10.0,51.5,57.7,0,1,1,0,0,1,1,1,2865,8777
2022/06/29 13:35:54,24.9,55.4,50.6,10.0,52.0,57.7,0,1,1,0,0,1,1,1,2865,8778
2022/06/29 13:37:54,24.8,56.0,51.3,10.0,52.5,57.7,0,1,1,0,0,1,1,1,2865,8779
2022/06/29 13:39:53,24.8,56.6,51.8,10.0,53.0,57.7,0,1,1,0,0,1,1,1,2865,8780
2022/06/29 13:41:52,24.9,57.2,52.3,10.0,53.4,57.7,0,1,1,0,0,1,1,1,2865,8780
2022/06/29 13:43:51,25.0,57.7,52.8,10.0,53.9,57.7,0,1,1,0,0,1,1,1,2865,8781
2022/06/29 13:45:50,25.1,58.1,53.2,10.0,54.4,57.7,0,1,1,0,0,1,1,1,2865,8782
2022/06/29 13:47:48,25.2,58.6,53.6,10.0,54.8,57.7,0,1,1,0,0,1,1,1,2865,8782
2022/06/29 13:49:47,25.3,59.1,54.0,10.0,55.3,57.7,0,1,1,0,0,1,1,1,2865,8783
2022/06/29 13:51:46,25.3,59.5,54.4,10.0,55.8,57.7,0,1,1,0,0,1,1,1,2865,8784
2022/06/29 13:53:45,25.3,59.9,54.8,10.0,56.4,57.7,0,1,1,0,0,1,1,1,2865,8784
2022/06/29 13:55:44,25.3,60.4,55.3,10.0,56.9,57.7,0,1,1,0,0,1,1,1,2865,8785
2022/06/29 13:57:44,25.3,60.9,55.7,10.0,57.4,57.7,0,1,1,0,0,1,1,1,2865,8786
2022/06/29 13:59:42,25.4,59.1,56.2,10.0,57.9,57.7,0,0,1,0,0,0,1,1,2865,8786
2022/06/29 14:01:41,25.5,42.4,39.8,10.0,58.2,57.7,0,0,0,0,0,0,1,1,2865,8786
2022/06/29 14:03:40,25.6,41.7,39.0,10.0,58.3,58.4,0,0,0,0,0,0,0,1,2865,8786
2022/06/29 14:05:39,25.6,41.1,38.6,10.0,58.3,58.4,0,0,0,0,0,0,0,1,2865,8786
2022/06/29 14:07:39,25.7,40.6,38.2,10.0,58.3,58.4,0,0,0,0,0,0,0,1,2865,8786
2022/06/29 14:09:38,25.7,40.2,37.8,10.0,58.2,58.4,0,0,0,0,0,0,0,1,2865,8786
2022/06/29 14:11:37,25.6,39.9,37.5,10.0,58.1,58.4,0,0,0,0,0,0,0,1,2865,8786
2022/06/29 14:13:35,25.4,39.6,37.2,10.0,58.0,58.4,0,0,0,0,0,0,0,1,2865,8786
2022/06/29 14:15:35,25.3,39.4,37.0,10.0,57.9,58.4,0,0,0,0,0,0,0,1,2865,8786
2022/06/29 14:17:34,25.1,39.3,36.7,10.0,57.8,58.4,0,0,0,0,0,0,0,1,2865,8786
2022/06/29 14:19:33,25.0,39.2,36.6,10.0,57.7,58.4,0,0,0,0,0,0,0,1,2865,8786
2022/06/29 14:21:33,24.9,39.0,36.4,10.0,57.6,58.4,0,0,0,0,0,0,0,1,2865,8786
2022/06/29 14:23:31,24.9,38.9,36.3,10.0,57.6,58.4,0,0,0,0,0,0,0,1,2865,8786
2022/06/29 14:25:31,24.9,38.8,36.1,10.0,57.5,58.4,0,0,0,0,0,0,0,1,2865,8786
2022/06/29 14:27:28,24.9,38.7,36.0,10.0,57.4,58.4,0,0,0,0,0,0,0,1,2865,8786
2022/06/29 14:29:28,25.1,38.6,35.8,10.0,57.3,58.4,0,0,0,0,0,0,0,1,2865,8786
2022/06/29 14:31:26,25.2,38.5,35.7,10.0,57.2,58.4,0,0,0,0,0,0,0,1,2865,8786
2022/06/29 14:33:25,25.3,38.4,35.6,10.0,57.2,58.4,0,0,0,0,0,0,0,1,2865,8786
2022/06/29 14:35:24,25.3,38.3,35.4,10.0,57.1,58.4,0,0,0,0,0,0,0,1,2865,8786
2022/06/29 14:37:22,25.3,38.2,35.3,10.0,57.0,58.4,0,0,0,0,0,0,0,1,2865,8786
2022/06/29 14:39:21,25.2,38.2,35.2,10.0,56.9,58.4,0,0,0,0,0,0,0,1,2865,8786
2022/06/29 14:41:19,25.2,38.1,35.1,10.0,56.9,58.4,0,0,0,0,0,0,0,1,2865,8786
2022/06/29 14:43:19,25.2,38.0,35.0,10.0,56.8,58.4,0,0,0,0,0,0,0,1,2865,8786
2022/06/29 14:45:19,25.2,38.0,34.9,10.0,56.7,58.4,0,0,0,0,0,0,0,1,2865,8786
2022/06/29 14:48:16,25.3,37.9,34.8,10.0,56.6,58.4,0,0,0,0,0,0,0,1,2865,8786
2022/06/29 14:50:15,25.3,37.8,34.7,10.0,56.6,58.4,0,0,0,0,0,0,0,1,2865,8786
2022/06/29 14:52:13,25.4,37.8,34.6,10.0,56.5,58.4,0,0,0,0,0,0,0,0,2865,8786
2022/06/29 14:54:12,25.4,37.7,34.5,10.0,56.4,58.4,0,0,0,0,0,0,0,0,2865,8786
2022/06/29 14:56:11,25.6,37.7,34.4,10.0,56.3,58.4,0,0,0,0,0,0,0,0,2865,8786
2022/06/29 14:58:10,25.7,37.6,34.3,10.0,56.3,58.4,0,0,0,0,0,0,0,0,2865,8786
2022/06/29 15:00:07,25.8,37.6,34.3,10.0,56.2,58.4,0,0,0,0,0,0,0,0,2865,8786
2022/06/29 15:02:06,26.0,37.5,34.2,10.0,56.1,58.4,0,0,0,0,0,0,0,0,2865,8786
2022/06/29 15:04:04,26.1,37.5,34.1,10.0,56.0,58.4,0,0,0,0,0,0,0,0,2865,8786
2022/06/29 15:06:03,26.2,37.5,34.0,10.0,55.9,58.4,0,0,0,0,0,0,0,0,2865,8786
2022/06/29 15:08:01,26.3,37.4,34.0,10.0,55.9,58.4,0,0,0,0,0,0,0,0,2865,8786
2022/06/29 15:10:00,26.5,37.4,33.9,10.0,55.8,58.4,0,0,0,0,0,0,0,0,2865,8786
2022/06/29 15:11:59,26.5,37.3,33.8,10.0,55.7,58.4,0,0,0,0,0,0,0,0,2865,8786
2022/06/29 15:13:58,26.5,37.3,33.7,10.0,55.7,58.4,0,0,0,0,0,0,0,0,2865,8786
2022/06/29 15:15:53,26.5,37.3,33.7,10.0,55.6,58.4,0,0,0,0,0,0,0,0,2865,8786
2022/06/29 15:17:52,26.5,37.2,33.6,10.0,55.5,58.4,0,0,0,0,0,0,0,0,2865,8786
2022/06/29 15:19:51,26.5,37.2,33.5,10.0,55.4,58.4,0,0,0,0,0,0,0,0,2865,8786
2022/06/29 15:21:50,26.5,37.2,33.4,10.0,55.3,58.4,0,0,0,0,0,0,0,0,2865,8786
2022/06/29 15:23:49,26.5,37.1,33.3,10.0,55.3,58.4,0,0,0,0,0,0,0,0,2865,8786
2022/06/29 15:25:49,26.6,37.1,33.3,10.0,55.2,58.4,0,0,0,0,0,0,0,0,2865,8786
2022/06/29 15:27:48,26.6,37.0,33.2,10.0,55.1,58.4,0,0,0,0,0,0,0,0,2865,8786
2022/06/29 15:29:47,26.8,37.0,33.1,10.0,55.0,58.4,0,0,0,0,0,0,0,0,2865,8786
2022/06/29 15:31:46,26.8,37.0,33.1,10.0,55.0,58.4,0,0,0,0,0,0,0,0,2865,8786
2022/06/29 15:33:44,26.8,36.9,33.0,10.0,54.9,58.4,0,0,0,0,0,0,0,0,2865,8786
2022/06/29 15:35:43,26.8,36.9,32.9,10.0,54.9,58.4,0,0,0,0,0,0,0,0,2865,8786
2022/06/29 15:37:42,26.7,36.8,32.8,10.0,54.8,58.4,0,0,0,0,0,0,0,0,2865,8786
2022/06/29 15:39:41,26.6,36.8,32.8,10.0,54.7,58.4,0,0,0,0,0,0,0,0,2865,8786
2022/06/29 15:41:38,26.4,36.7,32.7,10.0,54.7,58.4,0,0,0,0,0,0,0,0,2865,8786
2022/06/29 15:43:36,26.3,36.7,32.6,10.0,54.6,58.4,0,0,0,0,0,0,0,0,2865,8786
2022/06/29 15:45:34,26.2,36.6,32.6,10.0,54.6,58.4,0,0,0,0,0,0,0,0,2865,8786
2022/06/29 15:47:32,26.1,36.6,32.5,10.0,54.5,58.4,0,0,0,0,0,0,0,0,2865,8786
2022/06/29 15:49:31,26.0,36.5,32.4,10.0,54.4,58.4,0,0,0,0,0,0,0,0,2865,8786
2022/06/29 15:51:29,26.0,36.5,32.4,10.0,54.4,58.4,0,0,0,0,0,0,0,0,2865,8786
2022/06/29 15:53:28,26.0,36.4,32.3,10.0,54.3,58.4,0,0,0,0,0,0,0,0,2865,8786
2022/06/29 15:55:26,26.2,36.4,32.2,10.0,54.3,58.4,0,0,0,0,0,0,0,0,2865,8786
2022/06/29 15:57:23,26.3,36.3,32.2,10.0,54.2,58.4,0,0,0,0,0,0,0,0,2865,8786
2022/06/29 15:59:22,26.5,36.3,32.1,10.0,54.1,58.4,0,0,0,0,0,0,0,0,2865,8786
2022/06/29 16:01:21,26.6,36.2,32.1,10.0,54.1,58.4,0,0,0,0,0,0,0,0,2865,8786
2022/06/29 16:03:20,26.6,36.2,32.0,10.0,54.0,58.4,0,0,0,0,0,0,0,0,2865,8786
2022/06/29 16:06:18,26.6,36.1,31.9,10.0,53.9,58.4,0,0,0,0,0,0,0,0,2865,8786
2022/06/29 16:08:16,26.6,36.1,31.9,10.0,53.9,58.4,0,0,0,0,0,0,0,0,2865,8786
2022/06/29 16:10:14,26.6,36.0,31.8,10.0,53.8,58.4,0,0,0,0,0,0,0,0,2865,8786
2022/06/29 16:12:14,26.7,36.0,31.8,10.0,53.8,58.4,0,0,0,0,0,0,0,0,2865,8786
2022/06/29 16:14:12,26.8,35.9,31.7,10.0,53.7,58.4,0,0,0,0,0,0,0,0,2865,8786
2022/06/29 16:16:11,26.9,35.9,31.7,10.0,53.6,58.4,0,0,0,0,0,0,0,0,2865,8786
2022/06/29 16:18:10,26.9,35.9,31.6,10.0,53.6,58.4,0,0,0,0,0,0,0,0,2865,8786
2022/06/29 16:20:08,26.9,35.8,31.5,10.0,53.5,58.4,0,0,0,0,0,0,0,0,2865,8786
2022/06/29 16:22:06,26.9,35.8,31.5,10.0,53.5,58.4,0,0,0,0,0,0,0,0,2865,8786
2022/06/29 16:24:04,26.9,35.7,31.4,10.0,53.4,58.4,0,0,0,0,0,0,0,0,2865,8786
2022/06/29 16:26:03,26.8,35.7,31.4,10.0,53.3,58.4,0,0,0,0,0,0,0,0,2865,8786
2022/06/29 16:28:02,26.7,35.6,31.3,10.0,53.3,58.4,0,0,0,0,0,0,0,0,2865,8786
2022/06/29 16:30:00,26.5,35.6,31.3,10.0,53.2,58.4,0,0,0,0,0,0,0,0,2865,8786
2022/06/29 16:32:00,26.2,35.5,31.2,10.0,53.2,58.4,0,0,0,0,0,0,0,0,2865,8786
2022/06/29 16:33:59,26.0,35.5,31.2,10.0,53.1,58.4,0,0,0,0,0,0,0,0,2865,8786
2022/06/29 16:35:58,25.8,35.4,31.1,10.0,53.0,58.4,0,0,0,0,0,0,0,0,2865,8786
2022/06/29 16:37:56,25.7,35.4,31.1,10.0,53.0,58.4,0,0,0,0,0,0,0,0,2865,8786
2022/06/29 16:39:55,25.7,35.3,31.0,10.0,52.9,58.4,0,0,0,0,0,0,0,0,2865,8786
2022/06/29 16:41:54,25.7,35.3,31.0,10.0,52.9,58.4,0,0,0,0,0,0,0,0,2865,8786
2022/06/29 16:43:52,25.8,35.2,30.9,10.0,52.8,58.4,0,0,0,0,0,0,0,0,2865,8786
2022/06/29 16:45:51,26.0,35.2,30.9,10.0,52.7,58.4,0,0,0,0,0,0,0,0,2865,8786
2022/06/29 16:47:49,26.2,35.1,30.8,10.0,52.7,58.4,0,0,0,0,0,0,0,0,2865,8786
2022/06/29 16:49:48,26.4,35.1,30.8,10.0,52.6,58.4,0,0,0,0,0,0,0,0,2865,8786
2022/06/29 16:51:47,26.5,35.0,30.8,10.0,52.6,58.4,0,0,0,0,0,0,0,0,2865,8786
2022/06/29 16:53:45,26.6,35.0,30.7,10.0,52.5,58.4,0,0,0,0,0,0,0,0,2865,8786
2022/06/29 16:55:43,26.6,35.0,30.7,10.0,52.4,58.4,0,0,0,0,0,0,0,0,2865,8786
2022/06/29 16:57:42,26.7,34.9,30.6,10.0,52.4,58.4,0,0,0,0,0,0,0,0,2865,8786
2022/06/29 16:59:41,26.8,34.9,30.6,10.0,52.3,58.4,0,0,0,0,0,0,0,0,2865,8786
2022/06/29 17:01:39,26.9,34.8,30.5,10.0,52.3,58.4,0,0,0,0,0,0,0,0,2865,8786
2022/06/29 17:03:37,26.9,34.8,30.5,10.0,52.2,58.4,0,0,0,0,0,0,0,0,2865,8786
2022/06/29 17:05:35,26.9,34.8,30.5,10.0,52.1,58.4,0,0,0,0,0,0,0,0,2865,8786
2022/06/29 17:07:34,26.9,34.7,30.4,10.0,52.1,58.4,0,0,0,0,0,0,0,0,2865,8786
2022/06/29 17:09:33,26.9,34.7,30.4,10.0,52.0,58.4,0,0,0,0,0,0,0,0,2865,8786
2022/06/29 17:11:32,26.9,34.7,30.3,10.0,52.0,58.4,0,0,0,0,0,0,0,0,2865,8786
2022/06/29 17:13:30,26.8,34.6,30.3,10.0,51.9,58.4,0,0,0,0,0,0,0,0,2865,8786
2022/06/29 17:15:29,26.7,34.6,30.3,10.0,51.8,58.4,0,0,0,0,0,0,0,0,2865,8786
2022/06/29 17:17:28,26.4,34.6,30.2,10.0,51.8,58.4,0,0,0,0,0,0,0,0,2865,8786
2022/06/29 17:19:24,26.3,34.5,30.2,10.0,51.7,58.4,0,0,0,0,0,0,0,0,2865,8786
2022/06/29 17:21:22,26.1,34.5,30.1,10.0,51.7,58.4,0,0,0,0,0,0,0,0,2865,8786
2022/06/29 17:23:21,26.0,34.4,30.1,10.0,51.6,58.4,0,0,0,0,0,0,0,0,2865,8786
2022/06/29 17:25:20,26.0,34.4,30.1,10.0,51.5,58.4,0,0,0,0,0,0,0,0,2865,8786
2022/06/29 17:28:18,26.0,34.4,30.0,10.0,51.5,58.4,0,0,0,0,0,0,0,0,2865,8786
2022/06/29 17:30:16,26.0,34.3,30.0,10.0,51.4,58.4,0,0,0,0,0,0,0,0,2865,8786
2022/06/29 17:32:16,26.0,34.3,30.0,10.0,51.4,58.4,0,0,0,0,0,0,0,0,2865,8786
2022/06/29 17:34:14,26.1,34.3,29.9,10.0,51.3,58.4,0,0,0,0,0,0,0,0,2865,8786
2022/06/29 17:36:13,26.2,34.2,29.9,10.0,51.2,58.4,0,0,0,0,0,0,0,0,2865,8786
2022/06/29 17:38:11,26.3,34.2,29.9,10.0,51.2,58.4,0,0,0,0,0,0,0,0,2865,8786
2022/06/29 17:40:10,26.3,34.2,29.9,10.0,51.1,58.4,0,0,0,0,0,0,0,0,2865,8786
2022/06/29 17:42:08,26.5,34.1,29.8,10.0,51.1,58.4,0,0,0,0,0,0,0,0,2865,8786
2022/06/29 17:44:07,26.5,34.1,29.8,10.0,51.0,58.4,0,0,0,0,0,0,0,0,2865,8786
2022/06/29 17:46:05,26.6,34.0,29.8,10.0,51.0,58.4,0,0,0,0,0,0,0,0,2865,8786
2022/06/29 17:48:04,26.6,34.0,29.7,10.0,50.9,58.4,0,0,0,0,0,0,0,0,2865,8786
2022/06/29 17:50:03,26.6,34.0,29.7,10.0,50.8,58.4,0,0,0,0,0,0,0,0,2865,8786
2022/06/29 17:52:02,26.6,33.9,29.7,10.0,50.8,58.4,0,0,0,0,0,0,0,0,2865,8786
2022/06/29 17:54:00,26.6,33.9,29.7,10.0,50.7,58.4,0,0,0,0,0,0,0,0,2865,8786
2022/06/29 17:56:00,26.6,33.9,29.6,10.0,50.6,58.4,0,0,0,0,0,0,0,0,2865,8786
2022/06/29 17:57:58,26.4,33.8,29.6,10.0,50.6,58.4,0,0,0,0,0,0,0,0,2865,8786
2022/06/29 17:59:57,26.2,33.8,29.6,10.0,50.5,58.4,0,0,0,0,0,0,0,0,2865,8786
2022/06/29 18:01:56,26.1,33.8,29.7,10.0,50.4,58.4,0,0,1,0,0,1,1,0,2865,8786
2022/06/29 18:03:55,25.9,43.9,40.8,10.0,50.2,57.7,1,0,1,0,0,1,1,0,2865,8787
2022/06/29 18:05:54,25.8,48.9,45.4,10.0,49.9,52.0,1,0,1,0,0,1,1,0,2865,8788
2022/06/29 18:07:54,25.7,51.0,47.4,10.0,49.9,52.0,1,0,1,0,0,1,1,0,2865,8788
2022/06/29 18:09:53,25.6,52.7,48.5,10.0,50.1,52.0,1,0,1,0,0,1,1,0,2865,8789
2022/06/29 18:11:52,25.5,53.7,49.3,10.0,50.5,52.0,1,0,1,0,0,1,1,0,2865,8790
2022/06/29 18:13:51,25.5,54.4,49.9,10.0,51.0,52.0,1,0,1,0,0,1,1,0,2865,8791
2022/06/29 18:15:50,25.4,55.0,50.4,10.0,51.6,52.0,1,0,1,0,0,1,1,0,2865,8791
2022/06/29 18:17:49,25.7,54.0,51.2,10.0,52.1,52.0,0,0,1,0,0,0,1,0,2865,8792
2022/06/29 18:19:48,26.1,41.7,39.5,10.0,52.6,52.0,0,0,0,0,0,0,1,0,2865,8792
2022/06/29 18:21:47,26.5,41.2,39.1,10.0,52.7,57.7,0,0,0,0,0,0,0,0,2865,8792
2022/06/29 18:23:45,27.0,40.7,38.6,10.0,52.7,58.4,0,0,0,0,0,0,0,0,2865,8792
2022/06/29 18:25:43,27.4,40.2,38.2,10.0,52.7,58.4,0,0,0,0,0,0,0,0,2865,8792
2022/06/29 18:27:42,27.7,39.9,37.9,10.0,52.7,58.4,0,0,0,0,0,0,0,0,2865,8792
2022/06/29 18:29:41,28.0,39.6,37.6,10.0,52.6,58.4,0,0,0,0,0,0,0,0,2865,8792
2022/06/29 18:31:39,28.1,39.4,37.4,10.0,52.5,58.4,0,0,0,0,0,0,0,0,2865,8792
2022/06/29 18:33:37,28.1,39.3,37.2,10.0,52.5,58.4,0,0,0,0,0,0,0,0,2865,8792
2022/06/29 18:35:35,27.8,39.2,37.0,10.0,52.4,58.4,0,0,0,0,0,0,0,0,2865,8792
2022/06/29 18:37:34,27.4,39.0,36.8,10.0,52.3,52.0,0,0,0,0,0,0,0,0,2865,8792
2022/06/29 18:39:32,27.1,38.9,36.6,10.0,52.3,52.0,0,0,0,0,0,0,0,0,2865,8792
2022/06/29 18:41:31,26.7,38.8,36.5,10.0,52.2,52.0,0,0,0,0,0,0,0,0,2865,8792
2022/06/29 18:43:29,26.5,38.7,36.3,10.0,52.1,52.0,0,0,0,0,0,0,0,0,2865,8792
2022/06/29 18:45:28,26.2,38.7,36.2,10.0,52.1,52.0,0,0,0,0,0,0,0,0,2865,8792
2022/06/29 18:47:26,26.1,38.6,36.1,10.0,52.0,52.0,0,0,0,0,0,0,0,0,2865,8792
2022/06/29 18:49:24,25.9,38.5,35.9,10.0,51.9,52.0,0,0,0,0,0,0,0,0,2865,8792
2022/06/29 18:51:23,26.0,38.4,35.8,10.0,51.9,52.0,0,0,0,0,0,0,0,0,2865,8792
2022/06/29 18:53:22,26.2,38.3,35.7,10.0,51.8,58.4,0,0,0,0,0,0,0,0,2865,8792
2022/06/29 18:56:19,26.6,38.3,35.5,10.0,51.7,58.4,0,0,0,0,0,0,0,0,2865,8792
2022/06/29 18:58:19,26.9,38.2,35.4,10.0,51.7,58.4,0,0,0,0,0,0,0,0,2865,8792
2022/06/29 19:00:17,27.1,38.2,35.3,10.0,51.6,58.4,0,0,0,0,0,0,0,0,2865,8792
2022/06/29 19:02:15,27.3,38.1,35.2,10.0,51.5,58.4,0,0,0,0,0,0,0,0,2865,8792
2022/06/29 19:04:14,27.6,38.1,35.1,10.0,51.5,58.4,0,0,0,0,0,0,0,0,2865,8792
2022/06/29 19:06:13,27.8,38.0,35.0,10.0,51.4,58.4,0,0,0,0,0,0,0,0,2865,8792
2022/06/29 19:08:10,27.9,38.0,34.9,10.0,51.3,58.4,0,0,0,0,0,0,0,0,2865,8792
2022/06/29 19:10:07,28.1,37.9,34.8,10.0,51.3,58.4,0,0,0,0,0,0,0,0,2865,8792
2022/06/29 19:12:06,28.2,37.9,34.7,10.0,51.2,58.4,0,0,0,0,0,0,0,0,2865,8792
2022/06/29 19:14:04,28.3,37.8,34.6,10.0,51.2,58.4,0,0,0,0,0,0,0,0,2865,8792
2022/06/29 19:16:03,28.3,37.8,34.5,10.0,51.1,58.4,0,0,0,0,0,0,0,0,2865,8792
2022/06/29 19:18:02,28.3,37.7,34.5,10.0,51.0,58.4,0,0,0,0,0,0,0,0,2865,8792
2022/06/29 19:20:00,28.2,37.7,34.4,10.0,51.0,58.4,0,0,0,0,0,0,0,0,2865,8792
2022/06/29 19:22:00,28.2,37.7,34.3,10.0,50.9,58.4,0,0,0,0,0,0,0,0,2865,8792
2022/06/29 19:23:58,28.2,37.6,34.2,10.0,50.8,58.4,0,0,0,0,0,0,0,0,2865,8792
2022/06/29 19:25:57,28.0,37.6,34.1,10.0,50.8,58.4,0,0,0,0,0,0,0,0,2865,8792
2022/06/29 19:27:56,27.7,37.5,34.0,10.0,50.7,58.4,0,0,0,0,0,0,0,0,2865,8792
2022/06/29 19:29:55,27.6,37.5,33.9,10.0,50.7,58.4,0,0,0,0,0,0,0,0,2865,8792
2022/06/29 19:31:55,27.3,37.4,33.8,10.0,50.6,58.4,0,0,0,0,0,0,0,0,2865,8792
2022/06/29 19:33:54,27.0,37.4,33.8,10.0,50.5,58.4,0,0,0,0,0,0,0,0,2865,8792
2022/06/29 19:35:53,26.8,37.3,33.7,10.0,50.5,58.4,0,0,0,0,0,0,0,0,2865,8792
2022/06/29 19:37:53,26.6,41.7,42.7,10.0,50.4,58.4,0,1,1,0,0,1,1,0,2865,8792
2022/06/29 19:39:52,26.3,47.8,44.3,10.0,50.1,57.7,0,1,1,0,0,1,1,0,2865,8793
2022/06/29 19:41:51,26.1,50.6,47.1,10.0,50.0,57.7,0,1,1,0,0,1,1,0,2865,8793
2022/06/29 19:43:49,26.0,52.5,48.4,10.0,50.1,57.7,0,1,1,0,0,1,1,0,2865,8794
2022/06/29 19:45:47,25.8,53.7,49.3,10.0,50.5,57.7,0,1,1,0,0,1,1,0,2865,8795
2022/06/29 19:47:46,25.7,54.5,49.9,10.0,50.9,57.7,0,1,1,0,0,1,1,0,2865,8796
2022/06/29 19:49:44,25.6,55.2,50.6,10.0,51.5,57.7,0,1,1,0,0,1,1,0,2865,8796
2022/06/29 19:51:44,25.5,55.8,51.3,10.0,52.1,57.7,0,1,1,0,0,1,1,0,2865,8797
2022/06/29 19:53:41,25.4,56.4,51.8,10.0,52.6,57.7,0,1,1,0,0,1,1,0,2865,8798
2022/06/29 19:55:39,25.3,57.0,52.2,10.0,53.2,57.7,0,1,1,0,0,1,1,0,2865,8799
2022/06/29 19:57:37,25.2,57.6,52.7,10.0,53.7,57.7,0,1,1,0,0,1,1,0,2865,8799
2022/06/29 19:59:36,25.1,58.1,53.2,10.0,54.1,57.7,0,1,1,0,0,1,1,0,2865,8800
2022/06/29 20:01:34,25.0,44.8,41.5,10.0,54.6,52.0,0,0,0,0,0,0,1,0,2865,8800
2022/06/29 20:03:34,25.0,42.3,39.9,10.0,54.8,52.0,0,0,0,0,0,0,0,0,2865,8800
2022/06/29 20:05:33,24.9,41.7,39.3,10.0,54.9,52.0,0,0,0,0,0,0,0,0,2865,8800
2022/06/29 20:07:32,24.9,41.2,38.9,10.0,54.9,52.0,0,0,0,0,0,0,0,0,2865,8800
2022/06/29 20:09:27,24.9,40.8,38.5,10.0,54.8,52.0,0,0,0,0,0,0,0,0,2865,8800
2022/06/29 20:11:27,24.8,40.4,38.2,10.0,54.7,52.0,0,0,0,0,0,0,0,0,2865,8800
2022/06/29 20:13:26,24.8,40.1,37.9,10.0,54.7,52.0,0,0,0,0,0,0,0,0,2865,8800
2022/06/29 20:15:25,24.8,39.9,37.7,10.0,54.6,52.0,0,0,0,0,0,0,0,0,2865,8800
2022/06/29 20:17:23,24.7,39.8,37.5,10.0,54.5,58.4,0,0,0,0,0,0,0,0,2865,8800
2022/06/29 20:19:22,24.7,39.7,37.3,10.0,54.5,58.4,0,0,0,0,0,0,0,0,2865,8800
2022/06/29 20:21:20,24.7,39.5,37.1,10.0,54.4,58.4,0,0,0,0,0,0,0,0,2865,8800
2022/06/29 20:24:19,24.7,39.4,37.0,10.0,54.3,58.4,0,0,0,0,0,0,0,0,2865,8800
2022/06/29 20:26:18,24.7,39.3,36.8,10.0,54.2,58.4,0,0,0,0,0,0,0,0,2865,8800
2022/06/29 20:28:16,24.7,39.2,36.6,10.0,54.2,58.4,0,0,0,0,0,0,0,0,2865,8800
2022/06/29 20:30:15,24.6,39.1,36.5,10.0,54.1,58.4,0,0,0,0,0,0,0,0,2865,8800
2022/06/29 20:32:14,24.6,39.0,36.4,10.0,54.1,58.4,0,0,0,0,0,0,0,0,2865,8800
2022/06/29 20:34:13,24.5,38.9,36.2,10.0,54.0,58.4,0,0,0,0,0,0,0,0,2865,8800
2022/06/29 20:36:11,24.5,38.8,36.1,10.0,53.9,58.4,0,0,0,0,0,0,0,0,2865,8800
2022/06/29 20:38:09,24.5,38.8,36.0,10.0,53.8,58.4,0,0,0,0,0,0,0,0,2865,8800
2022/06/29 20:40:08,24.4,38.7,35.8,10.0,53.8,58.4,0,0,0,0,0,0,0,0,2865,8800
2022/06/29 20:42:07,24.4,38.6,35.7,10.0,53.7,58.4,0,0,0,0,0,0,0,0,2865,8800
2022/06/29 20:44:04,24.3,38.6,35.6,10.0,53.7,58.4,0,0,0,0,0,0,0,0,2865,8800
2022/06/29 20:46:02,24.3,38.5,35.5,10.0,53.6,58.4,0,0,0,0,0,0,0,0,2865,8800
2022/06/29 20:48:00,24.2,38.5,35.3,10.0,53.5,52.0,0,0,0,0,0,0,0,0,2865,8800
2022/06/29 20:49:59,24.1,38.4,35.2,10.0,53.5,52.0,0,0,0,0,0,0,0,0,2865,8800
2022/06/29 20:51:58,24.0,38.4,35.1,10.0,53.4,52.0,0,0,0,0,0,0,0,0,2865,8800
2022/06/29 20:53:55,24.0,38.3,35.0,10.0,53.3,52.0,0,0,0,0,0,0,0,0,2865,8800
2022/06/29 20:55:54,23.9,38.3,34.9,10.0,53.3,52.0,0,0,0,0,0,0,0,0,2865,8800
2022/06/29 20:57:53,23.8,38.2,34.8,10.0,53.2,52.0,0,0,0,0,0,0,0,0,2865,8800
2022/06/29 20:59:52,23.8,38.2,34.8,10.0,53.2,52.0,0,0,0,0,0,0,0,0,2865,8800
2022/06/29 21:01:52,23.7,38.2,34.7,10.0,53.1,52.0,0,0,0,0,0,0,0,0,2865,8800
2022/06/29 21:03:50,23.7,38.1,34.6,10.0,53.0,52.0,0,0,0,0,0,0,0,0,2865,8800
2022/06/29 21:05:48,23.6,38.1,34.5,10.0,53.0,52.0,0,0,0,0,0,0,0,0,2865,8800
2022/06/29 21:07:47,23.5,38.0,34.4,10.0,52.9,52.0,0,0,0,0,0,0,0,0,2865,8800
2022/06/29 21:09:46,23.4,38.0,34.3,10.0,52.8,52.0,0,0,0,0,0,0,0,0,2865,8800
2022/06/29 21:11:44,23.4,38.0,34.2,10.0,52.8,52.0,0,0,0,0,0,0,0,0,2865,8800
2022/06/29 21:13:42,23.3,37.9,34.1,10.0,52.7,52.0,0,0,0,0,0,0,0,0,2865,8800
2022/06/29 21:15:41,23.2,37.9,34.1,10.0,52.6,52.0,0,0,0,0,0,0,0,0,2865,8800
2022/06/29 21:17:40,23.1,37.8,34.0,10.0,52.6,52.0,0,0,0,0,0,0,0,0,2865,8800
2022/06/29 21:19:39,23.0,37.8,33.9,10.0,52.5,52.0,0,0,0,0,0,0,0,0,2865,8800
2022/06/29 21:21:38,22.9,37.7,33.8,10.0,52.4,52.0,0,0,0,0,0,0,0,0,2865,8800
2022/06/29 21:23:37,22.8,37.7,33.7,10.0,52.4,52.0,0,0,0,0,0,0,0,0,2865,8800
2022/06/29 21:25:36,22.7,37.6,33.6,10.0,52.3,52.0,0,0,0,0,0,0,0,0,2865,8800
2022/06/29 21:27:34,22.6,37.6,33.6,10.0,52.2,52.0,0,0,0,0,0,0,0,0,2865,8800
2022/06/29 21:29:34,22.6,37.5,33.5,10.0,52.1,52.0,0,0,0,0,0,0,0,0,2865,8800
2022/06/29 21:31:31,22.5,37.5,33.4,10.0,52.1,52.0,0,0,0,0,0,0,0,0,2865,8800
2022/06/29 21:33:29,22.4,37.4,33.3,10.0,52.0,52.0,0,0,0,0,0,0,0,0,2865,8800
2022/06/29 21:35:27,22.3,37.4,33.2,10.0,51.9,52.0,0,0,0,0,0,0,0,0,2865,8800
2022/06/29 21:37:26,22.2,37.3,33.2,10.0,51.9,52.0,0,0,0,0,0,0,0,0,2865,8800
2022/06/29 21:39:23,22.2,37.3,33.1,10.0,51.8,52.0,0,0,0,0,0,0,0,0,2865,8800
2022/06/29 21:41:23,22.1,37.2,33.0,10.0,51.7,52.0,0,0,0,0,0,0,0,0,2865,8800
2022/06/29 21:43:22,22.0,37.2,32.9,10.0,51.7,52.0,0,0,0,0,0,0,0,0,2865,8800
2022/06/29 21:45:20,22.0,37.1,32.9,10.0,51.6,52.0,0,0,0,0,0,0,0,0,2865,8800
2022/06/29 21:48:19,21.9,37.0,32.8,10.0,51.5,52.0,0,0,0,0,0,0,0,0,2865,8800
2022/06/29 21:50:18,21.8,37.0,32.7,10.0,51.4,52.0,0,0,0,0,0,0,0,0,2865,8800
2022/06/29 21:52:16,21.8,36.9,32.7,10.0,51.4,52.0,0,0,0,0,0,0,0,0,2865,8800
2022/06/29 21:54:14,21.7,36.9,32.6,10.0,51.3,52.0,0,0,0,0,0,0,0,0,2865,8800
2022/06/29 21:56:13,21.6,36.8,32.5,10.0,51.2,52.0,0,0,0,0,0,0,0,0,2865,8800
2022/06/29 21:58:11,21.6,36.8,32.5,10.0,51.2,52.0,0,0,0,0,0,0,0,0,2865,8800
2022/06/29 22:00:09,21.5,36.7,32.4,10.0,51.1,10.0,0,0,0,0,0,0,0,0,2865,8800
2022/06/29 22:02:09,21.5,36.6,32.3,10.0,51.0,10.0,0,0,0,0,0,0,0,0,2865,8800
2022/06/29 22:04:08,21.4,36.6,32.2,10.0,51.0,10.0,0,0,0,0,0,0,0,0,2865,8800
2022/06/29 22:06:06,21.3,36.5,32.2,10.0,51.0,10.0,0,0,0,0,0,0,0,0,2865,8800
2022/06/29 22:08:06,21.3,36.5,32.1,10.0,51.0,10.0,0,0,0,0,0,0,0,0,2865,8800
2022/06/29 22:10:04,21.2,36.4,32.1,10.0,51.0,10.0,0,0,0,0,0,0,0,0,2865,8800
2022/06/29 22:12:03,21.2,36.4,32.0,10.0,51.0,10.0,0,0,0,0,0,0,0,0,2865,8800
2022/06/29 22:14:02,21.1,36.3,31.9,10.0,51.0,10.0,0,0,0,0,0,0,0,0,2865,8800
2022/06/29 22:16:00,21.0,36.3,31.9,10.0,51.0,10.0,0,0,0,0,0,0,0,0,2865,8800
2022/06/29 22:17:59,21.0,36.2,31.8,10.0,51.0,10.0,0,0,0,0,0,0,0,0,2865,8800
2022/06/29 22:19:56,20.9,36.2,31.7,10.0,51.0,10.0,0,0,0,0,0,0,0,0,2865,8800
2022/06/29 22:21:55,20.8,36.1,31.7,10.0,51.0,10.0,0,0,0,0,0,0,0,0,2865,8800
2022/06/29 22:23:53,20.8,36.0,31.6,10.0,51.0,10.0,0,0,0,0,0,0,0,0,2865,8800
2022/06/29 22:25:52,20.7,36.0,31.6,10.0,51.0,10.0,0,0,0,0,0,0,0,0,2865,8800
2022/06/29 22:27:52,20.7,35.9,31.5,10.0,51.0,10.0,0,0,0,0,0,0,0,0,2865,8800
2022/06/29 22:29:51,20.6,35.9,31.5,10.0,51.0,10.0,0,0,0,0,0,0,0,0,2865,8800
2022/06/29 22:31:49,20.6,35.8,31.4,10.0,51.0,10.0,0,0,0,0,0,0,0,0,2865,8800
2022/06/29 22:33:48,20.5,35.8,31.4,10.0,51.0,10.0,0,0,0,0,0,0,0,0,2865,8800
2022/06/29 22:35:43,20.5,35.7,31.3,10.0,50.9,10.0,0,0,0,0,0,0,0,0,2865,8800
2022/06/29 22:37:42,20.4,35.7,31.3,10.0,50.9,10.0,0,0,0,0,0,0,0,0,2865,8800
2022/06/29 22:39:41,20.4,35.6,31.2,10.0,50.9,10.0,0,0,0,0,0,0,0,0,2865,8800
2022/06/29 22:41:38,20.3,35.6,31.1,10.0,50.9,10.0,0,0,0,0,0,0,0,0,2865,8800
2022/06/29 22:43:37,20.3,35.5,31.1,10.0,50.9,10.0,0,0,0,0,0,0,0,0,2865,8800
2022/06/29 22:45:35,20.2,35.4,31.0,10.0,50.9,10.0,0,0,0,0,0,0,0,0,2865,8800
2022/06/29 22:47:34,20.1,35.4,31.0,10.0,50.9,10.0,0,0,0,0,0,0,0,0,2865,8800
2022/06/29 22:49:33,20.1,35.3,30.9,10.0,50.9,10.0,0,0,0,0,0,0,0,0,2865,8800
2022/06/29 22:51:32,20.0,35.3,30.9,10.0,50.9,10.0,0,0,0,0,0,0,0,0,2865,8800
2022/06/29 22:53:32,20.0,35.2,30.9,10.0,50.9,10.0,0,0,0,0,0,0,0,0,2865,8800
2022/06/29 22:55:30,19.9,35.2,30.8,10.0,50.8,10.0,0,0,0,0,0,0,0,0,2865,8800
2022/06/29 22:57:30,19.9,35.1,30.8,10.0,50.8,10.0,0,0,0,0,0,0,0,0,2865,8800
2022/06/29 22:59:29,19.8,35.1,30.7,10.0,50.8,10.0,0,0,0,0,0,0,0,0,2865,8800
2022/06/29 23:01:27,19.8,35.0,30.7,10.0,50.8,10.0,0,0,0,0,0,0,0,0,2865,8800
2022/06/29 23:03:26,19.8,35.0,30.6,10.0,50.8,10.0,0,0,0,0,0,0,0,0,2865,8800
2022/06/29 23:05:24,19.7,34.9,30.6,10.0,50.8,10.0,0,0,0,0,0,0,0,0,2865,8800
2022/06/29 23:07:24,19.7,34.9,30.5,10.0,50.8,10.0,0,0,0,0,0,0,0,0,2865,8800
2022/06/29 23:09:22,19.7,34.9,30.5,10.0,50.8,10.0,0,0,0,0,0,0,0,0,2865,8800
2022/06/29 23:11:21,19.6,34.8,30.4,10.0,50.8,10.0,0,0,0,0,0,0,0,0,2865,8800
2022/06/29 23:14:19,19.6,34.8,30.4,10.0,50.8,10.0,0,0,0,0,0,0,0,0,2865,8800
2022/06/29 23:16:17,19.5,34.7,30.3,10.0,50.8,10.0,0,0,0,0,0,0,0,0,2865,8800
2022/06/29 23:18:16,19.5,34.7,30.3,10.0,50.7,10.0,0,0,0,0,0,0,0,0,2865,8800
2022/06/29 23:20:14,19.5,34.7,30.3,10.0,50.7,10.0,0,0,0,0,0,0,0,0,2865,8800
2022/06/29 23:22:14,19.4,34.6,30.2,10.0,50.7,10.0,0,0,0,0,0,0,0,0,2865,8800
2022/06/29 23:24:14,19.4,34.6,30.2,10.0,50.7,10.0,0,0,0,0,0,0,0,0,2865,8800
2022/06/29 23:26:12,19.4,34.5,30.1,10.0,50.7,10.0,0,0,0,0,0,0,0,0,2865,8800
2022/06/29 23:28:11,19.3,34.5,30.1,10.0,50.7,10.0,0,0,0,0,0,0,0,0,2865,8800
2022/06/29 23:30:10,19.3,34.5,30.1,10.0,50.7,10.0,0,0,0,0,0,0,0,0,2865,8800
2022/06/29 23:32:10,19.3,34.4,30.0,10.0,50.7,10.0,0,0,0,0,0,0,0,0,2865,8800
2022/06/29 23:34:09,19.2,34.4,30.0,10.0,50.6,10.0,0,0,0,0,0,0,0,0,2865,8800
2022/06/29 23:36:08,19.2,34.3,30.0,10.0,50.6,10.0,0,0,0,0,0,0,0,0,2865,8800
2022/06/29 23:38:07,19.2,34.3,29.9,10.0,50.6,10.0,0,0,0,0,0,0,0,0,2865,8800
2022/06/29 23:40:05,19.2,34.3,29.9,10.0,50.6,10.0,0,0,0,0,0,0,0,0,2865,8800
2022/06/29 23:42:04,19.1,34.2,29.9,10.0,50.6,10.0,0,0,0,0,0,0,0,0,2865,8800
2022/06/29 23:44:04,19.1,34.2,29.8,10.0,50.6,10.0,0,0,0,0,0,0,0,0,2865,8800
2022/06/29 23:46:02,19.1,34.1,29.8,10.0,50.6,10.0,0,0,0,0,0,0,0,0,2865,8800
2022/06/29 23:48:01,19.0,34.1,29.8,10.0,50.5,10.0,0,0,0,0,0,0,0,0,2865,8800
2022/06/29 23:50:00,19.0,34.1,29.7,10.0,50.5,10.0,0,0,0,0,0,0,0,0,2865,8800
2022/06/29 23:51:57,19.0,34.0,29.7,10.0,50.5,10.0,0,0,0,0,0,0,0,0,2865,8800
2022/06/29 23:53:57,19.0,34.0,29.7,10.0,50.5,10.0,0,0,0,0,0,0,0,0,2865,8800
2022/06/29 23:55:56,18.9,33.9,29.7,10.0,50.5,10.0,0,0,0,0,0,0,0,0,2865,8800
2022/06/29 23:57:55,18.9,33.9,29.6,10.0,50.5,10.0,0,0,0,0,0,0,0,0,2865,8800
2022/06/29 23:59:54,18.9,33.9,29.6,10.0,50.4,10.0,0,0,0,0,0,0,0,0,2865,8800
