Type,Analog,Analog,Analog,Analog,Analog,Analog,Digital,Digital,Digital,Digital,Digital,Digital,Digital,Digital,Integer,Integer
Index,1,5,2,53,3,58,41,42,43,44,45,46,49,50,95,98
Name,R1,R9,R2,R2 Solltemperatur,R3,R3 Solltemperatur,M1,M3,M2/M11,E10,M13,M18,M16,E9,Waermemenge Heizen,Waermemenge Warmwasser
Description,Variable 1,Variable 2,Variable 3,Variable 4,Variable 5,Variable 6,Variable 7,Variable 8,Variable 9,Variable 10,Variable 11,Variable 12,Variable 13,Variable 14,Variable 15,Variable 16
2024/03/03 00:02:13,5.8,36.3,31.8,32.1,52.4,40.0,0,1,1,0,1,0,1,0,1548,8706
2024/03/03 00:04:12,5.8,36.6,32.0,32.1,52.4,40.0,0,1,1,0,1,0,1,0,1549,8706
2024/03/03 00:06:11,5.8,36.7,32.2,32.1,52.4,40.0,0,1,1,0,1,0,1,0,1549,8706
2024/03/03 00:08:10,5.8,37.1,32.5,32.1,52.3,40.0,0,1,1,0,1,0,1,0,1550,8706
2024/03/03 00:10:09,5.8,37.3,32.7,32.1,52.3,40.0,0,1,1,0,1,0,1,0,1551,8706
2024/03/03 00:12:07,5.8,37.5,32.9,32.1,52.3,40.0,0,1,1,0,1,0,1,0,1552,8706
2024/03/03 00:14:06,5.8,37.7,33.1,32.1,52.3,40.0,0,1,1,0,1,0,1,0,1553,8706
2024/03/03 00:16:04,5.7,37.9,33.3,32.1,52.2,40.0,0,1,1,0,1,0,1,0,1553,8706
2024/03/03 00:18:02,5.7,38.1,33.4,32.1,52.2,40.0,0,1,1,0,1,0,1,0,1554,8706
2024/03/03 00:20:01,5.6,38.3,33.6,32.1,52.2,40.0,0,1,1,0,1,0,1,0,1555,8706
2024/03/03 00:22:00,5.6,38.6,33.9,32.1,52.1,40.0,0,1,1,0,1,0,1,0,1556,8706
2024/03/03 00:24:00,5.6,38.7,34.0,32.1,52.1,40.0,0,1,1,0,1,0,1,0,1556,8706
2024/03/03 00:25:57,5.6,36.2,34.2,32.1,52.1,40.0,0,0,0,0,1,0,1,0,1557,8706
2024/03/03 00:27:56,5.6,36.4,34.6,32.1,52.1,40.0,0,0,0,0,1,0,0,0,1557,8706
2024/03/03 00:29:55,5.6,35.8,34.0,32.1,52.0,40.0,0,0,0,0,1,0,0,0,1557,8706
2024/03/03 00:32:54,5.6,35.4,33.7,32.1,52.0,40.0,0,0,0,0,1,0,0,0,1557,8706
2024/03/03 00:34:53,5.6,35.1,33.4,32.1,52.0,40.0,0,0,0,0,1,0,0,0,1557,8706
2024/03/03 00:36:51,5.6,34.9,33.2,32.1,52.0,40.0,0,0,0,0,1,0,0,0,1557,8706
2024/03/03 00:38:50,5.6,34.8,33.0,32.1,51.9,40.0,0,0,0,0,1,0,0,0,1557,8706
2024/03/03 00:40:48,5.6,34.6,32.7,32.1,51.9,40.0,0,0,0,0,1,0,0,0,1557,8706
2024/03/03 00:42:46,5.6,34.5,32.5,32.1,51.9,40.0,0,0,0,0,1,0,0,0,1557,8706
2024/03/03 00:44:45,5.6,34.4,32.3,32.1,51.8,40.0,0,0,0,0,1,0,0,0,1557,8706
2024/03/03 00:46:44,5.6,34.3,32.1,32.1,51.8,40.0,0,0,0,0,1,0,0,0,1557,8706
2024/03/03 00:48:43,5.6,34.2,31.9,32.1,51.8,40.0,0,0,0,0,1,0,0,0,1557,8706
2024/03/03 00:50:42,5.6,34.1,31.7,32.1,51.8,40.0,0,0,0,0,1,0,0,0,1557,8706
2024/03/03 00:52:42,5.6,34.1,31.4,32.1,51.7,40.0,0,0,0,0,1,0,0,0,1557,8706
2024/03/03 00:54:40,5.6,34.0,31.2,32.1,51.7,40.0,0,0,0,0,1,0,0,0,1557,8706
2024/03/03 00:56:38,5.6,33.9,31.0,32.1,51.7,40.0,0,0,0,0,1,0,0,0,1557,8706
2024/03/03 00:58:35,5.5,33.9,30.8,32.1,51.7,40.0,0,0,0,0,1,0,0,0,1557,8706
2024/03/03 01:00:34,5.5,33.8,30.6,32.1,51.6,40.0,0,0,0,0,1,0,0,0,1557,8706
2024/03/03 01:02:33,5.5,33.8,30.3,32.1,51.6,40.0,0,0,0,0,1,0,0,0,1557,8706
2024/03/03 01:04:30,5.5,33.7,30.1,32.1,51.6,40.0,0,0,0,0,1,0,0,0,1557,8706
2024/03/03 01:06:28,5.5,33.7,29.9,32.1,51.6,40.0,0,0,0,0,1,0,0,0,1557,8706
2024/03/03 01:08:28,5.5,33.6,29.8,32.1,51.5,40.0,0,0,0,0,1,0,0,0,1557,8706
2024/03/03 01:10:27,5.5,33.6,29.6,32.1,51.5,40.0,0,0,0,0,1,0,0,0,1557,8706
2024/03/03 01:12:26,5.5,33.5,29.5,32.1,51.5,40.0,0,0,0,0,1,0,0,0,1557,8706
2024/03/03 01:14:24,5.5,33.5,29.3,32.1,51.4,40.0,0,0,0,0,1,0,0,0,1557,8706
2024/03/03 01:16:23,5.5,33.5,29.1,32.1,51.4,40.0,0,0,0,0,1,0,0,0,1557,8706
2024/03/03 01:18:23,5.5,33.4,29.0,32.1,51.4,40.0,0,0,0,0,1,0,0,0,1557,8706
2024/03/03 01:20:21,5.5,33.4,28.8,32.1,51.4,40.0,0,0,0,0,1,0,0,0,1557,8706
2024/03/03 01:22:20,5.5,33.3,28.7,32.1,51.3,40.0,0,0,0,0,1,0,0,0,1557,8706
2024/03/03 01:24:18,5.5,33.3,28.5,32.1,51.3,40.0,0,0,0,0,1,0,0,0,1557,8706
2024/03/03 01:26:16,5.5,33.2,28.4,32.1,51.3,40.0,0,0,0,0,1,0,0,0,1557,8706
2024/03/03 01:28:15,5.5,33.2,28.2,32.1,51.3,40.0,0,0,0,0,1,0,0,0,1557,8706
2024/03/03 01:30:14,5.5,33.2,28.1,32.1,51.2,40.0,0,0,0,0,1,0,0,0,1557,8706
2024/03/03 01:32:13,5.5,33.1,28.0,32.1,51.2,40.0,0,0,0,0,1,0,0,0,1557,8706
2024/03/03 01:34:11,5.5,33.1,27.8,32.1,51.2,40.0,0,0,0,0,1,0,0,0,1557,8706
2024/03/03 01:36:10,5.5,33.0,27.7,32.1,51.2,40.0,0,0,0,0,1,0,0,0,1557,8706
2024/03/03 01:38:10,5.5,32.9,27.6,32.1,51.1,40.0,0,0,0,0,1,0,0,0,1557,8706
2024/03/03 01:40:09,5.5,32.9,27.4,32.1,51.1,40.0,0,0,0,0,1,0,0,0,1557,8706
2024/03/03 01:42:09,5.5,32.8,27.3,32.1,51.1,40.0,0,0,0,0,1,0,0,0,1557,8706
2024/03/03 01:44:07,5.5,32.8,27.2,32.1,51.1,40.0,0,0,0,0,1,0,0,0,1557,8706
2024/03/03 01:46:06,5.5,32.7,27.1,32.1,51.0,40.0,0,0,0,0,1,0,0,0,1557,8706
2024/03/03 01:48:05,5.5,32.7,27.0,32.1,51.0,40.0,0,0,0,0,1,0,0,0,1557,8706
2024/03/03 01:50:04,5.4,32.6,26.8,32.1,51.0,40.0,0,0,0,0,1,0,0,0,1557,8706
2024/03/03 01:52:03,5.4,32.5,26.7,32.1,51.0,40.0,0,0,0,0,1,0,0,0,1557,8706
2024/03/03 01:54:01,5.4,32.5,26.6,32.1,50.9,40.0,0,0,0,0,1,0,0,0,1557,8706
2024/03/03 01:56:00,5.4,32.4,26.5,32.1,50.9,40.0,0,0,0,0,1,0,0,0,1557,8706
2024/03/03 01:58:00,5.4,32.3,26.4,32.1,50.9,40.0,0,0,0,0,1,0,0,0,1557,8706
2024/03/03 02:00:00,5.4,32.3,26.3,32.1,50.9,40.0,0,0,0,0,1,0,0,0,1557,8706
2024/03/03 02:01:58,5.4,32.2,26.2,32.1,50.8,40.0,0,0,0,0,1,0,0,0,1557,8706
2024/03/03 02:03:56,5.4,29.4,27.9,32.1,50.8,40.0,0,0,1,0,1,0,1,0,1557,8706
2024/03/03 02:05:55,5.4,30.8,27.9,32.1,50.8,40.0,1,0,1,0,1,0,1,0,1557,8706
2024/03/03 02:08:55,5.4,31.6,28.0,32.1,50.8,40.0,1,0,1,0,1,0,1,0,1558,8706
2024/03/03 02:09:54,5.4,31.8,28.1,32.1,50.7,40.0,1,0,1,0,1,0,1,0,1559,8706
2024/03/03 02:12:53,5.4,32.3,28.4,32.1,50.7,40.0,1,0,1,0,1,0,1,0,1560,8706
2024/03/03 02:14:52,5.4,32.5,28.6,32.1,50.7,40.0,1,0,1,0,1,0,1,0,1560,8706
2024/03/03 02:16:51,5.4,32.8,28.9,32.1,50.7,40.0,1,0,1,0,1,0,1,0,1561,8706
2024/03/03 02:18:51,5.4,32.9,28.9,32.1,50.6,40.0,1,0,1,0,1,0,1,0,1562,8706
2024/03/03 02:20:50,5.4,33.2,29.2,32.1,50.6,40.0,1,0,1,0,1,0,1,0,1563,8706
2024/03/03 02:22:48,5.4,33.4,29.4,32.1,50.6,40.0,1,0,1,0,1,0,1,0,1564,8706
2024/03/03 02:24:47,5.4,33.7,29.6,32.1,50.6,40.0,1,0,1,0,1,0,1,0,1564,8706
2024/03/03 02:26:45,5.4,33.9,29.8,32.1,50.5,40.0,1,0,1,0,1,0,1,0,1565,8706
2024/03/03 02:28:44,5.4,34.1,30.0,32.1,50.5,40.0,1,0,1,0,1,0,1,0,1566,8706
2024/03/03 02:30:42,5.4,34.7,30.2,32.1,50.5,40.0,1,0,1,0,1,0,1,0,1567,8706
2024/03/03 02:32:42,5.4,34.7,30.2,32.1,50.5,40.0,1,0,1,0,1,0,1,0,1568,8706
2024/03/03 02:34:41,5.4,34.8,30.4,32.1,50.4,40.0,1,0,1,0,1,0,1,0,1568,8706
2024/03/03 02:36:40,5.4,35.0,30.6,32.1,50.4,40.0,1,0,1,0,1,0,1,0,1569,8706
2024/03/03 02:38:39,5.4,35.3,30.9,32.1,50.4,40.0,1,0,1,0,1,0,1,0,1570,8706
2024/03/03 02:40:39,5.4,35.5,31.0,32.1,50.4,40.0,1,0,1,0,1,0,1,0,1571,8706
2024/03/03 02:42:37,5.4,35.7,31.2,32.1,50.3,40.0,1,0,1,0,1,0,1,0,1572,8706
2024/03/03 02:44:35,5.4,36.1,31.5,32.1,50.3,40.0,1,0,1,0,1,0,1,0,1572,8706
2024/03/03 02:46:34,5.4,36.3,31.7,32.1,50.3,40.0,1,0,1,0,1,0,1,0,1573,8706
2024/03/03 02:48:33,5.4,36.6,32.1,32.1,50.3,40.0,1,0,1,0,1,0,1,0,1574,8706
2024/03/03 02:50:32,5.4,36.8,32.3,32.1,50.2,40.0,1,0,1,0,1,0,1,0,1575,8706
2024/03/03 02:52:31,5.4,37.0,32.5,32.1,50.2,40.0,1,0,1,0,1,0,1,0,1575,8706
2024/03/03 02:54:30,5.4,37.3,32.7,32.1,50.2,40.0,1,0,1,0,1,0,1,0,1576,8706
2024/03/03 02:56:28,5.4,37.4,32.9,32.1,50.2,40.0,1,0,1,0,1,0,1,0,1577,8706
2024/03/03 02:58:27,5.4,37.7,33.1,32.1,50.1,40.0,1,0,1,0,1,0,1,0,1578,8706
2024/03/03 03:00:25,5.4,37.9,33.3,32.1,50.1,40.0,1,0,1,0,1,0,1,0,1579,8706
2024/03/03 03:02:25,5.4,38.2,33.6,32.1,50.1,40.0,1,0,1,0,1,0,1,0,1579,8706
2024/03/03 03:04:24,5.4,38.3,33.8,32.1,50.1,40.0,1,0,1,0,1,0,1,0,1580,8706
2024/03/03 03:06:23,5.3,38.5,33.9,32.1,50.0,40.0,1,0,1,0,1,0,1,0,1581,8706
2024/03/03 03:08:22,5.3,36.8,34.2,32.1,50.0,40.0,0,0,1,0,1,0,1,0,1581,8706
2024/03/03 03:10:20,5.3,36.3,34.5,32.1,50.0,40.0,0,0,0,0,1,0,1,0,1581,8706
2024/03/03 03:12:19,5.3,36.0,34.2,32.1,50.0,40.0,0,0,0,0,1,0,0,0,1581,8706
2024/03/03 03:14:19,5.3,35.5,33.8,32.1,50.0,40.0,0,0,0,0,1,0,0,0,1581,8706
2024/03/03 03:16:17,5.3,35.2,33.5,32.1,49.9,40.0,0,0,0,0,1,0,0,0,1581,8706
2024/03/03 03:18:16,5.3,35.0,33.3,32.1,49.9,40.0,0,0,0,0,1,0,0,0,1581,8706
2024/03/03 03:20:14,5.2,34.8,33.0,32.1,49.9,40.0,0,0,0,0,1,0,0,0,1581,8706
2024/03/03 03:22:13,5.2,34.6,32.8,32.1,49.9,40.0,0,0,0,0,1,0,0,0,1581,8706
2024/03/03 03:24:12,5.2,34.5,32.6,32.1,49.9,40.0,0,0,0,0,1,0,0,0,1581,8706
2024/03/03 03:26:12,5.2,34.4,32.4,32.1,49.8,40.0,0,0,0,0,1,0,0,0,1581,8706
2024/03/03 03:28:11,5.2,34.3,32.1,32.1,49.8,40.0,0,0,0,0,1,0,0,0,1581,8706
2024/03/03 03:30:09,5.2,34.2,31.9,32.1,49.8,40.0,0,0,0,0,1,0,0,0,1581,8706
2024/03/03 03:32:08,5.2,34.1,31.7,32.1,49.8,40.0,0,0,0,0,1,0,0,0,1581,8706
2024/03/03 03:34:06,5.2,34.0,31.5,32.1,49.8,40.0,0,0,0,0,1,0,0,0,1581,8706
2024/03/03 03:36:05,5.2,34.0,31.3,32.1,49.7,40.0,0,0,0,0,1,0,0,0,1581,8706
2024/03/03 03:38:02,5.2,33.9,31.1,32.1,49.7,40.0,0,0,0,0,1,0,0,0,1581,8706
2024/03/03 03:40:01,5.2,33.8,30.9,32.1,49.7,40.0,0,0,0,0,1,0,0,0,1581,8706
2024/03/03 03:42:00,5.2,33.8,30.7,32.1,49.7,40.0,0,0,0,0,1,0,0,0,1581,8706
2024/03/03 03:43:59,5.2,33.7,30.4,32.1,49.7,40.0,0,0,0,0,1,0,0,0,1581,8706
2024/03/03 03:45:58,5.2,33.7,30.2,32.1,49.6,40.0,0,0,0,0,1,0,0,0,1581,8706
2024/03/03 03:47:56,5.2,33.6,30.0,32.1,49.6,40.0,0,0,0,0,1,0,0,0,1581,8706
2024/03/03 03:49:55,5.2,33.6,29.9,32.1,49.6,40.0,0,0,0,0,1,0,0,0,1581,8706
2024/03/03 03:52:54,5.2,33.5,29.7,32.1,49.6,40.0,0,0,0,0,1,0,0,0,1581,8706
2024/03/03 03:54:53,5.2,33.5,29.6,32.1,49.6,40.0,0,0,0,0,1,0,0,0,1581,8706
2024/03/03 03:56:52,5.2,33.4,29.4,32.1,49.5,40.0,0,0,0,0,1,0,0,0,1581,8706
2024/03/03 03:58:52,5.2,33.4,29.2,32.1,49.5,40.0,0,0,0,0,1,0,0,0,1581,8706
2024/03/03 04:00:51,5.2,33.3,29.1,32.1,49.5,40.0,0,0,0,0,1,0,0,0,1581,8706
2024/03/03 04:02:49,5.2,33.3,29.0,32.1,49.5,40.0,0,0,0,0,1,0,0,0,1581,8706
2024/03/03 04:04:47,5.1,33.3,28.8,32.1,49.5,40.0,0,0,0,0,1,0,0,0,1581,8706
2024/03/03 04:06:47,5.1,33.2,28.6,32.1,49.4,40.0,0,0,0,0,1,0,0,0,1581,8706
2024/03/03 04:08:45,5.1,33.2,28.5,32.1,49.4,40.0,0,0,0,0,1,0,0,0,1581,8706
2024/03/03 04:10:44,5.1,33.1,28.4,32.1,49.4,40.0,0,0,0,0,1,0,0,0,1581,8706
2024/03/03 04:12:42,5.1,33.1,28.2,32.1,49.4,40.0,0,0,0,0,1,0,0,0,1581,8706
2024/03/03 04:14:40,5.0,33.0,28.1,32.1,49.4,40.0,0,0,0,0,1,0,0,0,1581,8706
2024/03/03 04:16:39,5.0,33.0,27.9,32.1,49.3,40.0,0,0,0,0,1,0,0,0,1581,8706
2024/03/03 04:18:38,5.0,32.9,27.8,32.1,49.3,40.0,0,0,0,0,1,0,0,0,1581,8706
2024/03/03 04:20:35,5.0,32.9,27.7,32.1,49.3,40.0,0,0,0,0,1,0,0,0,1581,8706
2024/03/03 04:22:35,5.0,32.8,27.6,32.1,49.3,40.0,0,0,0,0,1,0,0,0,1581,8706
2024/03/03 04:24:33,4.9,32.8,27.4,32.8,49.3,40.0,0,0,0,0,1,0,0,0,1581,8706
2024/03/03 04:26:32,4.9,32.7,27.3,32.8,49.2,40.0,0,0,0,0,1,0,0,0,1581,8706
2024/03/03 04:28:31,4.9,32.6,27.2,32.8,49.2,40.0,0,0,0,0,1,0,0,0,1581,8706
2024/03/03 04:30:30,4.9,32.6,27.1,32.8,49.2,40.0,0,0,0,0,1,0,0,0,1581,8706
2024/03/03 04:32:28,4.9,32.5,26.9,32.8,49.2,40.0,0,0,0,0,1,0,0,0,1581,8706
2024/03/03 04:34:24,4.9,32.5,26.8,32.8,49.2,40.0,0,0,0,0,1,0,0,0,1581,8706
2024/03/03 04:36:23,4.9,32.4,26.7,32.8,49.2,40.0,0,0,0,0,1,0,0,0,1581,8706
2024/03/03 04:38:21,4.9,32.3,26.6,32.8,49.1,40.0,0,0,0,0,1,0,0,0,1581,8706
2024/03/03 04:40:21,4.9,29.6,28.3,32.8,49.1,40.0,0,0,1,0,1,0,1,0,1581,8706
2024/03/03 04:42:19,4.9,31.3,28.3,32.8,49.1,40.0,0,1,1,0,1,0,1,0,1582,8706
2024/03/03 04:44:18,4.9,31.8,28.3,32.8,49.1,40.0,0,1,1,0,1,0,1,0,1583,8706
2024/03/03 04:46:17,4.9,32.2,28.6,32.8,49.1,40.0,0,1,1,0,1,0,1,0,1584,8706
2024/03/03 04:48:16,4.9,32.6,28.8,32.8,49.0,40.0,0,1,1,0,1,0,1,0,1584,8706
2024/03/03 04:50:15,4.9,32.8,28.9,32.8,49.0,40.0,0,1,1,0,1,0,1,0,1585,8706
2024/03/03 04:52:14,4.9,33.0,29.0,32.8,49.0,40.0,0,1,1,0,1,0,1,0,1586,8706
2024/03/03 04:54:13,4.9,33.2,29.2,32.8,49.0,40.0,0,1,1,0,1,0,1,0,1587,8706
2024/03/03 04:56:12,4.9,33.5,29.4,32.8,49.0,40.0,0,1,1,0,1,0,1,0,1588,8706
2024/03/03 04:58:09,4.9,33.7,29.6,32.8,48.9,40.0,0,1,1,0,1,0,1,0,1589,8706
2024/03/03 05:00:08,4.9,33.9,29.8,32.8,48.9,40.0,0,1,1,0,1,0,1,0,1589,8706
2024/03/03 05:02:07,4.9,34.2,30.1,32.8,48.9,40.0,0,1,1,0,1,0,1,0,1590,8706
2024/03/03 05:04:05,4.9,34.7,30.2,32.8,48.9,40.0,0,1,1,0,1,0,1,0,1591,8706
2024/03/03 05:06:05,4.9,34.7,30.1,32.8,48.9,40.0,0,1,1,0,1,0,1,0,1592,8706
2024/03/03 05:08:03,4.9,34.8,30.3,32.8,48.8,40.0,0,1,1,0,1,0,1,0,1593,8706
2024/03/03 05:10:02,4.9,35.0,30.5,32.8,48.8,40.0,0,1,1,0,1,0,1,0,1593,8706
2024/03/03 05:12:01,4.9,35.3,30.8,32.8,48.8,40.0,0,1,1,0,1,0,1,0,1594,8706
2024/03/03 05:14:01,4.9,35.5,30.9,32.8,48.8,40.0,0,1,1,0,1,0,1,0,1595,8706
2024/03/03 05:15:58,4.9,35.7,31.2,32.8,48.8,52.0,0,1,1,0,1,0,1,0,1596,8706
2024/03/03 05:17:57,4.9,35.9,31.3,32.8,48.7,52.0,0,1,1,0,1,0,1,0,1597,8706
2024/03/03 05:19:57,4.9,36.1,31.6,32.8,48.7,52.0,0,1,1,0,1,0,1,0,1597,8706
2024/03/03 05:21:56,4.9,36.4,31.8,32.8,48.7,52.0,0,1,1,0,1,0,1,0,1598,8706
2024/03/03 05:23:56,4.9,36.6,32.1,32.8,48.7,52.0,0,1,1,0,1,0,1,0,1599,8706
2024/03/03 05:26:55,4.9,36.9,32.3,32.8,48.7,52.0,0,1,1,0,1,0,1,0,1600,8706
2024/03/03 05:28:54,4.9,37.0,32.4,32.8,48.6,52.0,0,1,1,0,1,0,1,0,1600,8706
2024/03/03 05:30:53,4.8,37.3,32.7,32.8,48.5,52.0,0,1,1,0,1,0,1,0,1601,8706
2024/03/03 05:32:52,4.8,37.4,32.8,32.8,48.0,52.0,0,1,1,0,1,0,1,0,1602,8706
2024/03/03 05:34:52,4.8,37.7,33.1,32.8,47.5,52.0,0,1,1,0,1,0,1,0,1603,8706
2024/03/03 05:36:50,4.8,37.9,33.3,32.8,47.2,52.0,0,1,1,0,1,0,1,0,1604,8706
2024/03/03 05:38:48,4.8,38.2,33.5,32.8,46.9,52.0,0,1,1,0,1,0,1,0,1604,8706
2024/03/03 05:40:47,4.8,38.3,33.6,32.8,46.6,52.0,0,1,1,0,1,0,1,0,1605,8706
2024/03/03 05:42:45,4.8,38.5,33.8,32.8,46.3,52.0,0,1,1,0,1,0,1,0,1606,8706
2024/03/03 05:44:43,4.8,38.7,34.0,32.8,46.2,52.0,0,1,1,0,1,0,1,0,1607,8706
2024/03/03 05:46:42,4.8,38.9,34.2,32.8,46.0,52.0,0,1,1,0,1,0,1,0,1607,8706
2024/03/03 05:48:42,4.8,39.1,34.4,32.8,45.9,52.0,0,1,1,0,1,0,1,0,1608,8706
2024/03/03 05:50:41,4.8,39.3,34.6,32.8,45.9,52.0,0,1,1,0,1,0,1,0,1609,8706
2024/03/03 05:52:40,4.8,39.5,34.8,32.8,45.7,52.0,0,0,1,0,1,0,1,0,1610,8706
2024/03/03 05:54:38,4.8,36.9,34.9,32.8,45.7,52.0,0,0,0,0,1,0,1,0,1610,8706
2024/03/03 05:56:37,4.8,36.9,34.9,32.8,45.6,52.0,0,0,0,0,1,0,0,0,1610,8706
2024/03/03 05:58:37,4.8,36.4,34.4,32.8,45.6,52.0,0,0,0,0,1,0,0,0,1610,8706
2024/03/03 06:00:35,4.8,36.0,34.1,32.8,45.6,52.0,0,0,0,0,1,0,0,0,1610,8706
2024/03/03 06:02:34,4.7,35.7,33.8,32.8,45.5,52.0,0,0,0,0,1,0,0,0,1610,8706
2024/03/03 06:04:33,4.7,35.4,33.6,32.8,45.4,52.0,0,0,0,0,1,0,0,0,1610,8706
2024/03/03 06:06:32,4.7,35.2,33.3,32.8,45.3,52.0,0,0,0,0,1,0,0,0,1610,8706
2024/03/03 06:08:32,4.7,35.1,33.1,32.8,45.3,52.0,0,0,0,0,1,0,0,0,1610,8706
2024/03/03 06:10:30,4.7,35.0,32.9,32.8,45.2,52.0,0,0,0,0,1,0,0,0,1610,8706
2024/03/03 06:12:28,4.6,34.9,32.7,32.8,45.1,52.0,0,0,0,0,1,0,0,0,1610,8706
2024/03/03 06:14:27,4.6,34.8,32.4,32.8,45.1,52.0,0,0,0,0,1,0,0,0,1610,8706
2024/03/03 06:16:26,4.6,34.7,32.2,32.8,45.0,52.0,0,0,0,0,1,0,0,0,1610,8706
2024/03/03 06:18:25,4.6,34.6,32.0,32.8,45.0,52.0,0,0,0,0,1,0,0,0,1610,8706
2024/03/03 06:20:22,4.6,34.5,31.7,32.8,44.9,52.0,0,0,0,0,1,0,0,0,1610,8706
2024/03/03 06:22:21,4.6,34.5,31.5,32.8,44.9,52.0,0,0,0,0,1,0,0,0,1610,8706
2024/03/03 06:24:20,4.6,34.4,31.3,32.8,44.9,52.0,0,0,0,0,1,0,0,0,1610,8706
2024/03/03 06:26:19,4.6,34.3,31.0,32.8,44.8,52.0,0,0,0,0,1,0,0,0,1610,8706
2024/03/03 06:28:18,4.6,34.3,30.8,32.8,44.8,52.0,0,0,0,0,1,0,0,0,1610,8706
2024/03/03 06:30:17,4.6,34.2,30.5,32.8,44.7,52.0,0,0,0,0,1,0,0,0,1610,8706
2024/03/03 06:32:13,4.6,34.2,30.3,32.8,44.7,52.0,0,0,0,0,1,0,0,0,1610,8706
2024/03/03 06:34:11,4.6,34.1,30.1,32.8,44.6,52.0,0,0,0,0,1,0,0,0,1610,8706
2024/03/03 06:36:10,4.6,34.1,29.9,32.8,44.6,52.0,0,0,0,0,1,0,0,0,1610,8706
2024/03/03 06:38:09,4.6,34.0,29.7,32.8,44.5,52.0,0,0,0,0,1,0,0,0,1610,8706
2024/03/03 06:40:08,4.6,34.0,29.6,32.8,44.4,52.0,0,0,0,0,1,0,0,0,1610,8706
2024/03/03 06:42:07,4.6,33.9,29.4,32.8,44.4,52.0,0,0,0,0,1,0,0,0,1610,8706
2024/03/03 06:44:06,4.6,33.9,29.2,32.8,44.3,52.0,0,0,0,0,1,0,0,0,1610,8706
2024/03/03 06:46:04,4.6,33.9,29.1,32.8,44.3,52.0,0,0,0,0,1,0,0,0,1610,8706
2024/03/03 06:48:02,4.6,33.8,28.9,32.8,44.2,52.0,0,0,0,0,1,0,0,0,1610,8706
2024/03/03 06:50:00,4.6,33.8,28.8,32.8,44.2,52.0,0,0,0,0,1,0,0,0,1610,8706
2024/03/03 06:51:59,4.6,33.7,28.6,32.8,44.1,52.0,0,0,0,0,1,0,0,0,1610,8706
2024/03/03 06:53:58,4.6,33.7,28.4,32.8,44.1,52.0,0,0,0,0,1,0,0,0,1610,8706
2024/03/03 06:55:58,4.6,33.6,28.3,32.8,44.1,52.0,0,0,0,0,1,0,0,0,1610,8706
2024/03/03 06:57:57,4.6,38.4,35.5,32.8,43.9,52.0,1,0,1,0,0,1,1,0,1610,8706
2024/03/03 06:59:56,4.5,41.2,38.5,32.8,43.6,52.0,1,0,1,0,0,1,1,0,1610,8707
2024/03/03 07:02:54,4.5,44.4,40.6,32.8,43.5,52.0,1,0,1,0,0,1,1,0,1610,8707
2024/03/03 07:04:54,4.5,46.4,42.4,32.8,43.6,52.0,1,0,1,0,0,1,1,0,1610,8708
2024/03/03 07:06:54,4.5,47.6,43.4,32.8,44.0,52.0,1,0,1,0,0,1,1,0,1610,8709
2024/03/03 07:08:52,4.5,48.5,44.1,32.8,44.4,52.0,1,0,1,0,0,1,1,0,1610,8710
2024/03/03 07:10:51,4.5,49.2,44.7,32.8,44.9,52.0,1,0,1,0,0,1,1,0,1610,8710
2024/03/03 07:12:50,4.4,49.8,45.3,32.8,45.5,52.0,1,0,1,0,0,1,1,0,1610,8711
2024/03/03 07:14:49,4.4,50.3,45.7,32.8,46.1,52.0,1,0,1,0,0,1,1,0,1610,8712
2024/03/03 07:16:48,4.4,50.9,46.3,32.8,46.7,52.0,1,0,1,0,0,1,1,0,1610,8712
2024/03/03 07:18:46,4.4,53.4,46.8,32.8,47.3,52.0,1,1,1,0,0,1,1,0,1610,8713
2024/03/03 07:20:46,4.4,55.5,48.7,32.8,48.0,52.0,1,1,1,0,0,1,1,0,1610,8714
2024/03/03 07:22:44,4.4,57.1,49.8,32.8,48.8,52.0,1,1,1,0,0,1,1,0,1610,8716
2024/03/03 07:24:43,4.4,58.2,50.9,32.8,49.7,52.0,1,1,1,0,0,1,1,0,1610,8717
2024/03/03 07:26:41,4.4,59.1,52.0,32.8,50.8,52.0,1,1,1,0,0,1,1,0,1610,8718
2024/03/03 07:28:40,4.4,60.0,52.8,32.8,51.8,52.0,1,1,1,0,0,1,1,0,1610,8719
2024/03/03 07:30:38,4.4,44.3,35.4,32.8,52.9,52.0,0,1,1,0,1,0,1,0,1610,8720
2024/03/03 07:32:37,4.4,36.6,31.0,32.8,53.3,52.0,0,1,1,0,1,0,1,0,1611,8720
2024/03/03 07:34:36,4.4,35.6,30.2,32.8,53.4,52.0,0,1,1,0,1,0,1,0,1612,8720
2024/03/03 07:36:33,4.4,35.0,30.3,32.8,53.4,52.0,0,1,1,0,1,0,1,0,1613,8720
2024/03/03 07:38:32,4.4,36.2,31.3,32.8,53.4,52.0,0,1,1,0,1,0,1,0,1613,8720
2024/03/03 07:40:31,4.4,36.4,31.7,32.8,53.2,52.0,0,1,1,0,1,0,1,0,1614,8720
2024/03/03 07:42:31,4.4,36.5,31.8,32.8,53.1,52.0,0,1,1,0,1,0,1,0,1615,8720
2024/03/03 07:44:30,4.4,36.6,32.0,32.8,53.0,52.0,0,1,1,0,1,0,1,0,1616,8720
2024/03/03 07:46:29,4.4,36.9,31.7,32.8,52.9,52.0,0,1,1,0,1,0,1,0,1617,8720
2024/03/03 07:48:28,4.4,37.0,32.4,32.8,52.8,52.0,0,1,1,0,1,0,1,0,1617,8720
2024/03/03 07:50:27,4.5,37.3,32.8,32.8,52.7,52.0,0,1,1,0,1,0,1,0,1618,8720
2024/03/03 07:52:26,4.5,37.4,32.9,32.8,52.6,52.0,0,1,1,0,1,0,1,0,1619,8720
2024/03/03 07:54:25,4.5,37.7,33.1,32.8,52.5,52.0,0,1,1,0,1,0,1,0,1620,8720
2024/03/03 07:56:24,4.5,37.9,33.3,32.8,52.5,52.0,0,1,1,0,1,0,1,0,1620,8720
2024/03/03 07:58:23,4.5,38.1,33.5,32.8,52.4,52.0,0,1,1,0,1,0,1,0,1621,8720
2024/03/03 08:00:23,4.5,38.3,33.7,32.8,52.3,52.0,0,1,1,0,1,0,1,0,1622,8720
2024/03/03 08:02:22,4.5,38.5,33.9,32.8,52.3,52.0,0,1,1,0,1,0,1,0,1623,8720
2024/03/03 08:04:22,4.5,38.7,34.1,32.8,52.2,52.0,0,1,1,0,1,0,1,0,1624,8720
2024/03/03 08:06:21,4.5,39.0,34.4,32.8,52.1,52.0,0,1,1,0,1,0,1,0,1624,8720
2024/03/03 08:08:19,4.5,39.2,34.6,32.8,52.1,52.0,0,1,1,0,1,0,1,0,1625,8720
2024/03/03 08:10:17,4.5,39.4,34.7,32.8,52.0,52.0,0,1,1,0,1,0,1,0,1626,8720
2024/03/03 08:12:17,4.5,36.8,34.8,32.8,51.9,52.0,0,0,0,0,1,0,1,0,1626,8720
2024/03/03 08:14:14,4.6,37.1,35.1,32.8,51.8,52.0,0,0,0,0,1,0,0,0,1626,8720
2024/03/03 08:16:14,4.6,36.5,34.6,32.8,51.8,52.0,0,0,0,0,1,0,0,0,1626,8720
2024/03/03 08:18:13,4.7,36.2,34.0,32.8,51.7,52.0,0,0,0,0,1,0,0,0,1626,8720
2024/03/03 08:20:11,4.7,35.9,33.5,32.8,51.6,52.0,0,0,0,0,1,0,0,0,1626,8720
2024/03/03 08:22:10,4.8,35.6,33.1,32.8,51.5,52.0,0,0,0,0,1,0,0,0,1626,8720
2024/03/03 08:24:09,4.8,35.4,32.8,32.8,51.5,52.0,0,0,0,0,1,0,0,0,1626,8720
2024/03/03 08:26:08,4.9,35.2,32.4,32.8,51.4,52.0,0,0,0,0,1,0,0,0,1626,8720
2024/03/03 08:28:05,5.0,35.1,32.1,32.1,51.3,52.0,0,0,0,0,1,0,0,0,1626,8720
2024/03/03 08:30:04,5.1,35.0,31.8,32.1,51.3,52.0,0,0,0,0,1,0,0,0,1626,8720
2024/03/03 08:32:03,5.2,34.9,31.4,32.1,51.2,52.0,0,0,0,0,1,0,0,0,1626,8720
2024/03/03 08:34:02,5.3,34.8,31.1,32.1,51.1,52.0,0,0,0,0,1,0,0,0,1626,8720
2024/03/03 08:35:59,5.4,34.8,30.9,32.1,51.1,52.0,0,0,0,0,1,0,0,0,1626,8720
2024/03/03 08:37:59,5.5,34.7,30.6,32.1,51.0,52.0,0,0,0,0,1,0,0,0,1626,8720
2024/03/03 08:39:58,5.6,34.6,30.4,32.1,50.9,52.0,0,0,0,0,1,0,0,0,1626,8720
2024/03/03 08:41:58,5.6,34.6,30.2,32.1,50.8,52.0,0,0,0,0,1,0,0,0,1626,8720
2024/03/03 08:43:56,5.7,34.5,30.0,32.1,50.8,52.0,0,0,0,0,1,0,0,0,1626,8720
2024/03/03 08:45:55,5.8,34.4,29.8,32.1,50.7,52.0,0,0,0,0,1,0,0,0,1626,8720
2024/03/03 08:48:55,5.8,34.4,29.7,32.1,50.6,52.0,0,0,0,0,1,0,0,0,1626,8720
2024/03/03 08:50:53,5.9,34.3,29.6,32.1,50.6,52.0,0,0,0,0,1,0,0,0,1626,8720
2024/03/03 08:52:52,5.9,34.3,29.4,32.1,50.5,52.0,0,0,0,0,1,0,0,0,1626,8720
2024/03/03 08:54:51,6.0,34.2,29.3,31.4,50.4,52.0,0,0,0,0,1,0,0,0,1626,8720
2024/03/03 08:56:47,6.0,34.2,29.2,31.4,50.3,52.0,0,0,0,0,1,0,0,0,1626,8720
2024/03/03 08:58:45,6.1,34.1,29.1,31.4,50.3,52.0,0,0,0,0,1,0,0,0,1626,8720
2024/03/03 09:00:44,6.1,34.1,29.0,31.4,50.2,52.0,0,0,0,0,1,0,0,0,1626,8720
2024/03/03 09:02:44,6.2,34.1,28.9,31.4,50.1,52.0,0,0,0,0,1,0,0,0,1626,8720
2024/03/03 09:04:42,6.2,34.0,28.8,31.4,50.1,52.0,0,0,0,0,1,0,0,0,1626,8720
2024/03/03 09:06:41,6.3,34.0,28.7,31.4,50.0,52.0,0,0,0,0,1,0,0,0,1626,8720
2024/03/03 09:08:40,6.3,33.9,28.6,31.4,49.9,52.0,0,0,0,0,1,0,0,0,1626,8720
2024/03/03 09:10:37,6.3,33.9,28.4,31.4,49.9,52.0,0,0,0,0,1,0,0,0,1626,8720
2024/03/03 09:12:36,6.3,33.8,28.3,31.4,49.8,52.0,0,0,0,0,1,0,0,0,1626,8720
2024/03/03 09:14:34,6.4,33.8,28.2,31.4,49.8,52.0,0,0,0,0,1,0,0,0,1626,8720
2024/03/03 09:16:32,6.4,33.7,28.1,31.4,49.7,52.0,0,0,0,0,1,0,0,0,1626,8720
2024/03/03 09:18:30,6.4,33.7,28.0,31.4,49.6,52.0,0,0,0,0,1,0,0,0,1626,8720
2024/03/03 09:20:29,6.4,33.6,27.9,31.4,49.6,52.0,0,0,0,0,1,0,0,0,1626,8720
2024/03/03 09:22:27,6.5,33.6,27.8,31.4,49.5,52.0,0,0,0,0,1,0,0,0,1626,8720
2024/03/03 09:24:27,6.5,33.5,27.7,31.4,49.5,52.0,0,0,0,0,1,0,0,0,1626,8720
2024/03/03 09:26:27,6.5,33.5,27.6,31.4,49.4,52.0,0,0,0,0,1,0,0,0,1626,8720
2024/03/03 09:28:24,6.5,33.4,27.6,31.4,49.3,52.0,0,0,0,0,1,0,0,0,1626,8720
2024/03/03 09:30:23,6.5,33.4,27.5,31.4,49.3,52.0,0,0,0,0,1,0,0,0,1626,8720
2024/03/03 09:32:21,6.5,33.3,27.4,31.4,49.2,52.0,0,0,0,0,1,0,0,0,1626,8720
2024/03/03 09:34:20,6.5,33.2,27.3,31.4,49.1,52.0,0,0,0,0,1,0,0,0,1626,8720
2024/03/03 09:36:18,6.5,33.2,27.2,31.4,49.1,52.0,0,0,0,0,1,0,0,0,1626,8720
2024/03/03 09:38:16,6.5,33.1,27.1,31.4,49.0,52.0,0,0,0,0,1,0,0,0,1626,8720
2024/03/03 09:40:16,6.5,33.1,27.0,31.4,48.9,52.0,0,0,0,0,1,0,0,0,1626,8720
2024/03/03 09:42:14,6.5,33.0,26.9,31.4,48.9,52.0,0,0,0,0,1,0,0,0,1626,8720
2024/03/03 09:44:12,6.5,33.0,26.8,31.4,48.8,52.0,0,0,0,0,1,0,0,0,1626,8720
2024/03/03 09:46:10,6.5,32.9,26.8,31.4,48.7,52.0,0,0,0,0,1,0,0,0,1626,8720
2024/03/03 09:48:10,6.5,32.8,26.7,31.4,48.7,52.0,0,0,0,0,1,0,0,0,1626,8720
2024/03/03 09:50:07,6.5,32.8,26.6,31.4,48.6,52.0,0,0,0,0,1,0,0,0,1626,8720
2024/03/03 09:52:02,6.5,32.7,26.5,31.4,48.5,52.0,0,0,0,0,1,0,0,0,1626,8720
2024/03/03 09:54:01,6.5,32.6,26.4,31.4,48.5,52.0,0,0,0,0,1,0,0,0,1626,8720
2024/03/03 09:56:00,6.5,32.6,26.4,31.4,48.4,52.0,0,0,0,0,1,0,0,0,1626,8720
2024/03/03 09:57:59,6.5,32.5,26.3,31.4,48.4,52.0,0,0,0,0,1,0,0,0,1626,8720
2024/03/03 09:59:56,6.5,32.4,26.2,31.4,48.3,52.0,0,0,0,0,1,0,0,0,1626,8720
2024/03/03 10:01:56,6.5,32.4,26.2,31.4,48.2,52.0,0,0,0,0,1,0,0,0,1626,8720
2024/03/03 10:04:55,6.6,32.3,26.1,31.4,48.1,52.0,0,0,0,0,1,0,0,0,1626,8720
2024/03/03 10:06:53,6.6,32.3,26.0,31.4,48.1,52.0,0,0,0,0,1,0,0,0,1626,8720
2024/03/03 10:08:51,6.6,32.2,25.9,31.4,48.0,52.0,0,0,0,0,1,0,0,0,1626,8720
2024/03/03 10:10:50,6.7,32.1,25.9,31.4,47.9,52.0,0,0,0,0,1,0,0,0,1626,8720
2024/03/03 10:12:48,6.7,32.1,25.8,31.4,47.9,52.0,0,0,0,0,1,0,0,0,1626,8720
2024/03/03 10:14:47,6.8,32.0,25.7,31.4,47.8,52.0,0,0,0,0,1,0,0,0,1626,8720
2024/03/03 10:16:47,6.8,32.0,25.7,31.4,47.7,52.0,0,0,0,0,1,0,0,0,1626,8720
2024/03/03 10:18:46,6.9,29.0,27.6,31.4,47.7,52.0,0,0,1,0,1,0,1,0,1626,8720
2024/03/03 10:20:45,7.0,30.7,27.6,30.7,47.6,52.0,1,0,1,0,1,0,1,0,1627,8720
2024/03/03 10:22:44,7.1,31.2,27.6,30.7,47.5,52.0,1,0,1,0,1,0,1,0,1627,8720
2024/03/03 10:24:44,7.2,31.6,27.9,30.7,47.5,52.0,1,0,1,0,1,0,1,0,1628,8720
2024/03/03 10:26:42,7.2,32.0,28.2,30.7,47.4,52.0,1,0,1,0,1,0,1,0,1629,8720
2024/03/03 10:28:42,7.3,32.2,28.4,30.7,47.3,52.0,1,0,1,0,1,0,1,0,1630,8720
2024/03/03 10:30:40,7.4,32.4,28.5,30.7,47.3,52.0,1,0,1,0,1,0,1,0,1631,8720
2024/03/03 10:32:39,7.4,32.7,28.7,30.7,47.2,52.0,1,0,1,0,1,0,1,0,1631,8720
2024/03/03 10:34:37,7.5,33.0,29.0,30.7,47.1,52.0,1,0,1,0,1,0,1,0,1632,8720
2024/03/03 10:36:37,7.5,33.2,29.2,30.7,47.1,52.0,1,0,1,0,1,0,1,0,1633,8720
2024/03/03 10:38:35,7.6,33.5,29.4,30.7,47.0,52.0,1,0,1,0,1,0,1,0,1634,8720
2024/03/03 10:40:33,7.6,33.6,29.6,30.7,46.9,52.0,1,0,1,0,1,0,1,0,1635,8720
2024/03/03 10:42:32,7.7,33.9,29.8,30.7,46.9,52.0,1,0,1,0,1,0,1,0,1636,8720
2024/03/03 10:44:31,7.7,34.1,30.0,30.7,46.8,52.0,1,0,1,0,1,0,1,0,1636,8720
2024/03/03 10:46:31,7.8,34.7,30.3,30.7,46.7,52.0,1,0,1,0,1,0,1,0,1637,8720
2024/03/03 10:48:30,7.8,34.7,30.3,30.7,46.7,52.0,1,0,1,0,1,0,1,0,1638,8720
2024/03/03 10:50:29,7.8,35.0,30.5,30.7,46.6,52.0,1,0,1,0,1,0,1,0,1639,8720
2024/03/03 10:52:27,7.8,35.3,30.8,30.7,46.5,52.0,1,0,1,0,1,0,1,0,1640,8720
2024/03/03 10:54:25,7.8,35.6,31.1,30.7,46.5,52.0,1,0,1,0,1,0,1,0,1640,8720
2024/03/03 10:56:24,7.9,35.9,31.4,30.7,46.4,52.0,1,0,1,0,1,0,1,0,1641,8720
2024/03/03 10:58:24,7.9,36.1,31.6,30.7,46.3,52.0,1,0,1,0,1,0,1,0,1642,8720
2024/03/03 11:00:23,7.9,36.5,31.9,30.7,46.3,52.0,1,0,1,0,1,0,1,0,1643,8720
2024/03/03 11:02:22,8.0,34.8,32.2,29.9,46.2,52.0,0,0,1,0,1,0,1,0,1643,8720
2024/03/03 11:04:21,8.0,34.0,32.5,29.9,46.1,52.0,0,0,0,0,1,0,1,0,1643,8720
2024/03/03 11:06:21,8.0,34.0,32.2,29.9,46.1,52.0,0,0,0,0,1,0,0,0,1643,8720
2024/03/03 11:08:20,8.1,33.7,31.9,29.9,46.0,52.0,0,0,0,0,1,0,0,0,1643,8720
2024/03/03 11:10:18,8.1,33.4,31.6,29.9,45.9,52.0,0,0,0,0,1,0,0,0,1643,8720
2024/03/03 11:12:17,8.1,33.2,31.4,29.9,45.9,52.0,0,0,0,0,1,0,0,0,1643,8720
2024/03/03 11:14:16,8.1,33.0,31.2,29.9,45.7,52.0,0,0,0,0,1,0,0,0,1643,8720
2024/03/03 11:16:15,8.2,32.9,31.0,29.9,45.6,52.0,0,0,0,0,1,0,0,0,1643,8720
2024/03/03 11:18:13,8.2,32.8,30.8,29.9,45.6,52.0,0,0,0,0,1,0,0,0,1643,8720
2024/03/03 11:20:12,8.2,32.7,30.6,29.9,45.5,52.0,0,0,0,0,1,0,0,0,1643,8720
2024/03/03 11:22:10,8.3,32.6,30.4,29.9,45.4,52.0,0,0,0,0,1,0,0,0,1643,8720
2024/03/03 11:24:09,8.3,32.4,30.2,29.9,45.3,52.0,0,0,0,0,1,0,0,0,1643,8720
2024/03/03 11:26:08,8.3,32.4,30.0,29.9,45.3,52.0,0,0,0,0,1,0,0,0,1643,8720
2024/03/03 11:28:07,8.4,32.3,29.9,29.9,45.2,52.0,0,0,0,0,1,0,0,0,1643,8720
2024/03/03 11:30:05,8.4,32.2,29.7,29.9,45.2,52.0,0,0,0,0,1,0,0,0,1643,8720
2024/03/03 11:32:05,8.4,32.1,29.6,29.9,45.1,52.0,0,0,0,0,1,0,0,0,1643,8720
2024/03/03 11:34:04,8.5,32.1,29.5,29.9,45.0,52.0,0,0,0,0,1,0,0,0,1643,8720
2024/03/03 11:36:03,8.5,32.0,29.3,29.9,45.0,52.0,0,0,0,0,1,0,0,0,1643,8720
2024/03/03 11:38:02,8.6,31.9,29.2,29.9,44.9,52.0,0,0,0,0,1,0,0,0,1643,8720
2024/03/03 11:40:01,8.6,31.9,29.0,29.9,44.9,52.0,0,0,0,0,1,0,0,0,1643,8720
2024/03/03 11:42:00,8.7,31.8,28.9,29.9,44.8,52.0,0,0,0,0,1,0,0,0,1643,8720
2024/03/03 11:43:59,8.8,31.8,28.8,29.9,44.7,52.0,0,0,0,0,1,0,0,0,1643,8720
2024/03/03 11:45:56,8.8,31.7,28.7,29.9,44.7,52.0,0,0,0,0,1,0,0,0,1643,8720
2024/03/03 11:47:56,8.9,31.7,28.5,29.9,44.6,52.0,0,0,0,0,1,0,0,0,1643,8720
2024/03/03 11:50:55,9.0,31.6,28.4,29.2,44.6,52.0,0,0,0,0,1,0,0,0,1643,8720
2024/03/03 11:52:54,9.1,31.6,28.3,29.2,44.5,52.0,0,0,0,0,1,0,0,0,1643,8720
2024/03/03 11:54:52,9.1,31.5,28.1,29.2,44.5,52.0,0,0,0,0,1,0,0,0,1643,8720
2024/03/03 11:56:51,9.2,31.5,28.0,29.2,44.4,52.0,0,0,0,0,1,0,0,0,1643,8720
2024/03/03 11:58:50,9.3,31.7,29.4,48.2,44.3,57.1,0,0,0,0,1,0,1,0,1643,8720
2024/03/03 12:00:49,9.4,31.1,32.7,48.2,44.3,58.2,0,1,1,0,0,1,1,0,1643,8720
2024/03/03 12:02:49,9.5,36.3,32.6,48.2,43.2,58.2,0,1,1,0,0,1,1,0,1643,8721
2024/03/03 12:04:46,9.6,38.8,35.0,48.2,42.4,58.2,0,1,1,0,0,1,1,0,1643,8722
2024/03/03 12:06:45,9.6,40.2,36.4,48.2,42.0,58.2,0,1,1,0,0,1,1,0,1643,8723
2024/03/03 12:08:45,9.6,41.7,37.5,48.2,42.0,58.2,0,1,1,0,0,1,1,0,1643,8723
2024/03/03 12:10:44,9.7,42.7,38.4,48.2,42.2,58.2,0,1,1,0,0,1,1,0,1643,8724
2024/03/03 12:12:42,9.7,43.6,39.2,48.2,42.7,58.2,0,1,1,0,0,1,1,0,1643,8725
2024/03/03 12:14:41,9.7,44.3,39.8,48.2,43.2,58.2,0,1,1,0,0,1,1,0,1643,8726
2024/03/03 12:16:40,9.8,45.0,40.5,48.2,43.5,58.2,0,1,1,0,0,1,1,0,1643,8726
2024/03/03 12:18:39,9.8,45.7,41.1,48.2,43.8,58.2,0,1,1,0,0,1,1,0,1643,8727
2024/03/03 12:20:38,9.9,47.7,41.7,48.2,44.1,58.2,1,1,1,0,0,1,1,0,1643,8728
2024/03/03 12:22:37,9.9,50.2,43.6,48.2,44.4,58.2,1,1,1,0,0,1,1,0,1643,8729
2024/03/03 12:24:36,10.0,52.2,45.0,28.5,44.9,52.0,1,1,1,0,0,1,1,0,1643,8731
2024/03/03 12:26:35,10.1,53.3,46.1,28.5,45.6,52.0,1,1,1,0,0,1,1,0,1643,8732
2024/03/03 12:28:33,10.2,54.3,47.0,28.5,46.6,52.0,1,1,1,0,0,1,1,0,1643,8733
2024/03/03 12:30:32,10.3,55.2,48.0,28.5,47.4,52.0,1,1,1,0,0,1,1,0,1643,8735
2024/03/03 12:32:32,10.4,56.2,48.9,28.5,48.3,52.0,1,1,1,0,0,1,1,0,1643,8736
2024/03/03 12:34:31,10.5,57.1,49.6,28.5,49.2,52.0,1,1,1,0,0,1,1,0,1643,8737
2024/03/03 12:36:31,10.5,58.1,50.6,28.5,50.2,52.0,1,1,1,0,0,1,1,0,1643,8738
2024/03/03 12:38:29,10.6,58.9,51.6,28.5,51.3,52.0,1,1,1,0,0,1,1,0,1643,8740
2024/03/03 12:40:28,10.6,58.2,52.2,28.5,52.2,52.0,1,0,1,0,1,0,1,0,1643,8740
2024/03/03 12:42:28,10.6,37.2,31.4,28.5,52.9,52.0,1,0,1,0,1,0,1,0,1643,8740
2024/03/03 12:44:27,10.6,34.8,29.7,28.5,53.1,52.0,1,0,1,0,1,0,1,0,1644,8740
2024/03/03 12:46:26,10.7,34.3,29.7,28.5,53.2,52.0,1,0,1,0,1,0,1,0,1645,8740
2024/03/03 12:48:25,10.7,33.3,30.5,28.5,53.2,52.0,0,0,1,0,1,0,1,0,1645,8740
2024/03/03 12:50:24,10.8,32.7,30.8,28.5,53.1,52.0,0,0,0,0,1,0,1,0,1645,8740
2024/03/03 12:52:23,10.9,32.6,30.8,47.5,52.9,57.1,0,0,0,0,1,0,1,0,1645,8740
2024/03/03 12:54:23,11.0,33.0,30.8,46.6,52.8,58.2,0,1,1,0,1,0,1,0,1646,8740
2024/03/03 12:56:22,11.2,34.6,30.8,46.6,52.7,58.2,0,1,1,0,1,0,1,0,1647,8740
2024/03/03 12:58:19,11.2,35.1,30.9,46.6,52.6,58.2,0,1,1,0,1,0,1,0,1647,8740
2024/03/03 13:00:18,11.3,35.1,30.9,46.6,52.5,58.2,0,1,1,0,1,0,1,0,1648,8740
2024/03/03 13:02:16,11.3,35.5,31.1,46.6,52.4,58.2,0,1,1,0,1,0,1,0,1649,8740
2024/03/03 13:04:16,11.3,35.8,31.3,46.6,52.4,58.2,0,1,1,0,1,0,1,0,1650,8740
2024/03/03 13:06:15,11.3,36.0,31.5,46.6,52.3,58.2,0,1,1,0,1,0,1,0,1650,8740
2024/03/03 13:08:14,11.4,36.4,31.9,46.6,52.2,58.2,0,1,1,0,1,0,1,0,1651,8740
2024/03/03 13:10:12,11.4,36.7,32.2,46.6,52.2,58.2,0,1,1,0,1,0,1,0,1652,8740
2024/03/03 13:12:12,11.4,37.0,32.5,46.6,52.1,58.2,0,1,1,0,1,0,1,0,1653,8740
2024/03/03 13:14:11,11.4,37.4,32.9,46.6,52.0,58.2,0,1,1,0,1,0,1,0,1654,8740
2024/03/03 13:16:10,11.4,37.7,33.1,46.6,51.9,58.2,0,1,1,0,1,0,1,0,1654,8740
2024/03/03 13:18:10,11.4,38.0,33.5,46.6,51.9,58.2,0,1,1,0,1,0,1,0,1655,8740
2024/03/03 13:20:08,11.4,38.4,33.8,46.6,51.8,58.2,0,1,1,0,1,0,1,0,1656,8740
2024/03/03 13:22:06,11.5,38.5,33.9,46.6,51.7,58.2,0,1,1,0,1,0,1,0,1657,8740
2024/03/03 13:24:05,11.6,38.9,34.3,46.6,51.6,58.2,0,1,1,0,1,0,1,0,1657,8740
2024/03/03 13:26:04,11.7,39.2,34.5,46.6,51.6,58.2,0,1,1,0,1,0,1,0,1658,8740
2024/03/03 13:28:03,11.8,39.5,34.8,46.6,51.5,58.2,0,1,1,0,1,0,1,0,1659,8740
2024/03/03 13:30:02,11.9,39.8,35.1,46.6,51.4,58.2,0,1,1,0,1,0,1,0,1660,8740
2024/03/03 13:32:02,12.0,40.0,35.3,46.6,51.3,58.2,0,1,1,0,1,0,1,0,1660,8740
2024/03/03 13:34:01,12.0,40.5,35.8,45.9,51.2,58.2,0,1,1,0,1,0,1,0,1661,8740
2024/03/03 13:36:00,12.1,40.6,36.0,45.9,51.2,58.2,0,1,1,0,1,0,1,0,1662,8740
2024/03/03 13:37:59,12.2,41.0,36.3,45.9,51.1,58.2,0,1,1,0,1,0,1,0,1663,8740
2024/03/03 13:39:58,12.2,41.2,36.5,45.9,51.0,58.2,0,1,1,0,1,0,1,0,1663,8740
2024/03/03 13:41:58,12.3,41.6,36.9,45.9,51.0,58.2,0,1,1,0,1,0,1,0,1664,8740
2024/03/03 13:43:56,12.3,41.9,37.2,45.9,50.9,58.2,0,1,1,0,1,0,1,0,1665,8740
2024/03/03 13:45:55,12.4,42.1,37.3,45.9,50.8,58.2,0,1,1,0,1,0,1,0,1666,8740
2024/03/03 13:48:54,12.5,42.4,37.7,45.9,50.7,58.2,0,1,1,0,1,0,1,0,1666,8740
2024/03/03 13:50:54,12.5,42.6,37.8,45.9,50.6,58.2,0,1,1,0,1,0,1,0,1667,8740
2024/03/03 13:52:53,12.5,42.9,38.2,45.9,50.6,58.2,0,1,1,0,1,0,1,0,1668,8740
2024/03/03 13:54:51,12.5,43.3,38.4,45.9,50.5,58.2,0,1,1,0,1,0,1,0,1669,8740
2024/03/03 13:56:50,12.5,43.5,38.7,45.9,50.4,58.2,0,1,1,0,1,0,1,0,1669,8740
2024/03/03 13:58:49,12.5,43.8,39.0,45.9,50.4,58.2,0,1,1,0,1,0,1,0,1670,8740
2024/03/03 14:00:47,12.5,44.0,39.1,45.9,50.3,58.2,0,1,1,0,1,0,1,0,1671,8740
2024/03/03 14:02:45,12.5,43.9,40.0,45.9,50.2,58.2,0,1,1,0,0,1,1,0,1671,8741
2024/03/03 14:04:44,12.5,48.9,44.2,45.9,50.0,58.2,0,1,1,0,0,1,1,0,1671,8741
2024/03/03 14:06:43,12.5,50.6,46.1,45.9,50.0,58.2,0,1,1,0,0,1,1,0,1671,8742
2024/03/03 14:08:42,12.5,52.0,47.2,45.9,50.0,58.2,0,1,1,0,0,1,1,0,1671,8743
2024/03/03 14:10:40,12.4,52.8,48.0,26.9,50.3,52.0,0,1,1,0,0,1,1,0,1671,8743
2024/03/03 14:12:38,12.4,53.4,48.5,26.9,50.7,52.0,0,1,1,0,0,1,1,0,1671,8744
2024/03/03 14:14:36,12.3,53.9,49.0,26.9,51.1,52.0,0,1,1,0,0,1,1,0,1671,8745
2024/03/03 14:16:35,12.3,54.3,49.4,26.9,51.5,52.0,0,1,1,0,0,1,1,0,1671,8745
2024/03/03 14:18:34,12.3,54.8,49.8,26.9,52.0,52.0,0,1,1,0,1,1,1,0,1671,8746
2024/03/03 14:20:33,12.2,46.9,41.3,26.9,52.4,52.0,0,1,1,0,1,0,1,0,1672,8746
2024/03/03 14:22:32,12.2,46.2,40.2,26.9,52.6,52.0,0,1,1,0,1,0,1,0,1672,8746
2024/03/03 14:24:31,12.2,44.9,39.9,26.9,52.6,52.0,0,1,1,0,1,0,1,0,1673,8746
2024/03/03 14:26:30,12.2,42.8,40.0,26.9,52.6,52.0,0,0,0,0,1,0,1,0,1673,8746
2024/03/03 14:28:29,12.2,42.5,40.1,26.9,52.6,52.0,0,0,0,0,1,0,0,0,1673,8746
2024/03/03 14:30:28,12.2,41.5,39.1,26.9,52.5,52.0,0,0,0,0,1,0,0,0,1673,8746
2024/03/03 14:32:27,12.2,40.9,38.6,26.9,52.4,52.0,0,0,0,0,1,0,0,0,1673,8746
2024/03/03 14:34:24,12.2,40.5,38.2,26.9,52.3,52.0,0,0,0,0,1,0,0,0,1673,8746
2024/03/03 14:36:23,12.2,40.1,37.9,26.9,52.2,52.0,0,0,0,0,1,0,0,0,1673,8746
2024/03/03 14:38:22,12.2,39.9,37.7,26.9,52.1,52.0,0,0,0,0,1,0,0,0,1673,8746
2024/03/03 14:40:20,12.2,39.7,37.4,26.9,52.1,52.0,0,0,0,0,1,0,0,0,1673,8746
2024/03/03 14:42:19,12.2,39.6,37.1,26.9,52.0,52.0,0,0,0,0,1,0,0,0,1673,8746
2024/03/03 14:44:17,12.2,39.4,36.9,26.9,52.0,52.0,0,0,0,0,1,0,0,0,1673,8746
2024/03/03 14:46:14,12.3,39.3,36.6,26.9,51.9,52.0,0,0,0,0,1,0,0,0,1673,8746
2024/03/03 14:48:13,12.3,39.2,36.3,26.9,51.8,52.0,0,0,0,0,1,0,0,0,1673,8746
2024/03/03 14:50:11,12.3,39.1,36.0,26.9,51.8,52.0,0,0,0,0,1,0,0,0,1673,8746
2024/03/03 14:52:10,12.3,39.0,35.7,26.9,51.7,52.0,0,0,0,0,1,0,0,0,1673,8746
2024/03/03 14:54:10,12.3,38.9,35.4,26.9,51.6,52.0,0,0,0,0,1,0,0,0,1673,8746
2024/03/03 14:56:09,12.4,38.8,35.1,26.9,51.5,52.0,0,0,0,0,1,0,0,0,1673,8746
2024/03/03 14:58:07,12.4,38.8,34.8,45.9,51.5,57.1,0,0,1,0,1,0,1,0,1673,8746
2024/03/03 15:00:05,12.5,39.3,36.9,45.9,51.4,58.2,1,0,1,0,1,0,1,0,1674,8746
2024/03/03 15:02:05,12.6,41.0,37.3,45.9,51.3,58.2,1,0,1,0,1,0,1,0,1675,8746
2024/03/03 15:04:04,12.7,42.0,37.7,45.9,51.3,58.2,1,0,1,0,1,0,1,0,1675,8746
2024/03/03 15:06:03,12.8,42.3,37.9,45.9,51.2,58.2,1,0,1,0,1,0,1,0,1676,8746
2024/03/03 15:08:02,12.8,42.7,38.2,45.9,51.1,58.2,1,0,1,0,1,0,1,0,1677,8746
2024/03/03 15:10:01,12.8,43.0,38.4,45.9,51.1,58.2,1,0,1,0,1,0,1,0,1677,8746
2024/03/03 15:12:00,12.8,43.3,38.6,45.9,51.0,58.2,1,0,1,0,1,0,1,0,1678,8746
2024/03/03 15:14:00,12.8,43.5,38.8,45.9,50.9,58.2,1,0,1,0,1,0,1,0,1679,8746
2024/03/03 15:15:59,12.8,43.7,39.1,45.9,50.9,58.2,1,0,1,0,1,0,1,0,1680,8746
2024/03/03 15:17:58,12.7,44.0,39.3,45.9,50.8,58.2,1,0,1,0,1,0,1,0,1680,8746
2024/03/03 15:19:57,12.7,44.3,39.6,45.9,50.7,58.2,1,0,1,0,1,0,1,0,1681,8746
2024/03/03 15:22:55,12.7,44.6,39.9,45.9,50.7,58.2,1,0,1,0,1,0,1,0,1682,8746
2024/03/03 15:24:54,12.7,45.2,40.1,45.9,50.6,58.2,1,0,1,0,1,0,1,0,1683,8746
2024/03/03 15:26:53,12.7,45.5,40.1,45.9,50.5,58.2,1,0,1,0,1,0,1,0,1683,8746
2024/03/03 15:28:52,12.6,45.5,40.1,45.9,50.5,58.2,1,0,1,0,1,0,1,0,1684,8746
2024/03/03 15:30:51,12.6,45.7,40.2,45.9,50.4,58.2,1,0,1,0,1,0,1,0,1685,8746
2024/03/03 15:32:48,12.6,45.9,40.4,45.9,50.3,58.2,1,0,1,0,1,0,1,0,1685,8746
2024/03/03 15:34:47,12.6,44.1,40.9,26.9,50.3,52.0,0,0,1,0,1,0,1,0,1686,8746
2024/03/03 15:36:47,12.5,43.6,41.5,26.9,50.2,52.0,0,0,0,0,1,0,1,0,1686,8746
2024/03/03 15:38:45,12.5,42.9,40.8,26.9,50.1,52.0,0,0,0,0,1,0,0,0,1686,8746
2024/03/03 15:40:42,12.4,42.3,40.2,26.9,50.1,52.0,0,0,0,0,1,0,0,0,1686,8746
2024/03/03 15:42:41,12.4,41.9,39.8,26.9,50.0,52.0,0,0,0,0,1,0,0,0,1686,8746
2024/03/03 15:44:41,12.3,41.6,39.5,26.9,49.9,52.0,0,0,0,0,1,0,0,0,1686,8746
2024/03/03 15:46:38,12.3,41.3,39.2,26.9,49.9,52.0,0,0,0,0,1,0,0,0,1686,8746
2024/03/03 15:48:36,12.3,41.1,38.9,26.9,49.8,52.0,0,0,0,0,1,0,0,0,1686,8746
2024/03/03 15:50:35,12.3,41.0,38.7,45.9,49.8,57.1,0,0,0,0,1,0,1,0,1686,8746
2024/03/03 15:52:34,12.3,40.4,39.2,45.9,49.7,57.1,0,1,1,0,1,0,1,0,1686,8746
2024/03/03 15:54:34,12.4,45.5,42.7,45.9,49.7,58.2,0,1,1,0,0,1,1,0,1686,8747
2024/03/03 15:56:32,12.4,47.3,44.2,45.9,49.5,58.2,0,1,1,0,0,1,1,0,1686,8748
2024/03/03 15:58:31,12.5,49.7,45.8,45.9,49.4,58.2,0,1,1,0,0,1,1,0,1686,8748
2024/03/03 16:00:30,12.5,51.4,47.1,45.9,49.5,58.2,0,1,1,0,0,1,1,0,1686,8749
2024/03/03 16:02:29,12.5,52.5,47.9,45.9,49.7,58.2,0,1,1,0,0,1,1,0,1686,8750
2024/03/03 16:04:27,12.5,53.2,48.5,45.9,50.1,58.2,0,1,1,0,0,1,1,0,1686,8750
2024/03/03 16:06:26,12.5,53.8,49.0,45.9,50.6,52.0,0,1,1,0,0,1,1,0,1686,8751
2024/03/03 16:08:24,12.4,54.3,49.5,26.9,51.0,52.0,0,1,1,0,0,1,1,0,1686,8752
2024/03/03 16:10:22,12.3,54.8,49.9,26.9,51.5,52.0,0,1,1,0,0,1,1,0,1686,8752
2024/03/03 16:12:20,12.2,55.3,50.4,26.9,52.0,52.0,0,1,1,0,1,1,1,0,1686,8753
2024/03/03 16:14:19,12.2,47.3,41.8,26.9,52.5,52.0,0,1,1,0,1,0,1,0,1687,8753
2024/03/03 16:16:19,12.2,46.6,40.5,26.9,52.7,52.0,0,1,1,0,1,0,1,0,1687,8753
2024/03/03 16:18:16,12.2,45.7,39.8,26.9,52.8,52.0,0,1,1,0,1,0,1,0,1688,8753
2024/03/03 16:20:15,12.1,42.8,40.1,26.9,52.8,52.0,0,0,0,0,1,0,1,0,1688,8753
2024/03/03 16:22:15,12.0,42.6,40.3,26.9,52.7,52.0,0,0,0,0,1,0,0,0,1688,8753
2024/03/03 16:24:14,12.0,42.0,39.6,26.9,52.6,52.0,0,0,0,0,1,0,0,0,1688,8753
2024/03/03 16:26:13,11.9,41.4,39.2,27.6,52.5,52.0,0,0,0,0,1,0,0,0,1688,8753
2024/03/03 16:28:11,11.9,41.0,38.8,27.6,52.4,52.0,0,0,0,0,1,0,0,0,1688,8753
2024/03/03 16:30:10,11.8,40.6,38.5,27.6,52.3,52.0,0,0,0,0,1,0,0,0,1688,8753
2024/03/03 16:32:09,11.8,40.3,38.3,27.6,52.3,52.0,0,0,0,0,1,0,0,0,1688,8753
2024/03/03 16:34:09,11.7,40.1,38.0,27.6,52.2,52.0,0,0,0,0,1,0,0,0,1688,8753
2024/03/03 16:36:07,11.7,40.0,37.7,27.6,52.2,52.0,0,0,0,0,1,0,0,0,1688,8753
2024/03/03 16:38:07,11.7,39.9,37.4,27.6,52.1,52.0,0,0,0,0,1,0,0,0,1688,8753
2024/03/03 16:40:05,11.6,39.8,37.2,27.6,52.1,52.0,0,0,0,0,1,0,0,0,1688,8753
2024/03/03 16:42:04,11.6,39.7,36.9,27.6,52.0,52.0,0,0,0,0,1,0,0,0,1688,8753
2024/03/03 16:44:03,11.6,39.6,36.6,27.6,52.0,52.0,0,0,0,0,1,0,0,0,1688,8753
2024/03/03 16:46:02,11.6,39.5,36.3,27.6,51.9,52.0,0,0,0,0,1,0,0,0,1688,8753
2024/03/03 16:48:00,11.6,39.5,36.0,27.6,51.8,52.0,0,0,0,0,1,0,0,0,1688,8753
2024/03/03 16:49:59,11.6,39.4,35.7,27.6,51.7,52.0,0,0,0,0,1,0,0,0,1688,8753
2024/03/03 16:51:59,11.6,39.4,35.4,27.6,51.7,52.0,0,0,0,0,1,0,0,0,1688,8753
2024/03/03 16:53:57,11.6,39.3,35.1,27.6,51.6,52.0,0,0,0,0,1,0,0,0,1688,8753
2024/03/03 16:56:56,11.6,39.3,34.9,27.6,51.5,52.0,0,0,0,0,1,0,0,0,1688,8753
2024/03/03 16:58:56,11.6,39.2,34.6,27.6,51.4,52.0,0,0,0,0,1,0,0,0,1688,8753
2024/03/03 17:00:55,11.6,39.2,34.4,27.6,51.4,52.0,0,0,0,0,1,0,0,0,1688,8753
2024/03/03 17:02:54,11.6,39.1,34.1,27.6,51.3,52.0,0,0,0,0,1,0,0,0,1688,8753
2024/03/03 17:04:53,11.6,39.1,33.9,27.6,51.3,52.0,0,0,0,0,1,0,0,0,1688,8753
2024/03/03 17:06:52,11.5,39.0,33.6,27.6,51.2,52.0,0,0,0,0,1,0,0,0,1688,8753
2024/03/03 17:08:51,11.5,38.9,33.4,27.6,51.1,52.0,0,0,0,0,1,0,0,0,1688,8753
2024/03/03 17:10:49,11.5,38.9,33.2,27.6,51.0,52.0,0,0,0,0,1,0,0,0,1688,8753
2024/03/03 17:12:48,11.4,38.8,32.9,27.6,51.0,52.0,0,0,0,0,1,0,0,0,1688,8753
2024/03/03 17:14:46,11.4,38.8,32.7,27.6,50.9,52.0,0,0,0,0,1,0,0,0,1688,8753
2024/03/03 17:16:45,11.4,38.7,32.5,27.6,50.8,52.0,0,0,0,0,1,0,0,0,1688,8753
2024/03/03 17:18:44,11.3,38.6,32.3,27.6,50.8,52.0,0,0,0,0,1,0,0,0,1688,8753
2024/03/03 17:20:43,11.3,38.5,32.1,27.6,50.7,52.0,0,0,0,0,1,0,0,0,1688,8753
2024/03/03 17:22:40,11.3,38.4,31.9,27.6,50.6,52.0,0,0,0,0,1,0,0,0,1688,8753
2024/03/03 17:24:38,11.3,38.4,31.7,27.6,50.5,52.0,0,0,0,0,1,0,0,0,1688,8753
2024/03/03 17:26:37,11.3,38.3,31.5,27.6,50.5,52.0,0,0,0,0,1,0,0,0,1688,8753
2024/03/03 17:28:35,11.3,38.2,31.3,27.6,50.4,52.0,0,0,0,0,1,0,0,0,1688,8753
2024/03/03 17:30:34,11.3,38.1,31.1,27.6,50.3,52.0,0,0,0,0,1,0,0,0,1688,8753
2024/03/03 17:32:33,11.3,38.1,31.0,27.6,50.2,52.0,0,0,0,0,1,0,0,0,1688,8753
2024/03/03 17:34:31,11.2,38.0,30.8,27.6,50.1,52.0,0,0,0,0,1,0,0,0,1688,8753
2024/03/03 17:36:30,11.1,37.9,30.6,27.6,50.1,52.0,0,0,0,0,1,0,0,0,1688,8753
2024/03/03 17:38:29,11.1,37.8,30.4,27.6,50.0,52.0,0,0,0,0,1,0,0,0,1688,8753
2024/03/03 17:40:27,11.0,37.7,30.3,27.6,49.9,52.0,0,0,0,0,1,0,0,0,1688,8753
2024/03/03 17:42:25,10.9,37.6,30.1,28.5,49.8,52.0,0,0,0,0,1,0,1,0,1688,8753
2024/03/03 17:44:24,10.9,35.6,34.0,28.5,49.8,52.0,0,0,0,0,1,0,1,0,1688,8753
2024/03/03 17:46:23,10.8,35.8,34.6,28.5,49.7,52.0,0,0,0,0,1,0,0,0,1688,8753
2024/03/03 17:48:23,10.7,35.4,34.2,28.5,49.6,52.0,0,0,0,0,1,0,0,0,1688,8753
2024/03/03 17:50:22,10.7,35.0,33.9,28.5,49.6,52.0,0,0,0,0,1,0,0,0,1688,8753
2024/03/03 17:52:20,10.6,34.8,33.6,28.5,49.5,52.0,0,0,0,0,1,0,0,0,1688,8753
2024/03/03 17:54:18,10.6,34.7,33.4,28.5,49.5,52.0,0,0,0,0,1,0,0,0,1688,8753
2024/03/03 17:56:18,10.5,34.5,33.2,28.5,49.4,52.0,0,0,0,0,1,0,0,0,1688,8753
2024/03/03 17:58:17,10.5,34.4,33.0,28.5,49.3,52.0,0,0,0,0,1,0,0,0,1688,8753
2024/03/03 18:00:17,10.4,34.3,32.9,28.5,49.3,52.0,0,0,0,0,1,0,0,0,1688,8753
2024/03/03 18:02:16,10.4,34.2,32.7,28.5,49.2,52.0,0,0,0,0,1,0,0,0,1688,8753
2024/03/03 18:04:13,10.3,34.1,32.5,28.5,49.1,52.0,0,0,0,0,1,0,0,0,1688,8753
2024/03/03 18:06:12,10.3,34.0,32.4,28.5,49.1,52.0,0,0,0,0,1,0,0,0,1688,8753
2024/03/03 18:08:10,10.2,33.9,32.2,28.5,49.0,52.0,0,0,0,0,1,0,0,0,1688,8753
2024/03/03 18:10:08,10.1,33.9,32.0,28.5,48.9,52.0,0,0,0,0,1,0,0,0,1688,8753
2024/03/03 18:12:08,10.1,33.8,31.9,28.5,48.9,52.0,0,0,0,0,1,0,0,0,1688,8753
2024/03/03 18:14:06,10.0,33.8,31.7,28.5,48.8,52.0,0,0,0,0,1,0,0,0,1688,8753
2024/03/03 18:16:04,10.0,33.7,31.5,28.5,48.8,52.0,0,0,0,0,1,0,0,0,1688,8753
2024/03/03 18:18:04,9.9,33.7,31.4,29.2,48.7,52.0,0,0,0,0,1,0,0,0,1688,8753
2024/03/03 18:20:02,9.9,33.6,31.2,29.2,48.6,52.0,0,0,0,0,1,0,0,0,1688,8753
2024/03/03 18:22:01,9.9,33.6,31.0,29.2,48.5,52.0,0,0,0,0,1,0,0,0,1688,8753
2024/03/03 18:23:58,9.8,33.6,30.9,29.2,48.5,52.0,0,0,0,0,1,0,0,0,1688,8753
2024/03/03 18:25:57,9.8,33.5,30.7,29.2,48.4,52.0,0,0,0,0,1,0,0,0,1688,8753
2024/03/03 18:27:56,9.8,33.5,30.6,29.2,48.3,52.0,0,0,0,0,1,0,0,0,1688,8753
2024/03/03 18:30:55,9.7,33.5,30.4,29.2,48.3,52.0,0,0,0,0,1,0,0,0,1688,8753
2024/03/03 18:32:52,9.7,33.4,30.3,29.2,48.2,52.0,0,0,0,0,1,0,0,0,1688,8753
2024/03/03 18:34:51,9.6,33.4,30.1,29.2,48.2,52.0,0,0,0,0,1,0,0,0,1688,8753
2024/03/03 18:36:50,9.6,33.4,30.0,29.2,48.1,52.0,0,0,0,0,1,0,0,0,1688,8753
2024/03/03 18:38:50,9.5,33.3,29.9,29.2,48.0,52.0,0,0,0,0,1,0,0,0,1688,8753
2024/03/03 18:40:49,9.5,33.3,29.7,29.2,48.0,52.0,0,0,0,0,1,0,0,0,1688,8753
2024/03/03 18:42:48,9.5,33.3,29.6,29.2,47.9,52.0,0,0,0,0,1,0,0,0,1688,8753
2024/03/03 18:44:47,9.5,33.2,29.5,29.2,47.8,52.0,0,0,0,0,1,0,0,0,1688,8753
2024/03/03 18:46:45,9.5,33.2,29.4,29.2,47.8,52.0,0,0,0,0,1,0,0,0,1688,8753
2024/03/03 18:48:43,9.5,33.2,29.2,29.2,47.7,52.0,0,0,0,0,1,0,0,0,1688,8753
2024/03/03 18:50:42,9.5,33.1,29.1,29.2,47.6,52.0,0,0,0,0,1,0,0,0,1688,8753
2024/03/03 18:52:39,9.4,33.1,29.0,29.2,47.6,52.0,0,0,0,0,1,0,0,0,1688,8753
2024/03/03 18:54:35,9.4,33.0,28.9,29.2,47.5,52.0,0,0,0,0,1,0,0,0,1688,8753
2024/03/03 18:56:34,9.4,33.0,28.8,29.2,47.4,52.0,0,0,0,0,1,0,0,0,1688,8753
2024/03/03 18:58:33,9.4,32.9,28.7,29.2,47.4,52.0,0,0,0,0,1,0,0,0,1688,8753
2024/03/03 19:00:31,9.4,32.9,28.6,29.2,47.3,52.0,0,0,0,0,1,0,0,0,1688,8753
2024/03/03 19:02:31,9.4,32.8,28.5,29.2,47.2,52.0,0,0,0,0,1,0,0,0,1688,8753
2024/03/03 19:04:29,9.4,32.8,28.4,29.2,47.2,52.0,0,0,0,0,1,0,0,0,1688,8753
2024/03/03 19:06:29,9.3,32.7,28.3,29.2,47.1,52.0,0,0,0,0,1,0,0,0,1688,8753
2024/03/03 19:08:27,9.3,32.7,28.2,29.2,47.0,52.0,0,0,0,0,1,0,0,0,1688,8753
2024/03/03 19:10:26,9.2,32.6,28.0,29.2,47.0,52.0,0,0,0,0,1,0,0,0,1688,8753
2024/03/03 19:12:25,9.2,32.6,28.0,29.2,46.9,52.0,0,0,0,0,1,0,0,0,1688,8753
2024/03/03 19:14:21,9.1,32.5,27.9,29.2,46.8,52.0,0,0,0,0,1,0,0,0,1688,8753
2024/03/03 19:16:20,9.0,32.5,27.8,29.2,46.7,52.0,0,0,0,0,1,0,0,0,1688,8753
2024/03/03 19:18:19,9.0,32.4,27.7,29.2,46.7,52.0,0,0,0,0,1,0,0,0,1688,8753
2024/03/03 19:20:18,8.9,32.4,27.6,29.2,46.6,52.0,0,0,0,0,1,0,0,0,1688,8753
2024/03/03 19:22:18,8.9,32.3,27.5,29.9,46.5,52.0,0,0,0,0,1,0,0,0,1688,8753
2024/03/03 19:24:17,8.8,32.2,27.4,29.9,46.4,52.0,0,0,0,0,1,0,0,0,1688,8753
2024/03/03 19:26:14,8.8,32.2,27.3,29.9,46.4,52.0,0,0,0,0,1,0,0,0,1688,8753
2024/03/03 19:28:12,8.8,32.1,27.2,29.9,46.2,52.0,0,0,0,0,1,0,0,0,1688,8753
2024/03/03 19:30:10,8.7,32.1,27.1,29.9,46.1,52.0,0,0,0,0,1,0,0,0,1688,8753
2024/03/03 19:32:09,8.7,32.0,27.0,29.9,46.0,52.0,0,0,0,0,1,0,0,0,1688,8753
2024/03/03 19:34:08,8.6,32.0,26.9,29.9,45.9,52.0,0,0,0,0,1,0,0,0,1688,8753
2024/03/03 19:36:08,8.6,31.9,26.8,29.9,45.8,52.0,0,0,0,0,1,0,0,0,1688,8753
2024/03/03 19:38:07,8.5,31.9,26.8,29.9,45.7,52.0,0,0,0,0,1,0,0,0,1688,8753
2024/03/03 19:40:06,8.5,31.8,26.7,29.9,45.5,52.0,0,0,0,0,1,0,0,0,1688,8753
2024/03/03 19:42:05,8.4,31.8,26.6,29.9,45.4,52.0,0,0,0,0,1,0,0,0,1688,8753
2024/03/03 19:44:04,8.4,31.7,26.5,29.9,45.3,52.0,0,0,0,0,1,0,0,0,1688,8753
2024/03/03 19:46:03,8.3,31.7,26.4,29.9,45.2,52.0,0,0,0,0,1,0,0,0,1688,8753
2024/03/03 19:48:02,8.3,31.6,26.4,29.9,45.0,52.0,0,0,0,0,1,0,0,0,1688,8753
2024/03/03 19:50:02,8.2,31.5,26.3,29.9,44.5,52.0,0,0,0,0,1,0,0,0,1688,8753
2024/03/03 19:52:01,8.2,25.1,25.1,29.9,41.6,52.0,1,0,1,0,0,1,1,0,1688,8753
2024/03/03 19:54:00,8.2,31.0,26.7,29.9,35.9,52.0,1,0,1,0,0,1,1,0,1688,8754
2024/03/03 19:55:59,8.1,31.2,27.4,29.9,32.0,52.0,1,0,1,0,0,1,1,0,1688,8755
2024/03/03 19:57:58,8.1,32.0,27.9,29.9,31.1,52.0,1,0,1,0,0,1,1,0,1688,8756
2024/03/03 19:59:57,8.1,32.9,28.7,29.9,31.1,52.0,1,0,1,0,0,1,1,0,1688,8757
2024/03/03 20:01:56,8.0,33.7,29.5,29.9,31.7,52.0,1,0,1,0,0,1,1,0,1688,8758
2024/03/03 20:04:55,8.0,34.5,30.3,29.9,32.3,52.0,1,0,1,0,0,1,1,0,1688,8758
2024/03/03 20:06:52,7.9,35.4,31.2,29.9,33.0,52.0,1,0,1,0,0,1,1,0,1688,8759
2024/03/03 20:08:51,7.9,36.3,32.1,30.7,33.7,52.0,1,0,1,0,0,1,1,0,1688,8760
2024/03/03 20:10:50,7.9,37.2,32.9,30.7,34.4,52.0,1,0,1,0,0,1,1,0,1688,8761
2024/03/03 20:12:49,7.8,39.2,33.8,30.7,35.1,52.0,1,1,1,0,0,1,1,0,1688,8762
2024/03/03 20:14:49,7.8,42.3,35.7,30.7,36.0,52.0,1,1,1,0,0,1,1,0,1688,8763
2024/03/03 20:16:47,7.8,44.5,37.8,30.7,37.4,52.0,1,1,1,0,0,1,1,0,1688,8764
2024/03/03 20:18:47,7.8,46.2,39.4,30.7,39.1,52.0,1,1,1,0,0,1,1,0,1688,8766
2024/03/03 20:20:46,7.8,47.8,40.8,30.7,41.0,52.0,1,1,1,0,0,1,1,0,1688,8767
2024/03/03 20:22:44,7.8,49.1,42.1,30.7,42.7,52.0,1,1,1,0,0,1,1,0,1688,8768
2024/03/03 20:24:42,7.7,50.2,43.2,30.7,43.7,52.0,1,1,1,0,0,1,1,0,1688,8770
2024/03/03 20:26:41,7.7,51.4,44.1,30.7,44.4,52.0,1,1,1,0,0,1,1,0,1688,8771
2024/03/03 20:28:39,7.7,52.5,45.1,30.7,45.3,52.0,1,1,1,0,0,1,1,0,1688,8772
2024/03/03 20:30:38,7.7,53.5,46.1,30.7,46.1,52.0,1,1,1,0,0,1,1,0,1688,8774
2024/03/03 20:32:37,7.7,54.4,47.2,30.7,47.0,52.0,1,1,1,0,0,1,1,0,1688,8775
2024/03/03 20:34:36,7.6,55.5,48.2,30.7,47.8,52.0,1,1,1,0,0,1,1,0,1688,8776
2024/03/03 20:36:35,7.6,56.5,49.1,30.7,48.7,52.0,1,1,1,0,0,1,1,0,1688,8777
2024/03/03 20:38:34,7.6,57.4,49.8,30.7,49.5,52.0,1,1,1,0,0,1,1,0,1688,8779
2024/03/03 20:40:34,7.6,58.2,50.7,30.7,50.4,52.0,1,1,1,0,0,1,1,0,1688,8780
2024/03/03 20:42:32,7.6,59.0,51.7,30.7,51.3,52.0,1,1,1,0,0,1,1,0,1688,8781
2024/03/03 20:44:32,7.6,58.0,52.3,30.7,52.3,52.0,0,1,1,0,1,0,1,0,1688,8782
2024/03/03 20:46:31,7.5,36.3,30.6,30.7,53.0,52.0,0,1,1,0,1,0,1,0,1689,8782
2024/03/03 20:48:30,7.5,34.0,29.1,30.7,53.2,52.0,0,1,1,0,1,0,1,0,1690,8782
2024/03/03 20:50:29,7.5,33.3,28.6,30.7,53.2,52.0,0,1,1,0,1,0,1,0,1691,8782
2024/03/03 20:52:28,7.5,33.4,29.0,30.7,53.2,52.0,0,1,1,0,1,0,1,0,1691,8782
2024/03/03 20:54:28,7.5,33.9,29.5,30.7,53.1,52.0,0,1,1,0,1,0,1,0,1692,8782
2024/03/03 20:56:26,7.5,34.1,29.8,30.7,53.0,52.0,0,1,1,0,1,0,1,0,1693,8782
2024/03/03 20:58:25,7.4,34.2,30.0,30.7,52.8,52.0,0,1,1,0,1,0,1,0,1694,8782
2024/03/03 21:00:25,7.4,34.3,30.0,30.7,52.7,52.0,0,1,1,0,1,0,1,0,1695,8782
2024/03/03 21:02:24,7.4,34.8,30.2,30.7,52.7,52.0,0,1,1,0,1,0,1,0,1695,8782
2024/03/03 21:04:23,7.4,34.7,30.2,30.7,52.6,52.0,0,1,1,0,1,0,1,0,1696,8782
2024/03/03 21:06:20,7.4,34.8,30.4,30.7,52.5,52.0,0,1,1,0,1,0,1,0,1697,8782
2024/03/03 21:08:19,7.3,34.9,30.5,30.7,52.4,52.0,0,1,1,0,1,0,1,0,1698,8782
2024/03/03 21:10:18,7.3,35.2,30.7,30.7,52.4,52.0,0,1,1,0,1,0,1,0,1699,8782
2024/03/03 21:12:17,7.3,35.4,31.0,30.7,52.3,52.0,0,1,1,0,1,0,1,0,1699,8782
2024/03/03 21:14:16,7.3,35.6,31.1,30.7,52.2,52.0,0,1,1,0,1,0,1,0,1700,8782
2024/03/03 21:16:15,7.3,35.9,31.4,30.7,52.2,52.0,0,1,1,0,1,0,1,0,1701,8782
2024/03/03 21:18:14,7.3,36.1,31.6,30.7,52.1,52.0,0,1,1,0,1,0,1,0,1702,8782
2024/03/03 21:20:14,7.3,36.4,31.9,30.7,52.0,52.0,0,1,1,0,1,0,1,0,1702,8782
2024/03/03 21:22:11,7.3,36.7,32.1,30.7,52.0,52.0,0,1,1,0,1,0,1,0,1703,8782
2024/03/03 21:24:09,7.3,36.9,32.4,30.7,51.9,52.0,0,1,1,0,1,0,1,0,1704,8782
2024/03/03 21:26:07,7.3,37.1,32.6,30.7,51.8,52.0,0,1,1,0,1,0,1,0,1705,8782
2024/03/03 21:28:06,7.3,34.7,32.8,30.7,51.7,52.0,0,0,0,0,1,0,1,0,1705,8782
2024/03/03 21:30:06,7.3,34.8,33.3,30.7,51.7,52.0,0,0,0,0,1,0,0,0,1705,8782
2024/03/03 21:32:05,7.3,34.4,32.6,30.7,51.6,52.0,0,0,0,0,1,0,0,0,1705,8782
2024/03/03 21:34:04,7.3,34.1,32.2,30.7,51.5,52.0,0,0,0,0,1,0,0,0,1705,8782
2024/03/03 21:36:02,7.3,33.9,32.0,30.7,51.5,52.0,0,0,0,0,1,0,0,0,1705,8782
2024/03/03 21:38:01,7.3,33.7,31.7,30.7,51.4,52.0,0,0,0,0,1,0,0,0,1705,8782
2024/03/03 21:40:00,7.3,33.5,31.5,30.7,51.3,52.0,0,0,0,0,1,0,0,0,1705,8782
2024/03/03 21:41:59,7.3,33.4,31.3,30.7,51.2,52.0,0,0,0,0,1,0,0,0,1705,8782
2024/03/03 21:43:57,7.3,33.3,31.2,30.7,51.1,52.0,0,0,0,0,1,0,0,0,1705,8782
2024/03/03 21:45:57,7.3,33.2,31.0,30.7,51.1,52.0,0,0,0,0,1,0,0,0,1705,8782
2024/03/03 21:48:56,7.3,33.1,30.8,30.7,51.0,52.0,0,0,0,0,1,0,0,0,1705,8782
2024/03/03 21:50:56,7.2,33.0,30.6,30.7,50.9,52.0,0,0,0,0,1,0,0,0,1705,8782
2024/03/03 21:52:54,7.2,32.9,30.4,30.7,50.9,52.0,0,0,0,0,1,0,0,0,1705,8782
2024/03/03 21:54:53,7.2,32.8,30.3,30.7,50.8,52.0,0,0,0,0,1,0,0,0,1705,8782
2024/03/03 21:56:52,7.2,32.7,30.1,30.7,50.7,52.0,0,0,0,0,1,0,0,0,1705,8782
2024/03/03 21:58:51,7.2,32.7,30.0,30.7,50.7,52.0,0,0,0,0,1,0,0,0,1705,8782
2024/03/03 22:00:50,7.2,32.6,29.8,30.7,50.6,52.0,0,0,0,0,1,0,0,0,1705,8782
2024/03/03 22:02:49,7.2,32.5,29.7,30.7,50.5,52.0,0,0,0,0,1,0,0,0,1705,8782
2024/03/03 22:04:48,7.2,32.4,29.5,30.7,50.5,52.0,0,0,0,0,1,0,0,0,1705,8782
2024/03/03 22:06:48,7.2,32.4,29.4,30.7,50.5,52.0,0,0,0,0,1,0,0,0,1705,8782
2024/03/03 22:08:46,7.2,32.3,29.2,30.7,50.5,52.0,0,0,0,0,1,0,0,0,1705,8782
2024/03/03 22:10:42,7.2,32.3,29.1,30.7,50.5,52.0,0,0,0,0,1,0,0,0,1705,8782
2024/03/03 22:12:42,7.2,32.2,29.0,30.7,50.5,52.0,0,0,0,0,1,0,0,0,1705,8782
2024/03/03 22:14:40,7.2,32.2,28.8,30.7,50.5,52.0,0,0,0,0,1,0,0,0,1705,8782
2024/03/03 22:16:37,7.2,32.1,28.7,30.7,50.5,52.0,0,0,0,0,1,0,0,0,1705,8782
2024/03/03 22:18:36,7.2,32.1,28.6,30.7,50.5,52.0,0,0,0,0,1,0,0,0,1705,8782
2024/03/03 22:20:35,7.2,32.0,28.5,30.7,50.5,52.0,0,0,0,0,1,0,0,0,1705,8782
2024/03/03 22:22:34,7.2,32.0,28.3,30.7,50.5,52.0,0,0,0,0,1,0,0,0,1705,8782
2024/03/03 22:24:33,7.1,31.9,28.2,30.7,50.5,52.0,0,0,0,0,1,0,0,0,1705,8782
2024/03/03 22:26:33,7.1,31.9,28.1,30.7,50.5,52.0,0,0,0,0,1,0,0,0,1705,8782
2024/03/03 22:28:32,7.1,31.8,28.0,30.7,50.4,52.0,0,0,0,0,1,0,0,0,1705,8782
2024/03/03 22:30:30,7.1,31.8,27.8,30.7,50.4,40.0,0,0,0,0,1,0,0,0,1705,8782
2024/03/03 22:32:30,7.1,31.8,27.7,30.7,50.4,40.0,0,0,0,0,1,0,0,0,1705,8782
2024/03/03 22:34:28,7.1,31.7,27.6,30.7,50.4,40.0,0,0,0,0,1,0,0,0,1705,8782
2024/03/03 22:36:27,7.1,31.7,27.5,30.7,50.4,40.0,0,0,0,0,1,0,0,0,1705,8782
2024/03/03 22:38:26,7.1,31.6,27.4,30.7,50.4,40.0,0,0,0,0,1,0,0,0,1705,8782
2024/03/03 22:40:25,7.1,31.6,27.3,30.7,50.4,40.0,0,0,0,0,1,0,0,0,1705,8782
2024/03/03 22:42:22,7.1,31.5,27.2,30.7,50.4,40.0,0,0,0,0,1,0,0,0,1705,8782
2024/03/03 22:44:21,7.1,31.5,27.0,30.7,50.4,40.0,0,0,0,0,1,0,0,0,1705,8782
2024/03/03 22:46:19,7.1,31.5,26.9,30.7,50.4,40.0,0,0,0,0,1,0,0,0,1705,8782
2024/03/03 22:48:18,7.1,31.4,26.8,30.7,50.3,40.0,0,0,0,0,1,0,0,0,1705,8782
2024/03/03 22:50:17,7.1,31.3,26.7,30.7,50.3,40.0,0,0,0,0,1,0,0,0,1705,8782
2024/03/03 22:52:15,7.1,31.3,26.6,30.7,50.3,40.0,0,0,0,0,1,0,0,0,1705,8782
2024/03/03 22:54:12,7.1,31.2,26.6,30.7,50.3,40.0,0,0,0,0,1,0,0,0,1705,8782
2024/03/03 22:56:10,7.1,31.2,26.5,30.7,50.3,40.0,0,0,0,0,1,0,0,0,1705,8782
2024/03/03 22:58:09,7.1,31.2,26.4,30.7,50.3,40.0,0,0,0,0,1,0,0,0,1705,8782
2024/03/03 23:00:09,7.1,31.1,26.3,30.7,50.2,40.0,0,0,0,0,1,0,0,0,1705,8782
2024/03/03 23:02:06,7.1,31.0,26.2,30.7,50.2,40.0,0,0,0,0,1,0,0,0,1705,8782
2024/03/03 23:04:05,7.1,31.0,26.1,30.7,50.2,40.0,0,0,0,0,1,0,0,0,1705,8782
2024/03/03 23:06:03,7.1,31.0,26.0,30.7,50.2,40.0,0,0,0,0,1,0,0,0,1705,8782
2024/03/03 23:08:02,7.1,30.9,25.9,30.7,50.2,40.0,0,0,0,0,1,0,0,0,1705,8782
2024/03/03 23:10:01,7.1,30.8,25.8,30.7,50.2,40.0,0,0,0,0,1,0,0,0,1705,8782
2024/03/03 23:12:00,7.1,30.8,25.8,30.7,50.1,40.0,0,0,0,0,1,0,0,0,1705,8782
2024/03/03 23:13:59,7.1,30.7,25.7,30.7,50.1,40.0,0,0,0,0,1,0,0,0,1705,8782
2024/03/03 23:15:58,7.1,30.7,25.6,30.7,50.1,40.0,0,0,0,0,1,0,0,0,1705,8782
2024/03/03 23:18:55,7.1,30.6,25.5,30.7,50.1,40.0,0,0,0,0,1,0,0,0,1705,8782
2024/03/03 23:20:54,7.1,28.6,27.1,30.7,50.1,40.0,0,0,1,0,1,0,1,0,1705,8782
2024/03/03 23:22:53,7.1,29.5,27.0,30.7,50.0,40.0,1,0,1,0,1,0,1,0,1706,8782
2024/03/03 23:24:52,7.1,30.6,27.2,30.7,50.0,40.0,1,0,1,0,1,0,1,0,1706,8782
2024/03/03 23:26:51,7.1,31.0,27.5,30.7,50.0,40.0,1,0,1,0,1,0,1,0,1707,8782
2024/03/03 23:28:50,7.1,31.4,27.6,30.7,50.0,40.0,1,0,1,0,1,0,1,0,1708,8782
2024/03/03 23:30:50,7.1,31.6,27.8,30.7,50.0,40.0,1,0,1,0,1,0,1,0,1709,8782
2024/03/03 23:32:49,7.1,31.8,28.0,30.7,50.0,40.0,1,0,1,0,1,0,1,0,1710,8782
2024/03/03 23:34:48,7.1,32.1,28.2,30.7,49.9,40.0,1,0,1,0,1,0,1,0,1710,8782
2024/03/03 23:36:46,7.1,32.3,28.4,30.7,49.9,40.0,1,0,1,0,1,0,1,0,1711,8782
2024/03/03 23:38:45,7.1,32.7,28.7,30.7,49.9,40.0,1,0,1,0,1,0,1,0,1712,8782
2024/03/03 23:40:45,7.1,33.0,29.0,30.7,49.9,40.0,1,0,1,0,1,0,1,0,1713,8782
2024/03/03 23:42:43,7.1,33.1,29.1,30.7,49.9,40.0,1,0,1,0,1,0,1,0,1714,8782
2024/03/03 23:44:42,7.1,33.4,29.4,30.7,49.9,40.0,1,0,1,0,1,0,1,0,1714,8782
2024/03/03 23:46:41,7.1,33.6,29.6,30.7,49.9,40.0,1,0,1,0,1,0,1,0,1715,8782
2024/03/03 23:48:40,7.1,33.8,29.8,30.7,49.8,40.0,1,0,1,0,1,0,1,0,1716,8782
2024/03/03 23:50:40,7.1,34.1,30.0,30.7,49.8,40.0,1,0,1,0,1,0,1,0,1717,8782
2024/03/03 23:52:38,7.1,34.5,30.1,30.7,49.8,40.0,1,0,1,0,1,0,1,0,1718,8782
2024/03/03 23:54:38,7.1,34.6,30.2,30.7,49.8,40.0,1,0,1,0,1,0,1,0,1718,8782
2024/03/03 23:56:37,7.1,34.8,30.4,30.7,49.8,40.0,1,0,1,0,1,0,1,0,1719,8782
2024/03/03 23:58:36,7.1,35.0,30.6,30.7,49.7,40.0,1,0,1,0,1,0,1,0,1720,8782
