Type,Analog,Analog,Analog,Analog,Analog,Analog,Digital,Digital,Digital,Digital,Digital,Digital,Digital,Digital
Index,1,5,2,53,3,58,41,42,43,44,45,46,49,50
Name,R1,R9,R2,R2 Solltemperatur,R3,R3 Solltemperatur,M1,M3,M2/M11,E10,M13,M18,M16,E9
Description,Variable 1,Variable 2,Variable 3,Variable 4,Variable 5,Variable 6,Variable 7,Variable 8,Variable 9,Variable 10,Variable 11,Variable 12,Variable 13,Variable 14
2021/08/20 00:01:57,16.8,31.8,28.7,10.0,39.8,10.0,0,0,0,0,0,0,0,0
2021/08/20 00:03:50,16.8,31.8,28.7,10.0,39.7,10.0,0,0,0,0,0,0,0,0
2021/08/20 00:05:43,16.8,31.7,28.7,10.0,39.7,10.0,0,0,0,0,0,0,0,0
2021/08/20 00:07:37,16.8,31.7,28.6,10.0,39.7,10.0,0,0,0,0,0,0,0,0
2021/08/20 00:09:35,16.8,31.7,28.6,10.0,39.7,10.0,0,0,0,0,0,0,0,0
2021/08/20 00:11:31,16.8,31.6,28.6,10.0,39.7,10.0,0,0,0,0,0,0,0,0
2021/08/20 00:13:28,16.9,31.6,28.5,10.0,39.7,10.0,0,0,0,0,0,0,0,0
2021/08/20 00:15:23,16.9,31.6,28.5,10.0,39.7,10.0,0,0,0,0,0,0,0,0
2021/08/20 00:18:20,16.9,31.5,28.5,10.0,39.6,10.0,0,0,0,0,0,0,0,0
2021/08/20 00:20:14,17.0,31.5,28.4,10.0,39.6,10.0,0,0,0,0,0,0,0,0
2021/08/20 00:22:09,17.0,31.5,28.4,10.0,39.6,10.0,0,0,0,0,0,0,0,0
2021/08/20 00:24:06,17.0,31.4,28.4,10.0,39.6,10.0,0,0,0,0,0,0,0,0
2021/08/20 00:26:00,17.0,31.4,28.3,10.0,39.6,10.0,0,0,0,0,0,0,0,0
2021/08/20 00:27:58,17.1,31.4,28.3,10.0,39.6,10.0,0,0,0,0,0,0,0,0
2021/08/20 00:29:54,17.1,31.3,28.3,10.0,39.6,10.0,0,0,0,0,0,0,0,0
2021/08/20 00:31:50,17.1,31.3,28.2,10.0,39.5,10.0,0,0,0,0,0,0,0,0
2021/08/20 00:33:46,17.2,31.3,28.2,10.0,39.5,10.0,0,0,0,0,0,0,0,0
2021/08/20 00:35:43,17.2,31.3,28.2,10.0,39.5,10.0,0,0,0,0,0,0,0,0
2021/08/20 00:37:39,17.2,31.2,28.2,10.0,39.5,10.0,0,0,0,0,0,0,0,0
2021/08/20 00:39:32,17.2,31.2,28.1,10.0,39.5,10.0,0,0,0,0,0,0,0,0
2021/08/20 00:41:27,17.2,31.2,28.1,10.0,39.5,10.0,0,0,0,0,0,0,0,0
2021/08/20 00:43:21,17.2,31.1,28.1,10.0,39.5,10.0,0,0,0,0,0,0,0,0
2021/08/20 00:46:17,17.2,31.1,28.0,10.0,39.5,10.0,0,0,0,0,0,0,0,0
2021/08/20 00:48:16,17.2,31.1,28.0,10.0,39.4,10.0,0,0,0,0,0,0,0,0
2021/08/20 00:50:12,17.2,31.0,28.0,10.0,39.4,10.0,0,0,0,0,0,0,0,0
2021/08/20 00:52:04,17.2,31.0,28.0,10.0,39.4,10.0,0,0,0,0,0,0,0,0
2021/08/20 00:54:01,17.2,31.0,27.9,10.0,39.4,10.0,0,0,0,0,0,0,0,0
2021/08/20 00:55:59,17.2,31.0,27.9,10.0,39.4,10.0,0,0,0,0,0,0,0,0
2021/08/20 00:57:53,17.2,30.9,27.9,10.0,39.4,10.0,0,0,0,0,0,0,0,0
2021/08/20 00:59:48,17.2,30.9,27.9,10.0,39.4,10.0,0,0,0,0,0,0,0,0
2021/08/20 01:01:42,17.2,30.9,27.8,10.0,39.3,10.0,0,0,0,0,0,0,0,0
2021/08/20 01:03:38,17.2,30.8,27.8,10.0,39.3,10.0,0,0,0,0,0,0,0,0
2021/08/20 01:05:33,17.2,30.8,27.8,10.0,39.3,10.0,0,0,0,0,0,0,0,0
2021/08/20 01:07:25,17.2,30.8,27.8,10.0,39.3,10.0,0,0,0,0,0,0,0,0
2021/08/20 01:10:18,17.2,30.8,27.7,10.0,39.3,10.0,0,0,0,0,0,0,0,0
2021/08/20 01:12:12,17.2,30.7,27.7,10.0,39.3,10.0,0,0,0,0,0,0,0,0
2021/08/20 01:14:03,17.2,30.7,27.7,10.0,39.3,10.0,0,0,0,0,0,0,0,0
2021/08/20 01:15:59,17.2,30.7,27.7,10.0,39.3,10.0,0,0,0,0,0,0,0,0
2021/08/20 01:17:56,17.2,30.6,27.6,10.0,39.2,10.0,0,0,0,0,0,0,0,0
2021/08/20 01:19:52,17.2,30.6,27.6,10.0,39.2,10.0,0,0,0,0,0,0,0,0
2021/08/20 01:21:46,17.2,30.6,27.6,10.0,39.2,10.0,0,0,0,0,0,0,0,0
2021/08/20 01:23:39,17.2,30.6,27.6,10.0,39.2,10.0,0,0,0,0,0,0,0,0
2021/08/20 01:25:30,17.2,30.5,27.6,10.0,39.2,10.0,0,0,0,0,0,0,0,0
2021/08/20 01:27:27,17.2,30.5,27.5,10.0,39.2,10.0,0,0,0,0,0,0,0,0
2021/08/20 01:29:21,17.2,30.5,27.5,10.0,39.2,10.0,0,0,0,0,0,0,0,0
2021/08/20 01:32:16,17.2,30.4,27.5,10.0,39.2,10.0,0,0,0,0,0,0,0,0
2021/08/20 01:34:08,17.2,30.4,27.5,10.0,39.1,10.0,0,0,0,0,0,0,0,0
2021/08/20 01:36:04,17.2,30.4,27.4,10.0,39.1,10.0,0,0,0,0,0,0,0,0
2021/08/20 01:38:02,17.2,30.4,27.4,10.0,39.1,10.0,0,0,0,0,0,0,0,0
2021/08/20 01:39:57,17.2,30.3,27.4,10.0,39.1,10.0,0,0,0,0,0,0,0,0
2021/08/20 01:41:53,17.2,30.3,27.4,10.0,39.1,10.0,0,0,0,0,0,0,0,0
2021/08/20 01:43:46,17.2,30.3,27.4,10.0,39.1,10.0,0,0,0,0,0,0,0,0
2021/08/20 01:45:42,17.1,30.3,27.3,10.0,39.1,10.0,0,0,0,0,0,0,0,0
2021/08/20 01:47:38,17.1,30.2,27.3,10.0,39.1,10.0,0,0,0,0,0,0,0,0
2021/08/20 01:49:31,17.1,30.2,27.3,10.0,39.1,10.0,0,0,0,0,0,0,0,0
2021/08/20 01:51:26,17.1,30.2,27.3,10.0,39.0,10.0,0,0,0,0,0,0,0,0
2021/08/20 01:54:18,17.1,30.1,27.3,10.0,39.0,10.0,0,0,0,0,0,0,0,0
2021/08/20 01:56:14,17.1,30.1,27.2,10.0,39.0,10.0,0,0,0,0,0,0,0,0
2021/08/20 01:58:08,17.1,30.1,27.2,10.0,39.0,10.0,0,0,0,0,0,0,0,0
2021/08/20 02:00:02,17.1,30.1,27.2,10.0,39.0,10.0,0,0,0,0,0,0,0,0
2021/08/20 02:01:59,17.1,30.0,27.2,10.0,39.0,10.0,0,0,0,0,0,0,0,0
2021/08/20 02:03:58,17.1,30.0,27.2,10.0,39.0,10.0,0,0,0,0,0,0,0,0
2021/08/20 02:05:57,17.0,30.0,27.2,10.0,39.0,10.0,0,0,0,0,0,0,0,0
2021/08/20 02:07:51,17.0,30.0,27.1,10.0,38.9,10.0,0,0,0,0,0,0,0,0
2021/08/20 02:09:47,17.0,30.0,27.1,10.0,38.9,10.0,0,0,0,0,0,0,0,0
2021/08/20 02:11:43,17.0,29.9,27.1,10.0,38.9,10.0,0,0,0,0,0,0,0,0
2021/08/20 02:13:38,17.0,29.9,27.1,10.0,38.9,10.0,0,0,0,0,0,0,0,0
2021/08/20 02:15:31,17.0,29.9,27.1,10.0,38.9,10.0,0,0,0,0,0,0,0,0
2021/08/20 02:17:23,16.9,29.9,27.0,10.0,38.9,10.0,0,0,0,0,0,0,0,0
2021/08/20 02:20:16,16.9,29.9,27.0,10.0,38.9,10.0,0,0,0,0,0,0,0,0
2021/08/20 02:22:10,16.9,29.8,27.0,10.0,38.9,10.0,0,0,0,0,0,0,0,0
2021/08/20 02:24:06,16.9,29.8,27.0,10.0,38.9,10.0,0,0,0,0,0,0,0,0
2021/08/20 02:26:04,16.8,29.8,27.0,10.0,38.9,10.0,0,0,0,0,0,0,0,0
2021/08/20 02:27:57,16.8,29.8,27.0,10.0,38.8,10.0,0,0,0,0,0,0,0,0
2021/08/20 02:29:51,16.7,29.8,26.9,10.0,38.8,10.0,0,0,0,0,0,0,0,0
2021/08/20 02:31:47,16.7,29.7,26.9,10.0,38.8,10.0,0,0,0,0,0,0,0,0
2021/08/20 02:33:43,16.7,29.7,26.9,10.0,38.8,10.0,0,0,0,0,0,0,0,0
2021/08/20 02:35:37,16.6,29.7,26.9,10.0,38.8,10.0,0,0,0,0,0,0,0,0
2021/08/20 02:37:32,16.6,29.7,26.9,10.0,38.8,10.0,0,0,0,0,0,0,0,0
2021/08/20 02:39:26,16.5,29.7,26.9,10.0,38.8,10.0,0,0,0,0,0,0,0,0
2021/08/20 02:41:21,16.5,29.6,26.9,10.0,38.8,10.0,0,0,0,0,0,0,0,0
2021/08/20 02:44:13,16.5,29.6,26.8,10.0,38.8,10.0,0,0,0,0,0,0,0,0
2021/08/20 02:46:07,16.4,29.6,26.8,10.0,38.7,10.0,0,0,0,0,0,0,0,0
2021/08/20 02:48:03,16.4,29.6,26.8,10.0,38.7,10.0,0,0,0,0,0,0,0,0
2021/08/20 02:50:03,16.4,29.6,26.8,10.0,38.7,10.0,0,0,0,0,0,0,0,0
2021/08/20 02:51:54,16.4,29.5,26.8,10.0,38.7,10.0,0,0,0,0,0,0,0,0
2021/08/20 02:53:52,16.3,29.5,26.8,10.0,38.7,10.0,0,0,0,0,0,0,0,0
2021/08/20 02:55:46,16.3,29.5,26.7,10.0,38.7,10.0,0,0,0,0,0,0,0,0
2021/08/20 02:57:41,16.3,29.5,26.7,10.0,38.7,10.0,0,0,0,0,0,0,0,0
2021/08/20 02:59:36,16.2,29.5,26.7,10.0,38.7,10.0,0,0,0,0,0,0,0,0
2021/08/20 03:01:32,16.2,29.4,26.7,10.0,38.7,10.0,0,0,0,0,0,0,0,0
2021/08/20 03:03:27,16.2,29.4,26.7,10.0,38.6,10.0,0,0,0,0,0,0,0,0
2021/08/20 03:05:24,16.2,29.4,26.7,10.0,38.6,10.0,0,0,0,0,0,0,0,0
2021/08/20 03:07:21,16.2,29.4,26.7,10.0,38.6,10.0,0,0,0,0,0,0,0,0
2021/08/20 03:10:17,16.2,29.4,26.7,10.0,38.6,10.0,0,0,0,0,0,0,0,0
2021/08/20 03:12:14,16.2,29.4,26.6,10.0,38.6,10.0,0,0,0,0,0,0,0,0
2021/08/20 03:14:09,16.2,29.3,26.6,10.0,38.6,10.0,0,0,0,0,0,0,0,0
2021/08/20 03:16:04,16.2,29.3,26.6,10.0,38.6,10.0,0,0,0,0,0,0,0,0
2021/08/20 03:17:59,16.2,29.3,26.6,10.0,38.6,10.0,0,0,0,0,0,0,0,0
2021/08/20 03:19:53,16.2,29.3,26.6,10.0,38.5,10.0,0,0,0,0,0,0,0,0
2021/08/20 03:21:48,16.2,29.3,26.6,10.0,38.5,10.0,0,0,0,0,0,0,0,0
2021/08/20 03:23:39,16.2,29.2,26.6,10.0,38.5,10.0,0,0,0,0,0,0,0,0
2021/08/20 03:25:33,16.2,29.2,26.5,10.0,38.5,10.0,0,0,0,0,0,0,0,0
2021/08/20 03:27:28,16.2,29.2,26.5,10.0,38.5,10.0,0,0,0,0,0,0,0,0
2021/08/20 03:29:22,16.2,29.2,26.5,10.0,38.5,10.0,0,0,0,0,0,0,0,0
2021/08/20 03:32:17,16.2,29.2,26.5,10.0,38.5,10.0,0,0,0,0,0,0,0,0
2021/08/20 03:34:10,16.2,29.2,26.5,10.0,38.5,10.0,0,0,0,0,0,0,0,0
2021/08/20 03:36:06,16.2,29.2,26.5,10.0,38.5,10.0,0,0,0,0,0,0,0,0
2021/08/20 03:38:02,16.2,29.1,26.5,10.0,38.4,10.0,0,0,0,0,0,0,0,0
2021/08/20 03:39:58,16.2,29.1,26.5,10.0,38.4,10.0,0,0,0,0,0,0,0,0
2021/08/20 03:41:52,16.2,29.1,26.5,10.0,38.4,10.0,0,0,0,0,0,0,0,0
2021/08/20 03:43:47,16.2,29.1,26.4,10.0,38.4,10.0,0,0,0,0,0,0,0,0
2021/08/20 03:45:41,16.2,29.1,27.7,10.0,38.4,52.0,0,0,1,0,0,1,1,0
2021/08/20 03:47:39,16.1,34.3,29.6,10.0,38.0,52.0,1,0,1,0,0,1,1,0
2021/08/20 03:49:38,16.1,36.6,33.2,10.0,37.5,52.0,1,0,1,0,0,1,1,0
2021/08/20 03:51:33,16.1,38.2,34.2,10.0,37.4,52.0,1,0,1,0,0,1,1,0
2021/08/20 03:53:32,16.1,39.5,35.4,10.0,37.6,52.0,1,0,1,0,0,1,1,0
2021/08/20 03:55:28,16.1,40.5,36.5,10.0,38.2,52.0,1,0,1,0,0,1,1,0
2021/08/20 03:57:24,16.1,41.6,37.4,10.0,38.8,52.0,1,0,1,0,0,1,1,0
2021/08/20 04:00:21,16.1,42.6,38.3,10.0,39.5,52.0,1,0,1,0,0,1,1,0
2021/08/20 04:02:16,16.1,43.5,39.1,10.0,40.2,52.0,1,0,1,0,0,1,1,0
2021/08/20 04:04:13,16.1,44.2,39.7,10.0,40.7,52.0,1,0,1,0,0,1,1,0
2021/08/20 04:06:10,16.1,44.8,40.4,10.0,41.3,52.0,1,0,1,0,0,1,1,0
2021/08/20 04:08:07,16.1,45.6,41.1,10.0,42.0,52.0,1,0,1,0,0,1,1,0
2021/08/20 04:10:01,16.1,46.3,41.8,10.0,42.4,52.0,1,0,1,0,0,1,1,0
2021/08/20 04:12:01,16.0,46.9,42.4,10.0,42.9,52.0,1,0,1,0,0,1,1,0
2021/08/20 04:13:57,16.0,47.5,43.0,10.0,43.5,52.0,1,0,1,0,0,1,1,0
2021/08/20 04:15:56,16.0,48.2,43.6,10.0,44.1,52.0,1,0,1,0,0,1,1,0
2021/08/20 04:17:54,16.0,48.8,44.1,10.0,44.6,52.0,1,0,1,0,0,1,1,0
2021/08/20 04:19:51,15.9,49.3,44.6,10.0,45.0,52.0,1,0,1,0,0,1,1,0
2021/08/20 04:21:47,15.9,49.8,45.2,10.0,45.6,52.0,1,0,1,0,0,1,1,0
2021/08/20 04:23:41,15.9,50.6,45.9,10.0,46.2,52.0,1,0,1,0,0,1,1,0
2021/08/20 04:25:35,15.9,51.1,46.4,10.0,46.8,52.0,1,0,1,0,0,1,1,0
2021/08/20 04:27:31,15.9,51.8,46.9,10.0,47.5,52.0,1,0,1,0,0,1,1,0
2021/08/20 04:29:27,15.8,52.4,47.5,10.0,48.1,52.0,1,0,1,0,0,1,1,0
2021/08/20 04:31:25,15.8,52.9,48.0,10.0,48.6,52.0,1,0,1,0,0,1,1,0
2021/08/20 04:33:22,15.7,53.4,48.6,10.0,49.2,52.0,1,0,1,0,0,1,1,0
2021/08/20 04:36:21,15.7,53.9,49.0,10.0,49.8,52.0,1,0,1,0,0,1,1,0
2021/08/20 04:38:16,15.7,54.4,49.5,10.0,50.5,52.0,1,0,1,0,0,1,1,0
2021/08/20 04:40:15,15.7,54.9,50.0,10.0,51.1,52.0,1,0,1,0,0,1,1,0
2021/08/20 04:42:12,15.7,55.6,50.6,10.0,51.7,52.0,1,0,1,0,0,1,1,0
2021/08/20 04:44:11,15.7,53.4,48.7,10.0,52.3,52.0,0,0,0,0,0,0,1,0
2021/08/20 04:46:07,15.7,36.9,34.6,10.0,52.8,52.0,0,0,0,0,0,0,0,0
2021/08/20 04:48:01,15.7,36.4,34.0,10.0,53.0,52.0,0,0,0,0,0,0,0,0
2021/08/20 04:50:00,15.7,36.0,33.7,10.0,53.1,52.0,0,0,0,0,0,0,0,0
2021/08/20 04:51:58,15.7,35.6,33.4,10.0,53.1,52.0,0,0,0,0,0,0,0,0
2021/08/20 04:53:53,15.7,35.2,33.1,10.0,53.1,52.0,0,0,0,0,0,0,0,0
2021/08/20 04:55:52,15.7,34.9,32.9,10.0,53.1,52.0,0,0,0,0,0,0,0,0
2021/08/20 04:57:48,15.7,34.7,32.6,10.0,53.1,52.0,0,0,0,0,0,0,0,0
2021/08/20 04:59:44,15.7,34.5,32.4,10.0,53.0,52.0,0,0,0,0,0,0,0,0
2021/08/20 05:01:43,15.7,34.4,32.2,10.0,53.0,52.0,0,0,0,0,0,0,0,0
2021/08/20 05:03:39,15.7,34.3,32.0,10.0,53.0,52.0,0,0,0,0,0,0,0,0
2021/08/20 05:05:34,15.7,34.2,31.9,10.0,52.9,52.0,0,0,0,0,0,0,0,0
2021/08/20 05:07:29,15.7,34.1,31.7,10.0,52.9,52.0,0,0,0,0,0,0,0,0
2021/08/20 05:09:25,15.7,34.0,31.6,10.0,52.9,52.0,0,0,0,0,0,0,0,0
2021/08/20 05:12:22,15.7,33.9,31.5,10.0,52.8,52.0,0,0,0,0,0,0,0,0
2021/08/20 05:14:16,15.7,33.9,31.4,10.0,52.8,52.0,0,0,0,0,0,0,0,0
2021/08/20 05:16:13,15.7,33.8,31.3,10.0,52.8,52.0,0,0,0,0,0,0,0,0
2021/08/20 05:18:07,15.7,33.7,31.2,10.0,52.8,52.0,0,0,0,0,0,0,0,0
2021/08/20 05:20:04,15.7,33.6,31.1,10.0,52.7,52.0,0,0,0,0,0,0,0,0
2021/08/20 05:22:01,15.7,33.5,31.0,10.0,52.7,52.0,0,0,0,0,0,0,0,0
2021/08/20 05:23:56,15.8,33.4,30.9,10.0,52.7,52.0,0,0,0,0,0,0,0,0
2021/08/20 05:25:52,15.8,33.4,30.9,10.0,52.7,52.0,0,0,0,0,0,0,0,0
2021/08/20 05:27:44,15.8,33.3,30.8,10.0,52.7,52.0,0,0,0,0,0,0,0,0
2021/08/20 05:29:41,15.8,33.2,30.7,10.0,52.6,52.0,0,0,0,0,0,0,0,0
2021/08/20 05:31:39,15.8,33.2,30.6,10.0,51.8,52.0,0,0,0,0,0,0,0,0
2021/08/20 05:33:39,15.8,33.1,30.5,10.0,51.0,52.0,0,0,0,0,0,0,0,0
2021/08/20 05:35:37,15.9,33.1,30.5,10.0,50.4,52.0,0,0,0,0,0,0,0,0
2021/08/20 05:37:36,15.9,33.0,30.4,10.0,50.2,52.0,0,0,0,0,0,0,0,0
2021/08/20 05:39:30,15.9,33.0,30.3,10.0,50.0,52.0,0,0,0,0,0,0,0,0
2021/08/20 05:41:28,15.9,32.9,30.2,10.0,49.9,52.0,0,0,0,0,0,0,0,0
2021/08/20 05:43:26,15.9,32.9,30.2,10.0,49.8,52.0,0,0,0,0,0,0,0,0
2021/08/20 05:46:19,15.9,32.8,30.1,10.0,49.7,52.0,0,0,0,0,0,0,0,0
2021/08/20 05:48:15,15.9,32.8,30.0,10.0,49.6,52.0,0,0,0,0,0,0,0,0
2021/08/20 05:50:13,15.9,32.7,30.0,10.0,49.5,52.0,0,0,0,0,0,0,0,0
2021/08/20 05:52:07,15.9,32.7,29.9,10.0,49.4,52.0,0,0,0,0,0,0,0,0
2021/08/20 05:54:04,15.9,32.7,29.9,10.0,49.3,52.0,0,0,0,0,0,0,0,0
2021/08/20 05:56:00,15.9,32.6,29.8,10.0,49.2,52.0,0,0,0,0,0,0,0,0
2021/08/20 05:57:58,15.9,32.6,29.8,10.0,49.2,52.0,0,0,0,0,0,0,0,0
2021/08/20 05:59:55,15.9,32.6,29.7,10.0,49.1,52.0,0,0,0,0,0,0,0,0
2021/08/20 06:01:51,15.9,32.5,29.7,10.0,49.0,52.0,0,0,0,0,0,0,0,0
2021/08/20 06:03:46,15.9,32.5,29.6,10.0,48.9,52.0,0,0,0,0,0,0,0,0
2021/08/20 06:05:42,15.9,32.4,29.6,10.0,48.9,52.0,0,0,0,0,0,0,0,0
2021/08/20 06:07:35,15.9,32.4,29.5,10.0,48.8,52.0,0,0,0,0,0,0,0,0
2021/08/20 06:09:32,15.9,32.4,29.5,10.0,48.7,52.0,0,0,0,0,0,0,0,0
2021/08/20 06:11:28,15.9,32.3,29.5,10.0,48.7,52.0,0,0,0,0,0,0,0,0
2021/08/20 06:14:20,15.9,32.3,29.4,10.0,48.6,52.0,0,0,0,0,0,0,0,0
2021/08/20 06:16:14,15.9,32.3,29.4,10.0,48.5,52.0,0,0,0,0,0,0,0,0
2021/08/20 06:18:10,15.9,32.2,29.3,10.0,48.4,52.0,0,0,0,0,0,0,0,0
2021/08/20 06:20:07,15.8,32.2,29.3,10.0,48.3,52.0,0,0,0,0,0,0,0,0
2021/08/20 06:22:00,15.8,32.2,29.2,10.0,48.2,52.0,0,0,0,0,0,0,0,0
2021/08/20 06:23:57,15.8,32.2,29.2,10.0,48.2,52.0,0,0,0,0,0,0,0,0
2021/08/20 06:25:53,15.8,32.1,29.2,10.0,48.1,52.0,0,0,0,0,0,0,0,0
2021/08/20 06:27:46,15.8,32.1,29.1,10.0,48.0,52.0,0,0,0,0,0,0,0,0
2021/08/20 06:29:44,15.7,32.1,29.1,10.0,48.0,52.0,0,0,0,0,0,0,0,0
2021/08/20 06:31:37,15.7,32.0,29.0,10.0,47.9,52.0,0,0,0,0,0,0,0,0
2021/08/20 06:33:32,15.7,32.0,29.0,10.0,47.8,52.0,0,0,0,0,0,0,0,0
2021/08/20 06:35:27,15.7,32.0,29.0,10.0,47.7,52.0,0,0,0,0,0,0,0,0
2021/08/20 06:37:24,15.7,32.0,28.9,10.0,47.7,52.0,0,0,0,0,0,0,0,0
2021/08/20 06:40:20,15.7,31.9,28.9,10.0,47.6,52.0,0,0,0,0,0,0,0,0
2021/08/20 06:42:14,15.6,31.9,28.9,10.0,47.5,52.0,0,0,0,0,0,0,0,0
2021/08/20 06:44:08,15.6,31.9,28.8,10.0,47.5,52.0,0,0,0,0,0,0,0,0
2021/08/20 06:46:04,15.6,31.8,28.8,10.0,47.4,52.0,0,0,0,0,0,0,0,0
2021/08/20 06:48:00,15.6,31.8,28.7,10.0,47.3,52.0,0,0,0,0,0,0,0,0
2021/08/20 06:49:56,15.6,31.8,28.7,10.0,47.3,52.0,0,0,0,0,0,0,0,0
2021/08/20 06:51:51,15.6,31.8,28.7,10.0,47.2,52.0,0,0,0,0,0,0,0,0
2021/08/20 06:53:48,15.6,31.7,28.6,10.0,47.1,52.0,0,0,0,0,0,0,0,0
2021/08/20 06:55:42,15.6,31.7,28.6,10.0,47.1,52.0,0,0,0,0,0,0,0,0
2021/08/20 06:57:38,15.6,31.7,28.6,10.0,47.0,52.0,0,0,0,0,0,0,0,0
2021/08/20 06:59:37,15.6,31.6,28.5,10.0,46.9,52.0,0,0,0,0,0,0,0,0
2021/08/20 07:01:31,15.6,31.6,28.5,10.0,46.8,52.0,0,0,0,0,0,0,0,0
2021/08/20 07:03:25,15.6,31.6,28.5,10.0,46.8,52.0,0,0,0,0,0,0,0,0
2021/08/20 07:06:19,15.6,31.6,28.4,10.0,46.7,52.0,0,0,0,0,0,0,0,0
2021/08/20 07:08:12,15.6,31.5,28.4,10.0,46.6,52.0,0,0,0,0,0,0,0,0
2021/08/20 07:10:06,15.6,31.5,28.4,10.0,46.5,52.0,0,0,0,0,0,0,0,0
2021/08/20 07:12:03,15.7,31.5,28.3,10.0,46.4,52.0,0,0,0,0,0,0,0,0
2021/08/20 07:14:00,15.7,31.4,28.3,10.0,46.4,52.0,0,0,0,0,0,0,0,0
2021/08/20 07:15:59,15.7,31.4,28.3,10.0,46.3,52.0,0,0,0,0,0,0,0,0
2021/08/20 07:17:56,15.7,31.4,28.2,10.0,46.2,52.0,0,0,0,0,0,0,0,0
2021/08/20 07:19:51,15.8,31.3,28.2,10.0,46.1,52.0,0,0,0,0,0,0,0,0
2021/08/20 07:21:46,15.8,31.3,28.2,10.0,46.1,52.0,0,0,0,0,0,0,0,0
2021/08/20 07:23:40,15.8,31.3,28.2,10.0,46.0,52.0,0,0,0,0,0,0,0,0
2021/08/20 07:25:33,15.9,31.2,28.1,10.0,45.9,52.0,0,0,0,0,0,0,0,0
2021/08/20 07:27:29,15.9,31.2,28.1,10.0,45.8,52.0,0,0,0,0,0,0,0,0
2021/08/20 07:29:27,16.0,31.2,28.1,10.0,45.7,52.0,0,0,0,0,0,0,0,0
2021/08/20 07:31:22,16.1,31.1,28.0,10.0,45.6,52.0,0,0,0,0,0,0,0,0
2021/08/20 07:34:17,16.1,31.1,28.0,10.0,45.5,52.0,0,0,0,0,0,0,0,0
2021/08/20 07:36:14,16.2,31.1,28.0,10.0,45.4,52.0,0,0,0,0,0,0,0,0
2021/08/20 07:38:09,16.3,31.1,28.0,10.0,45.4,52.0,0,0,0,0,0,0,0,0
2021/08/20 07:40:02,16.3,31.0,27.9,10.0,45.3,52.0,0,0,0,0,0,0,0,0
2021/08/20 07:41:58,16.4,31.0,27.9,10.0,45.2,52.0,0,0,0,0,0,0,0,0
2021/08/20 07:43:52,16.4,31.0,27.9,10.0,45.1,52.0,0,0,0,0,0,0,0,0
2021/08/20 07:45:43,16.5,30.9,27.9,10.0,45.0,52.0,0,0,0,0,0,0,0,0
2021/08/20 07:47:35,16.5,30.9,27.8,10.0,45.0,52.0,0,0,0,0,0,0,0,0
2021/08/20 07:49:33,16.6,30.9,27.8,10.0,44.9,52.0,0,0,0,0,0,0,0,0
2021/08/20 07:51:28,16.6,30.9,27.8,10.0,44.8,52.0,0,0,0,0,0,0,0,0
2021/08/20 07:53:26,16.7,30.8,27.7,10.0,44.8,52.0,0,0,0,0,0,0,0,0
2021/08/20 07:55:22,16.7,30.8,27.7,10.0,44.7,52.0,0,0,0,0,0,0,0,0
2021/08/20 07:58:20,16.8,30.8,27.7,10.0,44.7,52.0,0,0,0,0,0,0,0,0
2021/08/20 08:00:16,16.8,30.7,27.7,10.0,44.6,52.0,0,0,0,0,0,0,0,0
2021/08/20 08:02:15,16.9,30.7,27.6,10.0,44.5,52.0,0,0,0,0,0,0,0,0
2021/08/20 08:04:10,16.9,30.7,27.6,10.0,44.5,52.0,0,0,0,0,0,0,0,0
2021/08/20 08:06:06,17.0,30.6,27.6,10.0,44.4,52.0,0,0,0,0,0,0,0,0
2021/08/20 08:08:04,17.0,30.6,27.6,10.0,44.4,52.0,0,0,0,0,0,0,0,0
2021/08/20 08:09:59,17.1,30.6,27.6,10.0,44.3,52.0,0,0,0,0,0,0,0,0
2021/08/20 08:11:57,17.2,30.6,27.5,10.0,44.2,52.0,0,0,0,0,0,0,0,0
2021/08/20 08:13:50,17.2,30.5,27.5,10.0,44.2,52.0,0,0,0,0,0,0,0,0
2021/08/20 08:15:42,17.3,30.5,27.5,10.0,44.1,52.0,0,0,0,0,0,0,0,0
2021/08/20 08:17:40,17.3,33.2,32.2,10.0,44.0,52.0,0,1,1,0,0,1,1,0
2021/08/20 08:19:38,17.4,40.8,37.5,10.0,43.6,52.0,0,1,1,0,0,1,1,0
2021/08/20 08:21:36,17.4,43.1,39.4,10.0,43.5,52.0,0,1,1,0,0,1,1,0
2021/08/20 08:23:31,17.4,44.8,40.9,10.0,43.5,52.0,0,1,1,0,0,1,1,0
2021/08/20 08:25:27,17.5,45.9,41.8,10.0,43.7,52.0,0,1,1,0,0,1,1,0
2021/08/20 08:27:25,17.5,46.8,42.5,10.0,44.0,52.0,0,1,1,0,0,1,1,0
2021/08/20 08:29:22,17.6,47.5,43.1,10.0,44.4,52.0,0,1,1,0,0,1,1,0
2021/08/20 08:32:17,17.7,48.0,43.6,10.0,44.8,52.0,0,1,1,0,0,1,1,0
2021/08/20 08:34:13,17.7,48.7,44.1,10.0,45.3,52.0,0,1,1,0,0,1,1,0
2021/08/20 08:36:12,17.8,49.2,44.6,10.0,45.7,52.0,0,1,1,0,0,1,1,0
2021/08/20 08:38:10,17.8,49.7,45.1,10.0,46.2,52.0,0,1,1,0,0,1,1,0
2021/08/20 08:40:06,17.8,50.3,45.6,10.0,46.7,52.0,0,1,1,0,0,1,1,0
2021/08/20 08:42:02,17.9,50.9,46.2,10.0,47.1,52.0,0,1,1,0,0,1,1,0
2021/08/20 08:43:59,17.9,51.6,46.7,10.0,47.7,52.0,0,1,1,0,0,1,1,0
2021/08/20 08:45:56,18.0,52.1,47.1,10.0,48.1,52.0,0,1,1,0,0,1,1,0
2021/08/20 08:47:52,18.0,52.5,47.6,10.0,48.5,52.0,0,1,1,0,0,1,1,0
2021/08/20 08:49:46,18.1,52.5,47.6,10.0,49.0,52.0,0,1,1,0,0,1,1,0
2021/08/20 08:51:43,18.2,52.9,48.0,10.0,49.4,52.0,0,1,1,0,0,1,1,0
2021/08/20 08:53:41,18.2,53.4,48.5,10.0,49.8,52.0,0,1,1,0,0,1,1,0
2021/08/20 08:55:37,18.3,53.9,48.9,10.0,50.3,52.0,0,1,1,0,0,1,1,0
2021/08/20 08:57:36,18.4,54.4,49.4,10.0,50.8,52.0,0,1,1,0,0,1,1,0
2021/08/20 08:59:31,18.4,54.9,49.8,10.0,51.3,52.0,0,1,1,0,0,1,1,0
2021/08/20 09:01:27,18.6,55.2,50.3,10.0,51.8,52.0,0,1,1,0,0,1,1,0
2021/08/20 09:03:26,18.7,51.8,45.2,10.0,52.2,52.0,0,0,0,0,0,0,1,0
2021/08/20 09:05:25,18.7,37.5,35.1,10.0,52.5,52.0,0,0,0,0,0,0,0,0
2021/08/20 09:08:17,18.7,37.0,34.5,10.0,52.6,52.0,0,0,0,0,0,0,0,0
2021/08/20 09:10:13,18.8,36.5,34.2,10.0,52.6,52.0,0,0,0,0,0,0,0,0
2021/08/20 09:12:12,18.9,36.2,33.9,10.0,52.5,52.0,0,0,0,0,0,0,0,0
2021/08/20 09:14:07,19.0,35.8,33.6,10.0,52.4,52.0,0,0,0,0,0,0,0,0
2021/08/20 09:16:04,19.1,35.5,33.3,10.0,52.3,52.0,0,0,0,0,0,0,0,0
2021/08/20 09:18:00,19.3,35.2,33.1,10.0,52.4,52.0,0,0,0,0,0,0,0,0
2021/08/20 09:19:55,19.4,35.1,32.9,10.0,52.6,52.0,0,0,0,0,0,0,0,0
2021/08/20 09:21:53,19.5,34.9,32.7,10.0,52.8,52.0,0,0,0,0,0,0,0,0
2021/08/20 09:23:44,19.5,34.8,32.5,10.0,53.1,52.0,0,0,0,0,0,0,0,0
2021/08/20 09:25:41,19.6,34.7,32.4,10.0,53.2,52.0,0,0,0,0,0,0,0,0
2021/08/20 09:27:39,19.7,34.7,32.3,10.0,53.4,52.0,0,0,0,0,0,0,0,0
2021/08/20 09:29:34,19.7,34.6,32.2,10.0,53.5,52.0,0,0,0,0,0,0,0,0
2021/08/20 09:31:32,19.8,34.5,32.1,10.0,53.5,52.0,0,0,0,0,0,0,0,0
2021/08/20 09:33:25,19.8,34.4,32.0,10.0,53.4,52.0,0,0,0,0,0,0,0,0
2021/08/20 09:35:22,19.9,34.3,31.9,10.0,53.4,52.0,0,0,0,0,0,0,0,0
2021/08/20 09:38:18,20.0,34.3,31.8,10.0,53.3,52.0,0,0,0,0,0,0,0,0
2021/08/20 09:40:13,20.0,34.2,31.7,10.0,53.2,52.0,0,0,0,0,0,0,0,0
2021/08/20 09:42:08,20.1,34.1,31.6,10.0,53.1,52.0,0,0,0,0,0,0,0,0
2021/08/20 09:44:05,20.1,34.1,31.5,10.0,53.0,52.0,0,0,0,0,0,0,0,0
2021/08/20 09:46:02,20.1,34.0,31.4,10.0,53.0,52.0,0,0,0,0,0,0,0,0
2021/08/20 09:47:59,20.2,33.9,31.3,10.0,52.9,52.0,0,0,0,0,0,0,0,0
2021/08/20 09:49:53,20.2,33.9,31.2,10.0,52.8,52.0,0,0,0,0,0,0,0,0
2021/08/20 09:51:51,20.3,33.8,31.2,10.0,52.8,52.0,0,0,0,0,0,0,0,0
2021/08/20 09:53:43,20.3,33.8,31.1,10.0,52.7,52.0,0,0,0,0,0,0,0,0
2021/08/20 09:55:39,20.4,33.7,31.0,10.0,52.7,52.0,0,0,0,0,0,0,0,0
2021/08/20 09:57:35,20.5,33.7,30.9,10.0,52.7,52.0,0,0,0,0,0,0,0,0
2021/08/20 09:59:29,20.6,33.6,30.9,10.0,52.8,52.0,0,0,0,0,0,0,0,0
2021/08/20 10:01:25,20.7,33.6,30.8,10.0,53.0,52.0,0,0,0,0,0,0,0,0
2021/08/20 10:04:19,20.7,33.5,30.7,10.0,53.2,52.0,0,0,0,0,0,0,0,0
2021/08/20 10:06:13,20.8,33.5,30.7,10.0,53.3,52.0,0,0,0,0,0,0,0,0
2021/08/20 10:08:08,20.8,33.5,30.6,10.0,53.4,52.0,0,0,0,0,0,0,0,0
2021/08/20 10:10:01,20.8,33.4,30.5,10.0,53.4,52.0,0,0,0,0,0,0,0,0
2021/08/20 10:11:56,20.8,33.4,30.5,10.0,53.5,52.0,0,0,0,0,0,0,0,0
2021/08/20 10:13:52,20.8,33.3,30.4,10.0,53.7,52.0,0,0,0,0,0,0,0,0
2021/08/20 10:15:44,20.8,33.3,30.3,10.0,53.9,52.0,0,0,0,0,0,0,0,0
2021/08/20 10:17:40,20.8,33.3,30.3,10.0,54.0,52.0,0,0,0,0,0,0,0,0
2021/08/20 10:19:36,20.9,33.2,30.2,10.0,54.2,52.0,0,0,0,0,0,0,0,0
2021/08/20 10:21:32,20.9,33.2,30.1,10.0,54.4,52.0,0,0,0,0,0,0,0,0
2021/08/20 10:23:26,20.9,33.2,30.1,10.0,54.6,52.0,0,0,0,0,0,0,0,0
2021/08/20 10:26:18,20.9,33.2,30.0,10.0,54.7,52.0,0,0,0,0,0,0,0,0
2021/08/20 10:28:12,21.0,33.1,30.0,10.0,54.9,52.0,0,0,0,0,0,0,0,0
2021/08/20 10:30:10,21.0,33.1,29.9,10.0,55.0,52.0,0,0,0,0,0,0,0,0
2021/08/20 10:32:07,21.0,33.1,29.9,10.0,55.3,52.0,0,0,0,0,0,0,0,0
2021/08/20 10:34:03,21.0,33.1,29.9,10.0,55.4,52.0,0,0,0,0,0,0,0,0
2021/08/20 10:36:01,21.0,33.0,29.8,10.0,55.6,52.0,0,0,0,0,0,0,0,0
2021/08/20 10:37:58,21.0,33.0,29.8,10.0,55.7,52.0,0,0,0,0,0,0,0,0
2021/08/20 10:39:54,21.0,33.0,29.7,10.0,55.9,52.0,0,0,0,0,0,0,0,0
2021/08/20 10:41:47,21.1,32.9,29.7,10.0,56.0,52.0,0,0,0,0,0,0,0,0
2021/08/20 10:43:39,21.1,32.9,29.6,10.0,56.2,52.0,0,0,0,0,0,0,0,0
2021/08/20 10:45:38,21.1,32.9,29.6,10.0,56.4,52.0,0,0,0,0,0,0,0,0
2021/08/20 10:47:36,21.1,32.9,29.6,10.0,56.6,52.0,0,0,0,0,0,0,0,0
2021/08/20 10:49:32,21.1,32.8,29.5,10.0,56.7,52.0,0,0,0,0,0,0,0,0
2021/08/20 10:51:28,21.1,32.8,29.5,10.0,56.9,52.0,0,0,0,0,0,0,0,0
2021/08/20 10:53:24,21.1,32.8,29.4,10.0,57.1,52.0,0,0,0,0,0,0,0,0
2021/08/20 10:56:22,21.1,32.8,29.4,10.0,57.3,52.0,0,0,0,0,0,0,0,0
2021/08/20 10:58:21,21.2,32.7,29.4,10.0,57.4,52.0,0,0,0,0,0,0,0,0
2021/08/20 11:00:18,21.2,32.7,29.3,10.0,57.6,52.0,0,0,0,0,0,0,0,0
2021/08/20 11:02:11,21.2,32.7,29.3,10.0,57.7,52.0,0,0,0,0,0,0,0,0
2021/08/20 11:04:07,21.2,32.7,29.3,10.0,57.9,52.0,0,0,0,0,0,0,0,0
2021/08/20 11:06:03,21.2,32.6,29.2,10.0,58.1,52.0,0,0,0,0,0,0,0,0
2021/08/20 11:08:00,21.2,32.6,29.2,10.0,58.2,52.0,0,0,0,0,0,0,0,0
2021/08/20 11:09:53,21.2,32.6,29.2,10.0,58.4,52.0,0,0,0,0,0,0,0,0
2021/08/20 11:11:49,21.2,32.6,29.1,10.0,58.6,52.0,0,0,0,0,0,0,0,0
2021/08/20 11:13:46,21.3,32.5,29.1,10.0,58.8,52.0,0,0,0,0,0,0,0,0
2021/08/20 11:15:44,21.3,32.5,29.1,10.0,59.0,52.0,0,0,0,0,0,0,0,0
2021/08/20 11:17:40,21.4,32.5,29.0,10.0,59.1,52.0,0,0,0,0,0,0,0,0
2021/08/20 11:19:38,21.4,32.4,29.0,10.0,59.2,52.0,0,0,0,0,0,0,0,0
2021/08/20 11:21:30,21.5,32.4,29.0,10.0,59.4,52.0,0,0,0,0,0,0,0,0
2021/08/20 11:23:27,21.5,32.4,28.9,10.0,59.5,52.0,0,0,0,0,0,0,0,0
2021/08/20 11:26:20,21.6,32.3,28.9,10.0,59.7,52.0,0,0,0,0,0,0,0,0
2021/08/20 11:28:17,21.7,32.3,28.9,10.0,59.7,52.0,0,0,0,0,0,0,0,0
2021/08/20 11:30:14,21.8,32.3,28.8,10.0,59.7,52.0,0,0,0,0,0,0,0,0
2021/08/20 11:32:06,21.9,32.3,28.8,10.0,59.6,52.0,0,0,0,0,0,0,0,0
2021/08/20 11:34:02,22.0,32.2,28.8,10.0,59.5,52.0,0,0,0,0,0,0,0,0
2021/08/20 11:36:00,22.1,32.2,28.8,10.0,59.4,52.0,0,0,0,0,0,0,0,0
2021/08/20 11:38:00,22.2,32.2,28.7,10.0,59.3,52.0,0,0,0,0,0,0,0,0
2021/08/20 11:39:55,22.2,32.2,28.7,10.0,59.2,52.0,0,0,0,0,0,0,0,0
2021/08/20 11:41:55,22.2,32.1,28.7,10.0,59.2,52.0,0,0,0,0,0,0,0,0
2021/08/20 11:43:48,22.3,32.1,28.6,10.0,59.1,52.0,0,0,0,0,0,0,0,0
2021/08/20 11:45:43,22.3,32.1,28.6,10.0,59.0,52.0,0,0,0,0,0,0,0,0
2021/08/20 11:47:38,22.3,32.1,28.6,10.0,58.9,52.0,0,0,0,0,0,0,0,0
2021/08/20 11:49:36,22.3,32.0,28.6,10.0,58.8,52.0,0,0,0,0,0,0,0,0
2021/08/20 11:51:32,22.4,32.0,28.5,10.0,58.7,52.0,0,0,0,0,0,0,0,0
2021/08/20 11:53:29,22.4,32.0,28.5,10.0,58.6,52.0,0,0,0,0,0,0,0,0
2021/08/20 11:55:25,22.4,31.9,28.5,10.0,58.5,52.0,0,0,0,0,0,0,0,0
2021/08/20 11:57:24,22.4,31.9,28.5,10.0,58.5,52.0,0,0,0,0,0,0,0,0
2021/08/20 12:00:20,22.4,31.9,28.4,10.0,58.4,52.0,0,0,0,0,0,0,0,0
2021/08/20 12:02:17,22.4,31.9,28.4,10.0,58.3,52.0,0,0,0,0,0,0,0,0
2021/08/20 12:04:12,22.5,31.8,28.4,10.0,58.2,52.0,0,0,0,0,0,0,0,0
2021/08/20 12:06:08,22.5,31.8,28.4,10.0,58.1,52.0,0,0,0,0,0,0,0,0
2021/08/20 12:08:02,22.5,31.8,28.3,10.0,58.0,52.0,0,0,0,0,0,0,0,0
2021/08/20 12:09:59,22.6,31.8,28.3,10.0,58.0,52.0,0,0,0,0,0,0,0,0
2021/08/20 12:11:56,22.6,31.7,28.3,10.0,57.9,52.0,0,0,0,0,0,0,0,0
2021/08/20 12:13:54,22.7,31.7,28.3,10.0,57.8,52.0,0,0,0,0,0,0,0,0
2021/08/20 12:15:46,22.7,31.7,28.2,10.0,57.7,52.0,0,0,0,0,0,0,0,0
2021/08/20 12:17:44,22.8,31.7,28.2,10.0,57.6,52.0,0,0,0,0,0,0,0,0
2021/08/20 12:19:40,22.8,31.6,28.2,10.0,57.5,52.0,0,0,0,0,0,0,0,0
2021/08/20 12:21:36,22.9,31.6,28.2,10.0,57.4,52.0,0,0,0,0,0,0,0,0
2021/08/20 12:23:31,22.9,31.6,28.2,10.0,57.4,52.0,0,0,0,0,0,0,0,0
2021/08/20 12:25:27,22.8,31.6,28.1,10.0,57.3,52.0,0,0,0,0,0,0,0,0
2021/08/20 12:27:23,22.8,31.5,28.1,10.0,57.2,58.4,0,0,0,0,0,0,0,0
2021/08/20 12:30:22,22.8,31.5,28.1,10.0,57.1,58.4,0,0,0,0,0,0,0,0
2021/08/20 12:32:17,22.8,31.5,28.1,10.0,57.0,58.4,0,0,0,0,0,0,0,0
2021/08/20 12:34:15,22.8,31.5,28.0,10.0,56.9,58.4,0,0,0,0,0,0,0,0
2021/08/20 12:36:11,22.9,31.4,28.0,10.0,56.8,58.4,0,0,0,0,0,0,0,0
2021/08/20 12:38:08,23.0,31.4,28.0,10.0,56.7,58.4,0,0,0,0,0,0,0,0
2021/08/20 12:40:02,23.0,31.4,28.0,10.0,56.6,58.4,0,0,0,0,0,0,0,0
2021/08/20 12:42:00,23.1,31.4,28.0,10.0,56.6,58.4,0,0,0,0,0,0,0,0
2021/08/20 12:43:55,23.2,31.3,27.9,10.0,56.5,58.4,0,0,0,0,0,0,0,0
2021/08/20 12:45:53,23.2,31.3,27.9,10.0,56.4,58.4,0,0,0,0,0,0,0,0
2021/08/20 12:47:45,23.3,31.3,27.9,10.0,56.3,58.4,0,0,0,0,0,0,0,0
2021/08/20 12:49:41,23.3,31.3,27.9,10.0,56.2,58.4,0,0,0,0,0,0,0,0
2021/08/20 12:51:37,23.4,31.2,27.9,10.0,56.1,58.4,0,0,0,0,0,0,0,0
2021/08/20 12:53:31,23.4,31.2,27.8,10.0,56.0,58.4,0,0,0,0,0,0,0,0
2021/08/20 12:55:27,23.4,31.2,27.8,10.0,56.0,58.4,0,0,0,0,0,0,0,0
2021/08/20 12:57:23,23.4,31.2,27.8,10.0,55.9,58.4,0,0,0,0,0,0,0,0
2021/08/20 13:00:17,23.4,31.1,27.8,10.0,55.8,58.4,0,0,0,0,0,0,0,0
2021/08/20 13:02:13,23.5,31.1,27.8,10.0,55.7,58.4,0,0,0,0,0,0,0,0
2021/08/20 13:04:08,23.6,31.1,27.8,10.0,55.6,58.4,0,0,0,0,0,0,0,0
2021/08/20 13:06:05,23.7,31.1,27.7,10.0,55.5,58.4,0,0,0,0,0,0,0,0
2021/08/20 13:08:02,23.7,31.0,27.7,10.0,55.4,58.4,0,0,0,0,0,0,0,0
2021/08/20 13:09:58,23.8,31.0,27.7,10.0,55.3,58.4,0,0,0,0,0,0,0,0
2021/08/20 13:11:53,23.9,31.0,27.7,10.0,55.2,58.4,0,0,0,0,0,0,0,0
2021/08/20 13:13:49,23.9,31.0,27.7,10.0,55.1,58.4,0,0,0,0,0,0,0,0
2021/08/20 13:15:44,24.0,31.0,27.7,10.0,55.0,58.4,0,0,0,0,0,0,0,0
2021/08/20 13:17:36,24.1,30.9,27.6,10.0,55.0,58.4,0,0,0,0,0,0,0,0
2021/08/20 13:19:31,24.2,30.9,27.6,10.0,54.9,58.4,0,0,0,0,0,0,0,0
2021/08/20 13:21:27,24.2,30.9,27.6,10.0,54.8,58.4,0,0,0,0,0,0,0,0
2021/08/20 13:23:22,24.2,30.9,27.6,10.0,54.8,58.4,0,0,0,0,0,0,0,0
2021/08/20 13:26:18,24.2,30.9,27.6,10.0,54.7,58.4,0,0,0,0,0,0,0,0
2021/08/20 13:28:11,24.2,30.8,27.6,10.0,54.6,58.4,0,0,0,0,0,0,0,0
2021/08/20 13:30:07,24.2,30.8,27.5,10.0,54.5,58.4,0,0,0,0,0,0,0,0
2021/08/20 13:32:04,24.3,30.8,27.5,10.0,54.5,58.4,0,0,0,0,0,0,0,0
2021/08/20 13:34:02,24.4,30.8,27.5,10.0,54.4,58.4,0,0,0,0,0,0,0,0
2021/08/20 13:36:00,24.4,30.8,27.5,10.0,54.3,58.4,0,0,0,0,0,0,0,0
2021/08/20 13:37:56,24.4,30.7,27.5,10.0,54.2,58.4,0,0,0,0,0,0,0,0
2021/08/20 13:39:48,24.4,30.7,27.5,10.0,54.2,58.4,0,0,0,0,0,0,0,0
2021/08/20 13:41:43,24.5,30.7,27.5,10.0,54.1,58.4,0,0,0,0,0,0,0,0
2021/08/20 13:43:41,24.5,30.7,27.5,10.0,54.0,58.4,0,0,0,0,0,0,0,0
2021/08/20 13:45:34,24.5,30.6,27.4,10.0,53.9,58.4,0,0,0,0,0,0,0,0
2021/08/20 13:47:28,24.5,30.6,27.4,10.0,53.9,58.4,0,0,0,0,0,0,0,0
2021/08/20 13:49:22,24.6,30.6,27.4,10.0,53.8,58.4,0,0,0,0,0,0,0,0
2021/08/20 13:52:18,24.7,30.6,27.4,10.0,53.7,58.4,0,0,0,0,0,0,0,0
2021/08/20 13:54:17,24.8,30.6,27.4,10.0,53.7,58.4,0,0,0,0,0,0,0,0
2021/08/20 13:56:13,24.9,30.5,27.4,10.0,53.6,58.4,0,0,0,0,0,0,0,0
2021/08/20 13:58:09,24.9,30.5,27.4,10.0,53.5,58.4,0,0,0,0,0,0,0,0
2021/08/20 14:00:01,24.8,30.5,27.3,10.0,53.4,58.4,0,0,0,0,0,0,0,0
2021/08/20 14:02:00,24.7,30.5,27.3,10.0,53.4,58.4,0,0,0,0,0,0,0,0
2021/08/20 14:03:57,24.6,30.5,27.3,10.0,53.3,58.4,0,0,0,0,0,0,0,0
2021/08/20 14:05:54,24.6,30.4,27.3,10.0,53.2,58.4,0,0,0,0,0,0,0,0
2021/08/20 14:07:48,24.6,30.4,27.3,10.0,53.2,58.4,0,0,0,0,0,0,0,0
2021/08/20 14:09:42,24.6,30.4,27.3,10.0,53.5,58.4,0,0,0,0,0,0,0,0
2021/08/20 14:11:39,24.6,30.4,27.3,10.0,53.6,58.4,0,0,0,0,0,0,0,0
2021/08/20 14:13:38,24.6,30.4,27.3,10.0,53.9,58.4,0,0,0,0,0,0,0,0
2021/08/20 14:15:34,24.6,30.3,27.2,10.0,54.1,58.4,0,0,0,0,0,0,0,0
2021/08/20 14:17:33,24.6,30.3,27.2,10.0,54.2,58.4,0,0,0,0,0,0,0,0
2021/08/20 14:19:29,24.7,30.3,27.2,10.0,54.4,58.4,0,0,0,0,0,0,0,0
2021/08/20 14:21:23,24.7,30.3,27.2,10.0,54.5,58.4,0,0,0,0,0,0,0,0
2021/08/20 14:24:19,24.7,30.3,27.2,10.0,54.7,58.4,0,0,0,0,0,0,0,0
2021/08/20 14:26:13,24.8,30.2,27.2,10.0,54.9,58.4,0,0,0,0,0,0,0,0
2021/08/20 14:28:06,24.8,30.2,27.2,10.0,55.1,58.4,0,0,0,0,0,0,0,0
2021/08/20 14:30:00,24.9,30.2,27.2,10.0,55.3,58.4,0,0,0,0,0,0,0,0
2021/08/20 14:31:59,24.9,30.2,27.2,10.0,55.5,58.4,0,0,0,0,0,0,0,0
2021/08/20 14:33:51,25.0,30.2,27.1,10.0,55.7,58.4,0,0,0,0,0,0,0,0
2021/08/20 14:35:45,25.1,30.2,27.1,10.0,55.9,58.4,0,0,0,0,0,0,0,0
2021/08/20 14:37:43,25.1,30.1,27.1,10.0,56.1,58.4,0,0,0,0,0,0,0,0
2021/08/20 14:39:40,25.1,30.1,27.1,10.0,56.3,58.4,0,0,0,0,0,0,0,0
2021/08/20 14:41:36,25.1,30.1,27.1,10.0,56.5,58.4,0,0,0,0,0,0,0,0
2021/08/20 14:43:31,25.2,30.1,27.1,10.0,56.7,58.4,0,0,0,0,0,0,0,0
2021/08/20 14:45:29,25.2,30.1,27.1,10.0,56.9,58.4,0,0,0,0,0,0,0,0
2021/08/20 14:47:23,25.3,30.1,27.1,10.0,57.1,58.4,0,0,0,0,0,0,0,0
2021/08/20 14:50:21,25.3,30.0,27.1,10.0,57.3,58.4,0,0,0,0,0,0,0,0
2021/08/20 14:52:19,25.4,30.0,27.1,10.0,57.5,58.4,0,0,0,0,0,0,0,0
2021/08/20 14:54:11,25.4,30.0,27.0,10.0,57.6,58.4,0,0,0,0,0,0,0,0
2021/08/20 14:56:06,25.4,30.0,27.0,10.0,57.8,58.4,0,0,0,0,0,0,0,0
2021/08/20 14:58:01,25.4,30.0,27.0,10.0,58.0,58.4,0,0,0,0,0,0,0,0
2021/08/20 14:59:58,25.3,30.0,27.0,10.0,58.2,58.4,0,0,0,0,0,0,0,0
2021/08/20 15:01:54,25.3,30.0,27.0,10.0,58.3,58.4,0,0,0,0,0,0,0,0
2021/08/20 15:03:52,25.3,29.9,27.0,10.0,58.5,58.4,0,0,0,0,0,0,0,0
2021/08/20 15:05:46,25.3,29.9,27.0,10.0,58.6,58.4,0,0,0,0,0,0,0,0
2021/08/20 15:07:40,25.3,29.9,27.0,10.0,58.9,58.4,0,0,0,0,0,0,0,0
2021/08/20 15:09:34,25.4,29.9,27.0,10.0,59.0,58.4,0,0,0,0,0,0,0,0
2021/08/20 15:11:30,25.4,29.9,27.0,10.0,59.2,58.4,0,0,0,0,0,0,0,0
2021/08/20 15:13:25,25.4,29.9,27.0,10.0,59.3,58.4,0,0,0,0,0,0,0,0
2021/08/20 15:16:20,25.3,29.9,27.0,10.0,59.3,58.4,0,0,0,0,0,0,0,0
2021/08/20 15:18:17,25.2,29.8,26.9,10.0,59.3,58.4,0,0,0,0,0,0,0,0
2021/08/20 15:20:13,25.1,29.8,26.9,10.0,59.3,58.4,0,0,0,0,0,0,0,0
2021/08/20 15:22:06,25.0,29.8,26.9,10.0,59.2,58.4,0,0,0,0,0,0,0,0
2021/08/20 15:24:01,24.9,29.8,26.9,10.0,59.2,58.4,0,0,0,0,0,0,0,0
2021/08/20 15:25:55,24.8,29.8,26.9,10.0,59.2,58.4,0,0,0,0,0,0,0,0
2021/08/20 15:27:50,24.7,29.8,26.9,10.0,59.2,58.4,0,0,0,0,0,0,0,0
2021/08/20 15:29:45,24.6,29.8,26.9,10.0,59.2,58.4,0,0,0,0,0,0,0,0
2021/08/20 15:31:38,24.5,29.7,26.9,10.0,59.1,58.4,0,0,0,0,0,0,0,0
2021/08/20 15:33:32,24.5,29.7,26.9,10.0,59.0,58.4,0,0,0,0,0,0,0,0
2021/08/20 15:35:27,24.4,29.7,26.9,10.0,59.0,58.4,0,0,0,0,0,0,0,0
2021/08/20 15:38:21,24.4,29.7,26.9,10.0,59.0,58.4,0,0,0,0,0,0,0,0
2021/08/20 15:40:16,24.4,29.7,26.9,10.0,59.0,58.4,0,0,0,0,0,0,0,0
2021/08/20 15:42:09,24.4,29.7,26.8,10.0,59.0,58.4,0,0,0,0,0,0,0,0
2021/08/20 15:44:04,24.4,29.7,26.8,10.0,59.0,58.4,0,0,0,0,0,0,0,0
2021/08/20 15:45:59,24.5,29.6,26.8,10.0,59.2,58.4,0,0,0,0,0,0,0,0
2021/08/20 15:47:51,24.7,29.6,26.8,10.0,59.2,58.4,0,0,0,0,0,0,0,0
2021/08/20 15:49:49,24.8,29.6,26.8,10.0,59.4,58.4,0,0,0,0,0,0,0,0
2021/08/20 15:51:46,24.9,29.6,26.8,10.0,59.5,58.4,0,0,0,0,0,0,0,0
2021/08/20 15:53:42,25.1,29.6,26.8,10.0,59.6,58.4,0,0,0,0,0,0,0,0
2021/08/20 15:55:37,25.2,29.6,26.8,10.0,59.8,58.4,0,0,0,0,0,0,0,0
2021/08/20 15:57:32,25.2,29.5,26.8,10.0,59.9,58.4,0,0,0,0,0,0,0,0
2021/08/20 15:59:29,25.2,29.5,26.8,10.0,60.2,58.4,0,0,0,0,0,0,0,0
2021/08/20 16:01:25,25.2,29.5,26.8,10.0,60.3,58.4,0,0,0,0,0,0,0,0
2021/08/20 16:04:22,25.2,29.5,26.8,10.0,60.5,58.4,0,0,0,0,0,0,0,0
2021/08/20 16:06:16,25.2,29.5,26.8,10.0,60.7,58.4,0,0,0,0,0,0,0,0
2021/08/20 16:08:11,25.2,29.5,26.7,10.0,60.8,58.4,0,0,0,0,0,0,0,0
2021/08/20 16:10:08,25.2,29.5,26.7,10.0,60.9,58.4,0,0,0,0,0,0,0,0
2021/08/20 16:12:01,25.2,29.5,26.7,10.0,60.9,58.4,0,0,0,0,0,0,0,0
2021/08/20 16:13:58,25.3,29.5,26.7,10.0,60.9,58.4,0,0,0,0,0,0,0,0
2021/08/20 16:15:56,25.3,29.4,26.7,10.0,60.8,58.4,0,0,0,0,0,0,0,0
2021/08/20 16:17:49,25.4,29.4,26.7,10.0,60.7,58.4,0,0,0,0,0,0,0,0
2021/08/20 16:19:44,25.4,29.4,26.7,10.0,60.6,58.4,0,0,0,0,0,0,0,0
2021/08/20 16:21:38,25.4,29.4,26.7,10.0,60.5,58.4,0,0,0,0,0,0,0,0
2021/08/20 16:23:34,25.4,29.4,26.7,10.0,60.4,58.4,0,0,0,0,0,0,0,0
2021/08/20 16:25:29,25.4,29.4,26.7,10.0,60.3,58.4,0,0,0,0,0,0,0,0
2021/08/20 16:27:24,25.4,29.4,26.7,10.0,60.1,58.4,0,0,0,0,0,0,0,0
2021/08/20 16:30:20,25.4,29.4,26.7,10.0,60.1,58.4,0,0,0,0,0,0,0,0
2021/08/20 16:32:16,25.4,29.4,26.7,10.0,60.0,58.4,0,0,0,0,0,0,0,0
2021/08/20 16:34:12,25.3,29.3,26.7,10.0,59.9,58.4,0,0,0,0,0,0,0,0
2021/08/20 16:36:11,25.3,29.3,26.7,10.0,59.8,58.4,0,0,0,0,0,0,0,0
2021/08/20 16:38:03,25.3,29.3,26.7,10.0,59.7,58.4,0,0,0,0,0,0,0,0
2021/08/20 16:39:58,25.3,29.3,26.6,10.0,59.6,58.4,0,0,0,0,0,0,0,0
2021/08/20 16:41:54,25.2,29.3,26.6,10.0,59.6,58.4,0,0,0,0,0,0,0,0
2021/08/20 16:43:52,25.2,29.3,26.6,10.0,59.5,58.4,0,0,0,0,0,0,0,0
2021/08/20 16:45:47,25.1,29.3,26.6,10.0,59.4,58.4,0,0,0,0,0,0,0,0
2021/08/20 16:47:41,25.1,29.3,26.6,10.0,59.3,58.4,0,0,0,0,0,0,0,0
2021/08/20 16:49:36,25.1,29.3,26.6,10.0,59.2,58.4,0,0,0,0,0,0,0,0
2021/08/20 16:51:34,25.0,29.2,26.6,10.0,59.1,58.4,0,0,0,0,0,0,0,0
2021/08/20 16:53:26,25.0,29.2,26.6,10.0,59.1,58.4,0,0,0,0,0,0,0,0
2021/08/20 16:55:23,25.0,29.2,26.6,10.0,59.0,58.4,0,0,0,0,0,0,0,0
2021/08/20 16:58:21,24.9,29.2,26.6,10.0,58.9,58.4,0,0,0,0,0,0,0,0
2021/08/20 17:00:17,24.9,29.2,26.6,10.0,58.8,58.4,0,0,0,0,0,0,0,0
2021/08/20 17:02:14,24.9,29.2,26.6,10.0,58.7,58.4,0,0,0,0,0,0,0,0
2021/08/20 17:04:11,24.9,29.2,26.6,10.0,58.6,58.4,0,0,0,0,0,0,0,0
2021/08/20 17:06:06,24.9,29.2,26.6,10.0,58.6,58.4,0,0,0,0,0,0,0,0
2021/08/20 17:08:01,24.9,29.2,26.6,10.0,58.5,58.4,0,0,0,0,0,0,0,0
2021/08/20 17:10:00,25.0,29.2,26.6,10.0,58.4,58.4,0,0,0,0,0,0,0,0
2021/08/20 17:11:54,25.0,29.2,26.6,10.0,58.3,58.4,0,0,0,0,0,0,0,0
2021/08/20 17:13:48,25.1,29.1,26.5,10.0,58.2,58.4,0,0,0,0,0,0,0,0
2021/08/20 17:15:46,25.1,29.1,26.5,10.0,58.1,58.4,0,0,0,0,0,0,0,0
2021/08/20 17:17:43,25.1,29.1,26.5,10.0,58.0,58.4,0,0,0,0,0,0,0,0
2021/08/20 17:19:34,25.2,29.1,26.5,10.0,58.0,58.4,0,0,0,0,0,0,0,0
2021/08/20 17:21:31,25.2,29.1,26.5,10.0,57.9,58.4,0,0,0,0,0,0,0,0
2021/08/20 17:23:24,25.2,29.1,26.5,10.0,57.8,58.4,0,0,0,0,0,0,0,0
2021/08/20 17:26:21,25.2,29.1,26.5,10.0,57.7,58.4,0,0,0,0,0,0,0,0
2021/08/20 17:28:15,25.2,29.1,26.5,10.0,57.6,58.4,0,0,0,0,0,0,0,0
2021/08/20 17:30:08,25.2,29.1,26.5,10.0,57.5,58.4,0,0,0,0,0,0,0,0
2021/08/20 17:32:00,25.2,29.0,26.5,10.0,57.4,58.4,0,0,0,0,0,0,0,0
2021/08/20 17:34:00,25.2,29.0,26.5,10.0,57.3,58.4,0,0,0,0,0,0,0,0
2021/08/20 17:35:55,25.2,29.0,26.5,10.0,57.2,58.4,0,0,0,0,0,0,0,0
2021/08/20 17:37:47,25.2,29.0,26.5,10.0,57.1,58.4,0,0,0,0,0,0,0,0
2021/08/20 17:39:42,25.2,29.0,26.5,10.0,57.0,58.4,0,0,0,0,0,0,0,0
2021/08/20 17:41:38,25.2,29.0,26.5,10.0,57.0,58.4,0,0,0,0,0,0,0,0
2021/08/20 17:43:31,25.2,29.0,26.5,10.0,56.9,58.4,0,0,0,0,0,0,0,0
2021/08/20 17:45:28,25.2,29.0,26.5,10.0,56.8,58.4,0,0,0,0,0,0,0,0
2021/08/20 17:48:22,25.2,29.0,26.5,10.0,56.7,58.4,0,0,0,0,0,0,0,0
2021/08/20 17:50:20,25.2,29.0,26.4,10.0,56.6,58.4,0,0,0,0,0,0,0,0
2021/08/20 17:52:14,25.2,29.0,26.4,10.0,56.5,58.4,0,0,0,0,0,0,0,0
2021/08/20 17:54:12,25.1,28.9,26.4,10.0,56.4,58.4,0,0,0,0,0,0,0,0
2021/08/20 17:56:06,25.1,28.9,26.4,10.0,56.3,58.4,0,0,0,0,0,0,0,0
2021/08/20 17:58:02,25.1,28.9,26.4,10.0,56.3,58.4,0,0,0,0,0,0,0,0
2021/08/20 17:59:54,25.1,28.9,26.4,10.0,56.2,58.4,0,0,0,0,0,0,0,0
2021/08/20 18:01:52,25.0,28.9,26.4,10.0,56.1,58.4,0,0,0,0,0,0,0,0
2021/08/20 18:03:48,25.0,28.9,26.4,10.0,56.0,58.4,0,0,0,0,0,0,0,0
2021/08/20 18:05:46,25.0,28.9,26.4,10.0,55.9,58.4,0,0,0,0,0,0,0,0
2021/08/20 18:07:45,24.9,28.9,26.4,10.0,55.8,58.4,0,0,0,0,0,0,0,0
2021/08/20 18:09:38,24.9,28.9,26.4,10.0,55.7,58.4,0,0,0,0,0,0,0,0
2021/08/20 18:11:30,24.9,28.9,26.4,10.0,55.6,58.4,0,0,0,0,0,0,0,0
2021/08/20 18:13:25,24.9,28.8,26.4,10.0,55.5,58.4,0,0,0,0,0,0,0,0
2021/08/20 18:16:22,24.8,28.8,26.4,10.0,55.4,58.4,0,0,0,0,0,0,0,0
2021/08/20 18:18:18,24.8,28.8,26.4,10.0,55.3,58.4,0,0,0,0,0,0,0,0
2021/08/20 18:20:14,24.8,28.8,26.4,10.0,55.3,58.4,0,0,0,0,0,0,0,0
2021/08/20 18:22:11,24.8,28.8,26.4,10.0,55.2,58.4,0,0,0,0,0,0,0,0
2021/08/20 18:24:05,24.7,28.8,26.4,10.0,55.1,58.4,0,0,0,0,0,0,0,0
2021/08/20 18:26:00,24.7,28.8,26.4,10.0,55.0,58.4,0,0,0,0,0,0,0,0
2021/08/20 18:27:56,24.7,28.8,26.4,10.0,54.9,58.4,0,0,0,0,0,0,0,0
2021/08/20 18:29:47,24.6,28.8,26.4,10.0,54.8,58.4,0,0,0,0,0,0,0,0
2021/08/20 18:31:47,24.6,28.8,26.3,10.0,54.8,58.4,0,0,0,0,0,0,0,0
2021/08/20 18:33:43,24.6,28.8,26.3,10.0,54.7,58.4,0,0,0,0,0,0,0,0
2021/08/20 18:35:37,24.5,28.7,26.3,10.0,54.6,58.4,0,0,0,0,0,0,0,0
2021/08/20 18:37:31,24.5,28.7,26.3,10.0,54.5,58.4,0,0,0,0,0,0,0,0
2021/08/20 18:39:27,24.5,28.7,26.3,10.0,54.5,58.4,0,0,0,0,0,0,0,0
2021/08/20 18:41:23,24.4,28.7,26.3,10.0,54.4,58.4,0,0,0,0,0,0,0,0
2021/08/20 18:44:18,24.4,28.7,26.3,10.0,54.3,58.4,0,0,0,0,0,0,0,0
2021/08/20 18:46:13,24.4,28.7,26.3,10.0,54.2,58.4,0,0,0,0,0,0,0,0
2021/08/20 18:48:06,24.4,28.7,26.3,10.0,54.2,58.4,0,0,0,0,0,0,0,0
2021/08/20 18:50:03,24.3,28.7,26.3,10.0,54.1,58.4,0,0,0,0,0,0,0,0
2021/08/20 18:52:00,24.3,28.7,26.3,10.0,54.0,58.4,0,0,0,0,0,0,0,0
2021/08/20 18:53:55,24.3,28.7,26.3,10.0,53.9,58.4,0,0,0,0,0,0,0,0
2021/08/20 18:55:50,24.3,28.7,26.3,10.0,53.9,58.4,0,0,0,0,0,0,0,0
2021/08/20 18:57:46,24.3,28.6,26.3,10.0,53.8,58.4,0,0,0,0,0,0,0,0
2021/08/20 18:59:40,24.3,28.6,26.3,10.0,53.7,58.4,0,0,0,0,0,0,0,0
2021/08/20 19:01:35,24.4,28.6,26.3,10.0,53.7,58.4,0,0,0,0,0,0,0,0
2021/08/20 19:03:31,24.4,28.6,26.3,10.0,53.7,58.4,0,0,0,0,0,0,0,0
2021/08/20 19:05:26,24.4,28.6,26.3,10.0,53.7,58.4,0,0,0,0,0,0,0,0
2021/08/20 19:08:18,24.4,28.6,26.3,10.0,53.7,58.4,0,0,0,0,0,0,0,0
2021/08/20 19:10:14,24.4,28.6,26.3,10.0,53.7,58.4,0,0,0,0,0,0,0,0
2021/08/20 19:12:06,24.4,28.6,26.3,10.0,53.6,58.4,0,0,0,0,0,0,0,0
2021/08/20 19:14:04,24.4,28.6,26.3,10.0,53.5,58.4,0,0,0,0,0,0,0,0
2021/08/20 19:16:00,24.4,28.6,26.3,10.0,53.5,58.4,0,0,0,0,0,0,0,0
2021/08/20 19:18:00,24.4,28.6,26.2,10.0,53.4,58.4,0,0,0,0,0,0,0,0
2021/08/20 19:19:58,24.5,28.6,26.2,10.0,53.3,58.4,0,0,0,0,0,0,0,0
2021/08/20 19:21:55,24.6,28.5,26.2,10.0,53.2,58.4,0,0,0,0,0,0,0,0
2021/08/20 19:23:50,24.7,28.5,26.2,10.0,53.2,58.4,0,0,0,0,0,0,0,0
2021/08/20 19:25:48,24.7,28.5,26.2,10.0,53.1,58.4,0,0,0,0,0,0,0,0
2021/08/20 19:27:40,24.5,28.5,26.2,10.0,53.0,58.4,0,0,0,0,0,0,0,0
2021/08/20 19:29:33,24.3,28.5,26.2,10.0,52.9,58.4,0,0,0,0,0,0,0,0
2021/08/20 19:31:29,24.1,28.5,26.2,10.0,52.9,58.4,0,0,0,0,0,0,0,0
2021/08/20 19:33:23,23.8,28.5,26.2,10.0,52.8,58.4,0,0,0,0,0,0,0,0
2021/08/20 19:36:19,23.6,28.5,26.2,10.0,52.7,58.4,0,0,0,0,0,0,0,0
2021/08/20 19:38:14,23.5,28.5,26.2,10.0,52.6,58.4,0,0,0,0,0,0,0,0
2021/08/20 19:40:10,23.3,28.5,26.2,10.0,52.6,58.4,0,0,0,0,0,0,0,0
2021/08/20 19:42:02,23.2,28.5,26.2,10.0,52.5,58.4,0,0,0,0,0,0,0,0
2021/08/20 19:44:00,23.0,28.4,26.2,10.0,52.4,58.4,0,0,0,0,0,0,0,0
2021/08/20 19:45:56,22.9,28.4,26.2,10.0,52.3,58.4,0,0,0,0,0,0,0,0
2021/08/20 19:47:51,22.8,28.4,26.2,10.0,52.3,58.4,0,0,0,0,0,0,0,0
2021/08/20 19:49:49,22.7,28.4,26.2,10.0,52.2,58.4,0,0,0,0,0,0,0,0
2021/08/20 19:51:44,22.6,28.4,26.2,10.0,52.1,58.4,0,0,0,0,0,0,0,0
2021/08/20 19:53:38,22.5,28.4,26.2,10.0,52.0,58.4,0,0,0,0,0,0,0,0
2021/08/20 19:55:35,22.5,28.4,26.2,10.0,52.0,58.4,0,0,0,0,0,0,0,0
2021/08/20 19:57:31,22.4,28.4,26.2,10.0,51.9,58.4,0,0,0,0,0,0,0,0
2021/08/20 19:59:26,22.3,28.4,26.2,10.0,51.8,58.4,0,0,0,0,0,0,0,0
2021/08/20 20:01:26,22.2,28.4,26.2,10.0,51.7,58.4,0,0,0,0,0,0,0,0
2021/08/20 20:04:21,22.2,28.4,26.2,10.0,51.7,52.0,0,0,0,0,0,0,0,0
2021/08/20 20:06:12,22.1,28.4,26.1,10.0,51.6,52.0,0,0,0,0,0,0,0,0
2021/08/20 20:08:09,22.0,28.4,26.1,10.0,51.8,52.0,0,0,0,0,0,0,0,0
2021/08/20 20:10:03,21.9,28.3,26.1,10.0,51.9,52.0,0,0,0,0,0,0,0,0
2021/08/20 20:12:00,21.8,28.3,26.1,10.0,52.0,52.0,0,0,0,0,0,0,0,0
2021/08/20 20:13:55,21.8,28.3,26.1,10.0,52.2,52.0,0,0,0,0,0,0,0,0
2021/08/20 20:15:47,21.7,28.3,26.1,10.0,52.3,52.0,0,0,0,0,0,0,0,0
2021/08/20 20:17:46,21.6,28.3,26.1,10.0,52.6,52.0,0,0,0,0,0,0,0,0
2021/08/20 20:19:39,21.5,28.3,26.1,10.0,52.8,52.0,0,0,0,0,0,0,0,0
2021/08/20 20:21:35,21.4,28.3,26.1,10.0,53.0,52.0,0,0,0,0,0,0,0,0
2021/08/20 20:23:31,21.3,28.3,26.1,10.0,53.0,52.0,0,0,0,0,0,0,0,0
2021/08/20 20:25:26,21.2,28.3,26.1,10.0,53.0,52.0,0,0,0,0,0,0,0,0
2021/08/20 20:28:20,21.1,28.3,26.1,10.0,53.0,52.0,0,0,0,0,0,0,0,0
2021/08/20 20:30:16,21.0,28.3,26.1,10.0,52.9,52.0,0,0,0,0,0,0,0,0
2021/08/20 20:32:08,20.9,28.3,26.1,10.0,52.8,52.0,0,0,0,0,0,0,0,0
2021/08/20 20:34:02,20.8,28.3,26.1,10.0,52.8,52.0,0,0,0,0,0,0,0,0
2021/08/20 20:36:00,20.7,28.3,26.1,10.0,52.7,52.0,0,0,0,0,0,0,0,0
2021/08/20 20:37:55,20.6,28.2,26.1,10.0,52.6,52.0,0,0,0,0,0,0,0,0
2021/08/20 20:39:51,20.5,28.2,26.1,10.0,52.5,52.0,0,0,0,0,0,0,0,0
2021/08/20 20:41:49,20.4,28.2,26.1,10.0,52.4,52.0,0,0,0,0,0,0,0,0
2021/08/20 20:43:43,20.4,28.2,26.1,10.0,52.4,52.0,0,0,0,0,0,0,0,0
2021/08/20 20:45:36,20.3,28.2,26.1,10.0,52.3,52.0,0,0,0,0,0,0,0,0
2021/08/20 20:47:30,20.2,28.2,26.1,10.0,52.2,52.0,0,0,0,0,0,0,0,0
2021/08/20 20:49:24,20.1,28.2,26.1,10.0,52.2,52.0,0,0,0,0,0,0,0,0
2021/08/20 20:52:20,20.0,28.2,26.1,10.0,52.1,52.0,0,0,0,0,0,0,0,0
2021/08/20 20:54:17,19.9,28.2,26.1,10.0,52.0,52.0,0,0,0,0,0,0,0,0
2021/08/20 20:56:15,19.9,28.2,26.1,10.0,51.9,52.0,0,0,0,0,0,0,0,0
2021/08/20 20:58:07,19.8,28.2,26.1,10.0,51.8,52.0,0,0,0,0,0,0,0,0
2021/08/20 21:00:00,19.8,28.2,26.1,10.0,51.7,52.0,0,0,0,0,0,0,0,0
2021/08/20 21:01:59,19.7,28.2,26.0,10.0,51.7,52.0,0,0,0,0,0,0,0,0
2021/08/20 21:03:52,19.7,28.1,26.0,10.0,51.6,52.0,0,0,0,0,0,0,0,0
2021/08/20 21:05:47,19.7,28.1,26.0,10.0,51.5,52.0,0,0,0,0,0,0,0,0
2021/08/20 21:07:42,19.6,28.1,26.0,10.0,51.5,52.0,0,0,0,0,0,0,0,0
2021/08/20 21:09:36,19.5,28.1,26.0,10.0,51.4,52.0,0,0,0,0,0,0,0,0
2021/08/20 21:11:30,19.5,28.1,26.0,10.0,51.3,52.0,0,0,0,0,0,0,0,0
2021/08/20 21:13:25,19.4,28.1,26.0,10.0,51.2,52.0,0,0,0,0,0,0,0,0
2021/08/20 21:16:20,19.4,28.1,26.0,10.0,51.1,52.0,0,0,0,0,0,0,0,0
2021/08/20 21:18:17,19.3,28.1,26.0,10.0,51.0,52.0,0,0,0,0,0,0,0,0
2021/08/20 21:20:11,19.3,28.1,26.0,10.0,51.0,52.0,0,0,0,0,0,0,0,0
2021/08/20 21:22:07,19.2,28.1,26.0,10.0,50.9,52.0,0,0,0,0,0,0,0,0
2021/08/20 21:24:03,19.2,28.1,26.0,10.0,50.8,52.0,0,0,0,0,0,0,0,0
2021/08/20 21:26:01,19.1,28.1,26.0,10.0,50.8,52.0,0,0,0,0,0,0,0,0
2021/08/20 21:27:56,19.1,28.1,26.0,10.0,50.7,52.0,0,0,0,0,0,0,0,0
2021/08/20 21:29:47,19.0,28.0,26.0,10.0,50.6,52.0,0,0,0,0,0,0,0,0
2021/08/20 21:31:41,19.0,28.0,26.0,10.0,50.5,52.0,0,0,0,0,0,0,0,0
2021/08/20 21:33:38,18.9,28.0,26.0,10.0,50.4,52.0,0,0,0,0,0,0,0,0
2021/08/20 21:35:33,18.9,28.0,26.0,10.0,50.4,52.0,0,0,0,0,0,0,0,0
2021/08/20 21:37:29,18.8,28.0,26.0,10.0,50.3,52.0,0,0,0,0,0,0,0,0
2021/08/20 21:39:24,18.8,28.0,26.0,10.0,50.2,52.0,0,0,0,0,0,0,0,0
2021/08/20 21:42:22,18.8,28.0,26.0,10.0,50.1,52.0,0,0,0,0,0,0,0,0
2021/08/20 21:44:14,18.7,28.0,26.0,10.0,50.1,52.0,0,0,0,0,0,0,0,0
2021/08/20 21:46:09,18.7,28.0,26.0,10.0,50.0,52.0,0,0,0,0,0,0,0,0
2021/08/20 21:48:05,18.7,28.0,26.0,10.0,49.9,52.0,0,0,0,0,0,0,0,0
2021/08/20 21:50:00,18.6,28.0,26.0,10.0,49.8,52.0,0,0,0,0,0,0,0,0
2021/08/20 21:51:58,18.6,28.0,26.0,10.0,49.8,52.0,0,0,0,0,0,0,0,0
2021/08/20 21:53:52,18.5,28.0,26.0,10.0,49.7,52.0,0,0,0,0,0,0,0,0
2021/08/20 21:55:44,18.5,28.0,26.0,10.0,49.6,52.0,0,0,0,0,0,0,0,0
2021/08/20 21:57:40,18.4,28.0,26.0,10.0,49.6,52.0,0,0,0,0,0,0,0,0
2021/08/20 21:59:33,18.4,27.9,25.9,10.0,49.5,10.0,0,0,0,0,0,0,0,0
2021/08/20 22:02:23,18.3,27.9,25.9,10.0,49.4,10.0,0,0,0,0,0,0,0,0
2021/08/20 22:04:21,18.3,27.9,25.9,10.0,49.4,10.0,0,0,0,0,0,0,0,0
2021/08/20 22:06:15,18.3,27.9,25.9,10.0,49.4,10.0,0,0,0,0,0,0,0,0
2021/08/20 22:08:08,18.2,27.9,25.9,10.0,49.4,10.0,0,0,0,0,0,0,0,0
2021/08/20 22:10:03,18.2,27.9,25.9,10.0,49.4,10.0,0,0,0,0,0,0,0,0
2021/08/20 22:11:59,18.2,27.9,25.9,10.0,49.4,10.0,0,0,0,0,0,0,0,0
2021/08/20 22:13:56,18.1,27.9,25.9,10.0,49.4,10.0,0,0,0,0,0,0,0,0
2021/08/20 22:15:49,18.1,27.9,25.9,10.0,49.4,10.0,0,0,0,0,0,0,0,0
2021/08/20 22:17:44,18.0,27.9,25.9,10.0,49.4,10.0,0,0,0,0,0,0,0,0
2021/08/20 22:19:38,18.0,27.9,25.9,10.0,49.4,10.0,0,0,0,0,0,0,0,0
2021/08/20 22:21:32,18.0,27.9,25.9,10.0,49.4,10.0,0,0,0,0,0,0,0,0
2021/08/20 22:23:30,17.9,27.9,25.9,10.0,49.4,10.0,0,0,0,0,0,0,0,0
2021/08/20 22:25:25,17.9,27.9,25.9,10.0,49.4,10.0,0,0,0,0,0,0,0,0
2021/08/20 22:28:23,17.9,27.9,25.9,10.0,49.4,10.0,0,0,0,0,0,0,0,0
2021/08/20 22:30:17,17.9,27.9,25.9,10.0,49.4,10.0,0,0,0,0,0,0,0,0
2021/08/20 22:32:16,17.8,27.8,25.9,10.0,49.4,10.0,0,0,0,0,0,0,0,0
2021/08/20 22:34:12,17.8,27.8,25.9,10.0,49.4,10.0,0,0,0,0,0,0,0,0
2021/08/20 22:36:09,17.8,27.8,25.9,10.0,49.3,10.0,0,0,0,0,0,0,0,0
2021/08/20 22:38:05,17.7,27.8,25.9,10.0,49.3,10.0,0,0,0,0,0,0,0,0
2021/08/20 22:40:01,17.7,27.8,25.9,10.0,49.3,10.0,0,0,0,0,0,0,0,0
2021/08/20 22:41:59,17.6,27.8,25.9,10.0,49.3,10.0,0,0,0,0,0,0,0,0
2021/08/20 22:43:53,17.6,27.8,25.9,10.0,49.3,10.0,0,0,0,0,0,0,0,0
2021/08/20 22:45:47,17.5,27.8,25.9,10.0,49.3,10.0,0,0,0,0,0,0,0,0
2021/08/20 22:47:41,17.5,27.8,25.9,10.0,49.3,10.0,0,0,0,0,0,0,0,0
2021/08/20 22:49:36,17.5,27.8,25.9,10.0,49.3,10.0,0,0,0,0,0,0,0,0
2021/08/20 22:51:29,17.4,27.8,25.9,10.0,49.3,10.0,0,0,0,0,0,0,0,0
2021/08/20 22:54:22,17.4,27.8,25.9,10.0,49.3,10.0,0,0,0,0,0,0,0,0
2021/08/20 22:56:19,17.4,27.8,25.9,10.0,49.3,10.0,0,0,0,0,0,0,0,0
2021/08/20 22:58:15,17.4,27.8,25.9,10.0,49.3,10.0,0,0,0,0,0,0,0,0
2021/08/20 23:00:10,17.4,27.8,25.9,10.0,49.2,10.0,0,0,0,0,0,0,0,0
2021/08/20 23:02:04,17.3,27.8,25.9,10.0,49.2,10.0,0,0,0,0,0,0,0,0
2021/08/20 23:04:02,17.3,27.8,25.8,10.0,49.2,10.0,0,0,0,0,0,0,0,0
2021/08/20 23:05:56,17.3,27.7,25.8,10.0,49.2,10.0,0,0,0,0,0,0,0,0
2021/08/20 23:07:50,17.3,27.7,25.8,10.0,49.2,10.0,0,0,0,0,0,0,0,0
2021/08/20 23:09:45,17.2,27.7,25.8,10.0,49.2,10.0,0,0,0,0,0,0,0,0
2021/08/20 23:11:42,17.2,27.7,25.8,10.0,49.2,10.0,0,0,0,0,0,0,0,0
2021/08/20 23:13:35,17.2,27.7,25.8,10.0,49.2,10.0,0,0,0,0,0,0,0,0
2021/08/20 23:15:30,17.2,27.7,25.8,10.0,49.2,10.0,0,0,0,0,0,0,0,0
2021/08/20 23:17:25,17.1,27.7,25.8,10.0,49.2,10.0,0,0,0,0,0,0,0,0
2021/08/20 23:20:20,17.1,27.7,25.8,10.0,49.2,10.0,0,0,0,0,0,0,0,0
2021/08/20 23:22:12,17.1,27.7,25.8,10.0,49.2,10.0,0,0,0,0,0,0,0,0
2021/08/20 23:24:06,17.1,27.7,25.8,10.0,49.1,10.0,0,0,0,0,0,0,0,0
2021/08/20 23:26:03,17.0,27.7,25.8,10.0,49.1,10.0,0,0,0,0,0,0,0,0
2021/08/20 23:27:56,17.0,27.7,25.8,10.0,49.1,10.0,0,0,0,0,0,0,0,0
2021/08/20 23:29:51,17.0,27.7,25.8,10.0,49.1,10.0,0,0,0,0,0,0,0,0
2021/08/20 23:31:44,16.9,27.7,25.8,10.0,49.1,10.0,0,0,0,0,0,0,0,0
2021/08/20 23:33:39,16.9,27.7,25.8,10.0,49.1,10.0,0,0,0,0,0,0,0,0
2021/08/20 23:35:33,16.9,27.7,25.8,10.0,49.1,10.0,0,0,0,0,0,0,0,0
2021/08/20 23:37:28,16.9,27.7,25.8,10.0,49.1,10.0,0,0,0,0,0,0,0,0
2021/08/20 23:39:25,16.9,27.6,25.8,10.0,49.1,10.0,0,0,0,0,0,0,0,0
2021/08/20 23:42:19,16.8,27.6,25.8,10.0,49.1,10.0,0,0,0,0,0,0,0,0
2021/08/20 23:44:17,16.8,27.6,25.8,10.0,49.1,10.0,0,0,0,0,0,0,0,0
2021/08/20 23:46:10,16.8,27.6,25.8,10.0,49.0,10.0,0,0,0,0,0,0,0,0
2021/08/20 23:48:04,16.8,27.6,25.8,10.0,49.0,10.0,0,0,0,0,0,0,0,0
2021/08/20 23:49:58,16.7,27.6,25.8,10.0,49.0,10.0,0,0,0,0,0,0,0,0
2021/08/20 23:51:51,16.7,27.6,25.8,10.0,49.0,10.0,0,0,0,0,0,0,0,0
2021/08/20 23:53:49,16.7,27.6,25.8,10.0,49.0,10.0,0,0,0,0,0,0,0,0
2021/08/20 23:55:41,16.6,27.6,25.8,10.0,49.0,10.0,0,0,0,0,0,0,0,0
2021/08/20 23:57:39,16.6,27.6,25.8,10.0,49.0,10.0,0,0,0,0,0,0,0,0
2021/08/20 23:59:33,16.6,27.6,25.8,10.0,49.0,10.0,0,0,0,0,0,0,0,0
