Type,Analog,Analog,Analog,Analog,Analog,Analog,Digital,Digital,Digital,Digital,Digital,Digital,Digital,Digital,Integer,Integer
Index,1,5,2,53,3,58,41,42,43,44,45,46,49,50,95,98
Name,R1,R9,R2,R2 Solltemperatur,R3,R3 Solltemperatur,M1,M3,M2/M11,E10,M13,M18,M16,E9,Waermemenge Heizen,Waermemenge Warmwasser
Description,Variable 1,Variable 2,Variable 3,Variable 4,Variable 5,Variable 6,Variable 7,Variable 8,Variable 9,Variable 10,Variable 11,Variable 12,Variable 13,Variable 14,Variable 15,Variable 16
2024/05/18 00:01:45,10.5,36.4,33.0,28.5,47.8,40.0,0,0,0,0,1,0,0,0,1360,4193
2024/05/18 00:03:43,10.5,36.4,32.8,28.5,47.7,40.0,0,0,0,0,1,0,0,0,1360,4193
2024/05/18 00:05:43,10.5,36.3,32.7,28.5,47.7,40.0,0,0,0,0,1,0,0,0,1360,4193
2024/05/18 00:07:43,10.5,36.2,32.6,28.5,47.7,40.0,0,0,0,0,1,0,0,0,1360,4193
2024/05/18 00:09:41,10.4,36.2,32.5,28.5,47.7,40.0,0,0,0,0,1,0,0,0,1360,4193
2024/05/18 00:11:41,10.4,36.1,32.4,28.5,47.7,40.0,0,0,0,0,1,0,0,0,1360,4193
2024/05/18 00:13:40,10.4,36.1,32.2,28.5,47.7,40.0,0,0,0,0,1,0,0,0,1360,4193
2024/05/18 00:15:37,10.3,36.0,32.1,28.5,47.6,40.0,0,0,0,0,1,0,0,0,1360,4193
2024/05/18 00:17:36,10.3,36.0,32.0,28.5,47.6,40.0,0,0,0,0,1,0,0,0,1360,4193
2024/05/18 00:19:34,10.3,35.9,31.9,28.5,47.6,40.0,0,0,0,0,1,0,0,0,1360,4193
2024/05/18 00:21:34,10.3,35.8,31.8,28.5,47.6,40.0,0,0,0,0,1,0,0,0,1360,4193
2024/05/18 00:23:33,10.2,35.8,31.7,28.5,47.6,40.0,0,0,0,0,1,0,0,0,1360,4193
2024/05/18 00:25:31,10.2,35.7,31.6,28.5,47.6,40.0,0,0,0,0,1,0,0,0,1360,4193
2024/05/18 00:27:31,10.2,35.7,31.5,28.5,47.5,40.0,0,0,0,0,1,0,0,0,1360,4193
2024/05/18 00:29:30,10.2,35.6,31.4,28.5,47.5,40.0,0,0,0,0,1,0,0,0,1360,4193
2024/05/18 00:31:28,10.1,35.5,31.3,28.5,47.5,40.0,0,0,0,0,1,0,0,0,1360,4193
2024/05/18 00:33:27,10.1,35.4,31.2,28.5,47.5,40.0,0,0,0,0,1,0,0,0,1360,4193
2024/05/18 00:35:26,10.1,35.4,31.1,28.5,47.5,40.0,0,0,0,0,1,0,0,0,1360,4193
2024/05/18 00:37:21,10.0,35.3,31.0,28.5,47.4,40.0,0,0,0,0,1,0,0,0,1360,4193
2024/05/18 00:39:19,10.0,35.2,30.9,28.5,47.4,40.0,0,0,0,0,1,0,0,0,1360,4193
2024/05/18 00:41:18,10.0,35.2,30.8,28.5,47.4,40.0,0,0,0,0,1,0,0,0,1360,4193
2024/05/18 00:43:18,10.0,35.1,30.7,28.5,47.4,40.0,0,0,0,0,1,0,0,0,1360,4193
2024/05/18 00:45:16,10.0,35.1,30.6,28.5,47.4,40.0,0,0,0,0,1,0,0,0,1360,4193
2024/05/18 00:47:15,9.9,35.0,30.5,28.5,47.3,40.0,0,0,0,0,1,0,0,0,1360,4193
2024/05/18 00:49:15,9.9,34.9,30.4,29.2,47.3,40.0,0,0,0,0,1,0,0,0,1360,4193
2024/05/18 00:51:13,9.9,34.9,30.3,29.2,47.3,40.0,0,0,0,0,1,0,0,0,1360,4193
2024/05/18 00:53:12,9.9,34.8,30.2,29.2,47.3,40.0,0,0,0,0,1,0,0,0,1360,4193
2024/05/18 00:55:10,9.8,34.8,30.1,29.2,47.3,40.0,0,0,0,0,1,0,0,0,1360,4193
2024/05/18 00:57:10,9.8,34.7,30.1,29.2,47.2,40.0,0,0,0,0,1,0,0,0,1360,4193
2024/05/18 00:59:09,9.8,34.7,30.0,29.2,47.2,40.0,0,0,0,0,1,0,0,0,1360,4193
2024/05/18 01:01:07,9.8,34.6,29.9,29.2,47.2,40.0,0,0,0,0,1,0,0,0,1360,4193
2024/05/18 01:03:06,9.8,34.6,29.9,29.2,47.2,40.0,0,0,0,0,1,0,0,0,1360,4193
2024/05/18 01:05:04,9.8,34.5,29.8,29.2,47.2,40.0,0,0,0,0,1,0,0,0,1360,4193
2024/05/18 01:07:03,9.7,34.5,29.7,29.2,47.1,40.0,0,0,0,0,1,0,0,0,1360,4193
2024/05/18 01:09:02,9.7,34.4,29.6,29.2,47.1,40.0,0,0,0,0,1,0,0,0,1360,4193
2024/05/18 01:11:01,9.7,34.4,29.6,29.2,47.1,40.0,0,0,0,0,1,0,0,0,1360,4193
2024/05/18 01:13:01,9.7,34.3,29.5,29.2,47.1,40.0,0,0,0,0,1,0,0,0,1360,4193
2024/05/18 01:15:01,9.7,34.3,29.4,29.2,47.1,40.0,0,0,0,0,1,0,0,0,1360,4193
2024/05/18 01:17:58,9.6,34.2,29.4,29.2,47.0,40.0,0,0,0,0,1,0,0,0,1360,4193
2024/05/18 01:19:55,9.6,34.2,29.3,29.2,47.0,40.0,0,0,0,0,1,0,0,0,1360,4193
2024/05/18 01:21:53,9.6,34.1,29.2,29.2,47.0,40.0,0,0,0,0,1,0,0,0,1360,4193
2024/05/18 01:23:51,9.6,34.1,29.2,29.2,47.0,40.0,0,0,0,0,1,0,0,0,1360,4193
2024/05/18 01:25:49,9.5,34.0,29.1,29.2,46.9,40.0,0,0,0,0,1,0,0,0,1360,4193
2024/05/18 01:27:48,9.5,34.0,29.1,29.2,46.9,40.0,0,0,0,0,1,0,0,0,1360,4193
2024/05/18 01:29:48,9.5,33.9,29.0,29.2,46.9,40.0,0,0,0,0,1,0,0,0,1360,4193
2024/05/18 01:31:46,9.5,33.9,28.9,29.2,46.9,40.0,0,0,0,0,1,0,0,0,1360,4193
2024/05/18 01:33:45,9.4,33.8,28.9,29.2,46.9,40.0,0,0,0,0,1,0,0,0,1360,4193
2024/05/18 01:35:44,9.4,33.8,28.8,29.2,46.8,40.0,0,0,0,0,1,0,0,0,1360,4193
2024/05/18 01:37:43,9.4,33.7,28.8,29.2,46.8,40.0,0,0,0,0,1,0,0,0,1360,4193
2024/05/18 01:39:41,9.4,33.7,28.7,29.2,46.8,40.0,0,0,0,0,1,0,0,0,1360,4193
2024/05/18 01:41:40,9.4,33.6,28.7,29.2,46.8,40.0,0,0,0,0,1,0,0,0,1360,4193
2024/05/18 01:43:39,9.3,33.6,28.6,29.2,46.7,40.0,0,0,0,0,1,0,0,0,1360,4193
2024/05/18 01:45:37,9.3,33.5,28.5,29.2,46.7,40.0,0,0,0,0,1,0,0,0,1360,4193
2024/05/18 01:47:36,9.3,33.5,28.5,29.2,46.7,40.0,0,0,0,0,1,0,0,0,1360,4193
2024/05/18 01:49:34,9.3,33.4,28.4,29.2,46.7,40.0,0,0,0,0,1,0,0,0,1360,4193
2024/05/18 01:51:33,9.3,33.4,28.4,29.2,46.7,40.0,0,0,0,0,1,0,0,0,1360,4193
2024/05/18 01:53:32,9.3,33.3,28.3,29.2,46.6,40.0,0,0,0,0,1,0,0,0,1360,4193
2024/05/18 01:55:31,9.3,33.3,28.3,29.2,46.6,40.0,0,0,0,0,1,0,0,0,1360,4193
2024/05/18 01:57:29,9.2,33.2,28.2,29.2,46.6,40.0,0,0,0,0,1,0,0,0,1360,4193
2024/05/18 01:59:28,9.2,33.2,28.2,29.2,46.6,40.0,0,0,0,0,1,0,0,0,1360,4193
2024/05/18 02:01:28,9.2,33.2,28.1,29.2,46.5,40.0,0,0,0,0,1,0,0,0,1360,4193
2024/05/18 02:03:26,9.2,33.1,28.1,29.2,46.5,40.0,0,0,0,0,1,0,0,0,1360,4193
2024/05/18 02:05:26,9.2,33.1,28.1,29.2,46.5,40.0,0,0,0,0,1,0,0,0,1360,4193
2024/05/18 02:07:24,9.2,33.0,28.0,29.2,46.5,40.0,0,0,0,0,1,0,0,0,1360,4193
2024/05/18 02:09:21,9.2,33.0,28.0,29.2,46.5,40.0,0,0,0,0,1,0,0,0,1360,4193
2024/05/18 02:11:20,9.2,32.9,27.9,29.2,46.4,40.0,0,0,0,0,1,0,0,0,1360,4193
2024/05/18 02:13:17,9.2,32.9,27.9,29.2,46.4,40.0,0,0,0,0,1,0,0,0,1360,4193
2024/05/18 02:15:15,9.2,32.8,27.8,29.2,46.4,40.0,0,0,0,0,1,0,0,0,1360,4193
2024/05/18 02:17:14,9.1,32.8,27.8,29.2,46.4,40.0,0,0,0,0,1,0,0,0,1360,4193
2024/05/18 02:19:13,9.1,32.7,27.7,29.2,46.3,40.0,0,0,0,0,1,0,0,0,1360,4193
2024/05/18 02:21:12,9.1,32.7,27.7,29.2,46.3,40.0,0,0,0,0,1,0,0,0,1360,4193
2024/05/18 02:23:11,9.1,32.6,27.7,29.2,46.3,40.0,0,0,0,0,1,0,0,0,1360,4193
2024/05/18 02:25:10,9.1,32.6,27.6,29.2,46.3,40.0,0,0,0,0,1,0,0,0,1360,4193
2024/05/18 02:27:09,9.1,32.6,27.6,29.2,46.3,40.0,0,0,0,0,1,0,0,0,1360,4193
2024/05/18 02:29:07,9.1,32.5,27.5,29.2,46.2,40.0,0,0,0,0,1,0,0,0,1360,4193
2024/05/18 02:31:06,9.0,32.4,27.5,29.2,46.2,40.0,0,0,0,0,1,0,0,0,1360,4193
2024/05/18 02:33:05,9.0,32.4,27.5,29.2,46.2,40.0,0,0,0,0,1,0,0,0,1360,4193
2024/05/18 02:35:03,9.0,32.3,27.4,29.2,46.2,40.0,0,0,0,0,1,0,0,0,1360,4193
2024/05/18 02:37:03,9.0,32.3,27.4,29.2,46.1,40.0,0,0,0,0,1,0,0,0,1360,4193
2024/05/18 02:39:02,9.0,32.3,27.4,29.2,46.1,40.0,0,0,0,0,1,0,0,0,1360,4193
2024/05/18 02:41:01,9.0,32.2,27.3,29.2,46.1,40.0,0,0,0,0,1,0,0,0,1360,4193
2024/05/18 02:44:00,9.0,32.2,27.3,29.2,46.1,40.0,0,0,0,0,1,0,0,0,1360,4193
2024/05/18 02:45:59,9.0,32.1,27.2,29.2,46.1,40.0,0,0,0,0,1,0,0,0,1360,4193
2024/05/18 02:47:58,9.0,32.1,27.2,29.2,46.0,40.0,0,0,0,0,1,0,0,0,1360,4193
2024/05/18 02:49:56,9.0,32.0,27.2,29.2,46.0,40.0,0,0,0,0,1,0,0,0,1360,4193
2024/05/18 02:51:55,9.0,32.0,27.1,29.2,46.0,40.0,0,0,0,0,1,0,1,0,1360,4193
2024/05/18 02:53:54,9.0,26.4,25.4,29.2,46.0,40.0,0,1,1,0,1,0,1,0,1360,4193
2024/05/18 02:55:54,9.0,29.8,26.6,29.2,46.0,40.0,0,1,1,0,1,0,1,0,1361,4193
2024/05/18 02:57:53,9.1,31.9,28.5,29.2,45.9,40.0,0,1,1,0,1,0,1,0,1362,4193
2024/05/18 02:59:52,9.1,32.8,29.1,29.2,45.9,40.0,0,1,1,0,1,0,1,0,1363,4193
2024/05/18 03:01:50,9.1,33.2,29.4,29.2,45.9,40.0,0,1,1,0,1,0,1,0,1363,4193
2024/05/18 03:03:49,9.1,33.8,29.9,29.2,45.9,40.0,0,1,1,0,1,0,1,0,1364,4193
2024/05/18 03:05:49,9.1,34.7,30.4,29.2,45.8,40.0,0,1,1,0,1,0,1,0,1365,4193
2024/05/18 03:07:47,9.1,35.2,30.8,29.2,45.8,40.0,0,1,1,0,1,0,1,0,1366,4193
2024/05/18 03:09:46,9.1,34.2,31.3,29.2,45.7,40.0,0,0,1,0,1,0,1,0,1367,4193
2024/05/18 03:11:45,9.1,33.1,31.7,29.2,45.7,40.0,0,0,0,0,1,0,1,0,1367,4193
2024/05/18 03:13:45,9.1,32.9,31.4,29.2,45.7,40.0,0,0,0,0,1,0,0,0,1367,4193
2024/05/18 03:15:43,9.1,32.6,31.1,29.2,45.6,40.0,0,0,0,0,1,0,0,0,1367,4193
2024/05/18 03:17:42,9.1,32.4,30.8,29.2,45.6,40.0,0,0,0,0,1,0,0,0,1367,4193
2024/05/18 03:19:41,9.0,32.2,30.6,29.2,45.6,40.0,0,0,0,0,1,0,0,0,1367,4193
2024/05/18 03:21:39,9.0,32.1,30.4,29.2,45.6,40.0,0,0,0,0,1,0,0,0,1367,4193
2024/05/18 03:23:38,9.0,31.9,30.3,29.2,45.6,40.0,0,0,0,0,1,0,0,0,1367,4193
2024/05/18 03:25:37,8.9,31.8,30.1,29.9,45.5,40.0,0,0,0,0,1,0,0,0,1367,4193
2024/05/18 03:27:35,8.9,31.7,29.9,29.9,45.5,40.0,0,0,0,0,1,0,0,0,1367,4193
2024/05/18 03:29:35,8.9,31.6,29.8,29.9,45.5,40.0,0,0,0,0,1,0,0,0,1367,4193
2024/05/18 03:31:30,8.8,31.5,29.7,29.9,45.5,40.0,0,0,0,0,1,0,0,0,1367,4193
2024/05/18 03:33:30,8.8,31.5,29.6,29.9,45.4,40.0,0,0,0,0,1,0,0,0,1367,4193
2024/05/18 03:35:28,8.8,31.4,29.4,29.9,45.4,40.0,0,0,0,0,1,0,0,0,1367,4193
2024/05/18 03:37:28,8.8,31.3,29.3,29.9,45.4,40.0,0,0,0,0,1,0,0,0,1367,4193
2024/05/18 03:39:27,8.8,31.3,29.2,29.9,45.4,40.0,0,0,0,0,1,0,0,0,1367,4193
2024/05/18 03:41:26,8.8,31.2,29.1,29.9,45.4,40.0,0,0,0,0,1,0,0,0,1367,4193
2024/05/18 03:43:25,8.8,31.2,29.1,29.9,45.3,40.0,0,0,0,0,1,0,0,0,1367,4193
2024/05/18 03:45:23,8.8,31.1,29.0,29.9,45.3,40.0,0,0,0,0,1,0,0,0,1367,4193
2024/05/18 03:47:20,8.8,31.1,28.9,29.9,45.3,40.0,0,0,0,0,1,0,0,0,1367,4193
2024/05/18 03:49:18,8.8,31.0,28.8,29.9,45.3,40.0,0,0,0,0,1,0,0,0,1367,4193
2024/05/18 03:51:17,8.8,31.0,28.7,29.9,45.2,40.0,0,0,0,0,1,0,0,0,1367,4193
2024/05/18 03:53:16,8.9,30.9,28.6,29.9,45.2,40.0,0,0,0,0,1,0,0,0,1367,4193
2024/05/18 03:55:16,8.9,30.9,28.6,29.9,45.2,40.0,0,0,0,0,1,0,0,0,1367,4193
2024/05/18 03:57:16,9.0,30.9,28.5,29.9,45.2,40.0,0,0,0,0,1,0,0,0,1367,4193
2024/05/18 03:59:14,9.0,30.8,28.4,29.2,45.2,40.0,0,0,0,0,1,0,0,0,1367,4193
2024/05/18 04:01:12,9.0,30.8,28.3,29.2,45.1,40.0,0,0,0,0,1,0,0,0,1367,4193
2024/05/18 04:03:10,9.1,30.8,28.2,29.2,45.1,40.0,0,0,0,0,1,0,0,0,1367,4193
2024/05/18 04:05:08,9.1,30.7,28.2,29.2,45.1,40.0,0,0,0,0,1,0,0,0,1367,4193
2024/05/18 04:07:06,9.1,30.7,28.1,29.2,45.1,40.0,0,0,0,0,1,0,0,0,1367,4193
2024/05/18 04:09:04,9.2,30.6,28.0,29.2,45.1,40.0,0,0,0,0,1,0,0,0,1367,4193
2024/05/18 04:11:04,9.2,30.6,27.9,29.2,45.0,40.0,0,0,0,0,1,0,0,0,1367,4193
2024/05/18 04:13:01,9.2,30.6,27.9,29.2,45.0,40.0,0,0,0,0,1,0,0,0,1367,4193
2024/05/18 04:15:00,9.2,30.5,27.8,29.2,45.0,40.0,0,0,0,0,1,0,0,0,1367,4193
2024/05/18 04:17:59,9.2,30.5,27.7,29.2,45.0,40.0,0,0,0,0,1,0,0,0,1367,4193
2024/05/18 04:19:58,9.2,30.5,27.6,29.2,45.0,40.0,0,0,0,0,1,0,0,0,1367,4193
2024/05/18 04:21:56,9.3,30.4,27.6,29.2,44.9,40.0,0,0,0,0,1,0,0,0,1367,4193
2024/05/18 04:23:53,9.3,30.4,27.5,29.2,44.9,40.0,0,0,0,0,1,0,0,0,1367,4193
2024/05/18 04:25:53,9.3,30.4,27.4,29.2,44.9,40.0,0,0,0,0,1,0,0,0,1367,4193
2024/05/18 04:27:51,9.3,30.3,27.3,29.2,44.9,40.0,0,0,0,0,1,0,0,0,1367,4193
2024/05/18 04:29:50,9.3,30.3,27.3,29.2,44.9,40.0,0,0,0,0,1,0,0,0,1367,4193
2024/05/18 04:31:49,9.3,30.3,27.2,29.2,44.8,40.0,0,0,0,0,1,0,0,0,1367,4193
2024/05/18 04:33:49,9.3,30.2,27.1,29.2,44.8,40.0,0,0,0,0,1,0,0,0,1367,4193
2024/05/18 04:35:48,9.3,30.2,27.0,29.2,44.8,40.0,0,0,0,0,1,0,0,0,1367,4193
2024/05/18 04:37:47,9.3,30.2,27.0,29.2,44.8,40.0,0,0,0,0,1,0,0,0,1367,4193
2024/05/18 04:39:46,9.3,30.1,26.9,29.2,44.8,40.0,0,0,0,0,1,0,0,0,1367,4193
2024/05/18 04:41:44,9.3,30.1,26.8,29.2,44.8,40.0,0,0,0,0,1,0,0,0,1367,4193
2024/05/18 04:43:43,9.4,30.1,26.8,29.2,44.7,40.0,0,0,0,0,1,0,0,0,1367,4193
2024/05/18 04:45:42,9.4,30.0,26.7,29.2,44.7,40.0,0,0,0,0,1,0,0,0,1367,4193
2024/05/18 04:47:41,9.4,30.1,27.7,29.2,44.7,40.0,0,0,0,0,1,0,1,0,1367,4193
2024/05/18 04:49:40,9.4,26.5,24.8,29.2,44.7,40.0,1,0,1,0,1,0,1,0,1367,4193
2024/05/18 04:51:38,9.4,29.9,26.5,29.2,44.7,40.0,1,0,1,0,1,0,1,0,1368,4193
2024/05/18 04:53:37,9.4,30.7,27.2,29.2,44.7,40.0,1,0,1,0,1,0,1,0,1368,4193
2024/05/18 04:55:36,9.4,31.3,27.6,29.2,44.6,40.0,1,0,1,0,1,0,1,0,1369,4193
2024/05/18 04:57:35,9.4,31.8,28.0,29.2,44.6,40.0,1,0,1,0,1,0,1,0,1370,4193
2024/05/18 04:59:34,9.5,32.3,28.4,29.2,44.6,40.0,1,0,1,0,1,0,1,0,1371,4193
2024/05/18 05:01:31,9.5,32.9,28.9,29.2,44.6,40.0,1,0,1,0,1,0,1,0,1372,4193
2024/05/18 05:03:30,9.5,33.3,29.3,29.2,44.6,40.0,1,0,1,0,1,0,1,0,1373,4193
2024/05/18 05:05:28,9.5,33.7,29.6,29.2,44.5,40.0,1,0,1,0,1,0,1,0,1374,4193
2024/05/18 05:07:25,9.6,34.1,29.9,29.2,44.5,40.0,1,0,1,0,1,0,1,0,1374,4193
2024/05/18 05:09:24,9.6,34.8,30.4,29.2,44.5,40.0,1,0,1,0,1,0,1,0,1375,4193
2024/05/18 05:11:23,9.6,35.2,30.7,29.2,44.5,40.0,1,0,1,0,1,0,1,0,1376,4193
2024/05/18 05:13:19,9.6,35.6,31.1,29.2,44.5,40.0,1,0,1,0,1,0,1,0,1377,4193
2024/05/18 05:15:18,9.6,32.9,31.3,29.2,44.4,52.0,0,0,0,0,1,0,1,0,1377,4193
2024/05/18 05:17:18,9.6,32.9,31.3,29.2,44.4,52.0,0,0,0,0,1,0,0,0,1377,4193
2024/05/18 05:19:16,9.6,32.5,30.9,29.2,44.4,52.0,0,0,0,0,1,0,0,0,1377,4193
2024/05/18 05:21:15,9.6,32.3,30.7,29.2,44.4,52.0,0,0,0,0,1,0,0,0,1377,4193
2024/05/18 05:23:14,9.5,32.1,30.5,29.2,44.4,52.0,0,0,0,0,1,0,0,0,1377,4193
2024/05/18 05:25:12,9.5,31.9,30.3,29.2,44.4,52.0,0,0,0,0,1,0,0,0,1377,4193
2024/05/18 05:27:10,9.5,31.8,30.1,29.2,44.3,52.0,0,0,0,0,1,0,0,0,1377,4193
2024/05/18 05:29:08,9.5,31.6,29.9,29.2,44.3,52.0,0,0,0,0,1,0,0,0,1377,4193
2024/05/18 05:31:06,9.5,31.5,29.8,29.2,44.0,52.0,0,0,1,0,1,1,1,0,1377,4193
2024/05/18 05:33:06,9.5,34.9,31.5,29.2,43.2,52.0,0,1,1,0,0,1,1,0,1377,4193
2024/05/18 05:35:06,9.5,37.8,34.5,29.2,42.0,52.0,0,1,1,0,0,1,1,0,1377,4194
2024/05/18 05:37:05,9.5,40.0,36.1,29.2,41.4,52.0,0,1,1,0,0,1,1,0,1377,4195
2024/05/18 05:39:03,9.5,41.7,37.6,29.2,41.3,52.0,0,1,1,0,0,1,1,0,1377,4196
2024/05/18 05:41:03,9.5,42.8,38.5,29.2,41.3,52.0,0,1,1,0,0,1,1,0,1377,4197
2024/05/18 05:43:01,9.5,43.7,39.2,29.2,41.5,52.0,0,1,1,0,0,1,1,0,1377,4197
2024/05/18 05:46:00,9.5,44.4,39.9,29.2,41.9,52.0,0,1,1,0,0,1,1,0,1377,4198
2024/05/18 05:47:58,9.5,45.1,40.5,29.2,42.3,52.0,0,1,1,0,0,1,1,0,1377,4199
2024/05/18 05:49:57,9.5,45.7,41.2,29.2,42.7,52.0,0,1,1,0,0,1,1,0,1377,4200
2024/05/18 05:51:55,9.5,46.4,41.8,29.2,43.1,52.0,0,1,1,0,0,1,1,0,1377,4200
2024/05/18 05:53:55,9.5,49.1,42.3,29.2,43.6,52.0,1,1,1,0,0,1,1,0,1377,4201
2024/05/18 05:55:54,9.5,51.5,44.5,29.2,44.0,52.0,1,1,1,0,0,1,1,0,1377,4203
2024/05/18 05:57:52,9.5,53.2,45.8,29.2,44.8,52.0,1,1,1,0,0,1,1,0,1377,4204
2024/05/18 05:59:51,9.5,54.2,46.9,29.2,45.7,52.0,1,1,1,0,0,1,1,0,1377,4206
2024/05/18 06:01:49,9.5,55.2,47.8,29.2,46.7,52.0,1,1,1,0,0,1,1,0,1377,4207
2024/05/18 06:03:47,9.5,56.3,48.8,29.2,47.8,52.0,1,1,1,0,0,1,1,0,1377,4208
2024/05/18 06:05:46,9.5,57.1,49.5,29.2,48.7,52.0,1,1,1,0,0,1,1,0,1377,4209
2024/05/18 06:07:44,9.5,58.0,50.3,29.2,49.7,52.0,1,1,1,0,0,1,1,0,1377,4211
2024/05/18 06:09:44,9.4,58.8,51.3,29.2,50.7,52.0,1,1,1,0,0,1,1,0,1377,4212
2024/05/18 06:11:42,9.4,59.6,52.2,29.2,51.6,52.0,1,1,1,0,0,1,1,0,1377,4213
2024/05/18 06:13:42,9.4,54.4,44.8,29.2,52.6,52.0,0,0,0,0,1,0,1,0,1377,4213
2024/05/18 06:15:40,9.4,35.1,32.8,29.2,53.1,52.0,0,0,0,0,1,0,0,0,1377,4213
2024/05/18 06:17:36,9.4,34.8,32.2,29.2,53.1,52.0,0,0,0,0,1,0,0,0,1377,4213
2024/05/18 06:19:36,9.4,34.4,31.9,29.2,53.1,52.0,0,0,0,0,1,0,0,0,1377,4213
2024/05/18 06:21:35,9.4,34.0,31.6,29.2,53.1,52.0,0,0,0,0,1,0,0,0,1377,4213
2024/05/18 06:23:34,9.4,33.7,31.3,29.2,52.9,52.0,0,0,0,0,1,0,0,0,1377,4213
2024/05/18 06:25:32,9.4,33.5,31.0,29.2,52.8,52.0,0,0,0,0,1,0,0,0,1377,4213
2024/05/18 06:27:31,9.4,33.2,30.8,29.2,52.7,52.0,0,0,0,0,1,0,0,0,1377,4213
2024/05/18 06:29:30,9.4,33.1,30.6,29.2,52.6,52.0,0,0,0,0,1,0,0,0,1377,4213
2024/05/18 06:31:30,9.5,32.9,30.4,29.2,52.5,52.0,0,0,0,0,1,0,0,0,1377,4213
2024/05/18 06:33:28,9.5,32.8,30.3,29.2,52.4,52.0,0,0,0,0,1,0,0,0,1377,4213
2024/05/18 06:35:28,9.5,32.7,30.1,29.2,52.3,52.0,0,0,0,0,1,0,0,0,1377,4213
2024/05/18 06:37:27,9.5,32.6,30.0,29.2,52.2,52.0,0,0,0,0,1,0,0,0,1377,4213
2024/05/18 06:39:25,9.5,32.5,29.9,29.2,52.2,52.0,0,0,0,0,1,0,0,0,1377,4213
2024/05/18 06:41:24,9.6,32.4,29.9,29.2,52.1,52.0,0,0,0,0,1,0,0,0,1377,4213
2024/05/18 06:43:22,9.6,32.3,29.8,29.2,52.0,52.0,0,0,0,0,1,0,0,0,1377,4213
2024/05/18 06:45:21,9.6,32.3,29.7,29.2,52.0,52.0,0,0,0,0,1,0,0,0,1377,4213
2024/05/18 06:47:20,9.7,32.2,29.6,29.2,51.9,52.0,0,0,0,0,1,0,0,0,1377,4213
2024/05/18 06:49:19,9.7,32.1,29.5,29.2,51.8,52.0,0,0,0,0,1,0,0,0,1377,4213
2024/05/18 06:51:17,9.7,32.0,29.5,29.2,51.7,52.0,0,0,0,0,1,0,0,0,1377,4213
2024/05/18 06:53:15,9.8,32.0,29.4,29.2,51.6,52.0,0,0,0,0,1,0,0,0,1377,4213
2024/05/18 06:55:14,9.8,31.9,29.3,29.2,51.6,52.0,0,0,0,0,1,0,0,0,1377,4213
2024/05/18 06:57:12,9.9,31.9,29.2,29.2,51.5,52.0,0,0,0,0,1,0,0,0,1377,4213
2024/05/18 06:59:11,10.1,31.8,29.2,28.5,51.4,52.0,0,0,0,0,1,0,0,0,1377,4213
2024/05/18 07:01:09,10.3,31.7,29.1,28.5,51.3,52.0,0,0,0,0,1,0,0,0,1377,4213
2024/05/18 07:03:07,10.6,31.7,29.0,28.5,51.2,52.0,0,0,0,0,1,0,0,0,1377,4213
2024/05/18 07:05:06,11.1,31.6,28.9,27.6,51.2,52.0,0,0,0,0,1,0,0,0,1377,4213
2024/05/18 07:07:04,11.6,31.6,28.8,27.6,51.1,52.0,0,0,0,0,1,0,0,0,1377,4213
2024/05/18 07:09:02,12.0,31.5,28.8,27.6,51.0,52.0,0,0,0,0,1,0,0,0,1377,4213
2024/05/18 07:11:01,12.3,31.5,28.7,26.9,51.0,52.0,0,0,0,0,1,0,0,0,1377,4213
2024/05/18 07:14:00,12.4,31.4,28.6,26.9,50.9,52.0,0,0,0,0,1,0,0,0,1377,4213
2024/05/18 07:16:00,12.5,31.4,28.5,26.9,50.8,52.0,0,0,0,0,1,0,0,0,1377,4213
2024/05/18 07:17:59,12.6,31.3,28.4,26.9,50.7,52.0,0,0,0,0,1,0,0,0,1377,4213
2024/05/18 07:19:57,12.8,31.3,28.4,26.9,50.7,52.0,0,0,0,0,1,0,0,0,1377,4213
2024/05/18 07:21:57,12.9,31.2,28.3,26.9,50.6,52.0,0,0,0,0,1,0,0,0,1377,4213
2024/05/18 07:23:55,12.9,31.2,28.2,26.9,50.5,52.0,0,0,0,0,1,0,0,0,1377,4213
2024/05/18 07:25:53,12.9,31.2,28.2,26.9,50.4,52.0,0,0,0,0,1,0,0,0,1377,4213
2024/05/18 07:27:52,12.8,31.1,28.1,26.9,50.4,52.0,0,0,0,0,1,0,0,0,1377,4213
2024/05/18 07:29:50,12.7,31.1,28.0,26.9,50.3,52.0,0,0,0,0,1,0,0,0,1377,4213
2024/05/18 07:31:49,12.5,31.0,27.9,26.9,50.2,52.0,0,0,0,0,1,0,0,0,1377,4213
2024/05/18 07:33:48,12.4,31.0,27.9,26.9,50.1,52.0,0,0,0,0,1,0,0,0,1377,4213
2024/05/18 07:35:47,12.3,31.0,27.8,26.9,50.1,52.0,0,0,0,0,1,0,0,0,1377,4213
2024/05/18 07:37:46,12.4,30.9,27.7,26.9,50.0,52.0,0,0,0,0,1,0,0,0,1377,4213
2024/05/18 07:39:45,12.6,30.9,27.7,26.9,49.9,52.0,0,0,0,0,1,0,0,0,1377,4213
2024/05/18 07:41:45,12.6,30.9,27.6,26.9,49.9,52.0,0,0,0,0,1,0,0,0,1377,4213
2024/05/18 07:43:44,12.6,30.8,27.6,26.9,49.8,52.0,0,0,0,0,1,0,0,0,1377,4213
2024/05/18 07:45:44,12.6,30.8,27.5,26.9,49.7,52.0,0,0,0,0,1,0,0,0,1377,4213
2024/05/18 07:47:42,12.6,30.8,27.5,26.9,49.7,52.0,0,0,0,0,1,0,0,0,1377,4213
2024/05/18 07:49:41,12.7,30.7,27.4,26.9,49.6,52.0,0,0,0,0,1,0,0,0,1377,4213
2024/05/18 07:51:39,12.7,30.7,27.3,26.9,49.5,52.0,0,0,0,0,1,0,0,0,1377,4213
2024/05/18 07:53:38,12.7,30.7,27.3,26.9,49.5,52.0,0,0,0,0,1,0,0,0,1377,4213
2024/05/18 07:55:38,12.7,30.6,27.2,26.9,49.4,52.0,0,0,0,0,1,0,0,0,1377,4213
2024/05/18 07:57:37,12.8,30.6,27.2,26.9,49.4,52.0,0,0,0,0,1,0,0,0,1377,4213
2024/05/18 07:59:36,12.9,30.1,33.4,45.9,49.3,57.1,0,1,1,0,0,1,1,0,1377,4213
2024/05/18 08:01:36,12.9,41.2,37.3,45.9,48.1,57.1,0,1,1,0,0,1,1,0,1377,4214
2024/05/18 08:03:35,13.0,44.1,40.6,45.1,47.3,58.2,0,1,1,0,0,1,1,0,1377,4215
2024/05/18 08:05:34,13.0,45.9,42.1,45.1,47.0,58.2,0,1,1,0,0,1,1,0,1377,4216
2024/05/18 08:07:33,13.1,47.3,43.3,45.1,47.1,58.2,0,1,1,0,0,1,1,0,1377,4217
2024/05/18 08:09:32,13.1,48.4,44.1,45.1,47.6,58.2,0,1,1,0,0,1,1,0,1377,4217
2024/05/18 08:11:31,13.2,49.2,44.8,45.1,48.2,58.2,0,1,1,0,0,1,1,0,1377,4218
2024/05/18 08:13:29,13.3,49.9,45.5,45.1,48.5,58.2,0,1,1,0,0,1,1,0,1377,4219
2024/05/18 08:15:28,13.3,50.5,45.9,45.1,48.8,58.2,0,1,1,0,0,1,1,0,1377,4220
2024/05/18 08:17:27,13.4,50.8,46.1,45.1,49.1,58.2,0,1,1,0,0,1,1,0,1377,4220
2024/05/18 08:19:26,13.4,51.0,46.4,45.1,49.4,58.2,0,1,1,0,0,1,1,0,1377,4221
2024/05/18 08:21:25,13.5,51.2,46.5,45.1,49.7,58.2,0,1,1,0,0,1,1,0,1377,4222
2024/05/18 08:23:23,13.5,51.5,46.6,45.1,49.9,58.2,0,1,1,0,0,1,1,0,1377,4222
2024/05/18 08:25:22,13.5,51.6,46.7,45.1,50.2,58.2,0,1,1,0,0,1,1,0,1377,4223
2024/05/18 08:27:21,13.6,52.0,47.1,45.1,50.4,58.2,0,1,1,0,0,1,1,0,1377,4224
2024/05/18 08:29:19,13.6,52.5,47.6,45.1,50.6,58.2,0,1,1,0,0,1,1,0,1377,4225
2024/05/18 08:31:19,13.6,53.0,48.1,45.1,50.9,58.2,0,1,1,0,0,1,1,0,1377,4225
2024/05/18 08:33:16,13.7,53.5,48.6,45.1,51.1,58.2,0,1,1,0,0,1,1,0,1377,4226
2024/05/18 08:35:15,13.7,54.0,49.1,45.1,51.5,58.2,0,1,1,0,0,1,1,0,1377,4227
2024/05/18 08:37:14,13.7,54.5,49.5,45.1,51.8,58.2,0,1,1,0,0,1,1,0,1377,4227
2024/05/18 08:39:11,13.8,54.9,50.0,45.1,52.2,58.2,0,1,1,0,0,1,1,0,1377,4228
2024/05/18 08:41:11,13.8,55.4,50.4,45.1,52.5,58.2,0,1,1,0,0,1,1,0,1377,4229
2024/05/18 08:43:10,13.9,55.9,50.8,45.1,52.9,58.2,0,1,1,0,0,1,1,0,1377,4230
2024/05/18 08:45:08,14.0,56.3,51.5,44.2,53.3,58.2,0,1,1,0,0,1,1,0,1377,4230
2024/05/18 08:47:06,14.1,56.8,51.9,44.2,53.7,58.2,0,1,1,0,0,1,1,0,1377,4231
2024/05/18 08:49:05,14.1,57.2,52.3,44.2,54.2,58.2,0,1,1,0,0,1,1,0,1377,4232
2024/05/18 08:51:04,14.2,56.8,51.6,44.2,54.5,58.2,0,1,1,0,0,1,1,0,1377,4232
2024/05/18 08:53:03,14.3,57.5,52.4,44.2,54.8,58.2,0,1,1,0,0,1,1,0,1377,4233
2024/05/18 08:55:01,14.4,57.8,52.9,44.2,55.2,58.2,0,1,1,0,0,1,1,0,1377,4234
2024/05/18 08:58:00,14.4,58.1,53.2,44.2,55.5,58.2,0,1,1,0,0,1,1,0,1377,4234
2024/05/18 08:59:59,14.5,58.6,53.4,44.2,55.9,58.2,0,1,1,0,0,1,1,0,1377,4235
2024/05/18 09:01:59,14.6,58.9,53.8,44.2,56.3,57.1,0,1,1,0,0,1,1,0,1377,4236
2024/05/18 09:03:57,14.6,59.3,54.2,44.2,56.7,57.1,0,1,1,0,0,1,1,0,1377,4236
2024/05/18 09:05:56,14.7,59.7,54.5,44.2,57.0,57.1,0,1,1,0,0,1,1,0,1377,4237
2024/05/18 09:07:56,14.8,40.0,31.6,44.2,57.4,58.2,0,1,1,0,1,0,1,0,1378,4237
2024/05/18 09:09:55,14.8,32.4,27.4,44.2,57.6,58.2,0,1,1,0,1,0,1,0,1378,4237
2024/05/18 09:11:54,14.8,31.6,26.8,44.2,57.6,58.2,0,1,1,0,1,0,1,0,1379,4237
2024/05/18 09:13:53,14.8,33.3,28.5,44.2,57.6,58.2,0,1,1,0,1,0,1,0,1380,4237
2024/05/18 09:15:52,14.8,33.7,29.0,44.2,57.5,58.2,0,1,1,0,1,0,1,0,1381,4237
2024/05/18 09:17:52,14.9,33.9,29.4,44.2,57.4,58.2,0,1,1,0,1,0,1,0,1382,4237
2024/05/18 09:19:51,14.9,34.1,29.6,44.2,57.3,58.2,0,1,1,0,1,0,1,0,1383,4237
2024/05/18 09:21:50,15.0,34.4,30.0,44.2,57.1,58.2,0,1,1,0,1,0,1,0,1383,4237
2024/05/18 09:23:49,15.0,35.1,30.4,43.4,57.0,58.2,0,1,1,0,1,0,1,0,1384,4237
2024/05/18 09:25:48,15.1,35.5,30.8,43.4,56.9,58.2,0,1,1,0,1,0,1,0,1385,4237
2024/05/18 09:27:45,15.1,35.9,31.1,43.4,56.8,58.2,0,1,1,0,1,0,1,0,1386,4237
2024/05/18 09:29:44,15.2,36.4,31.6,43.4,56.7,58.2,0,1,1,0,1,0,1,0,1387,4237
2024/05/18 09:31:42,15.3,36.8,32.0,43.4,56.7,58.2,0,1,1,0,1,0,1,0,1387,4237
2024/05/18 09:33:40,15.3,37.2,32.5,43.4,56.6,58.2,0,1,1,0,1,0,1,0,1388,4237
2024/05/18 09:35:39,15.4,37.6,32.8,43.4,56.5,58.2,0,1,1,0,1,0,1,0,1389,4237
2024/05/18 09:37:38,15.5,38.1,33.3,43.4,56.4,58.2,0,1,1,0,1,0,1,0,1390,4237
2024/05/18 09:39:38,15.5,38.4,33.7,43.4,56.4,58.2,0,1,1,0,1,0,1,0,1391,4237
2024/05/18 09:41:36,15.6,38.8,34.0,43.4,56.3,58.2,0,1,1,0,1,0,1,0,1391,4237
2024/05/18 09:43:34,15.7,39.3,34.5,43.4,56.2,58.2,0,1,1,0,1,0,1,0,1392,4237
2024/05/18 09:45:33,15.8,39.6,34.8,43.4,56.2,58.2,0,1,1,0,1,0,1,0,1393,4237
2024/05/18 09:47:32,15.9,39.9,35.1,43.4,56.1,58.2,0,1,1,0,1,0,1,0,1394,4237
2024/05/18 09:49:30,15.9,40.5,35.7,43.4,56.0,58.2,0,1,1,0,1,0,1,0,1395,4237
2024/05/18 09:51:29,16.0,40.9,36.1,43.4,55.9,58.2,0,1,1,0,1,0,1,0,1395,4237
2024/05/18 09:53:29,16.0,41.5,36.7,42.5,55.8,58.2,0,1,1,0,1,0,1,0,1396,4237
2024/05/18 09:55:28,16.1,42.0,37.2,42.5,55.8,58.2,0,1,1,0,1,0,1,0,1397,4237
2024/05/18 09:57:25,16.1,42.4,37.5,42.5,55.7,58.2,0,1,1,0,1,0,1,0,1398,4237
2024/05/18 09:59:25,16.2,42.9,38.1,42.5,55.6,58.2,0,1,1,0,1,0,1,0,1398,4237
2024/05/18 10:01:24,16.2,43.4,38.6,42.5,55.5,58.2,0,1,1,0,1,0,1,0,1399,4237
2024/05/18 10:03:22,16.2,43.9,39.0,42.5,55.4,58.2,0,1,1,0,1,0,1,0,1400,4237
2024/05/18 10:05:21,16.2,44.4,39.5,42.5,55.4,58.2,0,1,1,0,1,0,1,0,1401,4237
2024/05/18 10:07:19,16.3,44.8,39.9,42.5,55.3,58.2,0,1,1,0,1,0,1,0,1402,4237
2024/05/18 10:09:19,16.3,45.9,40.3,42.5,55.2,58.2,0,1,1,0,1,0,1,0,1402,4237
2024/05/18 10:11:17,16.4,46.2,40.5,42.5,55.1,58.2,0,1,1,0,1,0,1,0,1403,4237
2024/05/18 10:13:16,16.4,46.6,41.1,42.5,55.0,58.2,0,1,1,0,1,0,1,0,1404,4237
2024/05/18 10:15:14,16.5,47.0,41.4,42.5,55.0,58.2,0,1,1,0,1,0,1,0,1404,4237
2024/05/18 10:17:13,16.5,47.5,41.9,42.5,54.9,58.2,0,1,1,0,1,0,1,0,1405,4237
2024/05/18 10:19:12,16.6,47.9,42.4,42.5,54.9,58.2,0,1,1,0,1,0,1,0,1406,4237
2024/05/18 10:21:11,16.6,48.5,42.8,42.5,54.8,58.2,0,1,1,0,1,0,1,0,1407,4237
2024/05/18 10:23:11,16.6,49.0,43.4,42.5,54.7,58.2,0,1,1,0,1,0,1,0,1407,4237
2024/05/18 10:25:08,16.7,49.3,43.7,42.5,54.7,58.2,0,1,1,0,1,0,1,0,1408,4237
2024/05/18 10:27:07,16.7,49.7,44.1,42.5,54.6,58.2,0,1,1,0,1,0,1,0,1409,4237
2024/05/18 10:29:05,16.8,47.4,44.5,42.5,54.6,57.1,0,0,1,0,1,0,1,0,1409,4237
2024/05/18 10:31:04,16.9,46.8,44.5,42.5,54.5,57.1,0,0,0,0,1,0,1,0,1409,4237
2024/05/18 10:33:03,17.0,46.2,43.9,42.5,54.4,57.1,0,0,0,0,1,0,0,0,1409,4237
2024/05/18 10:35:01,17.0,45.6,43.4,41.6,54.4,57.1,0,0,0,0,1,0,0,0,1409,4237
2024/05/18 10:37:01,17.1,45.2,43.0,41.6,54.3,57.1,0,0,0,0,1,0,0,0,1409,4237
2024/05/18 10:40:00,17.1,44.9,42.7,41.6,54.2,57.1,0,0,0,0,1,0,0,0,1409,4237
2024/05/18 10:41:59,17.1,44.7,42.3,41.6,54.2,57.1,0,0,0,0,1,0,0,0,1409,4237
2024/05/18 10:43:58,17.1,44.5,42.1,41.6,54.1,57.1,0,0,0,0,1,0,0,0,1409,4237
2024/05/18 10:45:58,17.1,44.4,41.8,41.6,54.0,57.1,0,0,0,0,1,0,0,0,1409,4237
2024/05/18 10:47:57,17.2,44.3,41.5,41.6,54.0,57.1,0,0,0,0,1,0,0,0,1409,4237
2024/05/18 10:49:56,17.2,44.2,41.2,41.6,53.9,57.1,0,0,0,0,1,0,0,0,1409,4237
2024/05/18 10:51:56,17.3,44.1,41.0,41.6,53.9,57.1,0,0,0,0,1,0,0,0,1409,4237
2024/05/18 10:53:54,17.4,44.0,40.7,41.6,53.8,57.1,0,0,0,0,1,0,0,0,1409,4237
2024/05/18 10:55:53,17.4,43.9,40.5,41.6,53.7,57.1,0,0,0,0,1,0,0,0,1409,4237
2024/05/18 10:57:52,17.4,43.9,40.3,41.6,53.7,57.1,0,0,0,0,1,0,0,0,1409,4237
2024/05/18 10:59:50,17.4,43.8,40.0,41.6,53.6,57.1,0,0,0,0,1,0,0,0,1409,4237
2024/05/18 11:01:47,17.4,43.8,39.8,41.6,53.5,57.1,0,0,0,0,1,0,0,0,1409,4237
2024/05/18 11:03:45,17.4,43.7,39.6,41.6,53.5,57.1,0,0,0,0,1,0,0,0,1409,4237
2024/05/18 11:05:43,17.5,43.7,39.4,41.6,53.4,57.1,0,0,0,0,1,0,0,0,1409,4237
2024/05/18 11:07:43,17.5,43.6,39.2,41.6,53.3,57.1,0,0,0,0,1,0,0,0,1409,4237
2024/05/18 11:09:42,17.5,43.5,39.0,41.6,53.3,57.1,0,0,0,0,1,0,0,0,1409,4237
2024/05/18 11:11:40,17.6,43.5,38.8,41.6,53.2,57.1,0,0,0,0,1,0,0,0,1409,4237
2024/05/18 11:13:38,17.7,43.4,38.5,41.6,53.1,57.1,0,0,0,0,1,0,0,0,1409,4237
2024/05/18 11:15:36,17.8,43.4,38.3,41.6,53.1,58.2,0,0,0,0,1,0,0,0,1409,4237
2024/05/18 11:17:34,17.8,43.2,38.1,41.6,53.0,58.2,0,0,0,0,1,0,0,0,1409,4237
2024/05/18 11:19:34,17.9,43.2,37.9,41.6,52.9,58.2,0,0,0,0,1,0,0,0,1409,4237
2024/05/18 11:21:33,18.0,43.1,37.7,41.6,52.9,58.2,0,0,0,0,1,0,0,0,1409,4237
2024/05/18 11:23:32,18.0,43.0,37.5,40.8,52.8,58.2,0,0,0,0,1,0,0,0,1409,4237
2024/05/18 11:25:30,18.0,42.9,37.3,40.8,52.8,58.2,0,0,0,0,1,0,0,0,1409,4237
2024/05/18 11:27:29,18.1,42.8,37.1,40.8,52.7,52.0,0,0,0,0,1,0,0,0,1409,4237
2024/05/18 11:29:28,18.1,42.7,36.9,21.8,52.6,52.0,0,0,0,0,1,0,0,0,1409,4237
2024/05/18 11:31:26,18.1,42.6,36.8,21.8,52.6,52.0,0,0,0,0,1,0,0,0,1409,4237
2024/05/18 11:33:23,18.1,42.5,36.6,21.8,52.5,52.0,0,0,0,0,1,0,0,0,1409,4237
2024/05/18 11:35:22,18.2,42.4,36.4,21.8,52.4,52.0,0,0,0,0,1,0,0,0,1409,4237
2024/05/18 11:37:21,18.3,42.3,36.2,21.8,52.4,52.0,0,0,0,0,1,0,0,0,1409,4237
2024/05/18 11:39:19,18.4,42.2,36.0,21.8,52.3,52.0,0,0,0,0,1,0,0,0,1409,4237
2024/05/18 11:41:17,18.4,42.1,35.8,21.8,52.2,52.0,0,0,0,0,1,0,0,0,1409,4237
2024/05/18 11:43:14,18.4,42.0,35.7,21.8,52.2,52.0,0,0,0,0,1,0,0,0,1409,4237
2024/05/18 11:45:14,18.4,41.9,35.5,21.8,52.1,52.0,0,0,0,0,1,0,0,0,1409,4237
2024/05/18 11:47:13,18.4,41.8,35.3,21.8,52.0,52.0,0,0,0,0,1,0,0,0,1409,4237
2024/05/18 11:49:12,18.4,41.7,35.1,21.8,52.0,52.0,0,0,0,0,1,0,0,0,1409,4237
2024/05/18 11:51:10,18.4,41.6,35.0,21.8,51.9,52.0,0,0,0,0,1,0,0,0,1409,4237
2024/05/18 11:53:09,18.4,41.5,34.9,21.8,51.8,52.0,0,0,0,0,1,0,0,0,1409,4237
2024/05/18 11:55:07,18.6,41.4,34.7,40.8,51.8,58.2,0,0,0,0,1,0,1,0,1409,4237
2024/05/18 11:57:06,18.7,41.1,40.0,40.8,51.7,57.1,1,0,1,0,1,0,1,0,1409,4237
2024/05/18 11:59:05,18.8,45.1,42.2,40.8,51.7,57.1,1,0,1,0,1,0,1,0,1410,4237
2024/05/18 12:01:04,18.9,47.3,42.6,40.8,51.6,58.2,1,0,1,0,1,0,1,0,1411,4237
2024/05/18 12:03:02,19.0,44.5,42.9,39.8,51.5,57.1,0,0,0,0,1,0,1,0,1411,4237
2024/05/18 12:05:01,19.1,44.7,43.0,39.8,51.5,57.1,0,0,0,0,1,0,0,0,1411,4237
2024/05/18 12:08:00,19.1,44.0,42.2,39.8,51.4,57.1,0,0,0,0,0,0,0,0,1411,4237
2024/05/18 12:10:00,19.2,43.7,41.8,39.8,51.3,57.1,0,0,0,0,0,0,0,0,1411,4237
2024/05/18 12:11:59,19.2,43.4,41.4,39.8,51.3,57.1,0,0,0,0,0,0,0,0,1411,4237
2024/05/18 12:13:57,19.2,43.1,41.1,39.8,51.2,57.1,0,0,0,0,0,0,0,0,1411,4237
2024/05/18 12:15:57,19.3,42.9,40.8,39.8,51.1,57.1,0,0,0,0,0,0,0,0,1411,4237
2024/05/18 12:17:56,19.4,42.8,40.5,39.8,51.1,57.1,0,0,0,0,0,0,0,0,1411,4237
2024/05/18 12:19:52,19.5,42.7,40.3,39.8,51.0,52.0,0,0,0,0,1,0,0,0,1411,4237
2024/05/18 12:21:51,19.5,42.6,40.0,20.8,50.9,52.0,0,0,0,0,1,0,0,0,1411,4237
2024/05/18 12:23:50,19.5,42.5,39.7,20.8,50.9,52.0,0,0,0,0,1,0,0,0,1411,4237
2024/05/18 12:25:50,19.6,42.4,39.5,20.8,50.8,52.0,0,0,0,0,1,0,0,0,1411,4237
2024/05/18 12:27:48,19.8,42.4,39.3,20.8,50.7,52.0,0,0,0,0,1,0,0,0,1411,4237
2024/05/18 12:29:47,19.9,42.3,39.1,20.8,50.7,52.0,0,0,0,0,1,0,0,0,1411,4237
2024/05/18 12:31:45,20.0,42.3,38.9,20.8,50.6,52.0,0,0,0,0,1,0,0,0,1411,4237
2024/05/18 12:33:44,20.0,42.2,38.7,20.0,50.5,52.0,0,0,0,0,1,0,0,0,1411,4237
2024/05/18 12:35:43,20.0,42.2,38.5,20.0,50.5,52.0,0,0,0,0,1,0,0,0,1411,4237
2024/05/18 12:37:40,20.0,42.1,38.3,20.0,50.4,52.0,0,0,0,0,1,0,0,0,1411,4237
2024/05/18 12:39:38,20.0,42.0,38.1,20.0,50.3,52.0,0,0,0,0,1,0,0,0,1411,4237
2024/05/18 12:41:37,19.9,42.0,37.9,20.8,50.3,52.0,0,0,0,0,1,0,0,0,1411,4237
2024/05/18 12:43:36,19.8,41.9,37.7,20.8,50.2,52.0,0,0,0,0,1,0,0,0,1411,4237
2024/05/18 12:45:34,19.7,41.9,37.5,20.8,50.1,52.0,0,0,0,0,1,0,0,0,1411,4237
2024/05/18 12:47:33,19.7,41.8,37.3,20.8,50.1,52.0,0,0,0,0,1,0,0,0,1411,4237
2024/05/18 12:49:32,19.7,41.8,37.1,20.8,50.0,52.0,0,0,0,0,1,0,0,0,1411,4237
2024/05/18 12:51:30,19.7,41.7,36.9,20.8,50.0,52.0,0,0,0,0,0,0,0,0,1411,4237
2024/05/18 12:53:30,19.7,41.6,36.8,20.8,49.9,52.0,0,0,0,0,0,0,0,0,1411,4237
2024/05/18 12:55:28,19.7,41.5,36.6,20.8,49.9,52.0,0,0,0,0,0,0,0,0,1411,4237
2024/05/18 12:57:27,19.7,41.4,36.5,20.8,49.8,52.0,0,0,0,0,0,0,0,0,1411,4237
2024/05/18 12:59:25,19.7,41.3,36.3,20.8,49.7,52.0,0,0,0,0,0,0,0,0,1411,4237
2024/05/18 13:01:24,19.7,41.2,36.1,20.8,49.7,52.0,0,0,0,0,0,0,0,0,1411,4237
2024/05/18 13:03:23,19.7,41.1,36.0,20.8,49.6,52.0,0,0,0,0,0,0,0,0,1411,4237
2024/05/18 13:05:20,19.7,41.0,35.8,20.8,49.6,52.0,0,0,0,0,0,0,0,0,1411,4237
2024/05/18 13:07:18,19.7,41.0,35.7,20.8,49.5,52.0,0,0,0,0,0,0,0,0,1411,4237
2024/05/18 13:09:18,19.8,40.9,35.5,20.8,49.4,52.0,0,0,0,0,0,0,0,0,1411,4237
2024/05/18 13:11:16,19.9,37.8,36.6,39.8,49.4,57.1,0,1,1,0,0,1,1,0,1411,4237
2024/05/18 13:13:16,20.2,43.8,40.0,39.0,48.8,57.1,0,1,1,0,0,1,1,0,1411,4238
2024/05/18 13:15:15,20.5,45.0,41.2,39.0,48.3,58.2,0,1,1,0,0,1,1,0,1411,4239
2024/05/18 13:17:14,20.7,46.4,42.3,39.0,48.2,58.2,0,1,1,0,0,1,1,0,1411,4239
2024/05/18 13:19:13,21.0,47.5,43.2,39.0,48.2,58.2,0,1,1,0,0,1,1,0,1411,4240
2024/05/18 13:21:12,21.2,48.5,44.0,38.2,48.4,58.2,0,1,1,0,0,1,1,0,1411,4241
2024/05/18 13:23:09,21.4,49.2,44.6,38.2,48.6,58.2,0,1,1,0,0,1,1,0,1411,4242
2024/05/18 13:25:08,21.6,49.8,45.2,38.2,48.9,58.2,0,1,1,0,0,1,1,0,1411,4242
2024/05/18 13:27:06,21.7,50.5,45.8,38.2,49.1,58.2,0,1,1,0,0,1,1,0,1411,4243
2024/05/18 13:29:04,21.8,51.1,46.4,20.0,49.3,52.0,0,1,1,0,0,1,1,0,1411,4244
2024/05/18 13:31:02,21.8,51.9,47.0,20.0,49.5,52.0,0,1,1,0,0,1,1,0,1411,4245
2024/05/18 13:34:00,21.7,52.5,47.5,20.0,49.9,52.0,0,1,1,0,0,1,1,0,1411,4245
2024/05/18 13:36:00,21.6,53.0,48.1,20.0,50.2,52.0,0,1,1,0,0,1,1,0,1411,4246
2024/05/18 13:37:59,21.6,53.5,48.6,20.0,50.6,52.0,0,1,1,0,0,1,1,0,1411,4247
2024/05/18 13:39:57,21.5,54.0,49.0,20.0,51.0,52.0,0,1,1,0,0,1,1,0,1411,4247
2024/05/18 13:41:56,21.4,54.4,49.4,20.0,51.5,52.0,0,1,1,0,0,1,1,0,1411,4248
2024/05/18 13:43:55,21.3,54.9,49.8,20.0,51.9,52.0,0,1,1,0,0,1,1,0,1411,4249
2024/05/18 13:45:53,21.3,48.1,44.2,20.0,52.3,52.0,0,0,0,0,1,0,1,0,1411,4249
2024/05/18 13:47:53,21.2,45.1,42.9,20.0,52.4,52.0,0,0,0,0,1,0,0,0,1411,4249
2024/05/18 13:49:52,21.1,44.4,42.0,20.0,52.5,52.0,0,0,0,0,1,0,0,0,1411,4249
2024/05/18 13:51:51,21.1,43.9,41.5,20.0,52.5,52.0,0,0,0,0,1,0,0,0,1411,4249
2024/05/18 13:53:50,21.1,43.5,41.1,20.0,52.4,52.0,0,0,0,0,1,0,0,0,1411,4249
2024/05/18 13:55:47,21.1,43.1,40.7,20.0,52.3,57.1,0,0,0,0,0,0,0,0,1411,4249
2024/05/18 13:57:45,21.2,42.8,40.4,38.2,52.2,57.1,0,0,0,0,0,0,0,0,1411,4249
2024/05/18 13:59:44,21.4,42.7,40.1,38.2,52.1,57.1,0,0,0,0,0,0,0,0,1411,4249
2024/05/18 14:01:42,21.6,42.5,39.8,38.2,52.0,57.1,0,0,0,0,0,0,0,0,1411,4249
2024/05/18 14:03:39,21.7,42.4,39.6,38.2,51.9,57.1,0,0,0,0,0,0,0,0,1411,4249
2024/05/18 14:05:37,21.7,42.3,39.4,38.2,51.9,57.1,0,0,0,0,0,0,0,0,1411,4249
2024/05/18 14:07:36,21.7,42.1,39.2,38.2,51.8,57.1,0,0,0,0,0,0,0,0,1411,4249
2024/05/18 14:09:36,21.7,42.0,39.0,38.2,51.7,57.1,0,0,0,0,0,0,0,0,1411,4249
2024/05/18 14:11:34,21.7,41.9,38.8,38.2,51.7,57.1,0,0,0,0,0,0,0,0,1411,4249
2024/05/18 14:13:33,21.6,41.9,38.7,38.2,51.6,57.1,0,0,0,0,0,0,0,0,1411,4249
2024/05/18 14:15:31,21.5,41.8,38.5,38.2,51.6,58.2,0,0,0,0,0,0,0,0,1411,4249
2024/05/18 14:17:31,21.4,41.7,38.4,38.2,51.5,58.2,0,0,0,0,0,0,0,0,1411,4249
2024/05/18 14:19:30,21.3,41.6,38.2,38.2,51.4,58.2,0,0,0,0,0,0,0,0,1411,4249
2024/05/18 14:21:30,21.2,41.6,38.1,38.2,51.3,58.2,0,0,0,0,0,0,0,0,1411,4249
2024/05/18 14:23:29,21.1,41.5,37.9,38.2,51.3,58.2,0,0,0,0,0,0,0,0,1411,4249
2024/05/18 14:25:28,21.1,41.4,37.7,38.2,51.2,58.2,0,0,0,0,0,0,0,0,1411,4249
2024/05/18 14:27:26,21.0,41.4,37.6,38.2,51.1,58.2,0,0,0,0,0,0,0,0,1411,4249
2024/05/18 14:29:25,20.9,41.3,37.4,39.0,51.1,58.2,0,0,0,0,0,0,0,0,1411,4249
2024/05/18 14:31:25,20.8,41.3,37.2,39.0,51.0,58.2,0,0,0,0,0,0,0,0,1411,4249
2024/05/18 14:33:24,20.7,41.2,37.1,39.0,50.9,58.2,0,0,0,0,0,0,0,0,1411,4249
2024/05/18 14:35:23,20.7,41.1,36.9,39.0,50.9,58.2,0,0,0,0,0,0,0,0,1411,4249
2024/05/18 14:37:22,20.6,41.1,36.7,39.0,50.8,58.2,0,0,0,0,0,0,0,0,1411,4249
2024/05/18 14:39:22,20.5,41.0,36.6,39.0,50.7,58.2,0,0,0,0,0,0,0,0,1411,4249
2024/05/18 14:41:21,20.5,40.9,36.4,39.0,50.7,58.2,0,0,0,0,0,0,0,0,1411,4249
2024/05/18 14:43:19,20.5,40.8,36.2,39.0,50.6,58.2,0,0,0,0,0,0,0,0,1411,4249
2024/05/18 14:45:19,20.4,40.8,36.1,39.0,50.5,58.2,0,0,0,0,0,0,0,0,1411,4249
2024/05/18 14:47:17,20.4,40.7,35.9,39.0,50.5,58.2,0,0,0,0,0,0,0,0,1411,4249
2024/05/18 14:49:16,20.4,40.6,35.8,39.0,50.4,58.2,0,0,0,0,0,0,0,0,1411,4249
2024/05/18 14:51:14,20.4,40.5,35.6,39.0,50.3,58.2,0,0,0,0,0,0,0,0,1411,4249
2024/05/18 14:53:14,20.4,40.4,35.5,39.0,50.3,58.2,0,0,0,0,0,0,0,0,1411,4249
2024/05/18 14:55:13,20.4,45.0,43.0,39.0,50.1,57.1,1,0,1,0,0,1,1,0,1411,4249
2024/05/18 14:57:12,20.4,47.7,44.5,39.0,49.9,57.1,1,0,1,0,0,1,1,0,1411,4250
2024/05/18 14:59:11,20.3,50.3,46.5,39.0,49.8,58.2,1,0,1,0,0,1,1,0,1411,4251
2024/05/18 15:01:11,20.3,52.2,47.9,39.0,49.9,58.2,1,0,1,0,0,1,1,0,1411,4251
2024/05/18 15:03:08,20.3,53.2,48.8,39.0,50.3,58.2,1,0,1,0,0,1,1,0,1411,4252
2024/05/18 15:05:06,20.3,54.0,49.4,39.0,50.8,58.2,1,0,1,0,0,1,1,0,1411,4253
2024/05/18 15:07:06,20.3,54.7,49.9,39.0,51.3,58.2,1,0,1,0,0,1,1,0,1411,4253
2024/05/18 15:09:04,20.3,55.2,50.4,39.0,51.7,58.2,1,0,1,0,0,1,1,0,1411,4254
2024/05/18 15:11:03,20.3,55.8,51.0,39.0,52.3,58.2,1,0,1,0,0,1,1,0,1411,4255
2024/05/18 15:13:02,20.2,56.4,51.7,39.0,52.8,58.2,1,0,1,0,0,1,1,0,1411,4256
2024/05/18 15:16:00,20.1,56.2,52.1,39.0,53.3,52.0,0,0,1,0,1,0,1,0,1411,4256
2024/05/18 15:18:00,20.0,45.7,43.2,20.0,53.7,52.0,0,0,0,0,1,0,1,0,1411,4256
2024/05/18 15:19:59,20.0,44.7,42.4,20.0,53.8,52.0,0,0,0,0,1,0,0,0,1411,4256
2024/05/18 15:21:58,19.9,44.1,41.7,20.8,53.8,52.0,0,0,0,0,1,0,0,0,1411,4256
2024/05/18 15:23:55,19.9,43.6,41.2,20.8,53.8,52.0,0,0,0,0,1,0,0,0,1411,4256
2024/05/18 15:25:54,19.9,43.2,40.8,20.8,53.7,52.0,0,0,0,0,1,0,0,0,1411,4256
2024/05/18 15:27:53,19.9,42.9,40.5,20.8,53.6,52.0,0,0,0,0,1,0,0,0,1411,4256
2024/05/18 15:29:53,19.9,42.7,40.2,20.8,53.5,52.0,0,0,0,0,1,0,0,0,1411,4256
2024/05/18 15:31:52,19.9,42.5,40.0,20.8,53.4,57.1,0,0,0,0,0,0,0,0,1411,4256
2024/05/18 15:33:49,19.8,42.4,39.8,39.8,53.3,57.1,0,0,0,0,0,0,0,0,1411,4256
2024/05/18 15:35:47,19.8,42.2,39.6,39.8,53.3,58.2,0,0,0,0,0,0,0,0,1411,4256
2024/05/18 15:37:45,19.7,42.1,39.4,39.8,53.2,58.2,0,0,0,0,0,0,0,0,1411,4256
2024/05/18 15:39:45,19.6,42.0,39.2,39.8,53.2,58.2,0,0,0,0,0,0,0,0,1411,4256
2024/05/18 15:41:44,19.6,41.9,39.0,39.8,53.1,58.2,0,0,0,0,0,0,0,0,1411,4256
2024/05/18 15:43:40,19.5,41.7,38.8,39.8,53.0,58.2,0,0,0,0,0,0,0,0,1411,4256
2024/05/18 15:45:39,19.4,41.6,38.7,39.8,53.0,58.2,0,0,0,0,0,0,0,0,1411,4256
2024/05/18 15:47:35,19.3,41.5,38.5,39.8,52.9,58.2,0,0,0,0,0,0,0,0,1411,4256
2024/05/18 15:49:34,19.3,41.5,38.4,39.8,52.9,58.2,0,0,0,0,0,0,0,0,1411,4256
2024/05/18 15:51:33,19.2,41.4,38.2,39.8,52.8,58.2,0,0,0,0,0,0,0,0,1411,4256
2024/05/18 15:53:32,19.0,41.3,38.1,39.8,52.7,58.2,0,0,0,0,0,0,0,0,1411,4256
2024/05/18 15:55:28,18.9,41.2,37.9,39.8,52.7,58.2,0,0,0,0,0,0,0,0,1411,4256
2024/05/18 15:57:26,18.8,41.2,37.8,40.8,52.6,58.2,0,0,0,0,0,0,0,0,1411,4256
2024/05/18 15:59:25,18.7,41.1,37.6,40.8,52.6,58.2,0,0,0,0,0,0,0,0,1411,4256
2024/05/18 16:01:23,18.6,41.1,37.5,40.8,52.5,58.2,0,0,0,0,0,0,0,0,1411,4256
2024/05/18 16:03:22,18.6,41.0,37.3,40.8,52.4,58.2,0,0,0,0,0,0,0,0,1411,4256
2024/05/18 16:05:19,18.5,40.9,37.2,40.8,52.4,58.2,0,0,0,0,0,0,0,0,1411,4256
2024/05/18 16:07:18,18.5,40.9,37.0,40.8,52.3,58.2,0,0,0,0,0,0,0,0,1411,4256
2024/05/18 16:09:17,18.4,40.8,36.9,40.8,52.2,58.2,0,0,0,0,0,0,0,0,1411,4256
2024/05/18 16:11:15,18.4,40.8,36.7,40.8,52.2,58.2,0,0,0,0,0,0,0,0,1411,4256
2024/05/18 16:13:13,18.3,40.7,36.5,40.8,52.1,58.2,0,0,0,0,0,0,0,0,1411,4256
2024/05/18 16:15:12,18.3,40.6,36.4,40.8,52.1,58.2,0,0,0,0,0,0,0,0,1411,4256
2024/05/18 16:17:12,18.3,40.5,36.2,40.8,52.0,58.2,0,0,0,0,0,0,0,0,1411,4256
2024/05/18 16:19:11,18.2,40.4,36.1,40.8,51.9,58.2,0,0,0,0,0,0,0,0,1411,4256
2024/05/18 16:21:10,18.2,40.3,35.9,40.8,51.9,58.2,0,0,0,0,0,0,0,0,1411,4256
2024/05/18 16:23:08,18.2,40.3,35.8,40.8,51.8,58.2,0,0,0,0,0,0,0,0,1411,4256
2024/05/18 16:25:07,18.1,40.2,35.6,40.8,51.7,58.2,0,0,0,0,0,0,0,0,1411,4256
2024/05/18 16:27:06,18.1,40.1,35.5,40.8,51.7,58.2,0,0,0,0,0,0,0,0,1411,4256
2024/05/18 16:29:05,18.1,40.0,35.3,40.8,51.6,58.2,0,0,0,0,0,0,0,0,1411,4256
2024/05/18 16:31:04,18.1,40.0,35.2,40.8,51.6,58.2,0,0,0,0,0,0,0,0,1411,4256
2024/05/18 16:33:03,18.1,39.9,35.1,40.8,51.5,58.2,0,0,0,0,0,0,0,0,1411,4256
2024/05/18 16:35:02,18.3,39.8,34.9,40.8,51.4,58.2,0,0,0,0,0,0,0,0,1411,4256
2024/05/18 16:38:01,18.5,39.7,34.8,40.8,51.4,58.2,0,0,0,0,0,0,0,0,1411,4256
2024/05/18 16:39:59,18.8,39.7,34.7,40.8,51.3,58.2,0,0,0,0,0,0,0,0,1411,4256
2024/05/18 16:41:58,19.0,39.6,34.6,40.8,51.2,58.2,0,0,0,0,0,0,0,0,1411,4256
2024/05/18 16:43:57,19.1,39.5,34.5,39.8,51.2,58.2,0,0,0,0,0,0,0,0,1411,4256
2024/05/18 16:45:55,19.2,39.4,34.4,39.8,51.1,58.2,0,0,0,0,0,0,0,0,1411,4256
2024/05/18 16:47:55,19.2,39.4,34.3,39.8,51.1,58.2,0,0,0,0,0,0,0,0,1411,4256
2024/05/18 16:49:53,19.2,39.3,34.2,39.8,51.0,58.2,0,0,0,0,0,0,0,0,1411,4256
2024/05/18 16:51:52,19.2,39.2,34.1,39.8,50.9,58.2,0,0,0,0,0,0,0,0,1411,4256
2024/05/18 16:53:51,19.2,39.2,34.0,39.8,50.9,58.2,0,0,0,0,0,0,0,0,1411,4256
2024/05/18 16:55:50,19.2,39.1,33.9,39.8,50.8,58.2,0,0,0,0,0,0,0,0,1411,4256
2024/05/18 16:57:49,19.2,39.0,33.8,39.8,50.8,58.2,0,0,0,0,0,0,0,0,1411,4256
2024/05/18 16:59:48,19.1,38.9,33.7,39.8,50.7,58.2,0,0,0,0,0,0,0,0,1411,4256
2024/05/18 17:01:47,19.1,38.8,33.6,39.8,50.6,58.2,0,0,0,0,0,0,0,0,1411,4256
2024/05/18 17:03:46,19.0,38.8,33.5,39.8,50.6,58.2,0,0,0,0,0,0,0,0,1411,4256
2024/05/18 17:05:45,18.9,38.7,33.4,40.8,50.5,58.2,0,0,0,0,0,0,0,0,1411,4256
2024/05/18 17:07:44,18.9,38.6,33.4,40.8,50.4,58.2,0,0,0,0,0,0,0,0,1411,4256
2024/05/18 17:09:43,18.8,38.5,33.3,40.8,50.4,58.2,0,0,0,0,0,0,0,0,1411,4256
2024/05/18 17:11:42,18.8,38.5,33.2,40.8,50.3,58.2,0,0,0,0,0,0,0,0,1411,4256
2024/05/18 17:13:41,18.7,38.4,33.1,40.8,50.3,58.2,0,0,0,0,0,0,0,0,1411,4256
2024/05/18 17:15:40,18.6,43.1,42.9,40.8,50.2,57.1,0,1,1,0,0,1,1,0,1411,4256
2024/05/18 17:17:39,18.6,46.6,43.6,21.8,49.8,52.0,0,1,1,0,0,1,1,0,1411,4257
2024/05/18 17:19:38,18.4,49.5,45.9,21.8,49.7,52.0,0,1,1,0,0,1,1,0,1411,4258
2024/05/18 17:21:36,18.3,51.5,47.4,21.8,49.7,52.0,0,1,1,0,0,1,1,0,1411,4259
2024/05/18 17:23:35,18.2,52.8,48.4,21.8,50.0,52.0,0,1,1,0,0,1,1,0,1411,4259
2024/05/18 17:25:34,18.2,53.7,49.1,21.8,50.5,52.0,0,1,1,0,0,1,1,0,1411,4260
2024/05/18 17:27:33,18.1,54.3,49.6,21.8,50.9,52.0,0,1,1,0,0,1,1,0,1411,4261
2024/05/18 17:29:32,18.0,54.9,50.1,21.8,51.4,52.0,0,1,1,0,0,1,1,0,1411,4261
2024/05/18 17:31:31,17.9,55.5,50.7,21.8,51.9,52.0,0,1,1,0,0,1,1,0,1411,4262
2024/05/18 17:33:30,17.8,44.9,42.3,22.6,52.4,52.0,0,0,0,0,1,0,1,0,1411,4262
2024/05/18 17:35:29,17.7,44.0,41.2,22.6,52.7,52.0,0,0,0,0,1,0,0,0,1411,4262
2024/05/18 17:37:28,17.6,43.3,40.3,22.6,52.7,52.0,0,0,0,0,1,0,0,0,1411,4262
2024/05/18 17:39:27,17.5,42.8,39.9,22.6,52.7,52.0,0,0,0,0,1,0,0,0,1411,4262
2024/05/18 17:41:27,17.4,42.4,39.5,22.6,52.6,52.0,0,0,0,0,1,0,0,0,1411,4262
2024/05/18 17:43:26,17.3,42.0,39.2,22.6,52.5,52.0,0,0,0,0,1,0,0,0,1411,4262
2024/05/18 17:45:25,17.2,41.8,38.9,22.6,52.4,52.0,0,0,0,0,1,0,0,0,1411,4262
2024/05/18 17:47:24,17.1,41.6,38.7,22.6,52.3,52.0,0,0,0,0,1,0,0,0,1411,4262
2024/05/18 17:49:23,16.9,41.4,38.5,22.6,52.3,52.0,0,0,0,0,1,0,0,0,1411,4262
2024/05/18 17:51:21,16.7,39.1,37.6,23.5,52.2,52.0,0,0,0,0,1,0,1,0,1411,4262
2024/05/18 17:53:20,16.5,41.6,40.3,23.5,52.2,52.0,0,0,0,0,1,0,1,0,1411,4262
2024/05/18 17:55:20,16.3,41.6,40.0,23.5,52.1,52.0,0,0,0,0,1,0,0,0,1411,4262
2024/05/18 17:57:18,16.1,41.1,39.4,23.5,52.0,52.0,0,0,0,0,1,0,0,0,1411,4262
2024/05/18 17:59:14,15.9,40.8,39.1,24.4,52.0,52.0,0,0,0,0,1,0,1,0,1411,4262
2024/05/18 18:01:13,15.7,41.4,40.2,24.4,51.9,52.0,0,0,0,0,1,0,1,0,1411,4262
2024/05/18 18:03:11,15.6,41.8,40.6,24.4,51.9,52.0,0,0,0,0,1,0,0,0,1411,4262
2024/05/18 18:05:09,15.5,41.3,39.8,24.4,51.8,52.0,0,0,0,0,1,0,0,0,1411,4262
2024/05/18 18:07:08,15.4,40.9,39.4,24.4,51.7,52.0,0,0,0,0,1,0,0,0,1411,4262
2024/05/18 18:09:07,15.4,40.6,39.1,24.4,51.7,52.0,0,0,0,0,1,0,0,0,1411,4262
2024/05/18 18:11:06,15.3,40.4,38.9,24.4,51.6,52.0,0,0,0,0,1,0,0,0,1411,4262
2024/05/18 18:13:05,15.3,40.2,38.7,24.4,51.6,52.0,0,0,0,0,1,0,0,0,1411,4262
2024/05/18 18:15:04,15.3,40.0,38.5,24.4,51.5,52.0,0,0,0,0,1,0,0,0,1411,4262
2024/05/18 18:17:02,15.3,39.9,38.3,24.4,51.4,52.0,0,0,0,0,1,0,0,0,1411,4262
2024/05/18 18:19:02,15.5,39.8,38.1,24.4,51.4,58.2,0,0,0,0,1,0,0,0,1411,4262
2024/05/18 18:22:00,15.7,41.0,39.7,43.4,51.3,58.2,0,0,1,0,1,0,1,0,1411,4262
2024/05/18 18:23:59,16.1,42.6,40.3,42.5,51.2,57.1,1,0,1,0,1,0,1,0,1412,4262
2024/05/18 18:25:59,16.6,44.8,40.5,42.5,51.2,57.1,1,0,1,0,1,0,1,0,1412,4262
2024/05/18 18:27:57,17.1,45.5,40.6,41.6,51.1,58.2,1,0,1,0,1,0,1,0,1413,4262
2024/05/18 18:29:56,17.6,45.9,40.9,41.6,51.1,58.2,1,0,1,0,1,0,1,0,1414,4262
2024/05/18 18:31:55,17.8,46.6,41.3,41.6,51.0,58.2,1,0,1,0,1,0,1,0,1415,4262
2024/05/18 18:33:54,17.9,47.3,42.0,41.6,51.0,58.2,1,0,1,0,1,0,1,0,1415,4262
2024/05/18 18:35:53,18.1,47.9,42.6,40.8,50.9,58.2,1,0,1,0,1,0,1,0,1416,4262
2024/05/18 18:37:52,18.2,45.1,43.1,40.8,50.8,57.1,0,0,0,0,1,0,1,0,1416,4262
2024/05/18 18:39:49,18.4,45.2,43.5,40.8,50.8,57.1,0,0,0,0,1,0,0,0,1416,4262
2024/05/18 18:41:48,18.5,44.5,42.6,40.8,50.7,57.1,0,0,0,0,1,0,0,0,1416,4262
2024/05/18 18:43:47,18.6,44.1,42.2,40.8,50.7,57.1,0,0,0,0,1,0,0,0,1416,4262
2024/05/18 18:45:44,18.6,43.8,41.8,40.8,50.6,57.1,0,0,0,0,1,0,0,0,1416,4262
2024/05/18 18:47:43,18.6,43.5,41.5,40.8,50.5,57.1,0,0,0,0,1,0,0,0,1416,4262
2024/05/18 18:49:42,18.5,43.3,41.2,40.8,50.5,57.1,0,0,0,0,1,0,0,0,1416,4262
2024/05/18 18:51:40,18.3,43.1,41.0,40.8,50.4,57.1,0,0,0,0,1,0,0,0,1416,4262
2024/05/18 18:53:38,18.2,43.0,40.7,40.8,50.4,57.1,0,0,0,0,1,0,0,0,1416,4262
2024/05/18 18:55:37,18.1,42.9,40.4,40.8,50.3,57.1,0,0,0,0,1,0,0,0,1416,4262
2024/05/18 18:57:35,18.1,42.8,40.2,40.8,50.2,57.1,0,0,0,0,1,0,0,0,1416,4262
2024/05/18 18:59:32,18.2,42.8,40.0,40.8,50.2,57.1,0,0,0,0,1,0,0,0,1416,4262
2024/05/18 19:01:31,18.5,42.7,39.8,40.8,50.1,57.1,0,0,0,0,1,0,0,0,1416,4262
2024/05/18 19:03:30,18.6,46.0,44.3,40.8,50.1,57.1,0,1,1,0,0,1,1,0,1416,4263
2024/05/18 19:05:29,18.6,48.5,45.4,21.8,49.9,52.0,0,1,1,0,0,1,1,0,1416,4263
2024/05/18 19:07:29,18.5,50.8,47.1,21.8,49.9,52.0,0,1,1,0,0,1,1,0,1416,4264
2024/05/18 19:09:27,18.4,52.7,48.4,21.8,50.0,52.0,0,1,1,0,0,1,1,0,1416,4265
2024/05/18 19:11:25,18.2,53.7,49.2,21.8,50.4,52.0,0,1,1,0,0,1,1,0,1416,4266
2024/05/18 19:13:24,18.1,54.5,49.8,21.8,50.9,52.0,0,1,1,0,0,1,1,0,1416,4266
2024/05/18 19:15:23,17.9,55.1,50.4,22.6,51.4,52.0,0,1,1,0,0,1,1,0,1416,4267
2024/05/18 19:17:21,17.7,55.8,50.9,22.6,51.9,52.0,0,1,1,0,0,1,1,0,1416,4268
2024/05/18 19:19:21,17.6,47.9,44.7,22.6,52.4,52.0,0,0,0,0,1,0,1,0,1416,4268
2024/05/18 19:21:19,17.4,46.3,43.7,22.6,52.7,52.0,0,0,0,0,1,0,0,0,1416,4268
2024/05/18 19:23:16,17.2,45.2,42.9,22.6,52.7,52.0,0,0,0,0,1,0,0,0,1416,4268
2024/05/18 19:25:14,17.1,44.7,42.4,22.6,52.7,52.0,0,0,0,0,1,0,0,0,1416,4268
2024/05/18 19:27:13,16.9,44.3,42.0,22.6,52.7,52.0,0,0,0,0,1,0,0,0,1416,4268
2024/05/18 19:29:12,16.8,45.3,43.7,23.5,52.6,52.0,0,0,0,0,1,0,1,0,1416,4268
2024/05/18 19:31:11,16.6,45.4,43.9,23.5,52.5,52.0,0,0,0,0,1,0,1,0,1416,4268
2024/05/18 19:33:10,16.4,45.0,43.4,23.5,52.4,52.0,0,0,0,0,1,0,0,0,1416,4268
2024/05/18 19:35:09,16.2,44.4,42.8,23.5,52.3,52.0,0,0,0,0,1,0,0,0,1416,4268
2024/05/18 19:37:08,16.1,44.1,42.3,23.5,52.3,52.0,0,0,0,0,1,0,0,0,1416,4268
2024/05/18 19:39:06,15.9,43.8,42.0,23.5,52.2,52.0,0,0,0,0,1,0,0,0,1416,4268
2024/05/18 19:41:06,15.8,44.7,43.4,24.4,52.2,52.0,0,0,0,0,1,0,1,0,1416,4268
2024/05/18 19:43:04,15.7,44.9,43.7,24.4,52.1,52.0,0,0,0,0,1,0,1,0,1416,4268
2024/05/18 19:45:03,15.7,44.5,43.1,24.4,52.1,52.0,0,0,0,0,1,0,0,0,1416,4268
2024/05/18 19:48:02,15.6,44.0,42.5,24.4,52.0,52.0,0,0,0,0,1,0,0,0,1416,4268
2024/05/18 19:50:00,15.6,43.7,42.0,24.4,52.0,52.0,0,0,0,0,1,0,0,0,1416,4268
2024/05/18 19:52:00,15.5,43.4,41.7,24.4,51.9,52.0,0,0,0,0,1,0,0,0,1416,4268
2024/05/18 19:53:59,15.5,43.2,41.4,24.4,51.8,52.0,0,0,0,0,1,0,0,0,1416,4268
2024/05/18 19:55:57,15.4,43.0,41.2,24.4,51.8,52.0,0,0,0,0,1,0,0,0,1416,4268
2024/05/18 19:57:56,15.4,42.9,40.9,24.4,51.7,52.0,0,0,0,0,1,0,0,0,1416,4268
2024/05/18 19:59:55,15.4,42.8,40.7,24.4,51.7,52.0,0,0,0,0,1,0,0,0,1416,4268
2024/05/18 20:01:54,15.4,42.7,40.4,24.4,51.6,52.0,0,0,0,0,1,0,0,0,1416,4268
2024/05/18 20:03:53,15.3,42.6,40.2,24.4,51.5,52.0,0,0,0,0,1,0,0,0,1416,4268
2024/05/18 20:05:51,15.3,42.5,40.0,24.4,51.5,52.0,0,0,0,0,1,0,0,0,1416,4268
2024/05/18 20:07:51,15.3,42.4,39.8,24.4,51.4,52.0,0,0,0,0,1,0,0,0,1416,4268
2024/05/18 20:09:50,15.3,42.4,39.6,24.4,51.4,52.0,0,0,0,0,1,0,0,0,1416,4268
2024/05/18 20:11:48,15.2,42.3,39.4,24.4,51.3,52.0,0,0,0,0,1,0,0,0,1416,4268
2024/05/18 20:13:48,15.2,42.3,39.3,24.4,51.2,52.0,0,0,0,0,1,0,0,0,1416,4268
2024/05/18 20:15:45,15.2,42.2,39.1,24.4,51.2,52.0,0,0,0,0,1,0,0,0,1416,4268
2024/05/18 20:17:44,15.2,42.2,38.9,24.4,51.1,52.0,0,0,0,0,1,0,0,0,1416,4268
2024/05/18 20:19:43,15.1,42.1,38.7,24.4,51.1,52.0,0,0,0,0,1,0,0,0,1416,4268
2024/05/18 20:21:41,15.1,42.1,38.5,24.4,51.0,52.0,0,0,0,0,1,0,0,0,1416,4268
2024/05/18 20:23:40,15.1,42.0,38.3,24.4,50.9,52.0,0,0,0,0,1,0,0,0,1416,4268
2024/05/18 20:25:39,15.1,42.0,38.1,24.4,50.9,52.0,0,0,0,0,1,0,0,0,1416,4268
2024/05/18 20:27:38,15.0,41.9,37.9,24.4,50.8,52.0,0,0,0,0,1,0,0,0,1416,4268
2024/05/18 20:29:38,15.0,41.9,37.8,24.4,50.8,52.0,0,0,0,0,1,0,0,0,1416,4268
2024/05/18 20:31:37,15.0,41.8,37.6,24.4,50.7,52.0,0,0,0,0,1,0,0,0,1416,4268
2024/05/18 20:33:36,14.9,41.7,37.4,25.2,50.7,52.0,0,0,0,0,1,0,0,0,1416,4268
2024/05/18 20:35:35,14.9,41.6,37.2,25.2,50.6,52.0,0,0,0,0,1,0,0,0,1416,4268
2024/05/18 20:37:34,14.9,41.6,37.1,25.2,50.5,52.0,0,0,0,0,1,0,0,0,1416,4268
2024/05/18 20:39:33,14.9,41.5,36.9,25.2,50.5,52.0,0,0,0,0,1,0,0,0,1416,4268
2024/05/18 20:41:32,14.8,41.4,36.7,25.2,50.4,52.0,0,0,0,0,1,0,0,0,1416,4268
2024/05/18 20:43:32,14.8,41.3,36.6,25.2,50.4,52.0,0,0,0,0,1,0,0,0,1416,4268
2024/05/18 20:45:30,14.8,41.2,36.4,25.2,50.3,52.0,0,0,0,0,1,0,0,0,1416,4268
2024/05/18 20:47:29,14.7,41.1,36.2,25.2,50.2,52.0,0,0,0,0,1,0,0,0,1416,4268
2024/05/18 20:49:28,14.7,41.0,36.1,25.2,50.2,52.0,0,0,0,0,1,0,0,0,1416,4268
2024/05/18 20:51:26,14.7,40.9,35.9,25.2,50.1,52.0,0,0,0,0,1,0,0,0,1416,4268
2024/05/18 20:53:25,14.6,40.8,35.8,25.2,50.1,52.0,0,0,0,0,1,0,0,0,1416,4268
2024/05/18 20:55:23,14.6,40.7,35.6,25.2,50.0,52.0,0,0,0,0,1,0,0,0,1416,4268
2024/05/18 20:57:22,14.5,40.7,35.5,25.2,50.0,52.0,0,0,0,0,1,0,0,0,1416,4268
2024/05/18 20:59:21,14.5,40.6,35.3,25.2,49.9,52.0,0,0,0,0,1,0,0,0,1416,4268
2024/05/18 21:01:19,14.5,40.4,35.2,25.2,49.9,52.0,0,0,0,0,1,0,0,0,1416,4268
2024/05/18 21:03:18,14.4,40.4,35.0,25.2,49.8,52.0,0,0,0,0,1,0,0,0,1416,4268
2024/05/18 21:05:16,14.4,40.3,34.9,25.2,49.7,52.0,0,0,0,0,1,0,0,0,1416,4268
2024/05/18 21:07:15,14.3,40.2,34.8,25.2,49.7,52.0,0,0,0,0,1,0,0,0,1416,4268
2024/05/18 21:09:15,14.3,40.1,34.7,25.2,49.6,52.0,0,0,0,0,1,0,0,0,1416,4268
2024/05/18 21:11:14,14.2,40.0,34.6,25.2,49.6,52.0,0,0,0,0,1,0,0,0,1416,4268
2024/05/18 21:13:12,14.2,39.9,34.5,25.2,49.5,52.0,0,0,0,0,1,0,0,0,1416,4268
2024/05/18 21:15:11,14.2,39.8,34.3,25.2,49.5,52.0,0,0,0,0,1,0,0,0,1416,4268
2024/05/18 21:17:11,14.1,39.8,34.2,25.2,49.4,52.0,0,0,0,0,1,0,0,0,1416,4268
2024/05/18 21:19:09,14.1,39.7,34.1,25.2,49.4,52.0,0,0,0,0,1,0,0,0,1416,4268
2024/05/18 21:21:08,14.1,39.6,34.0,25.2,49.3,52.0,0,0,0,0,1,0,0,0,1416,4268
2024/05/18 21:23:06,14.1,39.5,33.9,25.2,49.3,52.0,0,0,0,0,1,0,0,0,1416,4268
2024/05/18 21:25:05,14.0,39.4,33.8,25.2,49.2,52.0,0,0,0,0,1,0,0,0,1416,4268
2024/05/18 21:27:04,14.0,39.4,33.7,25.2,49.2,52.0,0,0,0,0,1,0,0,0,1416,4268
2024/05/18 21:29:02,13.9,39.3,33.6,25.2,49.1,52.0,0,0,0,0,1,0,0,0,1416,4268
2024/05/18 21:32:00,13.9,40.1,38.5,26.1,49.1,52.0,0,0,0,0,1,0,1,0,1416,4268
2024/05/18 21:34:00,13.9,42.5,41.4,26.1,49.0,52.0,0,0,0,0,1,0,1,0,1416,4268
2024/05/18 21:35:58,13.8,42.8,41.5,26.1,49.0,52.0,0,0,0,0,1,0,0,0,1416,4268
2024/05/18 21:37:57,13.8,42.3,41.0,26.1,48.9,52.0,0,0,0,0,1,0,0,0,1416,4268
2024/05/18 21:39:56,13.8,42.0,40.6,26.1,48.9,52.0,0,0,0,0,1,0,0,0,1416,4268
2024/05/18 21:41:55,13.7,41.8,40.3,26.1,48.8,52.0,0,0,0,0,1,0,0,0,1416,4268
2024/05/18 21:43:54,13.7,41.7,40.1,26.1,48.7,52.0,0,0,0,0,1,0,0,0,1416,4268
2024/05/18 21:45:53,13.7,41.5,39.9,26.1,48.7,52.0,0,0,0,0,1,0,0,0,1416,4268
2024/05/18 21:47:52,13.6,41.4,39.7,26.1,48.6,52.0,0,0,0,0,1,0,0,0,1416,4268
2024/05/18 21:49:51,13.5,41.3,39.5,26.1,48.6,52.0,0,0,0,0,1,0,0,0,1416,4268
2024/05/18 21:51:50,13.5,41.2,39.3,26.1,48.5,52.0,0,0,0,0,1,0,0,0,1416,4268
2024/05/18 21:53:49,13.4,41.1,39.1,26.1,48.5,52.0,0,0,0,0,1,0,0,0,1416,4268
2024/05/18 21:55:48,13.4,41.1,38.9,26.1,48.4,52.0,0,0,0,0,1,0,0,0,1416,4268
2024/05/18 21:57:47,13.3,41.0,38.7,26.1,48.4,52.0,0,0,0,0,1,0,0,0,1416,4268
2024/05/18 21:59:46,13.3,41.0,38.5,26.1,48.3,52.0,0,0,0,0,1,0,0,0,1416,4268
2024/05/18 22:01:45,13.2,40.9,38.4,26.1,48.3,52.0,0,0,0,0,1,0,0,0,1416,4268
2024/05/18 22:03:44,13.2,40.9,38.2,26.1,48.2,52.0,0,0,0,0,1,0,0,0,1416,4268
2024/05/18 22:05:43,13.1,40.8,38.0,26.1,48.2,52.0,0,0,0,0,1,0,0,0,1416,4268
2024/05/18 22:07:42,13.1,40.8,37.8,26.1,48.2,52.0,0,0,0,0,1,0,0,0,1416,4268
2024/05/18 22:09:40,13.0,40.7,37.7,26.1,48.2,52.0,0,0,0,0,1,0,0,0,1416,4268
2024/05/18 22:11:39,13.0,40.7,37.5,26.1,48.2,52.0,0,0,0,0,1,0,0,0,1416,4268
2024/05/18 22:13:36,12.9,40.7,37.3,26.9,48.2,52.0,0,0,0,0,1,0,0,0,1416,4268
2024/05/18 22:15:35,12.9,40.6,37.1,26.9,48.2,52.0,0,0,0,0,1,0,0,0,1416,4268
2024/05/18 22:17:34,12.8,40.6,36.9,26.9,48.2,52.0,0,0,0,0,1,0,0,0,1416,4268
2024/05/18 22:19:33,12.8,40.5,36.8,26.9,48.2,52.0,0,0,0,0,1,0,0,0,1416,4268
2024/05/18 22:21:32,12.7,40.4,36.6,26.9,48.2,52.0,0,0,0,0,1,0,0,0,1416,4268
2024/05/18 22:23:30,12.7,40.3,36.4,26.9,48.2,52.0,0,0,0,0,1,0,0,0,1416,4268
2024/05/18 22:25:29,12.7,40.3,36.3,26.9,48.2,52.0,0,0,0,0,1,0,0,0,1416,4268
2024/05/18 22:27:29,12.7,40.2,36.1,26.9,48.2,52.0,0,0,0,0,1,0,0,0,1416,4268
2024/05/18 22:29:27,12.6,40.1,35.9,26.9,48.2,40.0,0,0,0,0,1,0,0,0,1416,4268
2024/05/18 22:31:26,12.6,40.0,35.8,26.9,48.2,40.0,0,0,0,0,1,0,0,0,1416,4268
2024/05/18 22:33:24,12.6,40.0,35.6,26.9,48.2,40.0,0,0,0,0,1,0,0,0,1416,4268
2024/05/18 22:35:23,12.6,39.9,35.4,26.9,48.1,40.0,0,0,0,0,1,0,0,0,1416,4268
2024/05/18 22:37:22,12.6,39.8,35.3,26.9,48.1,40.0,0,0,0,0,1,0,0,0,1416,4268
2024/05/18 22:39:20,12.5,39.7,35.1,26.9,48.1,40.0,0,0,0,0,1,0,0,0,1416,4268
2024/05/18 22:41:19,12.5,39.7,35.0,26.9,48.1,40.0,0,0,0,0,1,0,0,0,1416,4268
2024/05/18 22:43:17,12.5,39.6,34.8,26.9,48.1,40.0,0,0,0,0,1,0,0,0,1416,4268
2024/05/18 22:45:17,12.5,39.5,34.7,26.9,48.1,40.0,0,0,0,0,1,0,0,0,1416,4268
2024/05/18 22:47:16,12.5,39.5,34.6,26.9,48.1,40.0,0,0,0,0,1,0,0,0,1416,4268
2024/05/18 22:49:15,12.5,39.4,34.5,26.9,48.1,40.0,0,0,0,0,1,0,0,0,1416,4268
2024/05/18 22:51:13,12.4,39.3,34.4,26.9,48.1,40.0,0,0,0,0,1,0,0,0,1416,4268
2024/05/18 22:53:12,12.4,39.2,34.2,26.9,48.1,40.0,0,0,0,0,1,0,0,0,1416,4268
2024/05/18 22:55:08,12.4,39.2,34.1,26.9,48.1,40.0,0,0,0,0,1,0,0,0,1416,4268
2024/05/18 22:57:06,12.4,39.1,34.0,26.9,48.1,40.0,0,0,0,0,1,0,0,0,1416,4268
2024/05/18 22:59:06,12.4,39.0,33.9,26.9,48.0,40.0,0,0,0,0,1,0,0,0,1416,4268
2024/05/18 23:01:04,12.3,38.9,33.8,26.9,48.0,40.0,0,0,0,0,1,0,0,0,1416,4268
2024/05/18 23:03:03,12.3,38.8,33.7,26.9,48.0,40.0,0,0,0,0,1,0,0,0,1416,4268
2024/05/18 23:05:03,12.2,38.8,33.5,26.9,48.0,40.0,0,0,0,0,1,0,0,0,1416,4268
2024/05/18 23:07:02,12.2,38.7,33.4,26.9,48.0,40.0,0,0,0,0,1,0,0,0,1416,4268
2024/05/18 23:10:01,12.2,38.6,33.3,26.9,48.0,40.0,0,0,0,0,1,0,0,0,1416,4268
2024/05/18 23:12:00,12.1,38.5,33.2,26.9,48.0,40.0,0,0,0,0,1,0,0,0,1416,4268
2024/05/18 23:13:57,12.1,38.5,33.1,26.9,48.0,40.0,0,0,0,0,1,0,0,0,1416,4268
2024/05/18 23:15:55,12.0,38.4,33.0,26.9,48.0,40.0,0,0,0,0,1,0,0,0,1416,4268
2024/05/18 23:17:54,12.0,38.3,32.9,26.9,48.0,40.0,0,0,0,0,1,0,0,0,1416,4268
2024/05/18 23:19:53,12.0,38.2,32.8,26.9,48.0,40.0,0,0,0,0,1,0,0,0,1416,4268
2024/05/18 23:21:51,11.9,38.2,32.7,27.6,47.9,40.0,0,0,0,0,1,0,0,0,1416,4268
2024/05/18 23:23:50,11.9,38.1,32.6,27.6,47.9,40.0,0,0,0,0,1,0,0,0,1416,4268
2024/05/18 23:25:49,11.9,38.0,32.5,27.6,47.9,40.0,0,0,0,0,1,0,0,0,1416,4268
2024/05/18 23:27:45,11.9,38.0,32.4,27.6,47.9,40.0,0,0,0,0,1,0,0,0,1416,4268
2024/05/18 23:29:43,11.8,37.9,32.3,27.6,47.9,40.0,0,0,0,0,1,0,0,0,1416,4268
2024/05/18 23:31:43,11.8,37.8,32.2,27.6,47.9,40.0,0,0,0,0,1,0,0,0,1416,4268
2024/05/18 23:33:41,11.8,37.7,32.1,27.6,47.9,40.0,0,0,0,0,1,0,0,0,1416,4268
2024/05/18 23:35:40,11.8,37.7,32.0,27.6,47.9,40.0,0,0,0,0,1,0,0,0,1416,4268
2024/05/18 23:37:39,11.8,37.6,31.9,27.6,47.9,40.0,0,0,0,0,1,0,0,0,1416,4268
2024/05/18 23:39:37,11.7,37.5,31.8,27.6,47.8,40.0,0,0,0,0,1,0,0,0,1416,4268
2024/05/18 23:41:36,11.7,37.4,31.7,27.6,47.8,40.0,0,0,0,0,1,0,0,0,1416,4268
2024/05/18 23:43:34,11.7,37.4,31.7,27.6,47.8,40.0,0,0,0,0,1,0,0,0,1416,4268
2024/05/18 23:45:33,11.7,37.3,31.6,27.6,47.8,40.0,0,0,0,0,1,0,0,0,1416,4268
2024/05/18 23:47:30,11.7,37.2,31.5,27.6,47.8,40.0,0,0,0,0,1,0,0,0,1416,4268
2024/05/18 23:49:29,11.7,37.2,31.4,27.6,47.8,40.0,0,0,0,0,1,0,0,0,1416,4268
2024/05/18 23:51:28,11.7,37.1,31.3,27.6,47.7,40.0,0,0,0,0,1,0,0,0,1416,4268
2024/05/18 23:53:24,11.7,37.0,31.2,27.6,47.7,40.0,0,0,0,0,1,0,0,0,1416,4268
2024/05/18 23:55:24,11.7,36.9,31.2,27.6,47.7,40.0,0,0,0,0,1,0,0,0,1416,4268
2024/05/18 23:57:22,11.6,36.9,31.1,27.6,47.7,40.0,0,0,0,0,1,0,0,0,1416,4268
2024/05/18 23:59:19,11.6,36.8,31.0,27.6,47.7,40.0,0,0,0,0,1,0,0,0,1416,4268
