Type,Analog,Analog,Analog,Analog,Analog,Analog,Digital,Digital,Digital,Digital,Digital,Digital,Digital,Digital,Integer,Integer
Index,1,5,2,53,3,58,41,42,43,44,45,46,49,50,95,98
Name,R1,R9,R2,R2 Solltemperatur,R3,R3 Solltemperatur,M1,M3,M2/M11,E10,M13,M18,M16,E9,Waermemenge Heizen,Waermemenge Warmwasser
Description,Variable 1,Variable 2,Variable 3,Variable 4,Variable 5,Variable 6,Variable 7,Variable 8,Variable 9,Variable 10,Variable 11,Variable 12,Variable 13,Variable 14,Variable 15,Variable 16
2024/11/24 00:01:18,-2.0,38.5,30.7,36.6,52.8,40.0,0,0,0,0,1,0,0,0,9463,5611
2024/11/24 00:03:18,-2.0,38.4,30.3,36.6,52.8,40.0,0,0,0,0,1,0,0,0,9463,5611
2024/11/24 00:05:16,-2.0,38.4,29.9,36.6,52.8,40.0,0,0,0,0,1,0,0,0,9463,5611
2024/11/24 00:07:15,-2.0,38.3,29.6,36.6,52.8,40.0,0,0,0,0,1,0,0,0,9463,5611
2024/11/24 00:09:13,-2.0,38.3,29.3,36.6,52.7,40.0,0,0,0,0,1,0,0,0,9463,5611
2024/11/24 00:11:13,-1.9,38.2,29.0,36.0,52.7,40.0,0,0,0,0,1,0,0,0,9463,5611
2024/11/24 00:13:12,-1.9,38.2,28.7,36.0,52.7,40.0,0,0,0,0,1,0,0,0,9463,5611
2024/11/24 00:15:11,-1.8,38.1,28.5,36.0,52.7,40.0,0,0,0,0,1,0,0,0,9463,5611
2024/11/24 00:17:10,-1.8,38.1,28.2,36.0,52.6,40.0,0,0,0,0,1,0,0,0,9463,5611
2024/11/24 00:19:08,-1.8,38.0,28.0,36.0,52.6,40.0,0,0,0,0,1,0,0,0,9463,5611
2024/11/24 00:21:06,-1.7,37.9,27.8,36.0,52.6,40.0,0,0,0,0,1,0,0,0,9463,5611
2024/11/24 00:23:05,-1.7,37.9,27.5,36.0,52.5,40.0,0,0,0,0,1,0,0,0,9463,5611
2024/11/24 00:25:04,-1.7,37.8,27.3,36.0,52.5,40.0,0,0,0,0,1,0,0,0,9463,5611
2024/11/24 00:27:04,-1.7,33.1,31.1,36.0,52.5,40.0,0,0,1,0,1,0,1,0,9463,5611
2024/11/24 00:29:03,-1.7,34.2,31.1,36.0,52.5,40.0,0,1,1,0,1,0,1,0,9464,5611
2024/11/24 00:31:02,-1.7,35.0,30.9,36.0,52.4,40.0,0,1,1,0,1,0,1,0,9465,5611
2024/11/24 00:33:01,-1.7,35.0,30.8,36.0,52.4,40.0,0,1,1,0,1,0,1,0,9465,5611
2024/11/24 00:35:00,-1.7,35.1,30.8,36.0,52.4,40.0,0,1,1,0,1,0,1,0,9466,5611
2024/11/24 00:36:59,-1.7,35.1,30.8,36.0,52.4,40.0,0,1,1,0,1,0,1,0,9467,5611
2024/11/24 00:38:58,-1.6,35.3,31.0,36.0,52.3,40.0,0,1,1,0,1,0,1,0,9468,5611
2024/11/24 00:40:56,-1.6,35.6,31.2,36.0,52.3,40.0,0,1,1,0,1,0,1,0,9469,5611
2024/11/24 00:42:56,-1.5,35.8,31.3,36.0,52.3,40.0,0,1,1,0,1,0,1,0,9469,5611
2024/11/24 00:44:55,-1.4,36.0,31.5,36.0,52.3,40.0,0,1,1,0,1,0,1,0,9470,5611
2024/11/24 00:46:53,-1.4,36.1,31.6,36.0,52.2,40.0,0,1,1,0,1,0,1,0,9471,5611
2024/11/24 00:48:53,-1.3,37.8,31.9,36.0,52.2,40.0,1,1,1,0,1,0,1,0,9472,5611
2024/11/24 00:50:52,-1.3,38.3,32.1,36.0,52.2,40.0,1,1,1,0,1,0,1,0,9474,5611
2024/11/24 00:52:52,-1.3,38.7,32.5,36.0,52.2,40.0,1,1,1,0,1,0,1,0,9475,5611
2024/11/24 00:54:51,-1.2,39.0,32.7,36.0,52.1,40.0,1,1,1,0,1,0,1,0,9476,5611
2024/11/24 00:56:49,-1.2,39.4,33.1,36.0,52.1,40.0,1,1,1,0,1,0,1,0,9478,5611
2024/11/24 00:58:47,-1.2,39.9,33.6,36.0,52.1,40.0,1,1,1,0,1,0,1,0,9479,5611
2024/11/24 01:00:46,-1.1,40.5,34.2,36.0,52.1,40.0,1,1,1,0,1,0,1,0,9480,5611
2024/11/24 01:02:45,-1.1,41.0,34.6,36.0,52.0,40.0,1,1,1,0,1,0,1,0,9482,5611
2024/11/24 01:04:43,-1.1,41.4,34.9,36.0,52.0,40.0,1,1,1,0,1,0,1,0,9483,5611
2024/11/24 01:06:42,-1.1,42.0,35.5,36.0,52.0,40.0,1,1,1,0,1,0,1,0,9484,5611
2024/11/24 01:08:41,-1.0,42.4,35.9,36.0,51.9,40.0,1,1,1,0,1,0,1,0,9486,5611
2024/11/24 01:10:40,-1.0,42.8,36.4,36.0,51.9,40.0,1,1,1,0,1,0,1,0,9487,5611
2024/11/24 01:12:38,-1.0,43.4,36.9,36.0,51.9,40.0,1,1,1,0,1,0,1,0,9489,5611
2024/11/24 01:14:37,-1.0,43.7,37.3,36.0,51.9,40.0,1,1,1,0,1,0,1,0,9490,5611
2024/11/24 01:16:36,-1.0,44.2,37.8,36.0,51.8,40.0,1,1,1,0,1,0,1,0,9491,5611
2024/11/24 01:18:35,-1.0,43.0,38.1,36.0,51.8,40.0,1,0,1,0,1,0,1,0,9492,5611
2024/11/24 01:20:34,-1.0,43.2,38.3,36.0,51.8,40.0,1,0,1,0,1,0,1,0,9493,5611
2024/11/24 01:22:33,-1.0,43.2,38.4,36.0,51.8,40.0,1,0,1,0,1,0,1,0,9493,5611
2024/11/24 01:24:33,-1.0,43.4,38.7,36.0,51.7,40.0,1,0,1,0,1,0,1,0,9494,5611
2024/11/24 01:26:33,-1.0,43.5,38.7,36.0,51.7,40.0,1,0,1,0,1,0,1,0,9495,5611
2024/11/24 01:28:31,-1.0,43.6,38.9,36.0,51.7,40.0,1,0,1,0,1,0,1,0,9496,5611
2024/11/24 01:30:30,-1.0,43.7,39.1,36.0,51.7,40.0,1,0,1,0,1,0,1,0,9496,5611
2024/11/24 01:32:29,-0.9,41.8,39.1,35.4,51.6,40.0,0,0,1,0,1,0,1,0,9497,5611
2024/11/24 01:34:28,-0.9,41.2,39.3,35.4,51.6,40.0,0,0,0,0,1,0,1,0,9497,5611
2024/11/24 01:36:27,-0.9,40.6,38.7,35.4,51.6,40.0,0,0,0,0,1,0,0,0,9497,5611
2024/11/24 01:38:26,-0.9,40.1,38.2,35.4,51.6,40.0,0,0,0,0,1,0,0,0,9497,5611
2024/11/24 01:40:24,-0.9,39.8,37.9,35.4,51.5,40.0,0,0,0,0,1,0,0,0,9497,5611
2024/11/24 01:42:23,-0.9,39.5,37.5,35.4,51.5,40.0,0,0,0,0,1,0,0,0,9497,5611
2024/11/24 01:44:22,-0.9,39.3,37.2,35.4,51.5,40.0,0,0,0,0,1,0,0,0,9497,5611
2024/11/24 01:46:21,-0.9,39.2,36.9,35.4,51.4,40.0,0,0,0,0,1,0,0,0,9497,5611
2024/11/24 01:48:20,-0.9,39.0,36.5,35.4,51.4,40.0,0,0,0,0,1,0,0,0,9497,5611
2024/11/24 01:51:18,-0.9,38.9,36.1,35.4,51.4,40.0,0,0,0,0,1,0,0,0,9497,5611
2024/11/24 01:53:17,-0.9,38.8,35.7,35.4,51.4,40.0,0,0,0,0,1,0,0,0,9497,5611
2024/11/24 01:55:16,-0.8,38.7,35.1,35.4,51.3,40.0,0,0,0,0,1,0,0,0,9497,5611
2024/11/24 01:57:14,-0.8,38.6,34.7,35.4,51.3,40.0,0,0,0,0,1,0,0,0,9497,5611
2024/11/24 01:59:13,-0.8,38.5,34.3,35.4,51.3,40.0,0,0,0,0,1,0,0,0,9497,5611
2024/11/24 02:01:12,-0.8,38.5,33.8,35.4,51.3,40.0,0,0,0,0,1,0,0,0,9497,5611
2024/11/24 02:03:11,-0.8,38.4,33.4,35.4,51.2,40.0,0,0,0,0,1,0,0,0,9497,5611
2024/11/24 02:05:10,-0.8,38.4,33.0,35.4,51.2,40.0,0,0,0,0,1,0,0,0,9497,5611
2024/11/24 02:07:09,-0.8,38.3,32.5,35.4,51.2,40.0,0,0,0,0,1,0,0,0,9497,5611
2024/11/24 02:09:08,-0.7,38.2,32.1,35.4,51.2,40.0,0,0,0,0,1,0,0,0,9497,5611
2024/11/24 02:11:07,-0.7,38.2,31.7,35.4,51.1,40.0,0,0,0,0,1,0,0,0,9497,5611
2024/11/24 02:13:05,-0.7,38.1,31.3,35.4,51.1,40.0,0,0,0,0,1,0,0,0,9497,5611
2024/11/24 02:15:03,-0.7,38.1,30.9,35.4,51.1,40.0,0,0,0,0,1,0,0,0,9497,5611
2024/11/24 02:17:02,-0.7,38.0,30.6,35.4,51.1,40.0,0,0,0,0,1,0,0,0,9497,5611
2024/11/24 02:19:00,-0.6,38.0,30.2,35.4,51.0,40.0,0,0,0,0,1,0,0,0,9497,5611
2024/11/24 02:21:00,-0.6,37.9,29.9,35.4,51.0,40.0,0,0,0,0,1,0,0,0,9497,5611
2024/11/24 02:22:58,-0.6,37.9,29.6,35.4,51.0,40.0,0,0,0,0,1,0,0,0,9497,5611
2024/11/24 02:24:56,-0.6,37.8,29.4,35.4,51.0,40.0,0,0,0,0,1,0,0,0,9497,5611
2024/11/24 02:26:55,-0.6,37.8,29.1,35.4,50.9,40.0,0,0,0,0,1,0,0,0,9497,5611
2024/11/24 02:28:54,-0.6,37.7,28.9,35.4,50.9,40.0,0,0,0,0,1,0,0,0,9497,5611
2024/11/24 02:30:53,-0.6,37.6,28.6,35.4,50.9,40.0,0,0,0,0,1,0,0,0,9497,5611
2024/11/24 02:32:51,-0.6,37.6,28.4,35.4,50.9,40.0,0,0,0,0,1,0,0,0,9497,5611
2024/11/24 02:34:51,-0.6,37.5,28.1,35.4,50.8,40.0,0,0,0,0,1,0,0,0,9497,5611
2024/11/24 02:36:50,-0.6,37.5,27.9,35.4,50.8,40.0,0,0,0,0,1,0,0,0,9497,5611
2024/11/24 02:38:48,-0.6,37.4,27.6,35.4,50.8,40.0,0,0,0,0,1,0,0,0,9497,5611
2024/11/24 02:40:47,-0.6,37.3,27.4,35.4,50.8,40.0,0,0,0,0,1,0,0,0,9497,5611
2024/11/24 02:42:45,-0.6,37.3,27.2,35.4,50.7,40.0,0,0,0,0,1,0,0,0,9497,5611
2024/11/24 02:44:43,-0.6,37.2,27.0,35.4,50.7,40.0,0,0,0,0,1,0,0,0,9497,5611
2024/11/24 02:46:42,-0.6,37.1,26.8,35.4,50.7,40.0,0,0,0,0,1,0,0,0,9497,5611
2024/11/24 02:48:41,-0.6,37.1,26.7,35.4,50.6,40.0,0,0,0,0,1,0,0,0,9497,5611
2024/11/24 02:50:40,-0.6,32.3,30.3,35.4,50.6,40.0,0,0,1,0,1,0,1,0,9497,5611
2024/11/24 02:52:40,-0.6,33.6,30.3,35.4,50.6,40.0,0,1,1,0,1,0,1,0,9498,5611
2024/11/24 02:54:39,-0.6,34.5,30.3,35.4,50.6,40.0,0,1,1,0,1,0,1,0,9498,5611
2024/11/24 02:56:37,-0.6,34.5,30.2,35.4,50.5,40.0,0,1,1,0,1,0,1,0,9499,5611
2024/11/24 02:58:36,-0.5,34.5,30.2,35.4,50.5,40.0,0,1,1,0,1,0,1,0,9500,5611
2024/11/24 03:00:35,-0.5,34.6,30.2,35.4,50.5,40.0,0,1,1,0,1,0,1,0,9501,5611
2024/11/24 03:02:33,-0.5,34.7,30.2,35.4,50.5,40.0,0,1,1,0,1,0,1,0,9502,5611
2024/11/24 03:04:32,-0.5,34.8,30.3,35.4,50.5,40.0,0,1,1,0,1,0,1,0,9502,5611
2024/11/24 03:06:31,-0.5,35.0,30.5,35.4,50.4,40.0,0,1,1,0,1,0,1,0,9503,5611
2024/11/24 03:08:30,-0.5,35.1,30.6,35.4,50.4,40.0,0,1,1,0,1,0,1,0,9504,5611
2024/11/24 03:10:29,-0.4,35.3,30.8,35.4,50.4,40.0,0,1,1,0,1,0,1,0,9505,5611
2024/11/24 03:12:28,-0.4,37.1,31.2,35.4,50.3,40.0,1,1,1,0,1,0,1,0,9506,5611
2024/11/24 03:14:28,-0.4,37.6,31.4,35.4,50.3,40.0,1,1,1,0,1,0,1,0,9507,5611
2024/11/24 03:16:27,-0.3,37.9,31.6,35.4,50.3,40.0,1,1,1,0,1,0,1,0,9509,5611
2024/11/24 03:18:25,-0.3,38.3,32.0,35.4,50.3,40.0,1,1,1,0,1,0,1,0,9510,5611
2024/11/24 03:20:25,-0.3,38.8,32.6,35.4,50.2,40.0,1,1,1,0,1,0,1,0,9511,5611
2024/11/24 03:22:23,-0.3,39.4,33.0,35.4,50.2,40.0,1,1,1,0,1,0,1,0,9513,5611
2024/11/24 03:24:21,-0.3,39.8,33.5,35.4,50.2,40.0,1,1,1,0,1,0,1,0,9514,5611
2024/11/24 03:26:20,-0.2,40.3,34.0,35.4,50.2,40.0,1,1,1,0,1,0,1,0,9516,5611
2024/11/24 03:29:18,-0.2,40.9,34.4,35.4,50.1,40.0,1,1,1,0,1,0,1,0,9517,5611
2024/11/24 03:31:17,-0.2,41.3,34.8,35.4,50.1,40.0,1,1,1,0,1,0,1,0,9518,5611
2024/11/24 03:33:16,-0.2,41.9,35.4,35.4,50.1,40.0,1,1,1,0,1,0,1,0,9520,5611
2024/11/24 03:35:15,-0.2,42.3,35.8,35.4,50.1,40.0,1,1,1,0,1,0,1,0,9521,5611
2024/11/24 03:37:14,-0.2,42.8,36.3,35.4,50.0,40.0,1,1,1,0,1,0,1,0,9522,5611
2024/11/24 03:39:12,-0.2,43.3,36.8,35.4,50.0,40.0,1,1,1,0,1,0,1,0,9524,5611
2024/11/24 03:41:12,-0.2,43.6,37.2,35.4,50.0,40.0,1,1,1,0,1,0,1,0,9525,5611
2024/11/24 03:43:11,-0.2,42.6,37.6,35.4,50.0,40.0,1,0,1,0,1,0,1,0,9526,5611
2024/11/24 03:45:10,-0.2,42.7,37.7,35.4,50.0,40.0,1,0,1,0,1,0,1,0,9527,5611
2024/11/24 03:47:09,-0.2,42.7,38.0,35.4,49.9,40.0,1,0,1,0,1,0,1,0,9527,5611
2024/11/24 03:49:08,-0.2,43.0,38.2,35.4,49.9,40.0,1,0,1,0,1,0,1,0,9528,5611
2024/11/24 03:51:06,-0.2,43.1,38.4,35.4,49.9,40.0,1,0,1,0,1,0,1,0,9529,5611
2024/11/24 03:53:06,-0.2,43.2,38.5,35.4,49.9,40.0,1,0,1,0,1,0,1,0,9530,5611
2024/11/24 03:55:04,-0.2,43.3,38.7,35.4,49.9,40.0,1,0,1,0,1,0,1,0,9530,5611
2024/11/24 03:57:03,-0.1,41.7,38.8,35.4,49.8,40.0,0,0,1,0,1,0,1,0,9531,5611
2024/11/24 03:59:03,-0.1,41.1,39.2,35.4,49.8,40.0,0,0,0,0,1,0,1,0,9531,5611
2024/11/24 04:01:03,-0.1,40.5,38.5,35.4,49.8,40.0,0,0,0,0,1,0,0,0,9531,5611
2024/11/24 04:03:02,-0.1,40.0,38.0,35.4,49.8,40.0,0,0,0,0,1,0,0,0,9531,5611
2024/11/24 04:05:00,-0.1,39.7,37.6,35.4,49.8,40.0,0,0,0,0,1,0,0,0,9531,5611
2024/11/24 04:07:00,-0.1,39.4,37.3,35.4,49.7,40.0,0,0,0,0,1,0,0,0,9531,5611
2024/11/24 04:09:00,-0.1,39.2,37.0,35.4,49.7,40.0,0,0,0,0,1,0,0,0,9531,5611
2024/11/24 04:10:59,-0.1,39.0,36.6,35.4,49.7,40.0,0,0,0,0,1,0,0,0,9531,5611
2024/11/24 04:12:58,0.0,38.9,36.3,35.4,49.7,40.0,0,0,0,0,1,0,0,0,9531,5611
2024/11/24 04:14:57,0.0,38.8,35.9,35.4,49.7,40.0,0,0,0,0,1,0,0,0,9531,5611
2024/11/24 04:16:55,0.0,38.7,35.5,35.4,49.6,40.0,0,0,0,0,1,0,0,0,9531,5611
2024/11/24 04:18:53,0.0,38.6,35.0,35.4,49.6,40.0,0,0,0,0,1,0,0,0,9531,5611
2024/11/24 04:20:52,0.1,38.5,34.6,35.4,49.6,40.0,0,0,0,0,1,0,0,0,9531,5611
2024/11/24 04:22:51,0.1,38.4,34.2,35.4,49.6,40.0,0,0,0,0,1,0,0,0,9531,5611
2024/11/24 04:24:50,0.2,38.4,33.8,35.4,49.5,40.0,0,0,0,0,1,0,0,0,9531,5611
2024/11/24 04:26:49,0.2,38.3,33.4,35.4,49.5,40.0,0,0,0,0,1,0,0,0,9531,5611
2024/11/24 04:28:48,0.2,38.2,33.0,35.4,49.5,40.0,0,0,0,0,1,0,0,0,9531,5611
2024/11/24 04:30:47,0.2,38.2,32.6,35.4,49.5,40.0,0,0,0,0,1,0,0,0,9531,5611
2024/11/24 04:32:46,0.2,38.1,32.2,35.4,49.5,40.0,0,0,0,0,1,0,0,0,9531,5611
2024/11/24 04:34:45,0.2,38.0,31.8,35.4,49.4,40.0,0,0,0,0,1,0,0,0,9531,5611
2024/11/24 04:36:44,0.2,38.0,31.4,35.4,49.4,40.0,0,0,0,0,1,0,0,0,9531,5611
2024/11/24 04:38:43,0.2,37.9,31.0,35.4,49.4,40.0,0,0,0,0,1,0,0,0,9531,5611
2024/11/24 04:40:42,0.2,37.9,30.7,35.4,49.4,40.0,0,0,0,0,1,0,0,0,9531,5611
2024/11/24 04:42:40,0.2,37.8,30.3,35.4,49.4,40.0,0,0,0,0,1,0,0,0,9531,5611
2024/11/24 04:44:38,0.2,37.8,30.0,35.4,49.3,40.0,0,0,0,0,1,0,0,0,9531,5611
2024/11/24 04:46:38,0.2,37.7,29.7,35.4,49.3,40.0,0,0,0,0,1,0,0,0,9531,5611
2024/11/24 04:48:37,0.2,37.6,29.5,35.4,49.3,40.0,0,0,0,0,1,0,0,0,9531,5611
2024/11/24 04:50:35,0.2,37.6,29.2,35.4,49.3,40.0,0,0,0,0,1,0,0,0,9531,5611
2024/11/24 04:52:34,0.2,37.5,28.9,35.4,49.3,40.0,0,0,0,0,1,0,0,0,9531,5611
2024/11/24 04:54:33,0.3,37.5,28.7,35.4,49.2,40.0,0,0,0,0,1,0,0,0,9531,5611
2024/11/24 04:56:33,0.3,37.4,28.4,35.4,49.2,40.0,0,0,0,0,1,0,0,0,9531,5611
2024/11/24 04:58:31,0.3,37.3,28.2,35.4,49.2,40.0,0,0,0,0,1,0,0,0,9531,5611
2024/11/24 05:00:29,0.4,37.3,27.9,35.4,49.2,40.0,0,0,0,0,1,0,0,0,9531,5611
2024/11/24 05:02:29,0.4,37.2,27.7,35.4,49.2,40.0,0,0,0,0,1,0,0,0,9531,5611
2024/11/24 05:04:27,0.5,37.2,27.4,35.4,49.1,40.0,0,0,0,0,1,0,0,0,9531,5611
2024/11/24 05:06:26,0.5,36.4,31.5,35.4,49.1,40.0,0,0,0,0,1,0,1,0,9531,5611
2024/11/24 05:08:25,0.5,32.7,30.8,35.4,49.1,40.0,0,1,1,0,1,0,1,0,9531,5611
2024/11/24 05:10:24,0.5,34.6,30.8,35.4,49.1,40.0,0,1,1,0,1,0,1,0,9532,5611
2024/11/24 05:12:24,0.5,34.9,30.7,35.4,49.1,40.0,0,1,1,0,1,0,1,0,9533,5611
2024/11/24 05:14:23,0.5,34.9,30.6,35.4,49.0,40.0,0,1,1,0,1,0,1,0,9533,5611
2024/11/24 05:16:23,0.5,34.9,30.5,35.4,49.0,52.0,0,1,1,0,1,0,1,0,9534,5611
2024/11/24 05:18:22,0.5,35.0,30.7,35.4,49.0,52.0,0,1,1,0,1,0,1,0,9535,5611
2024/11/24 05:20:21,0.5,35.2,30.8,35.4,49.0,52.0,0,1,1,0,1,0,1,0,9536,5611
2024/11/24 05:22:21,0.5,35.5,31.1,35.4,49.0,52.0,0,1,1,0,1,0,1,0,9537,5611
2024/11/24 05:24:20,0.5,35.7,31.3,35.4,48.9,52.0,0,1,1,0,1,0,1,0,9537,5611
2024/11/24 05:27:18,0.5,35.9,31.4,35.4,48.9,52.0,0,1,1,0,1,0,1,0,9538,5611
2024/11/24 05:29:18,0.6,36.0,31.5,35.4,48.9,52.0,0,1,1,0,1,0,1,0,9539,5611
2024/11/24 05:31:17,0.6,36.2,31.6,35.4,48.7,52.0,1,1,1,0,1,0,1,0,9540,5611
2024/11/24 05:33:16,0.6,37.9,32.0,35.4,48.2,52.0,1,1,1,0,1,0,1,0,9541,5611
2024/11/24 05:35:15,0.6,38.4,32.2,35.4,47.8,52.0,1,1,1,0,1,0,1,0,9543,5611
2024/11/24 05:37:14,0.6,38.7,32.5,35.4,47.4,52.0,1,1,1,0,1,0,1,0,9544,5611
2024/11/24 05:39:13,0.6,39.1,32.9,35.4,47.1,52.0,1,1,1,0,1,0,1,0,9545,5611
2024/11/24 05:41:12,0.6,39.6,33.3,35.4,46.8,52.0,1,1,1,0,1,0,1,0,9547,5611
2024/11/24 05:43:10,0.6,40.2,33.9,35.4,46.6,52.0,1,1,1,0,1,0,1,0,9548,5611
2024/11/24 05:45:09,0.6,40.7,34.2,35.4,46.4,52.0,1,1,1,0,1,0,1,0,9549,5611
2024/11/24 05:47:08,0.6,41.3,34.8,35.4,46.3,52.0,1,1,1,0,1,0,1,0,9551,5611
2024/11/24 05:49:07,0.6,41.8,35.2,35.4,46.2,52.0,1,1,1,0,1,0,1,0,9552,5611
2024/11/24 05:51:06,0.6,42.3,35.8,35.4,46.2,52.0,1,1,1,0,1,0,1,0,9553,5611
2024/11/24 05:53:04,0.6,42.7,36.3,35.4,46.1,52.0,1,1,1,0,1,0,1,0,9555,5611
2024/11/24 05:55:03,0.6,43.1,36.6,35.4,46.1,52.0,1,1,1,0,1,0,1,0,9556,5611
2024/11/24 05:57:03,0.6,43.5,37.1,35.4,46.0,52.0,1,1,1,0,1,0,1,0,9557,5611
2024/11/24 05:59:02,0.6,42.6,37.6,35.4,46.0,52.0,1,0,1,0,1,0,1,0,9558,5611
2024/11/24 06:01:01,0.6,42.7,37.8,35.4,45.9,52.0,1,0,1,0,1,0,1,0,9559,5611
2024/11/24 06:03:00,0.6,42.7,38.0,35.4,45.9,52.0,1,0,1,0,1,0,1,0,9560,5611
2024/11/24 06:04:58,0.7,42.9,38.2,35.4,45.7,52.0,1,0,1,0,1,0,1,0,9561,5611
2024/11/24 06:06:57,0.7,43.0,38.3,35.4,45.6,52.0,1,0,1,0,1,0,1,0,9561,5611
2024/11/24 06:08:56,0.7,43.2,38.5,35.4,45.6,52.0,1,0,1,0,1,0,1,0,9562,5611
2024/11/24 06:10:55,0.7,43.3,38.6,35.4,45.5,52.0,1,0,1,0,1,0,1,0,9563,5611
2024/11/24 06:12:53,0.7,43.2,38.7,35.4,45.5,52.0,0,0,1,0,1,0,1,0,9563,5611
2024/11/24 06:14:53,0.7,40.5,38.8,35.4,45.4,52.0,0,0,0,0,1,0,1,0,9563,5611
2024/11/24 06:16:53,0.6,40.6,38.6,35.4,45.3,52.0,0,0,0,0,1,0,0,0,9563,5611
2024/11/24 06:18:51,0.6,40.0,38.0,35.4,45.3,52.0,0,0,0,0,1,0,0,0,9563,5611
2024/11/24 06:20:51,0.5,39.7,37.7,35.4,45.2,52.0,0,0,0,0,1,0,0,0,9563,5611
2024/11/24 06:22:50,0.5,39.4,37.3,35.4,45.2,52.0,0,0,0,0,1,0,0,0,9563,5611
2024/11/24 06:24:48,0.5,39.2,37.0,35.4,45.1,52.0,0,0,0,0,1,0,0,0,9563,5611
2024/11/24 06:26:47,0.5,39.0,36.7,35.4,45.1,52.0,0,0,0,0,1,0,0,0,9563,5611
2024/11/24 06:28:46,0.4,38.9,36.3,35.4,45.0,52.0,0,0,0,0,1,0,0,0,9563,5611
2024/11/24 06:30:45,0.4,38.8,36.0,35.4,45.0,52.0,0,0,0,0,1,0,0,0,9563,5611
2024/11/24 06:32:43,0.4,38.7,35.6,35.4,44.9,52.0,0,0,0,0,1,0,0,0,9563,5611
2024/11/24 06:34:42,0.4,38.6,35.1,35.4,44.9,52.0,0,0,0,0,1,0,0,0,9563,5611
2024/11/24 06:36:39,0.3,38.5,34.7,35.4,44.8,52.0,0,0,0,0,1,0,0,0,9563,5611
2024/11/24 06:38:38,0.3,38.4,34.3,35.4,44.8,52.0,0,0,0,0,1,0,0,0,9563,5611
2024/11/24 06:40:36,0.3,38.3,33.9,35.4,44.7,52.0,0,0,0,0,1,0,0,0,9563,5611
2024/11/24 06:42:36,0.3,38.2,33.5,35.4,44.7,52.0,0,0,0,0,1,0,0,0,9563,5611
2024/11/24 06:44:35,0.2,38.2,33.1,35.4,44.6,52.0,0,0,0,0,1,0,0,0,9563,5611
2024/11/24 06:46:34,0.2,38.1,32.7,35.4,44.6,52.0,0,0,0,0,1,0,0,0,9563,5611
2024/11/24 06:48:33,0.1,38.1,32.3,35.4,44.5,52.0,0,0,0,0,1,0,0,0,9563,5611
2024/11/24 06:50:31,0.1,38.0,31.9,35.4,44.5,52.0,0,0,0,0,1,0,0,0,9563,5611
2024/11/24 06:52:31,0.1,37.9,31.5,35.4,44.4,52.0,0,0,0,0,1,0,0,0,9563,5611
2024/11/24 06:54:28,0.1,37.9,31.1,35.4,44.4,52.0,0,0,0,0,1,0,0,0,9563,5611
2024/11/24 06:56:27,0.1,37.8,30.8,35.4,44.3,52.0,0,0,0,0,1,0,0,0,9563,5611
2024/11/24 06:58:25,0.1,37.8,30.4,35.4,44.3,52.0,0,0,0,0,1,0,0,0,9563,5611
2024/11/24 07:00:24,0.1,37.7,30.1,35.4,44.2,52.0,0,0,0,0,1,0,0,0,9563,5611
2024/11/24 07:02:23,0.1,37.7,29.8,35.4,44.2,52.0,0,0,0,0,1,0,0,0,9563,5611
2024/11/24 07:04:22,0.1,37.6,29.5,35.4,44.1,52.0,0,0,0,0,1,0,0,0,9563,5611
2024/11/24 07:06:20,0.1,37.6,29.3,35.4,44.1,52.0,0,0,0,0,1,0,0,0,9563,5611
2024/11/24 07:09:19,0.2,38.8,37.7,35.4,44.0,52.0,0,1,1,0,0,1,1,0,9563,5612
2024/11/24 07:11:18,0.2,41.6,38.5,35.4,43.7,52.0,0,1,1,0,0,1,1,0,9563,5612
2024/11/24 07:13:17,0.2,44.9,41.1,35.4,43.6,52.0,0,1,1,0,0,1,1,0,9563,5613
2024/11/24 07:15:16,0.2,46.7,42.7,35.4,43.7,52.0,0,1,1,0,0,1,1,0,9563,5614
2024/11/24 07:17:16,0.3,47.9,43.6,35.4,44.0,52.0,0,1,1,0,0,1,1,0,9563,5615
2024/11/24 07:19:15,0.3,48.7,44.3,35.4,44.4,52.0,0,1,1,0,0,1,1,0,9563,5615
2024/11/24 07:21:13,0.3,49.2,44.6,35.4,44.9,52.0,0,1,1,0,0,1,1,0,9563,5616
2024/11/24 07:23:12,0.4,49.7,45.1,35.4,45.6,52.0,0,1,1,0,0,1,1,0,9563,5617
2024/11/24 07:25:12,0.4,50.2,45.6,35.4,46.1,52.0,0,1,1,0,0,1,1,0,9563,5617
2024/11/24 07:27:11,0.5,50.7,46.1,35.4,46.6,52.0,0,1,1,0,0,1,1,0,9563,5618
2024/11/24 07:29:10,0.5,52.9,46.6,35.4,47.2,52.0,1,1,1,0,0,1,1,0,9563,5619
2024/11/24 07:31:09,0.6,55.1,48.3,35.4,47.8,52.0,1,1,1,0,0,1,1,0,9563,5620
2024/11/24 07:33:08,0.6,56.8,49.5,35.4,48.5,52.0,1,1,1,0,0,1,1,0,9563,5621
2024/11/24 07:35:07,0.7,57.9,50.6,35.4,49.5,52.0,1,1,1,0,0,1,1,0,9563,5623
2024/11/24 07:37:06,0.7,58.8,51.7,35.4,50.4,52.0,1,1,1,0,0,1,1,0,9563,5624
2024/11/24 07:39:06,0.7,59.8,52.6,35.4,51.5,52.0,1,1,1,0,0,1,1,0,9563,5625
2024/11/24 07:41:05,0.7,58.4,50.8,35.4,52.6,52.0,1,0,1,0,1,0,1,0,9563,5626
2024/11/24 07:43:04,0.7,38.5,32.9,35.4,53.2,52.0,1,0,1,0,1,0,1,0,9564,5626
2024/11/24 07:45:02,0.7,37.2,31.8,35.4,53.4,52.0,1,0,1,0,1,0,1,0,9565,5626
2024/11/24 07:47:01,0.7,36.4,31.2,35.4,53.4,52.0,1,0,1,0,1,0,1,0,9565,5626
2024/11/24 07:49:00,0.7,35.9,31.0,35.4,53.3,52.0,1,0,1,0,1,0,1,0,9566,5626
2024/11/24 07:51:00,0.7,36.0,31.2,35.4,53.2,52.0,1,0,1,0,1,0,1,0,9567,5626
2024/11/24 07:52:59,0.7,36.0,31.4,35.4,53.1,52.0,1,0,1,0,1,0,1,0,9568,5626
2024/11/24 07:54:58,0.7,36.4,31.8,35.4,52.9,52.0,1,0,1,0,1,0,1,0,9569,5626
2024/11/24 07:56:57,0.7,36.4,31.9,35.4,52.8,52.0,1,0,1,0,1,0,1,0,9569,5626
2024/11/24 07:58:56,0.7,36.5,31.9,35.4,52.7,52.0,1,0,1,0,1,0,1,0,9570,5626
2024/11/24 08:00:56,0.7,36.5,32.0,35.4,52.6,52.0,1,0,1,0,1,0,1,0,9571,5626
2024/11/24 08:02:54,0.6,36.7,32.2,35.4,52.6,52.0,1,0,1,0,1,0,1,0,9572,5626
2024/11/24 08:04:53,0.6,36.6,32.1,35.4,52.5,52.0,1,0,1,0,1,0,1,0,9572,5626
2024/11/24 08:06:51,0.6,36.8,32.3,35.4,52.4,52.0,1,0,1,0,1,0,1,0,9573,5626
2024/11/24 08:08:50,0.6,38.3,32.5,35.4,52.4,52.0,1,1,1,0,1,0,1,0,9574,5626
2024/11/24 08:10:49,0.6,38.9,32.8,35.4,52.3,52.0,1,1,1,0,1,0,1,0,9576,5626
2024/11/24 08:12:48,0.6,39.4,33.2,35.4,52.2,52.0,1,1,1,0,1,0,1,0,9577,5626
2024/11/24 08:14:47,0.6,40.0,33.8,35.4,52.2,52.0,1,1,1,0,1,0,1,0,9578,5626
2024/11/24 08:16:46,0.7,40.6,34.2,35.4,52.1,52.0,1,1,1,0,1,0,1,0,9580,5626
2024/11/24 08:18:45,0.7,40.9,34.5,35.4,52.0,52.0,1,1,1,0,1,0,1,0,9581,5626
2024/11/24 08:20:43,0.7,41.5,35.0,35.4,52.0,52.0,1,1,1,0,1,0,1,0,9582,5626
2024/11/24 08:22:42,0.7,41.8,35.3,35.4,51.9,52.0,1,1,1,0,1,0,1,0,9584,5626
2024/11/24 08:24:40,0.7,42.3,35.9,35.4,51.8,52.0,1,1,1,0,1,0,1,0,9585,5626
2024/11/24 08:26:40,0.7,42.7,36.3,35.4,51.8,52.0,1,1,1,0,1,0,1,0,9586,5626
2024/11/24 08:28:38,0.7,43.3,36.8,35.4,51.7,52.0,1,1,1,0,1,0,1,0,9588,5626
2024/11/24 08:30:37,0.7,43.7,37.3,35.4,51.6,52.0,1,1,1,0,1,0,1,0,9589,5626
2024/11/24 08:32:36,0.7,42.5,37.6,35.4,51.6,52.0,0,1,1,0,1,0,1,0,9590,5626
2024/11/24 08:34:35,0.8,42.8,37.9,35.4,51.5,52.0,0,1,1,0,1,0,1,0,9591,5626
2024/11/24 08:36:33,0.8,42.8,38.0,35.4,51.4,52.0,0,1,1,0,1,0,1,0,9591,5626
2024/11/24 08:38:33,0.8,43.0,38.2,35.4,51.3,52.0,0,1,1,0,1,0,1,0,9592,5626
2024/11/24 08:40:31,0.9,43.0,38.3,35.4,51.3,52.0,0,1,1,0,1,0,1,0,9593,5626
2024/11/24 08:42:30,0.9,43.2,38.5,35.4,51.2,52.0,0,1,1,0,1,0,1,0,9594,5626
2024/11/24 08:44:28,0.9,43.3,38.6,35.4,51.1,52.0,0,1,1,0,1,0,1,0,9594,5626
2024/11/24 08:46:28,1.0,41.1,38.7,34.7,51.1,52.0,0,0,1,0,1,0,1,0,9595,5626
2024/11/24 08:48:27,1.0,40.7,38.8,34.7,51.0,52.0,0,0,0,0,1,0,1,0,9595,5626
2024/11/24 08:50:25,1.0,40.2,38.2,34.7,51.0,52.0,0,0,0,0,1,0,0,0,9595,5626
2024/11/24 08:52:24,1.0,39.8,37.7,34.7,50.9,52.0,0,0,0,0,1,0,0,0,9595,5626
2024/11/24 08:54:22,1.0,39.5,37.4,34.7,50.8,52.0,0,0,0,0,1,0,0,0,9595,5626
2024/11/24 08:56:21,1.0,39.3,37.1,34.7,50.7,52.0,0,0,0,0,1,0,0,0,9595,5626
2024/11/24 08:58:20,1.0,39.0,36.7,34.7,50.7,52.0,0,0,0,0,1,0,0,0,9595,5626
2024/11/24 09:01:19,1.0,38.9,36.4,34.7,50.6,52.0,0,0,0,0,1,0,0,0,9595,5626
2024/11/24 09:03:19,1.0,38.7,36.2,34.7,50.6,52.0,0,0,0,0,1,0,0,0,9595,5626
2024/11/24 09:05:18,1.1,38.6,35.9,34.7,50.5,52.0,0,0,0,0,1,0,0,0,9595,5626
2024/11/24 09:07:16,1.1,38.5,35.2,34.7,50.4,52.0,0,0,0,0,1,0,0,0,9595,5626
2024/11/24 09:09:15,1.1,38.4,34.7,34.7,50.4,52.0,0,0,0,0,1,0,0,0,9595,5626
2024/11/24 09:11:14,1.1,38.3,34.3,34.7,50.3,52.0,0,0,0,0,1,0,0,0,9595,5626
2024/11/24 09:13:12,1.2,38.2,34.0,34.7,50.2,52.0,0,0,0,0,1,0,0,0,9595,5626
2024/11/24 09:15:12,1.2,38.2,33.6,34.7,50.2,52.0,0,0,0,0,1,0,0,0,9595,5626
2024/11/24 09:17:11,1.2,38.1,33.3,34.7,50.1,52.0,0,0,0,0,1,0,0,0,9595,5626
2024/11/24 09:19:10,1.2,38.0,32.9,34.7,50.0,52.0,0,0,0,0,1,0,0,0,9595,5626
2024/11/24 09:21:09,1.3,38.0,32.6,34.7,50.0,52.0,0,0,0,0,1,0,0,0,9595,5626
2024/11/24 09:23:07,1.3,37.9,32.2,34.7,49.9,52.0,0,0,0,0,1,0,0,0,9595,5626
2024/11/24 09:25:05,1.3,37.9,31.9,34.7,49.9,52.0,0,0,0,0,1,0,0,0,9595,5626
2024/11/24 09:27:04,1.3,37.8,31.6,34.7,49.8,52.0,0,0,0,0,1,0,0,0,9595,5626
2024/11/24 09:29:03,1.3,37.7,31.3,34.7,49.8,52.0,0,0,0,0,1,0,0,0,9595,5626
2024/11/24 09:31:02,1.4,37.7,31.1,34.7,49.7,52.0,0,0,0,0,1,0,0,0,9595,5626
2024/11/24 09:33:01,1.5,37.6,30.8,34.7,49.7,52.0,0,0,0,0,1,0,0,0,9595,5626
2024/11/24 09:35:00,1.6,37.6,30.5,34.7,49.6,52.0,0,0,0,0,1,0,0,0,9595,5626
2024/11/24 09:36:59,1.7,37.5,30.3,34.7,49.6,52.0,0,0,0,0,1,0,0,0,9595,5626
2024/11/24 09:38:58,1.8,37.5,30.0,34.7,49.5,52.0,0,0,0,0,1,0,0,0,9595,5626
2024/11/24 09:40:57,2.0,37.4,29.8,34.1,49.4,52.0,0,0,0,0,1,0,0,0,9595,5626
2024/11/24 09:42:57,2.2,37.3,29.5,34.1,49.4,52.0,0,0,0,0,1,0,0,0,9595,5626
2024/11/24 09:44:56,2.3,37.3,29.3,34.1,49.3,52.0,0,0,0,0,1,0,0,0,9595,5626
2024/11/24 09:46:56,2.5,37.2,29.1,34.1,49.3,52.0,0,0,0,0,1,0,0,0,9595,5626
2024/11/24 09:48:53,2.6,37.2,28.9,34.1,49.2,52.0,0,0,0,0,1,0,0,0,9595,5626
2024/11/24 09:50:52,2.7,37.1,28.7,34.1,49.2,52.0,0,0,0,0,1,0,0,0,9595,5626
2024/11/24 09:52:51,2.7,37.0,28.5,34.1,49.1,52.0,0,0,0,0,1,0,0,0,9595,5626
2024/11/24 09:54:49,2.8,37.0,28.3,34.1,49.1,52.0,0,0,0,0,1,0,0,0,9595,5626
2024/11/24 09:56:47,2.8,36.9,28.1,34.1,49.0,52.0,0,0,0,0,1,0,0,0,9595,5626
2024/11/24 09:58:46,2.9,36.8,27.9,34.1,49.0,52.0,0,0,0,0,1,0,0,0,9595,5626
2024/11/24 10:00:45,2.9,36.7,27.7,34.1,48.9,52.0,0,0,0,0,1,0,0,0,9595,5626
2024/11/24 10:02:45,2.9,36.7,27.6,34.1,48.9,52.0,0,0,0,0,1,0,0,0,9595,5626
2024/11/24 10:04:44,2.9,36.6,27.4,34.1,48.8,52.0,0,0,0,0,1,0,0,0,9595,5626
2024/11/24 10:06:43,2.9,36.5,27.2,34.1,48.7,52.0,0,0,0,0,1,0,0,0,9595,5626
2024/11/24 10:08:42,2.9,36.4,27.0,34.1,48.7,52.0,0,0,0,0,1,0,0,0,9595,5626
2024/11/24 10:10:41,2.9,36.3,26.9,34.1,48.6,52.0,0,0,0,0,1,0,0,0,9595,5626
2024/11/24 10:12:40,2.9,36.3,26.7,34.1,48.6,52.0,0,0,0,0,1,0,0,0,9595,5626
2024/11/24 10:14:39,2.9,36.2,26.5,34.1,48.5,52.0,0,0,0,0,1,0,0,0,9595,5626
2024/11/24 10:16:38,2.9,36.1,26.4,34.1,48.5,52.0,0,0,0,0,1,0,0,0,9595,5626
2024/11/24 10:18:37,2.9,31.1,29.3,34.1,48.4,52.0,0,0,1,0,1,0,1,0,9595,5626
2024/11/24 10:20:36,2.9,32.7,29.3,34.1,48.4,52.0,1,0,1,0,1,0,1,0,9595,5626
2024/11/24 10:22:35,3.0,33.0,29.2,33.4,48.3,52.0,1,0,1,0,1,0,1,0,9596,5626
2024/11/24 10:24:34,3.0,33.1,29.3,33.4,48.3,52.0,1,0,1,0,1,0,1,0,9597,5626
2024/11/24 10:26:33,3.1,33.5,29.5,33.4,48.2,52.0,1,0,1,0,1,0,1,0,9598,5626
2024/11/24 10:28:32,3.1,33.7,29.7,33.4,48.1,52.0,1,0,1,0,1,0,1,0,9599,5626
2024/11/24 10:30:31,3.2,33.9,29.8,33.4,48.1,52.0,1,0,1,0,1,0,1,0,9599,5626
2024/11/24 10:32:30,3.2,34.0,29.9,33.4,48.0,52.0,1,0,1,0,1,0,1,0,9600,5626
2024/11/24 10:34:29,3.2,34.5,30.1,33.4,48.0,52.0,1,0,1,0,1,0,1,0,9601,5626
2024/11/24 10:36:29,3.3,34.6,30.1,33.4,47.9,52.0,1,0,1,0,1,0,1,0,9602,5626
2024/11/24 10:38:29,3.3,34.7,30.2,33.4,47.9,52.0,1,0,1,0,1,0,1,0,9603,5626
2024/11/24 10:40:28,3.3,36.3,30.5,33.4,47.8,52.0,1,1,1,0,1,0,1,0,9604,5626
2024/11/24 10:42:27,3.3,36.8,30.6,33.4,47.7,52.0,1,1,1,0,1,0,1,0,9605,5626
2024/11/24 10:44:25,3.3,37.3,31.1,33.4,47.7,52.0,1,1,1,0,1,0,1,0,9607,5626
2024/11/24 10:46:24,3.3,38.2,31.9,33.4,47.6,52.0,1,1,1,0,1,0,1,0,9608,5626
2024/11/24 10:48:24,3.3,38.7,32.4,33.4,47.6,52.0,1,1,1,0,1,0,1,0,9610,5626
2024/11/24 10:50:23,3.3,39.1,32.8,33.4,47.5,52.0,1,1,1,0,1,0,1,0,9611,5626
2024/11/24 10:52:21,3.2,39.6,33.3,33.4,47.5,52.0,1,1,1,0,1,0,1,0,9612,5626
2024/11/24 10:55:20,3.2,40.1,33.8,33.4,47.4,52.0,1,1,1,0,1,0,1,0,9614,5626
2024/11/24 10:56:19,3.2,40.7,34.3,33.4,47.3,52.0,1,1,1,0,1,0,1,0,9615,5626
2024/11/24 10:59:18,3.2,41.2,34.7,33.4,47.3,52.0,1,1,1,0,1,0,1,0,9616,5626
2024/11/24 11:01:17,3.2,41.8,35.3,33.4,47.2,52.0,1,1,1,0,1,0,1,0,9618,5626
2024/11/24 11:03:16,3.2,40.7,35.7,33.4,47.2,52.0,0,1,1,0,1,0,1,0,9619,5626
2024/11/24 11:05:15,3.2,40.9,36.0,33.4,47.1,52.0,0,1,1,0,1,0,1,0,9619,5626
2024/11/24 11:07:14,3.2,40.9,36.2,33.4,47.0,52.0,0,1,1,0,1,0,1,0,9620,5626
2024/11/24 11:09:13,3.2,41.2,36.5,33.4,47.0,52.0,0,1,1,0,1,0,1,0,9621,5626
2024/11/24 11:11:12,3.2,41.3,36.7,33.4,46.9,52.0,0,1,1,0,1,0,1,0,9622,5626
2024/11/24 11:13:11,3.2,41.5,36.9,33.4,46.9,52.0,0,1,1,0,1,0,1,0,9622,5626
2024/11/24 11:15:10,3.2,41.7,37.0,33.4,46.8,52.0,0,1,1,0,1,0,1,0,9623,5626
2024/11/24 11:17:09,3.3,39.7,37.1,33.4,46.8,52.0,0,0,1,0,1,0,1,0,9624,5626
2024/11/24 11:19:08,3.3,39.2,37.4,33.4,46.7,52.0,0,0,0,0,1,0,1,0,9624,5626
2024/11/24 11:21:07,3.3,38.9,36.9,33.4,46.6,52.0,0,0,0,0,1,0,0,0,9624,5626
2024/11/24 11:23:06,3.4,38.5,36.4,33.4,46.6,52.0,0,0,0,0,1,0,0,0,9624,5626
2024/11/24 11:25:05,3.4,38.2,36.1,33.4,46.5,52.0,0,0,0,0,1,0,0,0,9624,5626
2024/11/24 11:27:05,3.5,37.9,35.8,33.4,46.5,52.0,0,0,0,0,1,0,0,0,9624,5626
2024/11/24 11:29:03,3.5,37.7,35.5,33.4,46.4,52.0,0,0,0,0,1,0,0,0,9624,5626
2024/11/24 11:31:02,3.6,37.5,35.1,33.4,46.3,52.0,0,0,0,0,1,0,0,0,9624,5626
2024/11/24 11:33:01,3.6,37.4,34.9,33.4,46.3,52.0,0,0,0,0,1,0,0,0,9624,5626
2024/11/24 11:35:00,3.6,37.3,34.7,33.4,46.2,52.0,0,0,0,0,1,0,0,0,9624,5626
2024/11/24 11:36:59,3.6,37.2,34.4,33.4,46.2,52.0,0,0,0,0,1,0,0,0,9624,5626
2024/11/24 11:38:58,3.6,37.0,34.1,33.4,46.1,52.0,0,0,0,0,1,0,0,0,9624,5626
2024/11/24 11:40:57,3.7,37.0,33.8,33.4,46.0,52.0,0,0,0,0,1,0,0,0,9624,5626
2024/11/24 11:42:56,3.7,36.9,33.5,33.4,46.0,52.0,0,0,0,0,1,0,0,0,9624,5626
2024/11/24 11:44:55,3.7,36.8,33.2,33.4,45.9,52.0,0,0,0,0,1,0,0,0,9624,5626
2024/11/24 11:46:54,3.7,36.7,32.9,33.4,45.9,52.0,0,0,0,0,1,0,0,0,9624,5626
2024/11/24 11:48:53,3.7,36.6,32.6,33.4,45.8,52.0,0,0,0,0,1,0,0,0,9624,5626
2024/11/24 11:50:51,3.8,36.6,32.2,33.4,45.7,52.0,0,0,0,0,1,0,0,0,9624,5626
2024/11/24 11:52:49,3.8,36.5,31.9,33.4,45.6,52.0,0,0,0,0,1,0,0,0,9624,5626
2024/11/24 11:54:48,3.8,36.5,31.6,33.4,45.6,52.0,0,0,0,0,1,0,0,0,9624,5626
2024/11/24 11:56:48,3.9,36.4,31.3,33.4,45.5,52.0,0,0,0,0,1,0,0,0,9624,5626
2024/11/24 11:58:46,3.9,36.3,31.1,33.4,45.4,52.0,0,0,0,0,1,0,0,0,9624,5626
2024/11/24 12:00:45,3.9,36.3,30.8,33.4,45.4,52.0,0,0,0,0,1,0,0,0,9624,5626
2024/11/24 12:02:43,4.0,36.2,30.5,32.8,45.3,52.0,0,0,0,0,1,0,0,0,9624,5626
2024/11/24 12:04:42,4.0,36.2,30.2,32.8,45.3,52.0,0,0,0,0,1,0,0,0,9624,5626
2024/11/24 12:06:40,4.1,36.1,30.0,32.8,45.2,52.0,0,0,0,0,1,0,0,0,9624,5626
2024/11/24 12:08:40,4.1,36.1,29.8,32.8,45.2,52.0,0,0,0,0,1,0,0,0,9624,5626
2024/11/24 12:10:38,4.2,36.0,29.6,32.8,45.1,52.0,0,0,0,0,1,0,0,0,9624,5626
2024/11/24 12:12:37,4.2,36.0,29.4,32.8,45.0,52.0,0,0,0,0,1,0,0,0,9624,5626
2024/11/24 12:14:36,4.2,35.9,29.2,32.8,45.0,52.0,0,0,0,0,1,0,0,0,9624,5626
2024/11/24 12:16:35,4.3,35.9,29.0,32.8,44.9,52.0,0,0,0,0,1,0,0,0,9624,5626
2024/11/24 12:18:34,4.3,35.8,28.8,32.8,44.9,52.0,0,0,0,0,1,0,0,0,9624,5626
2024/11/24 12:20:33,4.4,35.7,28.6,32.8,44.8,52.0,0,0,0,0,1,0,0,0,9624,5626
2024/11/24 12:22:33,4.5,35.7,28.4,32.8,44.8,52.0,0,0,0,0,1,0,0,0,9624,5626
2024/11/24 12:24:32,4.6,35.6,28.3,32.8,44.7,52.0,0,0,0,0,1,0,0,0,9624,5626
2024/11/24 12:26:31,4.6,35.5,28.1,32.8,44.7,52.0,0,0,0,0,1,0,0,0,9624,5626
2024/11/24 12:28:29,4.7,35.5,27.9,32.8,44.6,52.0,0,0,0,0,1,0,0,0,9624,5626
2024/11/24 12:30:27,4.8,35.4,27.8,32.8,44.6,52.0,0,0,0,0,1,0,0,0,9624,5626
2024/11/24 12:32:27,4.8,35.3,27.6,32.8,44.5,52.0,0,0,0,0,1,0,0,0,9624,5626
2024/11/24 12:34:24,4.9,35.2,27.4,32.8,44.4,52.0,0,0,0,0,1,0,0,0,9624,5626
2024/11/24 12:36:24,5.0,35.2,27.3,32.1,44.4,52.0,0,0,0,0,1,0,0,0,9624,5626
2024/11/24 12:38:24,5.1,35.1,27.1,32.1,44.3,52.0,0,0,0,0,1,0,0,0,9624,5626
2024/11/24 12:40:22,5.2,35.0,27.0,32.1,44.3,52.0,0,0,0,0,1,0,0,0,9624,5626
2024/11/24 12:43:20,5.3,35.0,26.8,32.1,44.2,52.0,0,0,0,0,1,0,0,0,9624,5626
2024/11/24 12:45:19,5.4,34.9,26.7,32.1,44.2,52.0,0,0,0,0,1,0,0,0,9624,5626
2024/11/24 12:47:17,5.5,34.9,26.5,32.1,44.1,52.0,0,0,0,0,1,0,0,0,9624,5626
2024/11/24 12:49:16,5.6,34.8,26.4,32.1,44.1,52.0,0,0,0,0,1,0,0,0,9624,5626
2024/11/24 12:51:16,5.7,34.7,26.3,32.1,44.1,52.0,0,0,0,0,1,0,0,0,9624,5626
2024/11/24 12:53:14,5.8,34.8,31.6,32.1,43.6,52.0,1,0,1,0,0,1,1,0,9624,5626
2024/11/24 12:55:14,5.8,36.3,32.8,32.1,42.3,52.0,1,0,1,0,0,1,1,0,9624,5627
2024/11/24 12:57:13,5.9,38.2,34.1,32.1,41.4,52.0,1,0,1,0,0,1,1,0,9624,5628
2024/11/24 12:59:12,5.9,39.4,35.2,32.1,41.0,52.0,1,0,1,0,0,1,1,0,9624,5628
2024/11/24 13:01:10,6.1,40.4,36.2,31.4,40.9,52.0,1,0,1,0,0,1,1,0,9624,5629
2024/11/24 13:03:09,6.1,41.4,37.1,31.4,41.0,52.0,1,0,1,0,0,1,1,0,9624,5630
2024/11/24 13:05:09,6.2,42.3,37.9,31.4,41.4,52.0,1,0,1,0,0,1,1,0,9624,5631
2024/11/24 13:07:07,6.2,43.0,38.6,31.4,42.0,52.0,1,0,1,0,0,1,1,0,9624,5631
2024/11/24 13:09:06,6.2,43.8,39.3,31.4,42.5,52.0,1,0,1,0,0,1,1,0,9624,5632
2024/11/24 13:11:05,6.3,44.4,39.9,31.4,42.9,52.0,1,0,1,0,0,1,1,0,9624,5633
2024/11/24 13:13:05,6.3,47.1,40.6,31.4,43.2,52.0,1,1,1,0,0,1,1,0,9624,5634
2024/11/24 13:15:04,6.3,49.4,42.8,31.4,43.6,52.0,1,1,1,0,0,1,1,0,9624,5635
2024/11/24 13:17:03,6.3,51.0,44.2,31.4,44.1,52.0,1,1,1,0,0,1,1,0,9624,5636
2024/11/24 13:19:02,6.3,52.5,45.2,31.4,44.8,52.0,1,1,1,0,0,1,1,0,9624,5638
2024/11/24 13:21:01,6.3,53.6,46.4,31.4,45.7,52.0,1,1,1,0,0,1,1,0,9624,5639
2024/11/24 13:23:00,6.3,54.5,47.3,31.4,46.6,52.0,1,1,1,0,0,1,1,0,9624,5640
2024/11/24 13:25:00,6.3,55.5,48.2,31.4,47.5,52.0,1,1,1,0,0,1,1,0,9624,5642
2024/11/24 13:26:59,6.3,56.4,49.1,31.4,48.4,52.0,1,1,1,0,0,1,1,0,9624,5643
2024/11/24 13:28:57,6.3,57.4,49.9,31.4,49.3,52.0,1,1,1,0,0,1,1,0,9624,5644
2024/11/24 13:30:56,6.3,58.3,50.8,31.4,50.3,52.0,1,1,1,0,0,1,1,0,9624,5645
2024/11/24 13:32:55,6.2,59.2,51.9,31.4,51.3,52.0,1,1,1,0,0,1,1,0,9624,5646
2024/11/24 13:34:54,6.2,59.3,52.4,31.4,52.2,52.0,0,1,1,0,1,0,1,0,9624,5647
2024/11/24 13:36:53,6.2,37.9,32.0,31.4,53.0,52.0,0,1,1,0,1,0,1,0,9624,5647
2024/11/24 13:38:53,6.2,35.7,30.2,31.4,53.3,52.0,0,1,1,0,1,0,1,0,9625,5647
2024/11/24 13:40:52,6.2,34.2,29.3,31.4,53.3,52.0,0,1,1,0,1,0,1,0,9626,5647
2024/11/24 13:42:51,6.2,33.8,29.5,31.4,53.3,52.0,0,1,1,0,1,0,1,0,9627,5647
2024/11/24 13:44:50,6.2,35.0,30.2,31.4,53.1,52.0,0,1,1,0,1,0,1,0,9628,5647
2024/11/24 13:46:49,6.1,35.0,30.2,31.4,53.0,52.0,0,1,1,0,1,0,1,0,9628,5647
2024/11/24 13:48:49,6.1,35.1,30.4,31.4,52.9,52.0,0,1,1,0,1,0,1,0,9629,5647
2024/11/24 13:50:48,6.1,35.2,30.6,31.4,52.8,52.0,0,1,1,0,1,0,1,0,9630,5647
2024/11/24 13:52:46,6.1,35.4,30.8,31.4,52.7,52.0,0,1,1,0,1,0,1,0,9631,5647
2024/11/24 13:54:45,6.1,35.4,30.9,31.4,52.6,52.0,0,1,1,0,1,0,1,0,9631,5647
2024/11/24 13:56:44,6.1,35.5,30.9,31.4,52.5,52.0,0,1,1,0,1,0,1,0,9632,5647
2024/11/24 13:58:43,6.1,35.7,31.2,31.4,52.4,52.0,0,1,1,0,1,0,1,0,9633,5647
2024/11/24 14:00:42,6.1,35.8,31.3,31.4,52.4,52.0,0,1,1,0,1,0,1,0,9634,5647
2024/11/24 14:02:41,6.1,36.0,31.5,31.4,52.3,52.0,0,1,1,0,1,0,1,0,9635,5647
2024/11/24 14:04:40,6.1,36.2,31.7,31.4,52.2,52.0,0,1,1,0,1,0,1,0,9635,5647
2024/11/24 14:06:39,6.1,36.4,31.8,31.4,52.2,52.0,0,1,1,0,1,0,1,0,9636,5647
2024/11/24 14:08:38,6.1,36.5,32.0,31.4,52.1,52.0,0,1,1,0,1,0,1,0,9637,5647
2024/11/24 14:10:37,6.1,36.6,32.1,31.4,52.0,52.0,0,1,1,0,1,0,1,0,9638,5647
2024/11/24 14:12:36,6.1,36.9,32.3,31.4,52.0,52.0,0,1,1,0,1,0,1,0,9639,5647
2024/11/24 14:14:34,6.1,37.1,32.5,31.4,51.9,52.0,0,1,1,0,1,0,1,0,9639,5647
2024/11/24 14:16:33,6.1,37.2,32.6,31.4,51.8,52.0,0,1,1,0,1,0,1,0,9640,5647
2024/11/24 14:18:32,6.1,37.3,32.7,31.4,51.7,52.0,0,1,1,0,1,0,1,0,9641,5647
2024/11/24 14:20:32,6.1,37.6,33.0,31.4,51.7,52.0,0,1,1,0,1,0,1,0,9642,5647
2024/11/24 14:22:31,6.0,37.8,33.1,31.4,51.6,52.0,0,1,1,0,1,0,1,0,9642,5647
2024/11/24 14:24:30,6.0,35.7,33.4,31.4,51.5,52.0,0,0,1,0,1,0,1,0,9643,5647
2024/11/24 14:26:29,6.0,35.6,34.0,31.4,51.4,52.0,0,0,0,0,1,0,1,0,9643,5647
2024/11/24 14:28:28,6.0,35.4,33.5,31.4,51.4,52.0,0,0,0,0,1,0,0,0,9643,5647
2024/11/24 14:30:27,6.0,35.0,33.1,31.4,51.3,52.0,0,0,0,0,1,0,0,0,9643,5647
2024/11/24 14:32:26,6.0,34.8,32.9,31.4,51.2,52.0,0,0,0,0,1,0,0,0,9643,5647
2024/11/24 14:34:26,6.0,34.6,32.6,31.4,51.1,52.0,0,0,0,0,1,0,0,0,9643,5647
2024/11/24 14:36:24,6.0,34.5,32.4,31.4,51.1,52.0,0,0,0,0,1,0,0,0,9643,5647
2024/11/24 14:38:23,6.0,34.3,32.2,31.4,51.0,52.0,0,0,0,0,1,0,0,0,9643,5647
2024/11/24 14:40:21,6.0,34.2,31.9,31.4,50.9,52.0,0,0,0,0,1,0,0,0,9643,5647
2024/11/24 14:42:21,6.0,34.1,31.7,31.4,50.9,52.0,0,0,0,0,1,0,0,0,9643,5647
2024/11/24 14:44:20,6.0,34.0,31.5,31.4,50.8,52.0,0,0,0,0,1,0,0,0,9643,5647
2024/11/24 14:47:19,6.0,33.9,31.3,31.4,50.7,52.0,0,0,0,0,1,0,0,0,9643,5647
2024/11/24 14:49:18,6.0,33.9,31.1,31.4,50.7,52.0,0,0,0,0,1,0,0,0,9643,5647
2024/11/24 14:51:17,6.0,33.8,30.8,31.4,50.6,52.0,0,0,0,0,1,0,0,0,9643,5647
2024/11/24 14:53:16,6.0,33.7,30.6,31.4,50.5,52.0,0,0,0,0,1,0,0,0,9643,5647
2024/11/24 14:55:14,6.0,33.7,30.4,31.4,50.4,52.0,0,0,0,0,1,0,0,0,9643,5647
2024/11/24 14:57:13,6.0,33.6,30.2,31.4,50.4,52.0,0,0,0,0,1,0,0,0,9643,5647
2024/11/24 14:59:11,6.0,33.5,30.0,31.4,50.3,52.0,0,0,0,0,1,0,0,0,9643,5647
2024/11/24 15:01:10,6.0,33.5,29.8,31.4,50.2,52.0,0,0,0,0,1,0,0,0,9643,5647
2024/11/24 15:03:08,6.0,33.4,29.6,31.4,50.1,52.0,0,0,0,0,1,0,0,0,9643,5647
2024/11/24 15:05:08,5.9,33.4,29.4,32.1,50.1,52.0,0,0,0,0,1,0,0,0,9643,5647
2024/11/24 15:07:06,5.9,33.3,29.2,32.1,50.0,52.0,0,0,0,0,1,0,0,0,9643,5647
2024/11/24 15:09:05,5.8,33.3,29.0,32.1,50.0,52.0,0,0,0,0,1,0,0,0,9643,5647
2024/11/24 15:11:04,5.8,33.2,28.9,32.1,49.9,52.0,0,0,0,0,1,0,0,0,9643,5647
2024/11/24 15:13:03,5.8,33.2,28.7,32.1,49.8,52.0,0,0,0,0,1,0,0,0,9643,5647
2024/11/24 15:15:03,5.7,33.1,28.5,32.1,49.8,52.0,0,0,0,0,1,0,0,0,9643,5647
2024/11/24 15:17:01,5.7,33.1,28.3,32.1,49.7,52.0,0,0,0,0,1,0,0,0,9643,5647
2024/11/24 15:19:00,5.7,33.0,28.1,32.1,49.7,52.0,0,0,0,0,1,0,0,0,9643,5647
2024/11/24 15:21:00,5.7,33.0,28.0,32.1,49.6,52.0,0,0,0,0,1,0,0,0,9643,5647
2024/11/24 15:22:59,5.6,33.0,27.8,32.1,49.6,52.0,0,0,0,0,1,0,0,0,9643,5647
2024/11/24 15:24:58,5.6,32.9,27.6,32.1,49.5,52.0,0,0,0,0,1,0,0,0,9643,5647
2024/11/24 15:26:57,5.6,32.9,27.5,32.1,49.5,52.0,0,0,0,0,1,0,0,0,9643,5647
2024/11/24 15:28:56,5.5,32.8,27.3,32.1,49.4,52.0,0,0,0,0,1,0,0,0,9643,5647
2024/11/24 15:30:55,5.5,32.8,27.2,32.1,49.4,52.0,0,0,0,0,1,0,0,0,9643,5647
2024/11/24 15:32:53,5.4,32.8,27.0,32.1,49.3,52.0,0,0,0,0,1,0,0,0,9643,5647
2024/11/24 15:34:52,5.4,32.7,26.9,32.1,49.2,52.0,0,0,0,0,1,0,0,0,9643,5647
2024/11/24 15:36:51,5.3,32.7,26.7,32.1,49.2,52.0,0,0,0,0,1,0,0,0,9643,5647
2024/11/24 15:38:49,5.3,32.6,26.6,32.1,49.1,52.0,0,0,0,0,1,0,0,0,9643,5647
2024/11/24 15:40:49,5.2,32.6,26.4,32.1,49.1,52.0,0,0,0,0,1,0,0,0,9643,5647
2024/11/24 15:42:48,5.2,32.6,26.3,32.1,49.0,52.0,0,0,0,0,1,0,0,0,9643,5647
2024/11/24 15:44:48,5.2,32.5,26.1,32.1,49.0,52.0,0,0,0,0,1,0,0,0,9643,5647
2024/11/24 15:46:47,5.1,32.4,26.0,32.1,48.9,52.0,0,0,0,0,1,0,0,0,9643,5647
2024/11/24 15:48:47,5.1,30.5,28.2,32.1,48.9,52.0,0,0,0,0,1,0,1,0,9643,5647
2024/11/24 15:50:46,5.0,30.2,28.0,32.1,48.8,52.0,1,0,1,0,1,0,1,0,9643,5647
2024/11/24 15:52:44,5.0,31.6,28.0,32.1,48.8,52.0,1,0,1,0,1,0,1,0,9644,5647
2024/11/24 15:54:43,5.0,31.7,28.0,32.1,48.7,52.0,1,0,1,0,1,0,1,0,9645,5647
2024/11/24 15:56:42,4.9,32.1,28.3,32.8,48.6,52.0,1,0,1,0,1,0,1,0,9646,5647
2024/11/24 15:58:41,4.8,32.4,28.5,32.8,48.6,52.0,1,0,1,0,1,0,1,0,9646,5647
2024/11/24 16:00:41,4.8,32.5,28.6,32.8,48.5,52.0,1,0,1,0,1,0,1,0,9647,5647
2024/11/24 16:02:40,4.7,32.8,28.8,32.8,48.5,52.0,1,0,1,0,1,0,1,0,9648,5647
2024/11/24 16:04:39,4.7,33.0,29.0,32.8,48.4,52.0,1,0,1,0,1,0,1,0,9649,5647
2024/11/24 16:06:38,4.6,33.3,29.2,32.8,48.4,52.0,1,0,1,0,1,0,1,0,9650,5647
2024/11/24 16:08:37,4.6,33.4,29.4,32.8,48.3,52.0,1,0,1,0,1,0,1,0,9650,5647
2024/11/24 16:10:37,4.5,33.8,29.7,32.8,48.3,52.0,1,0,1,0,1,0,1,0,9651,5647
2024/11/24 16:12:36,4.5,33.9,29.8,32.8,48.2,52.0,1,0,1,0,1,0,1,0,9652,5647
2024/11/24 16:14:34,4.4,34.0,29.9,32.8,48.2,52.0,1,0,1,0,1,0,1,0,9653,5647
2024/11/24 16:16:33,4.4,34.5,30.2,32.8,48.1,52.0,1,0,1,0,1,0,1,0,9654,5647
2024/11/24 16:18:32,4.4,34.7,30.2,32.8,48.1,52.0,1,0,1,0,1,0,1,0,9654,5647
2024/11/24 16:20:31,4.3,34.7,30.1,32.8,48.0,52.0,1,0,1,0,1,0,1,0,9655,5647
2024/11/24 16:22:31,4.3,34.7,30.3,32.8,48.0,52.0,1,0,1,0,1,0,1,0,9656,5647
2024/11/24 16:24:29,4.2,35.0,30.5,32.8,47.9,52.0,1,0,1,0,1,0,1,0,9657,5647
2024/11/24 16:26:28,4.2,35.2,30.7,32.8,47.9,52.0,1,0,1,0,1,0,1,0,9658,5647
2024/11/24 16:28:27,4.1,35.5,31.0,32.8,47.8,52.0,1,0,1,0,1,0,1,0,9658,5647
2024/11/24 16:30:25,4.0,35.6,31.1,32.8,47.7,52.0,1,0,1,0,1,0,1,0,9659,5647
2024/11/24 16:32:23,4.0,35.8,31.3,32.8,47.7,52.0,1,0,1,0,1,0,1,0,9660,5647
2024/11/24 16:34:23,3.9,35.9,31.4,33.4,47.6,52.0,1,0,1,0,1,0,1,0,9661,5647
2024/11/24 16:36:21,3.8,36.1,31.6,33.4,47.6,52.0,1,0,1,0,1,0,1,0,9661,5647
2024/11/24 16:39:20,3.7,36.3,31.8,33.4,47.5,52.0,1,0,1,0,1,0,1,0,9662,5647
2024/11/24 16:41:20,3.7,36.5,31.9,33.4,47.5,52.0,1,0,1,0,1,0,1,0,9663,5647
2024/11/24 16:43:19,3.6,36.7,32.1,33.4,47.4,52.0,1,0,1,0,1,0,1,0,9664,5647
2024/11/24 16:45:17,3.6,36.8,32.2,33.4,47.4,52.0,1,0,1,0,1,0,1,0,9665,5647
2024/11/24 16:47:16,3.5,37.0,32.5,33.4,47.3,52.0,1,0,1,0,1,0,1,0,9665,5647
2024/11/24 16:49:15,3.5,37.1,32.5,33.4,47.3,52.0,1,0,1,0,1,0,1,0,9666,5647
2024/11/24 16:51:14,3.5,37.3,32.8,33.4,47.2,52.0,1,0,1,0,1,0,1,0,9667,5647
2024/11/24 16:53:13,3.5,37.5,32.9,33.4,47.2,52.0,1,0,1,0,1,0,1,0,9668,5647
2024/11/24 16:55:13,3.5,37.7,33.1,33.4,47.1,52.0,1,0,1,0,1,0,1,0,9668,5647
2024/11/24 16:57:11,3.5,38.0,33.4,33.4,47.0,52.0,1,0,1,0,1,0,1,0,9669,5647
2024/11/24 16:59:10,3.4,38.1,33.5,33.4,47.0,52.0,1,0,1,0,1,0,1,0,9670,5647
2024/11/24 17:01:10,3.4,38.3,33.7,33.4,46.9,52.0,1,0,1,0,1,0,1,0,9671,5647
2024/11/24 17:03:09,3.4,38.4,33.8,33.4,46.9,52.0,1,0,1,0,1,0,1,0,9671,5647
2024/11/24 17:05:08,3.3,38.6,34.0,33.4,46.8,52.0,1,0,1,0,1,0,1,0,9672,5647
2024/11/24 17:07:08,3.3,38.8,34.2,33.4,46.8,52.0,1,0,1,0,1,0,1,0,9673,5647
2024/11/24 17:09:06,3.2,39.1,34.4,33.4,46.7,52.0,1,0,1,0,1,0,1,0,9674,5647
2024/11/24 17:11:05,3.2,39.2,34.5,33.4,46.7,52.0,1,0,1,0,1,0,1,0,9674,5647
2024/11/24 17:13:04,3.1,39.3,34.7,33.4,46.6,52.0,1,0,1,0,1,0,1,0,9675,5647
2024/11/24 17:15:03,3.1,39.5,34.8,33.4,46.6,52.0,1,0,1,0,1,0,1,0,9676,5647
2024/11/24 17:17:03,3.1,39.7,35.0,33.4,46.5,52.0,1,0,1,0,1,0,1,0,9677,5647
2024/11/24 17:19:02,3.0,39.8,35.1,33.4,46.5,52.0,1,0,1,0,1,0,1,0,9677,5647
2024/11/24 17:21:01,3.0,39.8,35.2,33.4,46.4,52.0,1,0,1,0,1,0,1,0,9678,5647
2024/11/24 17:23:00,3.0,39.9,35.3,33.4,46.4,52.0,1,0,1,0,1,0,1,0,9679,5647
2024/11/24 17:24:59,2.9,37.5,35.6,34.1,46.3,52.0,0,0,0,0,1,0,1,0,9679,5647
2024/11/24 17:26:59,2.9,37.4,35.5,34.1,46.2,52.0,0,0,0,0,1,0,0,0,9679,5647
2024/11/24 17:28:58,2.9,36.9,34.9,34.1,46.1,52.0,0,0,0,0,1,0,0,0,9679,5647
2024/11/24 17:30:57,2.9,36.6,34.6,34.1,46.1,52.0,0,0,0,0,1,0,0,0,9679,5647
2024/11/24 17:32:55,2.9,36.3,34.3,34.1,46.0,52.0,0,0,0,0,1,0,0,0,9679,5647
2024/11/24 17:34:54,2.9,36.1,34.1,34.1,45.9,52.0,0,0,0,0,1,0,0,0,9679,5647
2024/11/24 17:36:54,2.9,35.9,33.8,34.1,45.9,52.0,0,0,0,0,1,0,0,0,9679,5647
2024/11/24 17:38:52,2.9,35.7,33.5,34.1,45.8,52.0,0,0,0,0,1,0,0,0,9679,5647
2024/11/24 17:40:51,2.9,35.6,33.2,34.1,45.7,52.0,0,0,0,0,1,0,0,0,9679,5647
2024/11/24 17:42:51,2.8,35.5,33.0,34.1,45.6,52.0,0,0,0,0,1,0,0,0,9679,5647
2024/11/24 17:44:50,2.8,35.3,32.7,34.1,45.5,52.0,0,0,0,0,1,0,0,0,9679,5647
2024/11/24 17:46:48,2.8,35.2,32.4,34.1,45.5,52.0,0,0,0,0,1,0,0,0,9679,5647
2024/11/24 17:48:48,2.8,35.2,32.1,34.1,45.4,52.0,0,0,0,0,1,0,0,0,9679,5647
2024/11/24 17:50:47,2.8,35.1,31.7,34.1,45.4,52.0,0,0,0,0,1,0,0,0,9679,5647
2024/11/24 17:52:46,2.8,35.0,31.4,34.1,45.3,52.0,0,0,0,0,1,0,0,0,9679,5647
2024/11/24 17:54:45,2.7,34.9,31.1,34.1,45.2,52.0,0,0,0,0,1,0,0,0,9679,5647
2024/11/24 17:56:43,2.7,34.9,30.8,34.1,45.2,52.0,0,0,0,0,1,0,0,0,9679,5647
2024/11/24 17:58:41,2.7,34.8,30.5,34.1,45.1,52.0,0,0,0,0,1,0,0,0,9679,5647
2024/11/24 18:00:39,2.7,34.8,30.2,34.1,45.0,52.0,0,0,0,0,1,0,0,0,9679,5647
2024/11/24 18:02:38,2.7,34.7,29.9,34.1,45.0,52.0,0,0,0,0,1,0,0,0,9679,5647
2024/11/24 18:04:37,2.6,34.7,29.7,34.1,44.9,52.0,0,0,0,0,1,0,0,0,9679,5647
2024/11/24 18:06:36,2.6,34.6,29.4,34.1,44.9,52.0,0,0,0,0,1,0,0,0,9679,5647
2024/11/24 18:08:35,2.6,34.6,29.2,34.1,44.8,52.0,0,0,0,0,1,0,0,0,9679,5647
2024/11/24 18:10:35,2.6,34.6,29.0,34.1,44.8,52.0,0,0,0,0,1,0,0,0,9679,5647
2024/11/24 18:12:34,2.6,34.5,28.8,34.1,44.7,52.0,0,0,0,0,1,0,0,0,9679,5647
2024/11/24 18:14:34,2.6,34.5,28.6,34.1,44.7,52.0,0,0,0,0,1,0,0,0,9679,5647
2024/11/24 18:16:33,2.6,34.4,28.4,34.1,44.6,52.0,0,0,0,0,1,0,0,0,9679,5647
2024/11/24 18:18:32,2.6,34.4,28.2,34.1,44.6,52.0,0,0,0,0,1,0,0,0,9679,5647
2024/11/24 18:20:32,2.6,34.3,28.0,34.1,44.5,52.0,0,0,0,0,1,0,0,0,9679,5647
2024/11/24 18:22:31,2.6,34.3,27.8,34.1,44.5,52.0,0,0,0,0,1,0,0,0,9679,5647
2024/11/24 18:24:30,2.6,34.2,27.5,34.1,44.4,52.0,0,0,0,0,1,0,0,0,9679,5647
2024/11/24 18:26:28,2.6,34.2,27.3,34.1,44.4,52.0,0,0,0,0,1,0,0,0,9679,5647
2024/11/24 18:28:28,2.6,34.1,27.1,34.1,44.3,52.0,0,0,0,0,1,0,0,0,9679,5647
2024/11/24 18:30:25,2.6,34.1,26.9,34.1,44.2,52.0,0,0,0,0,1,0,0,0,9679,5647
2024/11/24 18:32:24,2.6,34.1,26.7,34.1,44.2,52.0,0,0,0,0,1,0,0,0,9679,5647
2024/11/24 18:34:22,2.6,30.9,29.3,34.1,44.1,52.0,0,0,1,0,1,0,1,0,9679,5647
2024/11/24 18:36:22,2.6,32.7,29.3,34.1,44.1,52.0,0,1,1,0,1,0,1,0,9680,5647
2024/11/24 18:39:21,2.6,32.9,26.3,34.1,44.0,52.0,0,1,1,0,0,1,1,0,9680,5648
2024/11/24 18:40:20,2.6,37.6,33.7,34.1,43.2,52.0,0,1,1,0,0,1,1,0,9680,5648
2024/11/24 18:43:19,2.6,38.9,34.9,34.1,42.6,52.0,0,1,1,0,0,1,1,0,9680,5649
2024/11/24 18:45:18,2.6,40.4,36.2,34.1,42.3,52.0,0,1,1,0,0,1,1,0,9680,5650
2024/11/24 18:47:17,2.6,41.5,37.3,34.1,42.2,52.0,0,1,1,0,0,1,1,0,9680,5651
2024/11/24 18:49:16,2.6,42.5,38.2,34.1,42.4,52.0,0,1,1,0,0,1,1,0,9680,5651
2024/11/24 18:51:15,2.6,43.4,38.9,34.1,42.7,52.0,0,1,1,0,0,1,1,0,9680,5652
2024/11/24 18:53:14,2.6,44.1,39.5,34.1,43.1,52.0,0,1,1,0,0,1,1,0,9680,5653
2024/11/24 18:55:14,2.6,44.7,40.1,34.1,43.3,52.0,0,1,1,0,0,1,1,0,9680,5654
2024/11/24 18:57:12,2.5,48.3,41.8,34.1,43.6,52.0,1,1,1,0,0,1,1,0,9680,5655
2024/11/24 18:59:11,2.5,50.1,43.3,34.1,44.0,52.0,1,1,1,0,0,1,1,0,9680,5656
2024/11/24 19:01:10,2.4,51.8,44.6,34.1,44.6,52.0,1,1,1,0,0,1,1,0,9680,5657
2024/11/24 19:03:09,2.3,52.9,45.6,34.1,45.3,52.0,1,1,1,0,0,1,1,0,9680,5659
2024/11/24 19:05:07,2.3,54.0,46.7,34.1,46.3,52.0,1,1,1,0,0,1,1,0,9680,5660
2024/11/24 19:07:05,2.2,54.8,47.5,34.1,47.1,52.0,1,1,1,0,0,1,1,0,9680,5661
2024/11/24 19:09:04,2.2,55.9,48.5,34.1,48.0,52.0,1,1,1,0,0,1,1,0,9680,5663
2024/11/24 19:11:03,2.2,56.8,49.3,34.1,48.8,52.0,1,1,1,0,0,1,1,0,9680,5664
2024/11/24 19:13:02,2.2,57.7,50.2,34.1,49.7,52.0,1,1,1,0,0,1,1,0,9680,5665
2024/11/24 19:15:02,2.2,58.6,51.3,34.1,50.7,52.0,1,1,1,0,0,1,1,0,9680,5666
2024/11/24 19:17:00,2.2,59.5,52.2,34.1,51.7,52.0,1,1,1,0,0,1,1,0,9680,5667
2024/11/24 19:19:00,2.2,48.0,37.0,34.1,52.7,52.0,1,0,1,0,1,0,1,0,9680,5668
2024/11/24 19:20:59,2.2,36.4,30.8,34.1,53.1,52.0,1,0,1,0,1,0,1,0,9681,5668
2024/11/24 19:22:58,2.2,34.8,29.8,34.1,53.2,52.0,1,0,1,0,1,0,1,0,9682,5668
2024/11/24 19:24:57,2.2,34.0,29.3,34.1,53.2,52.0,1,0,1,0,1,0,1,0,9683,5668
2024/11/24 19:26:56,2.3,33.8,29.3,34.1,53.1,52.0,1,0,1,0,1,0,1,0,9683,5668
2024/11/24 19:28:54,2.3,33.8,29.4,34.1,53.0,52.0,1,0,1,0,1,0,1,0,9684,5668
2024/11/24 19:30:54,2.3,34.1,29.8,34.1,52.8,52.0,1,0,1,0,1,0,1,0,9685,5668
2024/11/24 19:32:52,2.3,34.4,30.1,34.1,52.7,52.0,1,0,1,0,1,0,1,0,9686,5668
2024/11/24 19:34:52,2.3,34.7,30.2,34.1,52.6,52.0,1,0,1,0,1,0,1,0,9687,5668
2024/11/24 19:36:50,2.3,34.8,30.3,34.1,52.5,52.0,1,0,1,0,1,0,1,0,9687,5668
2024/11/24 19:38:49,2.3,34.8,30.2,34.1,52.5,52.0,1,0,1,0,1,0,1,0,9688,5668
2024/11/24 19:40:48,2.3,34.7,30.1,34.1,52.4,52.0,1,0,1,0,1,0,1,0,9689,5668
2024/11/24 19:42:47,2.3,34.7,30.2,34.1,52.3,52.0,1,0,1,0,1,0,1,0,9690,5668
2024/11/24 19:44:46,2.3,34.8,30.3,34.1,52.3,52.0,1,1,1,0,1,0,1,0,9691,5668
2024/11/24 19:46:45,2.3,36.6,30.6,34.1,52.2,52.0,1,1,1,0,1,0,1,0,9692,5668
2024/11/24 19:48:45,2.3,37.1,30.9,34.1,52.1,52.0,1,1,1,0,1,0,1,0,9693,5668
2024/11/24 19:50:44,2.3,37.5,31.3,34.1,52.1,52.0,1,1,1,0,1,0,1,0,9695,5668
2024/11/24 19:52:43,2.3,38.2,32.0,34.1,52.0,52.0,1,1,1,0,1,0,1,0,9696,5668
2024/11/24 19:54:42,2.2,38.6,32.4,34.1,52.0,52.0,1,1,1,0,1,0,1,0,9697,5668
2024/11/24 19:56:41,2.2,39.2,32.9,34.1,51.9,52.0,1,1,1,0,1,0,1,0,9699,5668
2024/11/24 19:58:40,2.2,39.6,33.3,34.1,51.8,52.0,1,1,1,0,1,0,1,0,9700,5668
2024/11/24 20:00:39,2.2,40.2,33.8,34.1,51.7,52.0,1,1,1,0,1,0,1,0,9702,5668
2024/11/24 20:02:38,2.2,40.5,34.2,34.1,51.6,52.0,1,1,1,0,1,0,1,0,9703,5668
2024/11/24 20:04:37,2.2,41.2,34.7,34.1,51.6,52.0,1,1,1,0,1,0,1,0,9704,5668
2024/11/24 20:06:36,2.2,41.7,35.2,34.1,51.5,52.0,1,1,1,0,1,0,1,0,9706,5668
2024/11/24 20:08:36,2.1,42.2,35.7,34.1,51.4,52.0,1,1,1,0,1,0,1,0,9707,5668
2024/11/24 20:10:35,2.1,41.7,36.2,34.1,51.3,52.0,0,1,1,0,1,0,1,0,9708,5668
2024/11/24 20:12:34,2.1,41.1,36.3,34.1,51.3,52.0,0,1,1,0,1,0,1,0,9709,5668
2024/11/24 20:14:33,2.0,41.6,36.7,34.1,51.2,52.0,0,1,1,0,1,0,1,0,9710,5668
2024/11/24 20:16:32,2.0,41.7,37.0,34.1,51.1,52.0,0,1,1,0,1,0,1,0,9710,5668
2024/11/24 20:18:32,1.9,41.9,37.2,34.7,51.1,52.0,0,1,1,0,1,0,1,0,9711,5668
2024/11/24 20:20:30,1.9,42.1,37.4,34.7,51.0,52.0,0,1,1,0,1,0,1,0,9712,5668
2024/11/24 20:22:29,1.9,42.3,37.6,34.7,50.9,52.0,0,1,1,0,1,0,1,0,9713,5668
2024/11/24 20:24:28,1.8,42.4,37.7,34.7,50.8,52.0,0,1,1,0,1,0,1,0,9713,5668
2024/11/24 20:26:27,1.8,39.7,37.8,34.7,50.8,52.0,0,0,0,0,1,0,1,0,9713,5668
2024/11/24 20:28:25,1.7,39.8,37.7,34.7,50.7,52.0,0,0,0,0,1,0,0,0,9713,5668
2024/11/24 20:30:25,1.7,39.2,37.0,34.7,50.6,52.0,0,0,0,0,1,0,0,0,9713,5668
2024/11/24 20:32:24,1.7,38.8,36.6,34.7,50.6,52.0,0,0,0,0,1,0,0,0,9713,5668
2024/11/24 20:34:22,1.7,38.5,36.2,34.7,50.5,52.0,0,0,0,0,1,0,0,0,9713,5668
2024/11/24 20:36:21,1.7,38.3,35.9,34.7,50.4,52.0,0,0,0,0,1,0,0,0,9713,5668
2024/11/24 20:39:20,1.7,38.1,35.6,34.7,50.4,52.0,0,0,0,0,1,0,0,0,9713,5668
2024/11/24 20:41:19,1.7,37.9,35.3,34.7,50.3,52.0,0,0,0,0,1,0,0,0,9713,5668
2024/11/24 20:43:18,1.7,37.8,35.0,34.7,50.2,52.0,0,0,0,0,1,0,0,0,9713,5668
2024/11/24 20:45:18,1.6,37.7,34.8,34.7,50.2,52.0,0,0,0,0,1,0,0,0,9713,5668
2024/11/24 20:47:17,1.6,37.6,34.5,34.7,50.1,52.0,0,0,0,0,1,0,0,0,9713,5668
2024/11/24 20:49:16,1.6,37.5,34.2,34.7,50.0,52.0,0,0,0,0,1,0,0,0,9713,5668
2024/11/24 20:51:15,1.7,37.4,33.8,34.7,50.0,52.0,0,0,0,0,1,0,0,0,9713,5668
2024/11/24 20:53:12,1.7,37.3,33.5,34.7,49.9,52.0,0,0,0,0,1,0,0,0,9713,5668
2024/11/24 20:55:11,1.8,37.2,33.1,34.7,49.9,52.0,0,0,0,0,1,0,0,0,9713,5668
2024/11/24 20:57:10,1.8,37.1,32.8,34.7,49.8,52.0,0,0,0,0,1,0,0,0,9713,5668
2024/11/24 20:59:09,1.8,37.1,32.4,34.7,49.7,52.0,0,0,0,0,1,0,0,0,9713,5668
2024/11/24 21:01:07,1.8,37.0,32.1,34.7,49.7,52.0,0,0,0,0,1,0,0,0,9713,5668
2024/11/24 21:03:06,1.8,36.9,31.7,34.7,49.6,52.0,0,0,0,0,1,0,0,0,9713,5668
2024/11/24 21:05:04,1.8,36.9,31.4,34.7,49.6,52.0,0,0,0,0,1,0,0,0,9713,5668
2024/11/24 21:07:03,1.8,36.8,31.1,34.7,49.5,52.0,0,0,0,0,1,0,0,0,9713,5668
2024/11/24 21:09:01,1.8,36.7,30.7,34.7,49.4,52.0,0,0,0,0,1,0,0,0,9713,5668
2024/11/24 21:11:00,1.8,36.7,30.4,34.7,49.4,52.0,0,0,0,0,1,0,0,0,9713,5668
2024/11/24 21:13:00,1.8,36.6,30.1,34.7,49.3,52.0,0,0,0,0,1,0,0,0,9713,5668
2024/11/24 21:15:00,1.8,36.6,29.8,34.7,49.3,52.0,0,0,0,0,1,0,0,0,9713,5668
2024/11/24 21:16:59,1.7,36.5,29.6,34.7,49.2,52.0,0,0,0,0,1,0,0,0,9713,5668
2024/11/24 21:18:58,1.6,36.5,29.3,34.7,49.2,52.0,0,0,0,0,1,0,0,0,9713,5668
2024/11/24 21:20:57,1.6,36.4,29.1,34.7,49.1,52.0,0,0,0,0,1,0,0,0,9713,5668
2024/11/24 21:22:56,1.5,36.3,28.8,34.7,49.0,52.0,0,0,0,0,1,0,0,0,9713,5668
2024/11/24 21:24:54,1.5,36.3,28.6,34.7,49.0,52.0,0,0,0,0,1,0,0,0,9713,5668
2024/11/24 21:26:53,1.5,36.2,28.4,34.7,48.9,52.0,0,0,0,0,1,0,0,0,9713,5668
2024/11/24 21:28:52,1.5,36.2,28.1,34.7,48.9,52.0,0,0,0,0,1,0,0,0,9713,5668
2024/11/24 21:30:51,1.4,36.1,27.9,34.7,48.8,52.0,0,0,0,0,1,0,0,0,9713,5668
2024/11/24 21:32:50,1.4,36.0,27.7,34.7,48.7,52.0,0,0,0,0,1,0,0,0,9713,5668
2024/11/24 21:34:49,1.4,36.0,27.4,34.7,48.7,52.0,0,0,0,0,1,0,0,0,9713,5668
2024/11/24 21:36:48,1.4,35.9,27.2,34.7,48.6,52.0,0,0,0,0,1,0,0,0,9713,5668
2024/11/24 21:38:47,1.4,35.9,27.0,34.7,48.6,52.0,0,0,0,0,1,0,0,0,9713,5668
2024/11/24 21:40:47,1.4,35.8,26.8,34.7,48.5,52.0,0,0,0,0,1,0,0,0,9713,5668
2024/11/24 21:42:46,1.5,34.9,30.4,34.7,48.4,52.0,0,0,0,0,1,0,1,0,9713,5668
2024/11/24 21:44:45,1.6,31.7,29.7,34.7,48.4,52.0,1,0,1,0,1,0,1,0,9713,5668
2024/11/24 21:46:44,1.6,33.4,29.7,34.7,48.3,52.0,1,0,1,0,1,0,1,0,9713,5668
2024/11/24 21:48:44,1.6,33.5,29.7,34.7,48.3,52.0,1,0,1,0,1,0,1,0,9714,5668
2024/11/24 21:50:43,1.6,33.7,29.8,34.7,48.2,52.0,1,0,1,0,1,0,1,0,9715,5668
2024/11/24 21:52:41,1.6,33.7,29.7,34.7,48.1,52.0,1,0,1,0,1,0,1,0,9716,5668
2024/11/24 21:54:41,1.7,33.9,29.9,34.7,48.1,52.0,1,0,1,0,1,0,1,0,9717,5668
2024/11/24 21:56:40,1.7,34.3,30.1,34.7,48.0,52.0,1,0,1,0,1,0,1,0,9717,5668
2024/11/24 21:58:39,1.7,34.6,30.2,34.7,48.0,52.0,1,0,1,0,1,0,1,0,9718,5668
2024/11/24 22:00:38,1.7,34.6,30.2,34.7,47.9,52.0,1,0,1,0,1,0,1,0,9719,5668
2024/11/24 22:02:37,1.6,34.7,30.3,34.7,47.9,52.0,1,0,1,0,1,0,1,0,9720,5668
2024/11/24 22:04:36,1.6,36.1,30.4,34.7,47.9,52.0,1,1,1,0,1,0,1,0,9721,5668
2024/11/24 22:06:35,1.5,36.6,30.6,34.7,47.9,52.0,1,1,1,0,1,0,1,0,9722,5668
2024/11/24 22:08:34,1.4,37.1,30.9,34.7,47.9,52.0,1,1,1,0,1,0,1,0,9724,5668
2024/11/24 22:10:33,1.3,37.5,31.2,34.7,47.9,52.0,1,1,1,0,1,0,1,0,9725,5668
2024/11/24 22:12:31,1.3,38.1,31.8,34.7,47.9,52.0,1,1,1,0,1,0,1,0,9726,5668
2024/11/24 22:14:31,1.2,38.7,32.4,34.7,47.9,52.0,1,1,1,0,1,0,1,0,9728,5668
2024/11/24 22:16:30,1.2,39.1,32.8,34.7,47.9,52.0,1,1,1,0,1,0,1,0,9729,5668
2024/11/24 22:18:29,1.1,39.6,33.3,34.7,47.8,52.0,1,1,1,0,1,0,1,0,9730,5668
2024/11/24 22:20:27,1.1,40.1,33.7,34.7,47.8,52.0,1,1,1,0,1,0,1,0,9732,5668
2024/11/24 22:22:26,1.1,40.7,34.3,34.7,47.8,52.0,1,1,1,0,1,0,1,0,9733,5668
2024/11/24 22:24:24,1.0,41.1,34.6,34.7,47.8,52.0,1,1,1,0,1,0,1,0,9735,5668
2024/11/24 22:26:23,0.9,41.6,35.1,35.4,47.8,52.0,1,1,1,0,1,0,1,0,9736,5668
2024/11/24 22:28:22,0.9,42.0,35.5,35.4,47.8,52.0,1,1,1,0,1,0,1,0,9737,5668
2024/11/24 22:30:21,0.9,42.5,36.0,35.4,47.8,40.0,1,1,1,0,1,0,1,0,9739,5668
2024/11/24 22:33:20,0.8,42.9,36.4,35.4,47.8,40.0,1,1,1,0,1,0,1,0,9740,5668
2024/11/24 22:35:19,0.8,43.3,36.8,35.4,47.8,40.0,1,1,1,0,1,0,1,0,9741,5668
2024/11/24 22:37:17,0.7,43.8,37.4,35.4,47.8,40.0,0,1,1,0,1,0,1,0,9743,5668
2024/11/24 22:39:17,0.7,42.5,37.7,35.4,47.7,40.0,0,1,1,0,1,0,1,0,9743,5668
2024/11/24 22:41:15,0.7,42.7,37.9,35.4,47.7,40.0,0,1,1,0,1,0,1,0,9744,5668
2024/11/24 22:43:15,0.6,42.8,38.1,35.4,47.7,40.0,0,1,1,0,1,0,1,0,9745,5668
2024/11/24 22:45:14,0.6,43.0,38.3,35.4,47.7,40.0,0,1,1,0,1,0,1,0,9746,5668
2024/11/24 22:47:13,0.6,43.1,38.4,35.4,47.7,40.0,0,1,1,0,1,0,1,0,9746,5668
2024/11/24 22:49:12,0.6,43.2,38.5,35.4,47.7,40.0,0,1,1,0,1,0,1,0,9747,5668
2024/11/24 22:51:10,0.6,43.3,38.6,35.4,47.7,40.0,0,1,1,0,1,0,1,0,9748,5668
2024/11/24 22:53:10,0.6,41.0,38.7,35.4,47.7,40.0,0,0,0,0,1,0,1,0,9748,5668
2024/11/24 22:55:08,0.5,41.0,39.0,35.4,47.6,40.0,0,0,0,0,1,0,0,0,9748,5668
2024/11/24 22:57:07,0.5,40.3,38.2,35.4,47.6,40.0,0,0,0,0,1,0,0,0,9748,5668
2024/11/24 22:59:06,0.5,39.8,37.8,35.4,47.6,40.0,0,0,0,0,1,0,0,0,9748,5668
2024/11/24 23:01:05,0.4,39.6,37.4,35.4,47.6,40.0,0,0,0,0,1,0,0,0,9748,5668
2024/11/24 23:03:03,0.4,39.3,37.1,35.4,47.6,40.0,0,0,0,0,1,0,0,0,9748,5668
2024/11/24 23:05:02,0.4,39.1,36.8,35.4,47.6,40.0,0,0,0,0,1,0,0,0,9748,5668
2024/11/24 23:07:01,0.4,38.9,36.5,35.4,47.6,40.0,0,0,0,0,1,0,0,0,9748,5668
2024/11/24 23:09:00,0.3,38.8,36.1,35.4,47.5,40.0,0,0,0,0,1,0,0,0,9748,5668
2024/11/24 23:10:59,0.3,38.7,35.7,35.4,47.5,40.0,0,0,0,0,1,0,0,0,9748,5668
2024/11/24 23:12:58,0.3,38.6,35.3,35.4,47.5,40.0,0,0,0,0,1,0,0,0,9748,5668
2024/11/24 23:14:57,0.3,38.5,34.8,35.4,47.5,40.0,0,0,0,0,1,0,0,0,9748,5668
2024/11/24 23:16:56,0.3,38.4,34.5,35.4,47.5,40.0,0,0,0,0,1,0,0,0,9748,5668
2024/11/24 23:18:54,0.3,38.3,34.1,35.4,47.5,40.0,0,0,0,0,1,0,0,0,9748,5668
2024/11/24 23:20:53,0.3,38.3,33.6,35.4,47.4,40.0,0,0,0,0,1,0,0,0,9748,5668
2024/11/24 23:22:51,0.4,38.2,33.2,35.4,47.4,40.0,0,0,0,0,1,0,0,0,9748,5668
2024/11/24 23:24:51,0.4,38.1,32.8,35.4,47.4,40.0,0,0,0,0,1,0,0,0,9748,5668
2024/11/24 23:26:51,0.4,38.1,32.4,35.4,47.4,40.0,0,0,0,0,1,0,0,0,9748,5668
2024/11/24 23:28:49,0.4,38.0,32.0,35.4,47.4,40.0,0,0,0,0,1,0,0,0,9748,5668
2024/11/24 23:30:48,0.5,38.0,31.7,35.4,47.3,40.0,0,0,0,0,1,0,0,0,9748,5668
2024/11/24 23:32:46,0.5,37.9,31.3,35.4,47.3,40.0,0,0,0,0,1,0,0,0,9748,5668
2024/11/24 23:34:45,0.5,37.8,30.9,35.4,47.3,40.0,0,0,0,0,1,0,0,0,9748,5668
2024/11/24 23:36:43,0.5,37.8,30.6,35.4,47.3,40.0,0,0,0,0,1,0,0,0,9748,5668
2024/11/24 23:38:43,0.5,37.7,30.3,35.4,47.3,40.0,0,0,0,0,1,0,0,0,9748,5668
2024/11/24 23:40:41,0.5,37.7,30.0,35.4,47.3,40.0,0,0,0,0,1,0,0,0,9748,5668
2024/11/24 23:42:40,0.5,37.6,29.7,35.4,47.3,40.0,0,0,0,0,1,0,0,0,9748,5668
2024/11/24 23:44:39,0.5,37.5,29.4,35.4,47.2,40.0,0,0,0,0,1,0,0,0,9748,5668
2024/11/24 23:46:37,0.4,37.5,29.1,35.4,47.2,40.0,0,0,0,0,1,0,0,0,9748,5668
2024/11/24 23:48:35,0.4,37.4,28.9,35.4,47.2,40.0,0,0,0,0,1,0,0,0,9748,5668
2024/11/24 23:50:34,0.3,37.4,28.6,35.4,47.2,40.0,0,0,0,0,1,0,0,0,9748,5668
2024/11/24 23:52:32,0.3,37.3,28.3,35.4,47.2,40.0,0,0,0,0,1,0,0,0,9748,5668
2024/11/24 23:54:31,0.2,37.3,28.1,35.4,47.2,40.0,0,0,0,0,1,0,0,0,9748,5668
2024/11/24 23:56:29,0.2,37.2,27.8,35.4,47.1,40.0,0,0,0,0,1,0,0,0,9748,5668
2024/11/24 23:58:28,0.2,37.1,27.6,35.4,47.1,40.0,0,0,0,0,1,0,0,0,9748,5668
