Type,Analog,Analog,Analog,Analog,Analog,Analog,Digital,Digital,Digital,Digital,Digital,Digital,Digital,Digital,Integer,Integer
Index,1,5,2,53,3,58,41,42,43,44,45,46,49,50,95,98
Name,R1,R9,R2,R2 Solltemperatur,R3,R3 Solltemperatur,M1,M3,M2/M11,E10,M13,M18,M16,E9,Waermemenge Heizen,Waermemenge Warmwasser
Description,Variable 1,Variable 2,Variable 3,Variable 4,Variable 5,Variable 6,Variable 7,Variable 8,Variable 9,Variable 10,Variable 11,Variable 12,Variable 13,Variable 14,Variable 15,Variable 16
2024/11/25 00:00:27,0.2,37.1,27.3,35.4,47.1,40.0,0,0,0,0,1,0,0,0,9748,5668
2024/11/25 00:02:26,0.2,33.4,30.7,35.4,47.1,40.0,0,0,1,0,1,0,1,0,9748,5668
2024/11/25 00:04:25,0.3,33.3,30.7,35.4,47.1,40.0,1,0,1,0,1,0,1,0,9749,5668
2024/11/25 00:06:24,0.3,34.7,30.6,35.4,47.0,40.0,1,0,1,0,1,0,1,0,9749,5668
2024/11/25 00:08:23,0.3,34.7,30.5,35.4,47.0,40.0,1,0,1,0,1,0,1,0,9750,5668
2024/11/25 00:10:22,0.3,34.7,30.4,35.4,47.0,40.0,1,0,1,0,1,0,1,0,9751,5668
2024/11/25 00:12:22,0.3,34.8,30.4,35.4,47.0,40.0,1,0,1,0,1,0,1,0,9752,5668
2024/11/25 00:14:21,0.3,34.8,30.4,35.4,47.0,40.0,1,0,1,0,1,0,1,0,9753,5668
2024/11/25 00:17:20,0.2,34.9,30.6,35.4,47.0,40.0,1,0,1,0,1,0,1,0,9753,5668
2024/11/25 00:19:19,0.1,35.2,30.8,35.4,46.9,40.0,1,0,1,0,1,0,1,0,9754,5668
2024/11/25 00:21:18,0.1,35.5,31.1,35.4,46.9,40.0,1,0,1,0,1,0,1,0,9755,5668
2024/11/25 00:23:17,0.1,35.7,31.2,35.4,46.9,40.0,1,0,1,0,1,0,1,0,9756,5668
2024/11/25 00:25:16,0.0,37.2,31.4,35.4,46.9,40.0,1,1,1,0,1,0,1,0,9757,5668
2024/11/25 00:27:15,0.0,37.6,31.6,35.4,46.9,40.0,1,1,1,0,1,0,1,0,9758,5668
2024/11/25 00:29:14,0.0,38.1,31.9,35.4,46.9,40.0,1,1,1,0,1,0,1,0,9759,5668
2024/11/25 00:31:13,0.1,38.4,32.2,35.4,46.8,40.0,1,1,1,0,1,0,1,0,9761,5668
2024/11/25 00:33:12,0.1,38.8,32.5,35.4,46.8,40.0,1,1,1,0,1,0,1,0,9762,5668
2024/11/25 00:35:11,0.2,39.5,33.2,35.4,46.8,40.0,1,1,1,0,1,0,1,0,9764,5668
2024/11/25 00:37:10,0.3,39.8,33.6,35.4,46.8,40.0,1,1,1,0,1,0,1,0,9765,5668
2024/11/25 00:39:09,0.3,40.4,34.0,35.4,46.8,40.0,1,1,1,0,1,0,1,0,9766,5668
2024/11/25 00:41:09,0.3,41.0,34.6,35.4,46.7,40.0,1,1,1,0,1,0,1,0,9768,5668
2024/11/25 00:43:07,0.3,41.4,34.9,35.4,46.7,40.0,1,1,1,0,1,0,1,0,9769,5668
2024/11/25 00:45:07,0.3,41.9,35.4,35.4,46.7,40.0,1,1,1,0,1,0,1,0,9770,5668
2024/11/25 00:47:05,0.3,42.6,36.1,35.4,46.7,40.0,1,1,1,0,1,0,1,0,9772,5668
2024/11/25 00:49:05,0.3,42.8,36.3,35.4,46.7,40.0,1,1,1,0,1,0,1,0,9773,5668
2024/11/25 00:51:04,0.3,43.4,36.9,35.4,46.6,40.0,1,1,1,0,1,0,1,0,9774,5668
2024/11/25 00:53:03,0.3,43.6,37.4,35.4,46.6,40.0,0,1,1,0,1,0,1,0,9776,5668
2024/11/25 00:55:02,0.3,42.5,37.6,35.4,46.6,40.0,0,1,1,0,1,0,1,0,9776,5668
2024/11/25 00:57:01,0.2,42.8,38.0,35.4,46.6,40.0,0,1,1,0,1,0,1,0,9777,5668
2024/11/25 00:59:00,0.2,42.8,38.1,35.4,46.6,40.0,0,1,1,0,1,0,1,0,9778,5668
2024/11/25 01:00:59,0.1,43.0,38.2,35.4,46.5,40.0,0,1,1,0,1,0,1,0,9779,5668
2024/11/25 01:02:57,0.0,43.1,38.4,35.4,46.5,40.0,0,1,1,0,1,0,1,0,9779,5668
2024/11/25 01:04:57,0.0,43.3,38.5,35.4,46.5,40.0,0,1,1,0,1,0,1,0,9780,5668
2024/11/25 01:06:55,0.0,43.3,38.6,35.4,46.5,40.0,0,1,1,0,1,0,1,0,9781,5668
2024/11/25 01:08:54,-0.1,40.8,38.7,35.4,46.5,40.0,0,0,0,0,1,0,1,0,9781,5668
2024/11/25 01:10:53,-0.1,40.8,38.9,35.4,46.4,40.0,0,0,0,0,1,0,0,0,9781,5668
2024/11/25 01:12:52,-0.1,40.2,38.2,35.4,46.4,40.0,0,0,0,0,1,0,0,0,9781,5668
2024/11/25 01:14:51,-0.1,39.8,37.7,35.4,46.4,40.0,0,0,0,0,1,0,0,0,9781,5668
2024/11/25 01:16:49,-0.2,39.5,37.4,35.4,46.4,40.0,0,0,0,0,1,0,0,0,9781,5668
2024/11/25 01:18:48,-0.2,39.3,37.1,35.4,46.3,40.0,0,0,0,0,1,0,0,0,9781,5668
2024/11/25 01:20:47,-0.2,39.0,36.7,35.4,46.3,40.0,0,0,0,0,1,0,0,0,9781,5668
2024/11/25 01:22:46,-0.2,38.9,36.4,35.4,46.3,40.0,0,0,0,0,1,0,0,0,9781,5668
2024/11/25 01:24:44,-0.2,38.8,36.1,35.4,46.3,40.0,0,0,0,0,1,0,0,0,9781,5668
2024/11/25 01:26:43,-0.2,38.6,35.7,35.4,46.3,40.0,0,0,0,0,1,0,0,0,9781,5668
2024/11/25 01:28:42,-0.2,38.5,35.2,35.4,46.2,40.0,0,0,0,0,1,0,0,0,9781,5668
2024/11/25 01:30:41,-0.2,38.5,34.8,35.4,46.2,40.0,0,0,0,0,1,0,0,0,9781,5668
2024/11/25 01:32:39,-0.3,38.4,34.4,35.4,46.2,40.0,0,0,0,0,1,0,0,0,9781,5668
2024/11/25 01:34:38,-0.3,38.3,34.0,35.4,46.2,40.0,0,0,0,0,1,0,0,0,9781,5668
2024/11/25 01:36:37,-0.3,38.2,33.6,35.4,46.2,40.0,0,0,0,0,1,0,0,0,9781,5668
2024/11/25 01:38:36,-0.2,38.1,33.2,35.4,46.1,40.0,0,0,0,0,1,0,0,0,9781,5668
2024/11/25 01:40:35,-0.2,38.1,32.8,35.4,46.1,40.0,0,0,0,0,1,0,0,0,9781,5668
2024/11/25 01:42:34,-0.1,38.0,32.4,35.4,46.1,40.0,0,0,0,0,1,0,0,0,9781,5668
2024/11/25 01:44:32,-0.1,38.0,32.0,35.4,46.1,40.0,0,0,0,0,1,0,0,0,9781,5668
2024/11/25 01:46:31,-0.1,37.9,31.6,35.4,46.1,40.0,0,0,0,0,1,0,0,0,9781,5668
2024/11/25 01:48:30,-0.1,37.8,31.2,35.4,46.0,40.0,0,0,0,0,1,0,0,0,9781,5668
2024/11/25 01:50:28,-0.1,37.8,30.9,35.4,46.0,40.0,0,0,0,0,1,0,0,0,9781,5668
2024/11/25 01:52:27,-0.1,37.7,30.5,35.4,46.0,40.0,0,0,0,0,1,0,0,0,9781,5668
2024/11/25 01:54:26,-0.1,37.7,30.1,35.4,46.0,40.0,0,0,0,0,1,0,0,0,9781,5668
2024/11/25 01:56:25,-0.1,37.6,29.8,35.4,46.0,40.0,0,0,0,0,1,0,0,0,9781,5668
2024/11/25 01:58:25,-0.1,37.6,29.6,35.4,45.9,40.0,0,0,0,0,1,0,0,0,9781,5668
2024/11/25 02:00:24,-0.2,37.5,29.3,35.4,45.9,40.0,0,0,0,0,1,0,0,0,9781,5668
2024/11/25 02:02:22,-0.2,37.4,29.0,35.4,45.9,40.0,0,0,0,0,1,0,0,0,9781,5668
2024/11/25 02:04:22,-0.2,37.4,28.8,35.4,45.9,40.0,0,0,0,0,1,0,0,0,9781,5668
2024/11/25 02:06:21,-0.2,37.3,28.5,35.4,45.8,40.0,0,0,0,0,1,0,0,0,9781,5668
2024/11/25 02:09:20,-0.3,37.3,28.2,35.4,45.8,40.0,0,0,0,0,1,0,0,0,9781,5668
2024/11/25 02:11:19,-0.3,37.2,28.0,35.4,45.8,40.0,0,0,0,0,1,0,0,0,9781,5668
2024/11/25 02:13:17,-0.3,37.1,27.7,35.4,45.7,40.0,0,0,0,0,1,0,0,0,9781,5668
2024/11/25 02:15:17,-0.4,37.1,27.5,35.4,45.7,40.0,0,0,0,0,1,0,0,0,9781,5668
2024/11/25 02:17:17,-0.4,37.0,27.2,35.4,45.7,40.0,0,0,0,0,1,0,0,0,9781,5668
2024/11/25 02:19:16,-0.4,33.0,30.7,35.4,45.6,40.0,0,0,1,0,1,0,1,0,9781,5668
2024/11/25 02:21:14,-0.4,33.6,30.7,35.4,45.6,40.0,1,0,1,0,1,0,1,0,9782,5668
2024/11/25 02:23:14,-0.4,34.6,30.6,35.4,45.6,40.0,1,0,1,0,1,0,1,0,9782,5668
2024/11/25 02:25:13,-0.4,34.7,30.4,35.4,45.6,40.0,1,0,1,0,1,0,1,0,9783,5668
2024/11/25 02:27:12,-0.4,34.7,30.3,35.4,45.5,40.0,1,0,1,0,1,0,1,0,9784,5668
2024/11/25 02:29:10,-0.4,34.7,30.4,35.4,45.5,40.0,1,0,1,0,1,0,1,0,9785,5668
2024/11/25 02:31:09,-0.4,34.8,30.4,35.4,45.5,40.0,1,0,1,0,1,0,1,0,9786,5668
2024/11/25 02:33:07,-0.4,35.0,30.6,35.4,45.5,40.0,1,0,1,0,1,0,1,0,9786,5668
2024/11/25 02:35:05,-0.4,35.2,30.8,35.4,45.5,40.0,1,0,1,0,1,0,1,0,9787,5668
2024/11/25 02:37:03,-0.4,35.5,31.0,35.4,45.4,40.0,1,0,1,0,1,0,1,0,9788,5668
2024/11/25 02:39:02,-0.4,35.7,31.2,35.4,45.4,40.0,1,0,1,0,1,0,1,0,9789,5668
2024/11/25 02:41:01,-0.4,37.2,31.4,35.4,45.4,40.0,1,1,1,0,1,0,1,0,9790,5668
2024/11/25 02:43:00,-0.4,37.8,31.8,35.4,45.4,40.0,1,1,1,0,1,0,1,0,9791,5668
2024/11/25 02:45:00,-0.4,38.1,31.9,35.4,45.4,40.0,1,1,1,0,1,0,1,0,9792,5668
2024/11/25 02:46:58,-0.5,38.5,32.2,35.4,45.3,40.0,1,1,1,0,1,0,1,0,9794,5668
2024/11/25 02:48:57,-0.5,38.8,32.6,35.4,45.3,40.0,1,1,1,0,1,0,1,0,9795,5668
2024/11/25 02:50:55,-0.5,39.5,33.2,35.4,45.3,40.0,1,1,1,0,1,0,1,0,9797,5668
2024/11/25 02:52:54,-0.6,39.9,33.7,35.4,45.3,40.0,1,1,1,0,1,0,1,0,9798,5668
2024/11/25 02:54:53,-0.6,40.6,34.2,35.4,45.3,40.0,1,1,1,0,1,0,1,0,9799,5668
2024/11/25 02:56:52,-0.6,41.1,34.6,35.4,45.2,40.0,1,1,1,0,1,0,1,0,9801,5668
2024/11/25 02:58:51,-0.6,41.6,35.0,35.4,45.2,40.0,1,1,1,0,1,0,1,0,9802,5668
2024/11/25 03:00:50,-0.6,42.0,35.5,35.4,45.2,40.0,1,1,1,0,1,0,1,0,9803,5668
2024/11/25 03:02:49,-0.6,42.4,36.0,35.4,45.2,40.0,1,1,1,0,1,0,1,0,9805,5668
2024/11/25 03:04:47,-0.6,43.0,36.5,35.4,45.2,40.0,1,1,1,0,1,0,1,0,9806,5668
2024/11/25 03:06:46,-0.6,43.4,36.9,35.4,45.1,40.0,1,1,1,0,1,0,1,0,9807,5668
2024/11/25 03:08:44,-0.6,43.8,37.4,35.4,45.1,40.0,0,1,1,0,1,0,1,0,9809,5668
2024/11/25 03:10:43,-0.6,42.5,37.7,35.4,45.1,40.0,0,1,1,0,1,0,1,0,9810,5668
2024/11/25 03:12:41,-0.6,42.8,37.9,35.4,45.1,40.0,0,1,1,0,1,0,1,0,9810,5668
2024/11/25 03:14:40,-0.6,42.8,38.1,35.4,45.1,40.0,0,1,1,0,1,0,1,0,9811,5668
2024/11/25 03:16:39,-0.6,43.0,38.2,35.4,45.0,40.0,0,1,1,0,1,0,1,0,9812,5668
2024/11/25 03:18:39,-0.6,43.1,38.4,35.4,45.0,40.0,0,1,1,0,1,0,1,0,9812,5668
2024/11/25 03:20:38,-0.6,43.2,38.5,35.4,45.0,40.0,0,1,1,0,1,0,1,0,9813,5668
2024/11/25 03:22:36,-0.6,43.3,38.6,35.4,45.0,40.0,0,1,1,0,1,0,1,0,9814,5668
2024/11/25 03:24:36,-0.6,41.0,38.7,35.4,45.0,40.0,0,0,0,0,1,0,1,0,9814,5668
2024/11/25 03:26:36,-0.6,40.8,38.9,35.4,44.9,40.0,0,0,0,0,1,0,0,0,9814,5668
2024/11/25 03:28:35,-0.6,40.1,38.1,35.4,44.9,40.0,0,0,0,0,1,0,0,0,9814,5668
2024/11/25 03:30:33,-0.6,39.7,37.6,35.4,44.9,40.0,0,0,0,0,1,0,0,0,9814,5668
2024/11/25 03:32:33,-0.6,39.4,37.3,35.4,44.9,40.0,0,0,0,0,1,0,0,0,9814,5668
2024/11/25 03:34:32,-0.6,39.2,37.0,35.4,44.9,40.0,0,0,0,0,1,0,0,0,9814,5668
2024/11/25 03:36:30,-0.6,39.0,36.6,35.4,44.9,40.0,0,0,0,0,1,0,0,0,9814,5668
2024/11/25 03:38:29,-0.6,38.8,36.3,35.4,44.8,40.0,0,0,0,0,1,0,0,0,9814,5668
2024/11/25 03:40:28,-0.6,38.7,36.0,35.4,44.8,40.0,0,0,0,0,1,0,0,0,9814,5668
2024/11/25 03:42:27,-0.6,38.6,35.6,35.4,44.8,40.0,0,0,0,0,1,0,0,0,9814,5668
2024/11/25 03:44:26,-0.6,38.5,35.1,35.4,44.8,40.0,0,0,0,0,1,0,0,0,9814,5668
2024/11/25 03:46:24,-0.6,38.4,34.7,35.4,44.8,40.0,0,0,0,0,1,0,0,0,9814,5668
2024/11/25 03:48:23,-0.6,38.3,34.4,35.4,44.8,40.0,0,0,0,0,1,0,0,0,9814,5668
2024/11/25 03:51:21,-0.6,38.2,34.0,35.4,44.8,40.0,0,0,0,0,1,0,0,0,9814,5668
2024/11/25 03:53:19,-0.6,38.1,33.6,35.4,44.7,40.0,0,0,0,0,1,0,0,0,9814,5668
2024/11/25 03:55:18,-0.6,38.0,33.2,35.4,44.7,40.0,0,0,0,0,1,0,0,0,9814,5668
2024/11/25 03:57:17,-0.6,38.0,32.7,35.4,44.7,40.0,0,0,0,0,1,0,0,0,9814,5668
2024/11/25 03:59:16,-0.6,37.9,32.4,35.4,44.7,40.0,0,0,0,0,1,0,0,0,9814,5668
2024/11/25 04:01:15,-0.6,37.8,32.0,35.4,44.7,40.0,0,0,0,0,1,0,0,0,9814,5668
2024/11/25 04:03:14,-0.7,37.8,31.6,35.4,44.6,40.0,0,0,0,0,1,0,0,0,9814,5668
2024/11/25 04:05:12,-0.7,37.7,31.2,35.4,44.6,40.0,0,0,0,0,1,0,0,0,9814,5668
2024/11/25 04:07:11,-0.7,37.7,30.9,35.4,44.6,40.0,0,0,0,0,1,0,0,0,9814,5668
2024/11/25 04:09:11,-0.7,37.6,30.5,35.4,44.6,40.0,0,0,0,0,1,0,0,0,9814,5668
2024/11/25 04:11:08,-0.8,37.5,30.2,35.4,44.6,40.0,0,0,0,0,1,0,0,0,9814,5668
2024/11/25 04:13:07,-0.8,37.5,29.9,35.4,44.6,40.0,0,0,0,0,1,0,0,0,9814,5668
2024/11/25 04:15:06,-0.8,37.4,29.6,35.4,44.5,40.0,0,0,0,0,1,0,0,0,9814,5668
2024/11/25 04:17:04,-0.8,37.4,29.3,35.4,44.5,40.0,0,0,0,0,1,0,0,0,9814,5668
2024/11/25 04:19:04,-0.8,37.3,29.1,35.4,44.5,40.0,0,0,0,0,1,0,0,0,9814,5668
2024/11/25 04:21:03,-0.8,37.3,28.8,35.4,44.5,40.0,0,0,0,0,1,0,0,0,9814,5668
2024/11/25 04:23:02,-0.8,37.2,28.6,35.4,44.5,40.0,0,0,0,0,1,0,0,0,9814,5668
2024/11/25 04:25:01,-0.8,37.2,28.3,35.4,44.5,40.0,0,0,0,0,1,0,0,0,9814,5668
2024/11/25 04:27:00,-0.8,37.1,28.0,35.4,44.4,40.0,0,0,0,0,1,0,0,0,9814,5668
2024/11/25 04:28:59,-0.8,37.0,27.8,35.4,44.4,40.0,0,0,0,0,1,0,0,0,9814,5668
2024/11/25 04:30:58,-0.8,37.0,27.5,35.4,44.4,40.0,0,0,0,0,1,0,0,0,9814,5668
2024/11/25 04:32:58,-0.8,36.9,27.3,35.4,44.4,40.0,0,0,0,0,1,0,0,0,9814,5668
2024/11/25 04:34:56,-0.8,33.3,30.6,35.4,44.4,40.0,0,0,1,0,1,0,1,0,9814,5668
2024/11/25 04:36:54,-0.7,33.3,30.6,35.4,44.4,40.0,1,0,1,0,1,0,1,0,9815,5668
2024/11/25 04:38:52,-0.7,34.6,30.5,35.4,44.3,40.0,1,0,1,0,1,0,1,0,9815,5668
2024/11/25 04:40:51,-0.7,34.6,30.3,35.4,44.3,40.0,1,0,1,0,1,0,1,0,9816,5668
2024/11/25 04:42:49,-0.7,34.6,30.3,35.4,44.3,40.0,1,0,1,0,1,0,1,0,9817,5668
2024/11/25 04:44:49,-0.7,34.7,30.3,35.4,44.3,40.0,1,0,1,0,1,0,1,0,9818,5668
2024/11/25 04:46:48,-0.7,34.8,30.4,35.4,44.3,40.0,1,0,1,0,1,0,1,0,9819,5668
2024/11/25 04:48:47,-0.7,35.0,30.6,35.4,44.3,40.0,1,0,1,0,1,0,1,0,9819,5668
2024/11/25 04:50:47,-0.7,35.1,30.7,35.4,44.2,40.0,1,0,1,0,1,0,1,0,9820,5668
2024/11/25 04:52:46,-0.7,35.3,30.9,35.4,44.2,40.0,1,0,1,0,1,0,1,0,9821,5668
2024/11/25 04:54:44,-0.7,35.6,31.1,35.4,44.2,40.0,1,0,1,0,1,0,1,0,9822,5668
2024/11/25 04:56:43,-0.6,37.3,31.4,35.4,44.2,40.0,1,1,1,0,1,0,1,0,9823,5668
2024/11/25 04:58:42,-0.6,37.6,31.6,35.4,44.2,40.0,1,1,1,0,1,0,1,0,9824,5668
2024/11/25 05:00:42,-0.6,38.0,31.8,35.4,44.2,40.0,1,1,1,0,1,0,1,0,9826,5668
2024/11/25 05:02:41,-0.6,38.3,32.2,35.4,44.1,40.0,1,1,1,0,1,0,1,0,9827,5668
2024/11/25 05:04:40,-0.6,39.0,32.8,35.4,44.1,40.0,1,1,1,0,1,0,1,0,9828,5668
2024/11/25 05:06:39,-0.6,39.5,33.2,35.4,44.1,40.0,1,1,1,0,1,0,1,0,9830,5668
2024/11/25 05:08:37,-0.6,39.9,33.6,35.4,44.1,40.0,1,1,1,0,1,0,1,0,9831,5668
2024/11/25 05:10:36,-0.6,40.3,34.0,35.4,44.1,40.0,1,1,1,0,1,0,1,0,9833,5668
2024/11/25 05:12:34,-0.6,41.0,34.6,35.4,44.1,40.0,1,1,1,0,1,0,1,0,9834,5668
2024/11/25 05:14:33,-0.6,41.4,34.9,35.4,44.0,40.0,1,1,1,0,1,0,1,0,9835,5668
2024/11/25 05:16:32,-0.6,40.4,34.8,35.4,44.0,52.0,1,1,1,0,0,1,1,0,9836,5669
2024/11/25 05:18:31,-0.7,47.3,40.5,35.4,44.0,52.0,1,1,1,0,0,1,1,0,9836,5670
2024/11/25 05:20:31,-0.7,49.9,43.2,35.4,44.0,52.0,1,1,1,0,0,1,1,0,9836,5671
2024/11/25 05:22:30,-0.8,51.8,44.6,35.4,44.7,52.0,1,1,1,0,0,1,1,0,9836,5672
2024/11/25 05:24:29,-0.8,53.1,45.9,35.4,45.5,52.0,1,1,1,0,0,1,1,0,9836,5674
2024/11/25 05:26:28,-0.8,54.1,46.9,35.4,46.6,52.0,1,1,1,0,0,1,1,0,9836,5675
2024/11/25 05:28:27,-0.9,55.1,48.0,35.4,47.6,52.0,1,1,1,0,0,1,1,0,9836,5676
2024/11/25 05:30:26,-0.9,56.2,48.8,35.4,48.5,52.0,1,1,1,0,0,1,1,0,9836,5677
2024/11/25 05:32:26,-0.9,56.7,49.3,35.4,49.0,52.0,1,1,1,0,0,1,1,0,9836,5679
2024/11/25 05:34:24,-1.0,57.5,50.0,36.0,49.7,52.0,1,1,1,0,0,1,1,0,9836,5680
2024/11/25 05:36:24,-1.0,58.3,50.8,36.0,50.4,52.0,1,1,1,0,0,1,1,0,9836,5681
2024/11/25 05:38:22,-1.0,59.1,51.8,36.0,51.2,52.0,1,1,1,0,0,1,1,0,9836,5682
2024/11/25 05:40:22,-1.0,59.8,52.5,36.0,52.0,52.0,1,1,1,0,1,1,1,0,9836,5683
2024/11/25 05:43:21,-1.0,45.7,38.1,36.0,52.7,52.0,1,1,1,0,1,0,1,0,9837,5683
2024/11/25 05:45:20,-1.0,44.8,37.9,36.0,53.0,52.0,1,1,1,0,1,0,1,0,9838,5683
2024/11/25 05:47:19,-1.0,45.3,38.7,36.0,53.0,52.0,1,1,1,0,1,0,1,0,9839,5683
2024/11/25 05:49:17,-0.9,44.5,39.3,35.4,52.9,52.0,0,1,1,0,1,0,1,0,9840,5683
2024/11/25 05:51:17,-0.9,44.4,39.3,35.4,52.7,52.0,0,1,1,0,1,0,1,0,9841,5683
2024/11/25 05:53:16,-0.9,44.3,39.4,35.4,52.4,52.0,0,1,1,0,1,0,1,0,9842,5683
2024/11/25 05:55:15,-0.9,44.0,38.9,35.4,52.2,52.0,0,1,1,0,1,0,1,0,9843,5683
2024/11/25 05:57:14,-0.9,42.9,38.1,35.4,52.1,52.0,0,1,1,0,1,0,1,0,9843,5683
2024/11/25 05:59:12,-0.9,42.5,37.7,35.4,51.9,52.0,0,1,1,0,1,0,1,0,9844,5683
2024/11/25 06:01:11,-0.9,41.8,37.0,35.4,51.8,52.0,0,1,1,0,1,0,1,0,9845,5683
2024/11/25 06:03:09,-0.9,41.6,36.9,35.4,51.7,52.0,0,1,1,0,1,0,1,0,9846,5683
2024/11/25 06:05:08,-0.9,41.6,37.0,35.4,51.6,52.0,0,1,1,0,1,0,1,0,9846,5683
2024/11/25 06:07:07,-0.9,41.8,37.2,35.4,51.6,52.0,0,1,1,0,1,0,1,0,9847,5683
2024/11/25 06:09:05,-0.8,42.1,37.6,35.4,51.5,52.0,0,1,1,0,1,0,1,0,9848,5683
2024/11/25 06:11:04,-0.8,42.2,37.6,35.4,51.4,52.0,0,1,1,0,1,0,1,0,9849,5683
2024/11/25 06:13:04,-0.8,42.4,37.8,35.4,51.3,52.0,0,1,1,0,1,0,1,0,9849,5683
2024/11/25 06:15:03,-0.8,42.4,37.7,35.4,51.3,52.0,0,1,1,0,1,0,1,0,9850,5683
2024/11/25 06:17:01,-0.7,42.4,37.7,35.4,51.2,52.0,0,1,1,0,1,0,1,0,9851,5683
2024/11/25 06:19:00,-0.7,42.5,37.9,35.4,51.2,52.0,0,1,1,0,1,0,1,0,9851,5683
2024/11/25 06:21:00,-0.7,42.6,38.0,35.4,51.1,52.0,0,1,1,0,1,0,1,0,9852,5683
2024/11/25 06:22:59,-0.6,42.4,38.0,35.4,51.0,52.0,0,0,1,0,1,0,1,0,9853,5683
2024/11/25 06:24:59,-0.6,40.0,38.3,35.4,51.0,52.0,0,0,0,0,1,0,1,0,9853,5683
2024/11/25 06:26:58,-0.6,39.9,38.0,35.4,50.9,52.0,0,0,0,0,1,0,0,0,9853,5683
2024/11/25 06:28:56,-0.5,39.5,37.5,35.4,50.8,52.0,0,0,0,0,1,0,0,0,9853,5683
2024/11/25 06:30:54,-0.5,39.2,37.1,35.4,50.7,52.0,0,0,0,0,1,0,0,0,9853,5683
2024/11/25 06:32:53,-0.5,38.9,36.8,35.4,50.7,52.0,0,0,0,0,1,0,0,0,9853,5683
2024/11/25 06:34:52,-0.6,38.7,36.5,35.4,50.6,52.0,0,0,0,0,1,0,0,0,9853,5683
2024/11/25 06:36:51,-0.6,38.5,36.1,35.4,50.5,52.0,0,0,0,0,1,0,0,0,9853,5683
2024/11/25 06:38:50,-0.6,38.4,35.8,35.4,50.5,52.0,0,0,0,0,1,0,0,0,9853,5683
2024/11/25 06:40:49,-0.7,38.2,35.4,35.4,50.4,52.0,0,0,0,0,1,0,0,0,9853,5683
2024/11/25 06:42:49,-0.7,38.1,35.0,35.4,50.3,52.0,0,0,0,0,1,0,0,0,9853,5683
2024/11/25 06:44:47,-0.8,38.0,34.6,35.4,50.3,52.0,0,0,0,0,1,0,0,0,9853,5683
2024/11/25 06:46:46,-0.8,37.9,34.2,35.4,50.2,52.0,0,0,0,0,1,0,0,0,9853,5683
2024/11/25 06:48:44,-0.8,37.9,33.8,35.4,50.1,52.0,0,0,0,0,1,0,0,0,9853,5683
2024/11/25 06:50:42,-0.9,37.8,33.3,35.4,50.1,52.0,0,0,0,0,1,0,0,0,9853,5683
2024/11/25 06:52:41,-0.9,37.7,32.9,35.4,50.0,52.0,0,0,0,0,1,0,0,0,9853,5683
2024/11/25 06:54:40,-0.9,37.6,32.5,35.4,49.9,52.0,0,0,0,0,1,0,0,0,9853,5683
2024/11/25 06:56:39,-0.9,37.6,32.1,35.4,49.9,52.0,0,0,0,0,1,0,0,0,9853,5683
2024/11/25 06:58:37,-0.9,37.5,31.7,35.4,49.8,52.0,0,0,0,0,1,0,0,0,9853,5683
2024/11/25 07:00:36,-1.0,37.4,31.4,36.0,49.8,52.0,0,0,0,0,1,0,0,0,9853,5683
2024/11/25 07:02:34,-1.0,37.4,31.0,36.0,49.7,52.0,0,0,0,0,1,0,0,0,9853,5683
2024/11/25 07:04:32,-1.0,37.3,30.7,36.0,49.6,52.0,0,0,0,0,1,0,0,0,9853,5683
2024/11/25 07:06:31,-1.0,37.3,30.3,36.0,49.6,52.0,0,0,0,0,1,0,0,0,9853,5683
2024/11/25 07:08:30,-0.8,37.2,29.9,35.4,49.5,52.0,0,0,0,0,1,0,0,0,9853,5683
2024/11/25 07:10:29,-0.7,37.2,29.6,35.4,49.5,52.0,0,0,0,0,1,0,0,0,9853,5683
2024/11/25 07:12:29,-0.6,37.1,29.3,35.4,49.4,52.0,0,0,0,0,1,0,0,0,9853,5683
2024/11/25 07:14:28,-0.6,37.1,29.1,35.4,49.4,52.0,0,0,0,0,1,0,0,0,9853,5683
2024/11/25 07:16:27,-0.5,37.0,28.8,35.4,49.3,52.0,0,0,0,0,1,0,0,0,9853,5683
2024/11/25 07:18:26,-0.5,37.0,28.5,35.4,49.2,52.0,0,0,0,0,1,0,0,0,9853,5683
2024/11/25 07:20:25,-0.5,36.9,28.3,35.4,49.2,52.0,0,0,0,0,1,0,0,0,9853,5683
2024/11/25 07:22:24,-0.5,36.8,28.0,35.4,49.1,52.0,0,0,0,0,1,0,0,0,9853,5683
2024/11/25 07:24:23,-0.5,36.8,27.7,35.4,49.1,52.0,0,0,0,0,1,0,0,0,9853,5683
2024/11/25 07:26:22,-0.6,36.7,27.5,35.4,49.0,52.0,0,0,0,0,1,0,0,0,9853,5683
2024/11/25 07:29:20,-0.6,36.6,27.2,35.4,49.0,52.0,0,0,0,0,1,0,0,0,9853,5683
2024/11/25 07:31:19,-0.6,36.6,26.9,35.4,48.9,52.0,0,0,0,0,1,0,0,0,9853,5683
2024/11/25 07:33:18,-0.6,36.5,27.9,35.4,48.8,52.0,0,0,0,0,1,0,1,0,9853,5683
2024/11/25 07:35:17,-0.5,32.0,30.2,35.4,48.7,52.0,1,0,1,0,1,0,1,0,9853,5683
2024/11/25 07:37:15,-0.5,33.8,30.2,35.4,48.7,52.0,1,0,1,0,1,0,1,0,9854,5683
2024/11/25 07:39:14,-0.5,34.3,30.1,35.4,48.6,52.0,1,0,1,0,1,0,1,0,9855,5683
2024/11/25 07:41:13,-0.5,34.0,30.0,35.4,48.5,52.0,1,0,1,0,1,0,1,0,9855,5683
2024/11/25 07:43:12,-0.5,34.4,30.2,35.4,48.5,52.0,1,0,1,0,1,0,1,0,9856,5683
2024/11/25 07:45:11,-0.5,34.6,30.3,35.4,48.4,52.0,1,0,1,0,1,0,1,0,9857,5683
2024/11/25 07:47:10,-0.5,34.7,30.3,35.4,48.3,52.0,1,0,1,0,1,0,1,0,9858,5683
2024/11/25 07:49:09,-0.5,34.8,30.3,35.4,48.3,52.0,1,0,1,0,1,0,1,0,9859,5683
2024/11/25 07:51:09,-0.5,34.9,30.5,35.4,48.2,52.0,1,0,1,0,1,0,1,0,9859,5683
2024/11/25 07:53:07,-0.5,35.1,30.7,35.4,48.1,52.0,1,0,1,0,1,0,1,0,9860,5683
2024/11/25 07:55:06,-0.5,35.5,30.8,35.4,48.1,52.0,1,1,1,0,1,0,1,0,9861,5683
2024/11/25 07:57:05,-0.6,37.2,31.2,35.4,48.0,52.0,1,1,1,0,1,0,1,0,9862,5683
2024/11/25 07:59:04,-0.6,37.6,31.4,35.4,47.9,52.0,1,1,1,0,1,0,1,0,9864,5683
2024/11/25 08:01:04,-0.6,38.0,31.8,35.4,47.9,52.0,1,1,1,0,1,0,1,0,9865,5683
2024/11/25 08:03:02,-0.6,38.4,32.0,35.4,47.8,52.0,1,1,1,0,1,0,1,0,9867,5683
2024/11/25 08:05:01,-0.6,38.9,32.7,35.4,47.7,52.0,1,1,1,0,1,0,1,0,9868,5683
2024/11/25 08:07:00,-0.7,39.4,33.1,35.4,47.6,52.0,1,1,1,0,1,0,1,0,9869,5683
2024/11/25 08:09:00,-0.7,39.8,33.5,35.4,47.6,52.0,1,1,1,0,1,0,1,0,9871,5683
2024/11/25 08:10:59,-0.7,40.6,34.2,35.4,47.5,52.0,1,1,1,0,1,0,1,0,9872,5683
2024/11/25 08:12:57,-0.7,41.0,34.5,35.4,47.4,52.0,1,1,1,0,1,0,1,0,9873,5683
2024/11/25 08:14:56,-0.7,41.6,35.0,35.4,47.4,52.0,1,1,1,0,1,0,1,0,9875,5683
2024/11/25 08:16:54,-0.7,42.0,35.4,35.4,47.3,52.0,1,1,1,0,1,0,1,0,9876,5683
2024/11/25 08:18:53,-0.7,42.4,35.9,35.4,47.2,52.0,1,1,1,0,1,0,1,0,9877,5683
2024/11/25 08:20:53,-0.7,42.8,36.3,35.4,47.2,52.0,1,1,1,0,1,0,1,0,9879,5683
2024/11/25 08:22:51,-0.7,43.2,36.7,35.4,47.1,52.0,1,1,1,0,1,0,1,0,9880,5683
2024/11/25 08:24:50,-0.7,43.6,37.2,35.4,47.0,52.0,1,1,1,0,1,0,1,0,9881,5683
2024/11/25 08:26:49,-0.7,42.5,37.5,35.4,46.9,52.0,0,1,1,0,1,0,1,0,9882,5683
2024/11/25 08:28:47,-0.7,42.7,37.8,35.4,46.9,52.0,0,1,1,0,1,0,1,0,9883,5683
2024/11/25 08:30:46,-0.7,42.7,37.9,35.4,46.8,52.0,0,1,1,0,1,0,1,0,9884,5683
2024/11/25 08:32:45,-0.7,42.9,38.1,35.4,46.7,52.0,0,1,1,0,1,0,1,0,9884,5683
2024/11/25 08:34:44,-0.7,42.9,38.2,35.4,46.7,52.0,0,1,1,0,1,0,1,0,9885,5683
2024/11/25 08:36:43,-0.6,43.1,38.3,35.4,46.6,52.0,0,1,1,0,1,0,1,0,9886,5683
2024/11/25 08:38:42,-0.5,43.2,38.5,35.4,46.5,52.0,0,1,1,0,1,0,1,0,9887,5683
2024/11/25 08:40:40,-0.4,41.2,38.6,35.4,46.5,52.0,0,0,1,0,1,0,1,0,9887,5683
2024/11/25 08:42:39,-0.4,40.6,38.7,35.4,46.4,52.0,0,0,0,0,1,0,1,0,9887,5683
2024/11/25 08:44:37,-0.4,40.3,38.1,35.4,46.3,52.0,0,0,0,0,1,0,0,0,9887,5683
2024/11/25 08:46:36,-0.3,39.8,37.7,35.4,46.2,52.0,0,0,0,0,1,0,0,0,9887,5683
2024/11/25 08:48:35,-0.2,39.5,37.3,35.4,46.2,52.0,0,0,0,0,1,0,0,0,9887,5683
2024/11/25 08:50:35,-0.2,39.3,37.0,35.4,46.1,52.0,0,0,0,0,1,0,0,0,9887,5683
2024/11/25 08:52:34,-0.2,39.0,36.7,35.4,46.0,52.0,0,0,0,0,1,0,0,0,9887,5683
2024/11/25 08:54:32,-0.1,38.9,36.3,35.4,45.9,52.0,0,0,0,0,1,0,0,0,9887,5683
2024/11/25 08:56:31,-0.1,38.8,36.0,35.4,45.7,52.0,0,0,0,0,1,0,0,0,9887,5683
2024/11/25 08:58:29,-0.1,38.6,35.6,35.4,45.6,52.0,0,0,0,0,1,0,0,0,9887,5683
2024/11/25 09:00:27,0.0,38.5,35.3,35.4,45.5,52.0,0,0,0,0,1,0,0,0,9887,5683
2024/11/25 09:02:26,0.0,38.4,35.1,35.4,45.4,52.0,0,0,0,0,1,0,0,0,9887,5683
2024/11/25 09:04:25,0.1,38.3,34.9,35.4,45.4,52.0,0,0,0,0,1,0,0,0,9887,5683
2024/11/25 09:06:24,0.1,38.2,34.4,35.4,45.3,52.0,0,0,0,0,1,0,0,0,9887,5683
2024/11/25 09:08:23,0.2,38.2,33.9,35.4,45.2,52.0,0,0,0,0,1,0,0,0,9887,5683
2024/11/25 09:11:21,0.2,38.1,33.6,35.4,45.1,52.0,0,0,0,0,1,0,0,0,9887,5683
2024/11/25 09:13:20,0.3,38.0,33.3,35.4,45.1,52.0,0,0,0,0,1,0,0,0,9887,5683
2024/11/25 09:15:20,0.3,37.9,33.0,35.4,45.0,52.0,0,0,0,0,1,0,0,0,9887,5683
2024/11/25 09:17:19,0.4,37.9,32.6,35.4,44.9,52.0,0,0,0,0,1,0,0,0,9887,5683
2024/11/25 09:19:18,0.5,37.8,32.3,35.4,44.7,52.0,0,0,0,0,1,0,0,0,9887,5683
2024/11/25 09:21:17,0.5,37.7,32.0,35.4,44.0,52.0,0,0,1,0,1,1,1,0,9887,5683
2024/11/25 09:23:16,0.6,34.0,31.0,35.4,43.1,52.0,1,0,1,0,0,1,1,0,9887,5684
2024/11/25 09:25:15,0.7,33.8,30.1,35.4,40.8,52.0,1,0,1,0,0,1,1,0,9887,5684
2024/11/25 09:27:14,0.7,35.1,31.0,35.4,39.3,52.0,1,0,1,0,0,1,1,0,9887,5685
2024/11/25 09:29:13,0.8,36.0,31.9,35.4,38.5,52.0,1,0,1,0,0,1,1,0,9887,5686
2024/11/25 09:31:11,0.8,37.0,32.7,35.4,38.1,52.0,1,0,1,0,0,1,1,0,9887,5687
2024/11/25 09:33:10,0.9,37.9,33.6,35.4,38.0,52.0,1,0,1,0,0,1,1,0,9887,5687
2024/11/25 09:35:10,0.9,38.7,34.4,35.4,38.0,52.0,1,0,1,0,0,1,1,0,9887,5688
2024/11/25 09:37:09,1.0,39.5,35.2,34.7,38.3,52.0,1,0,1,0,0,1,1,0,9887,5689
2024/11/25 09:39:08,1.0,40.4,36.1,34.7,38.7,52.0,1,0,1,0,0,1,1,0,9887,5690
2024/11/25 09:41:07,1.0,41.3,36.9,34.7,39.3,52.0,1,0,1,0,0,1,1,0,9887,5690
2024/11/25 09:43:06,1.1,44.2,37.8,34.7,39.9,52.0,1,1,1,0,0,1,1,0,9887,5691
2024/11/25 09:45:05,1.1,47.0,40.3,34.7,41.0,52.0,1,1,1,0,0,1,1,0,9887,5693
2024/11/25 09:47:04,1.2,48.8,42.1,34.7,42.5,52.0,1,1,1,0,0,1,1,0,9887,5694
2024/11/25 09:49:04,1.2,50.1,43.3,34.7,43.5,52.0,1,1,1,0,0,1,1,0,9887,5695
2024/11/25 09:51:02,1.3,51.5,44.3,34.7,44.3,52.0,1,1,1,0,0,1,1,0,9887,5697
2024/11/25 09:53:01,1.3,52.6,45.3,34.7,45.2,52.0,1,1,1,0,0,1,1,0,9887,5698
2024/11/25 09:55:00,1.4,53.6,46.4,34.7,45.9,52.0,1,1,1,0,0,1,1,0,9887,5699
2024/11/25 09:57:00,1.4,54.6,47.3,34.7,46.8,52.0,1,1,1,0,0,1,1,0,9887,5700
2024/11/25 09:59:00,1.5,55.6,48.3,34.7,47.7,52.0,1,1,1,0,0,1,1,0,9887,5702
2024/11/25 10:00:59,1.5,56.6,49.2,34.7,48.6,52.0,1,1,1,0,0,1,1,0,9887,5703
2024/11/25 10:02:58,1.6,57.6,50.1,34.7,49.5,52.0,1,1,1,0,0,1,1,0,9887,5704
2024/11/25 10:04:57,1.6,58.4,50.9,34.7,50.4,52.0,1,1,1,0,0,1,1,0,9887,5705
2024/11/25 10:06:55,1.6,59.3,52.0,34.7,51.4,52.0,1,1,1,0,0,1,1,0,9887,5707
2024/11/25 10:08:54,1.7,55.9,52.6,34.7,52.3,52.0,0,0,1,0,1,0,1,0,9887,5707
2024/11/25 10:10:53,1.7,36.8,34.0,34.7,52.9,52.0,0,0,0,0,1,0,1,0,9887,5707
2024/11/25 10:12:52,1.7,35.5,32.9,34.7,53.0,52.0,0,0,0,0,1,0,0,0,9887,5707
2024/11/25 10:14:50,1.8,35.0,32.5,34.7,53.0,52.0,0,0,0,0,1,0,0,0,9887,5707
2024/11/25 10:16:50,1.8,34.6,32.1,34.7,53.0,52.0,0,0,0,0,1,0,0,0,9887,5707
2024/11/25 10:18:49,1.8,34.2,31.8,34.7,52.9,52.0,0,0,0,0,1,0,0,0,9887,5707
2024/11/25 10:20:48,1.8,34.0,31.4,34.7,52.8,52.0,0,0,0,0,1,0,0,0,9887,5707
2024/11/25 10:22:46,1.9,32.8,30.5,34.7,52.6,52.0,0,0,0,0,1,0,1,0,9887,5707
2024/11/25 10:24:45,2.0,32.5,30.0,34.1,52.5,52.0,1,0,1,0,1,0,1,0,9888,5707
2024/11/25 10:26:44,2.0,34.0,30.2,34.1,52.5,52.0,1,0,1,0,1,0,1,0,9888,5707
2024/11/25 10:28:42,2.1,34.6,30.5,34.1,52.4,52.0,1,0,1,0,1,0,1,0,9889,5707
2024/11/25 10:30:41,2.1,34.9,30.8,34.1,52.3,52.0,1,0,1,0,1,0,1,0,9890,5707
2024/11/25 10:32:40,2.2,35.1,30.8,34.1,52.3,52.0,1,0,1,0,1,0,1,0,9891,5707
2024/11/25 10:34:40,2.3,35.1,30.8,34.1,52.2,52.0,1,0,1,0,1,0,1,0,9891,5707
2024/11/25 10:36:39,2.4,35.1,30.8,34.1,52.1,52.0,1,0,1,0,1,0,1,0,9892,5707
2024/11/25 10:38:37,2.4,35.2,30.9,34.1,52.1,52.0,1,0,1,0,1,0,1,0,9893,5707
2024/11/25 10:40:36,2.5,35.3,31.0,34.1,52.0,52.0,1,0,1,0,1,0,1,0,9894,5707
2024/11/25 10:42:35,2.6,35.5,31.2,34.1,51.9,52.0,1,0,1,0,1,0,1,0,9895,5707
2024/11/25 10:44:34,2.7,35.7,31.4,34.1,51.8,52.0,1,0,1,0,1,0,1,0,9895,5707
2024/11/25 10:46:33,2.7,37.6,31.7,34.1,51.8,52.0,1,1,1,0,1,0,1,0,9897,5707
2024/11/25 10:48:32,2.8,38.1,32.0,34.1,51.7,52.0,1,1,1,0,1,0,1,0,9898,5707
2024/11/25 10:50:31,2.9,38.4,32.3,34.1,51.6,52.0,1,1,1,0,1,0,1,0,9899,5707
2024/11/25 10:52:30,2.9,38.9,32.7,34.1,51.6,52.0,1,1,1,0,1,0,1,0,9901,5707
2024/11/25 10:54:28,3.0,39.5,33.3,33.4,51.5,52.0,1,1,1,0,1,0,1,0,9902,5707
2024/11/25 10:56:27,3.0,39.9,33.6,33.4,51.4,52.0,1,1,1,0,1,0,1,0,9904,5707
2024/11/25 10:58:25,3.1,40.6,34.3,33.4,51.3,52.0,1,1,1,0,1,0,1,0,9905,5707
2024/11/25 11:00:24,3.1,41.2,34.8,33.4,51.3,52.0,1,1,1,0,1,0,1,0,9906,5707
2024/11/25 11:02:22,3.2,41.8,35.3,33.4,51.2,52.0,1,1,1,0,1,0,1,0,9908,5707
2024/11/25 11:05:22,3.2,40.5,35.6,33.4,51.1,52.0,0,1,1,0,1,0,1,0,9908,5707
2024/11/25 11:07:21,3.3,40.8,36.0,33.4,51.0,52.0,0,1,1,0,1,0,1,0,9909,5707
2024/11/25 11:09:20,3.3,40.9,36.2,33.4,51.0,52.0,0,1,1,0,1,0,1,0,9910,5707
2024/11/25 11:11:18,3.3,41.1,36.4,33.4,50.9,52.0,0,1,1,0,1,0,1,0,9911,5707
2024/11/25 11:13:17,3.3,41.3,36.6,33.4,50.8,52.0,0,1,1,0,1,0,1,0,9911,5707
2024/11/25 11:15:16,3.3,41.4,36.8,33.4,50.7,52.0,0,1,1,0,1,0,1,0,9912,5707
2024/11/25 11:17:15,3.4,41.7,37.0,33.4,50.7,52.0,0,1,1,0,1,0,1,0,9913,5707
2024/11/25 11:19:13,3.5,39.6,37.1,33.4,50.6,52.0,0,0,1,0,1,0,1,0,9913,5707
2024/11/25 11:21:12,3.5,39.3,37.5,33.4,50.5,52.0,0,0,0,0,1,0,1,0,9913,5707
2024/11/25 11:23:11,3.5,38.9,36.8,33.4,50.5,52.0,0,0,0,0,1,0,0,0,9913,5707
2024/11/25 11:25:10,3.6,38.5,36.3,33.4,50.4,52.0,0,0,0,0,1,0,0,0,9913,5707
2024/11/25 11:27:09,3.7,38.2,36.0,33.4,50.3,52.0,0,0,0,0,1,0,0,0,9913,5707
2024/11/25 11:29:07,3.7,37.9,35.7,33.4,50.3,52.0,0,0,0,0,1,0,0,0,9913,5707
2024/11/25 11:31:06,3.8,37.7,35.3,33.4,50.2,52.0,0,0,0,0,1,0,0,0,9913,5707
2024/11/25 11:33:04,3.8,37.5,35.0,33.4,50.1,52.0,0,0,0,0,1,0,0,0,9913,5707
2024/11/25 11:35:03,3.9,37.4,34.8,33.4,50.1,52.0,0,0,0,0,1,0,0,0,9913,5707
2024/11/25 11:37:02,3.9,37.3,34.6,33.4,50.0,52.0,0,0,0,0,1,0,0,0,9913,5707
2024/11/25 11:39:01,3.9,37.2,34.3,33.4,49.9,52.0,0,0,0,0,1,0,0,0,9913,5707
2024/11/25 11:41:00,4.0,37.1,34.0,32.8,49.9,52.0,0,0,0,0,1,0,0,0,9913,5707
2024/11/25 11:43:00,4.0,37.0,33.7,32.8,49.8,52.0,0,0,0,0,1,0,0,0,9913,5707
2024/11/25 11:44:59,4.1,36.9,33.4,32.8,49.8,52.0,0,0,0,0,1,0,0,0,9913,5707
2024/11/25 11:46:58,4.2,36.8,33.1,32.8,49.7,52.0,0,0,0,0,1,0,0,0,9913,5707
2024/11/25 11:48:56,4.2,36.7,32.7,32.8,49.7,52.0,0,0,0,0,1,0,0,0,9913,5707
2024/11/25 11:50:55,4.2,36.7,32.4,32.8,49.6,52.0,0,0,0,0,1,0,0,0,9913,5707
2024/11/25 11:52:55,4.3,36.6,32.1,32.8,49.5,52.0,0,0,0,0,1,0,0,0,9913,5707
2024/11/25 11:54:54,4.4,36.5,31.8,32.8,49.5,52.0,0,0,0,0,1,0,0,0,9913,5707
2024/11/25 11:56:53,4.4,36.5,31.4,32.8,49.4,52.0,0,0,0,0,1,0,0,0,9913,5707
2024/11/25 11:58:51,4.5,36.4,31.1,32.8,49.4,52.0,0,0,0,0,1,0,0,0,9913,5707
2024/11/25 12:00:50,4.5,36.3,30.8,32.8,49.3,52.0,0,0,0,0,1,0,0,0,9913,5707
2024/11/25 12:02:49,4.6,36.3,30.5,32.8,49.3,52.0,0,0,0,0,1,0,0,0,9913,5707
2024/11/25 12:04:48,4.7,36.2,30.2,32.8,49.2,52.0,0,0,0,0,1,0,0,0,9913,5707
2024/11/25 12:06:47,4.7,36.2,30.0,32.8,49.1,52.0,0,0,0,0,1,0,0,0,9913,5707
2024/11/25 12:08:45,4.8,36.1,29.7,32.8,49.1,52.0,0,0,0,0,1,0,0,0,9913,5707
2024/11/25 12:10:45,4.8,36.1,29.5,32.8,49.0,52.0,0,0,0,0,1,0,0,0,9913,5707
2024/11/25 12:12:43,4.9,36.0,29.3,32.8,49.0,52.0,0,0,0,0,1,0,0,0,9913,5707
2024/11/25 12:14:42,4.9,36.0,29.1,32.8,48.9,52.0,0,0,0,0,1,0,0,0,9913,5707
2024/11/25 12:16:41,5.0,35.9,28.9,32.1,48.9,52.0,0,0,0,0,1,0,0,0,9913,5707
2024/11/25 12:18:40,5.0,35.8,28.7,32.1,48.8,52.0,0,0,0,0,1,0,0,0,9913,5707
2024/11/25 12:20:40,5.0,35.8,28.5,32.1,48.8,52.0,0,0,0,0,1,0,0,0,9913,5707
2024/11/25 12:22:39,5.0,35.7,28.3,32.1,48.7,52.0,0,0,0,0,1,0,0,0,9913,5707
2024/11/25 12:24:38,5.1,35.7,28.1,32.1,48.7,52.0,0,0,0,0,1,0,0,0,9913,5707
2024/11/25 12:26:36,5.1,35.6,27.9,32.1,48.6,52.0,0,0,0,0,1,0,0,0,9913,5707
2024/11/25 12:28:34,5.1,35.5,27.7,32.1,48.6,52.0,0,0,0,0,1,0,0,0,9913,5707
2024/11/25 12:30:33,5.2,35.4,27.6,32.1,48.5,52.0,0,0,0,0,1,0,0,0,9913,5707
2024/11/25 12:32:33,5.2,35.4,27.4,32.1,48.4,52.0,0,0,0,0,1,0,0,0,9913,5707
2024/11/25 12:34:30,5.3,35.3,27.3,32.1,48.4,52.0,0,0,0,0,1,0,0,0,9913,5707
2024/11/25 12:36:29,5.4,35.2,27.1,32.1,48.3,52.0,0,0,0,0,1,0,0,0,9913,5707
2024/11/25 12:38:28,5.5,35.2,27.0,32.1,48.3,52.0,0,0,0,0,1,0,0,0,9913,5707
2024/11/25 12:40:27,5.5,35.1,26.8,32.1,48.2,52.0,0,0,0,0,1,0,0,0,9913,5707
2024/11/25 12:42:26,5.6,35.0,26.7,32.1,48.2,52.0,0,0,0,0,1,0,0,0,9913,5707
2024/11/25 12:44:25,5.6,35.0,26.6,32.1,48.1,52.0,0,0,0,0,1,0,0,0,9913,5707
2024/11/25 12:46:23,5.7,34.9,26.4,32.1,48.1,52.0,0,0,0,0,1,0,0,0,9913,5707
2024/11/25 12:49:22,5.8,34.9,26.3,32.1,48.0,52.0,0,0,0,0,1,0,0,0,9913,5707
2024/11/25 12:51:21,5.8,34.8,26.2,32.1,48.0,52.0,0,0,0,0,1,0,0,0,9913,5707
2024/11/25 12:53:20,5.9,34.7,26.1,32.1,47.9,52.0,0,0,0,0,1,0,0,0,9913,5707
2024/11/25 12:55:18,5.9,34.7,26.0,32.1,47.9,52.0,0,0,0,0,1,0,0,0,9913,5707
2024/11/25 12:57:17,5.9,34.6,25.9,32.1,47.8,52.0,0,0,0,0,1,0,0,0,9913,5707
2024/11/25 12:59:17,5.9,34.6,25.8,32.1,47.7,52.0,0,0,0,0,1,0,0,0,9913,5707
2024/11/25 13:01:16,5.8,34.5,25.7,32.1,47.7,52.0,0,0,0,0,1,0,0,0,9913,5707
2024/11/25 13:03:15,5.8,34.4,25.6,32.1,47.6,52.0,0,0,0,0,1,0,0,0,9913,5707
2024/11/25 13:05:14,5.8,34.4,25.5,32.1,47.6,52.0,0,0,0,0,1,0,0,0,9913,5707
2024/11/25 13:07:12,5.8,34.3,25.4,32.1,47.5,52.0,0,0,0,0,1,0,0,0,9913,5707
2024/11/25 13:09:11,5.8,34.2,25.3,32.1,47.5,52.0,0,0,0,0,1,0,0,0,9913,5707
2024/11/25 13:11:09,5.8,32.5,28.7,32.1,47.4,52.0,0,0,0,0,1,0,1,0,9913,5707
2024/11/25 13:13:08,5.9,30.3,28.2,32.1,47.4,52.0,1,0,1,0,1,0,1,0,9914,5707
2024/11/25 13:15:07,5.9,31.8,28.2,32.1,47.3,52.0,1,0,1,0,1,0,1,0,9914,5707
2024/11/25 13:17:06,5.9,32.1,28.4,32.1,47.3,52.0,1,0,1,0,1,0,1,0,9915,5707
2024/11/25 13:19:06,5.9,32.5,28.7,32.1,47.2,52.0,1,0,1,0,1,0,1,0,9916,5707
2024/11/25 13:21:05,6.0,32.7,28.8,31.4,47.2,52.0,1,0,1,0,1,0,1,0,9917,5707
2024/11/25 13:23:05,6.0,32.9,29.0,31.4,47.1,52.0,1,0,1,0,1,0,1,0,9918,5707
2024/11/25 13:25:03,6.1,33.2,29.2,31.4,47.0,52.0,1,0,1,0,1,0,1,0,9918,5707
2024/11/25 13:27:02,6.2,33.3,29.3,31.4,47.0,52.0,1,0,1,0,1,0,1,0,9919,5707
2024/11/25 13:29:01,6.2,33.6,29.6,31.4,46.9,52.0,1,0,1,0,1,0,1,0,9920,5707
2024/11/25 13:31:00,6.3,33.9,29.8,31.4,46.9,52.0,1,0,1,0,1,0,1,0,9921,5707
2024/11/25 13:32:59,6.3,34.1,30.0,31.4,46.8,52.0,1,0,1,0,1,0,1,0,9922,5707
2024/11/25 13:34:59,6.4,34.6,30.2,31.4,46.8,52.0,1,0,1,0,1,0,1,0,9922,5707
2024/11/25 13:36:57,6.4,34.6,30.2,31.4,46.7,52.0,1,0,1,0,1,0,1,0,9923,5707
2024/11/25 13:38:56,6.5,34.6,30.2,31.4,46.7,52.0,1,0,1,0,1,0,1,0,9924,5707
2024/11/25 13:40:56,6.5,34.8,30.4,31.4,46.6,52.0,1,0,1,0,1,0,1,0,9925,5707
2024/11/25 13:42:55,6.5,35.0,30.6,31.4,46.6,52.0,1,0,1,0,1,0,1,0,9926,5707
2024/11/25 13:44:54,6.5,35.3,30.8,31.4,46.5,52.0,1,0,1,0,1,0,1,0,9926,5707
2024/11/25 13:46:52,6.6,35.5,31.0,31.4,46.5,52.0,1,0,1,0,1,0,1,0,9927,5707
2024/11/25 13:48:51,6.6,35.7,31.2,31.4,46.4,52.0,1,0,1,0,1,0,1,0,9928,5707
2024/11/25 13:50:50,6.6,36.0,31.5,31.4,46.3,52.0,1,0,1,0,1,0,1,0,9929,5707
2024/11/25 13:52:49,6.6,36.4,31.8,31.4,46.3,52.0,1,0,1,0,1,0,1,0,9930,5707
2024/11/25 13:54:47,6.6,36.6,32.0,31.4,46.2,52.0,1,0,1,0,1,0,1,0,9930,5707
2024/11/25 13:56:46,6.6,36.8,32.2,31.4,46.2,52.0,1,0,1,0,1,0,1,0,9931,5707
2024/11/25 13:58:44,6.6,37.0,32.4,31.4,46.1,52.0,1,0,1,0,1,0,1,0,9932,5707
2024/11/25 14:00:43,6.5,37.2,32.6,31.4,46.1,52.0,1,0,1,0,1,0,1,0,9933,5707
2024/11/25 14:02:42,6.5,37.4,32.8,31.4,46.0,52.0,1,0,1,0,1,0,1,0,9933,5707
2024/11/25 14:04:41,6.4,37.6,33.0,31.4,46.0,52.0,1,0,1,0,1,0,1,0,9934,5707
2024/11/25 14:06:40,6.4,37.8,33.2,31.4,45.9,52.0,1,0,1,0,1,0,1,0,9935,5707
2024/11/25 14:08:39,6.3,36.0,33.5,31.4,45.9,52.0,0,0,1,0,1,0,1,0,9935,5707
2024/11/25 14:10:38,6.3,35.6,34.0,31.4,45.8,52.0,0,0,0,0,1,0,1,0,9935,5707
2024/11/25 14:12:37,6.3,35.5,33.6,31.4,45.7,52.0,0,0,0,0,1,0,0,0,9935,5707
2024/11/25 14:14:36,6.3,35.1,33.2,31.4,45.6,52.0,0,0,0,0,1,0,0,0,9935,5707
2024/11/25 14:16:35,6.3,34.8,33.0,31.4,45.6,52.0,0,0,0,0,1,0,0,0,9935,5707
2024/11/25 14:18:33,6.4,34.6,32.8,31.4,45.5,52.0,0,0,0,0,1,0,0,0,9935,5707
2024/11/25 14:20:32,6.4,34.5,32.5,31.4,45.4,52.0,0,0,0,0,1,0,0,0,9935,5707
2024/11/25 14:22:31,6.5,34.4,32.3,31.4,45.4,52.0,0,0,0,0,1,0,0,0,9935,5707
2024/11/25 14:24:30,6.5,34.2,32.1,31.4,45.4,52.0,0,0,0,0,1,0,0,0,9935,5707
2024/11/25 14:26:28,6.6,34.1,31.8,31.4,45.3,52.0,0,0,0,0,1,0,0,0,9935,5707
2024/11/25 14:28:26,6.6,34.0,31.6,31.4,45.3,52.0,0,0,0,0,1,0,0,0,9935,5707
2024/11/25 14:30:25,6.6,34.0,31.4,31.4,45.2,52.0,0,0,0,0,1,0,0,0,9935,5707
2024/11/25 14:32:25,6.7,33.9,31.1,31.4,45.1,52.0,0,0,0,0,1,0,0,0,9935,5707
2024/11/25 14:34:24,6.7,33.8,30.9,31.4,45.1,52.0,0,0,0,0,1,0,0,0,9935,5707
2024/11/25 14:36:24,6.7,33.7,30.7,31.4,45.0,52.0,0,0,0,0,1,0,0,0,9935,5707
2024/11/25 14:39:22,6.7,33.7,30.4,31.4,45.0,52.0,0,0,0,0,1,0,0,0,9935,5707
2024/11/25 14:41:22,6.8,33.6,30.2,31.4,44.9,52.0,0,0,0,0,1,0,0,0,9935,5707
2024/11/25 14:43:20,6.9,33.6,30.0,31.4,44.9,52.0,0,0,0,0,1,0,0,0,9935,5707
2024/11/25 14:45:19,7.0,33.5,29.8,31.4,44.8,52.0,0,0,0,0,1,0,0,0,9935,5707
2024/11/25 14:47:17,7.0,33.4,29.6,30.7,44.8,52.0,0,0,0,0,1,0,0,0,9935,5707
2024/11/25 14:49:16,7.1,33.4,29.4,30.7,44.8,52.0,0,0,0,0,1,0,0,0,9935,5707
2024/11/25 14:51:16,7.1,33.3,29.2,30.7,44.7,52.0,0,0,0,0,1,0,0,0,9935,5707
2024/11/25 14:53:14,7.2,33.3,29.0,30.7,44.7,52.0,0,0,0,0,1,0,0,0,9935,5707
2024/11/25 14:55:13,7.2,33.2,28.8,30.7,44.6,52.0,0,0,0,0,1,0,0,0,9935,5707
2024/11/25 14:57:11,7.2,33.2,28.7,30.7,44.6,52.0,0,0,0,0,1,0,0,0,9935,5707
2024/11/25 14:59:10,7.2,33.2,28.5,30.7,44.5,52.0,0,0,0,0,1,0,0,0,9935,5707
2024/11/25 15:01:09,7.2,33.1,28.3,30.7,44.5,52.0,0,0,0,0,1,0,0,0,9935,5707
2024/11/25 15:03:08,7.2,33.1,28.1,30.7,44.5,52.0,0,0,0,0,1,0,0,0,9935,5707
2024/11/25 15:05:07,7.2,33.0,28.0,30.7,44.4,52.0,0,0,0,0,1,0,0,0,9935,5707
2024/11/25 15:07:06,7.2,33.0,27.8,30.7,44.4,52.0,0,0,0,0,1,0,0,0,9935,5707
2024/11/25 15:09:05,7.2,32.9,27.6,30.7,44.3,52.0,0,0,0,0,1,0,0,0,9935,5707
2024/11/25 15:11:04,7.2,32.9,27.5,30.7,44.3,52.0,0,0,0,0,1,0,0,0,9935,5707
2024/11/25 15:13:03,7.2,32.8,27.3,30.7,44.2,52.0,0,0,0,0,1,0,0,0,9935,5707
2024/11/25 15:15:02,7.2,32.8,27.2,30.7,44.2,52.0,0,0,0,0,1,0,0,0,9935,5707
2024/11/25 15:17:01,7.2,32.8,27.0,30.7,44.1,52.0,0,0,0,0,1,0,0,0,9935,5707
2024/11/25 15:19:00,7.1,32.7,26.9,30.7,44.1,52.0,0,0,0,0,1,0,0,0,9935,5707
2024/11/25 15:21:00,7.1,32.7,26.7,30.7,44.1,52.0,0,0,0,0,1,0,0,0,9935,5707
2024/11/25 15:22:59,7.0,33.2,34.6,30.7,44.0,52.0,0,1,1,0,0,1,1,0,9935,5708
2024/11/25 15:24:58,7.0,39.8,36.5,30.7,43.7,52.0,0,1,1,0,0,1,1,0,9935,5708
2024/11/25 15:26:58,6.9,43.4,39.7,31.4,43.5,52.0,0,1,1,0,0,1,1,0,9935,5709
2024/11/25 15:28:56,6.8,45.3,41.5,31.4,43.5,52.0,0,1,1,0,0,1,1,0,9935,5710
2024/11/25 15:30:56,6.7,46.8,42.7,31.4,43.8,52.0,0,1,1,0,0,1,1,0,9935,5711
2024/11/25 15:32:55,6.7,47.8,43.5,31.4,44.1,52.0,0,1,1,0,0,1,1,0,9935,5711
2024/11/25 15:34:53,6.6,48.6,44.1,31.4,44.5,52.0,0,1,1,0,0,1,1,0,9935,5712
2024/11/25 15:36:52,6.6,49.2,44.7,31.4,45.0,52.0,0,1,1,0,0,1,1,0,9935,5713
2024/11/25 15:38:51,6.5,49.8,45.2,31.4,45.6,52.0,0,1,1,0,0,1,1,0,9935,5713
2024/11/25 15:40:50,6.5,50.4,45.7,31.4,46.2,52.0,0,1,1,0,0,1,1,0,9935,5714
2024/11/25 15:42:50,6.5,51.6,46.3,31.4,46.9,52.0,1,1,1,0,0,1,1,0,9935,5715
2024/11/25 15:44:48,6.4,54.7,47.9,31.4,47.3,52.0,1,1,1,0,0,1,1,0,9935,5716
2024/11/25 15:46:48,6.4,56.4,49.3,31.4,48.2,52.0,1,1,1,0,0,1,1,0,9935,5717
2024/11/25 15:48:47,6.3,57.6,50.3,31.4,49.1,52.0,1,1,1,0,0,1,1,0,9935,5719
2024/11/25 15:50:45,6.2,58.6,51.3,31.4,50.1,52.0,1,1,1,0,0,1,1,0,9935,5720
2024/11/25 15:52:45,6.0,59.5,52.3,31.4,51.2,52.0,1,1,1,0,0,1,1,0,9935,5721
2024/11/25 15:54:44,5.9,58.7,52.9,31.4,52.3,52.0,1,0,1,0,1,0,1,0,9935,5722
2024/11/25 15:56:44,5.9,37.2,31.3,32.1,53.0,52.0,1,0,1,0,1,0,1,0,9936,5722
2024/11/25 15:58:43,5.8,34.9,29.7,32.1,53.3,52.0,1,0,1,0,1,0,1,0,9937,5722
2024/11/25 16:00:42,5.7,33.8,29.0,32.1,53.3,52.0,1,0,1,0,1,0,1,0,9938,5722
2024/11/25 16:02:41,5.7,33.7,29.1,32.1,53.3,52.0,1,0,1,0,1,0,1,0,9938,5722
2024/11/25 16:04:39,5.7,34.2,29.8,32.1,53.2,52.0,1,0,1,0,1,0,1,0,9939,5722
2024/11/25 16:06:39,5.6,34.4,30.1,32.1,53.1,52.0,1,0,1,0,1,0,1,0,9940,5722
2024/11/25 16:08:37,5.6,34.8,30.1,32.1,53.0,52.0,1,0,1,0,1,0,1,0,9941,5722
2024/11/25 16:10:36,5.5,34.8,30.1,32.1,52.9,52.0,1,0,1,0,1,0,1,0,9942,5722
2024/11/25 16:12:36,5.4,34.8,30.2,32.1,52.8,52.0,1,0,1,0,1,0,1,0,9942,5722
2024/11/25 16:14:34,5.3,34.8,30.3,32.1,52.7,52.0,1,0,1,0,1,0,1,0,9943,5722
2024/11/25 16:16:32,5.3,34.9,30.4,32.1,52.6,52.0,1,0,1,0,1,0,1,0,9944,5722
2024/11/25 16:18:31,5.2,35.0,30.5,32.1,52.6,52.0,1,0,1,0,1,0,1,0,9945,5722
2024/11/25 16:20:30,5.1,35.2,30.7,32.1,52.5,52.0,1,0,1,0,1,0,1,0,9945,5722
2024/11/25 16:22:29,5.0,35.5,30.9,32.1,52.4,52.0,1,0,1,0,1,0,1,0,9946,5722
2024/11/25 16:24:28,5.0,35.6,31.1,32.1,52.4,52.0,1,0,1,0,1,0,1,0,9947,5722
2024/11/25 16:26:26,4.9,35.7,31.2,32.8,52.3,52.0,1,0,1,0,1,0,1,0,9948,5722
2024/11/25 16:28:25,4.9,35.9,31.4,32.8,52.3,52.0,1,0,1,0,1,0,1,0,9949,5722
2024/11/25 16:30:24,4.9,36.0,31.5,32.8,52.2,52.0,1,0,1,0,1,0,1,0,9949,5722
2024/11/25 16:32:23,4.8,36.3,31.7,32.8,52.1,52.0,1,0,1,0,1,0,1,0,9950,5722
2024/11/25 16:34:22,4.8,36.4,31.9,32.8,52.0,52.0,1,0,1,0,1,0,1,0,9951,5722
2024/11/25 16:37:21,4.8,36.6,32.0,32.8,52.0,52.0,1,0,1,0,1,0,1,0,9952,5722
2024/11/25 16:39:20,4.8,36.7,32.2,32.8,51.9,52.0,1,0,1,0,1,0,1,0,9953,5722
2024/11/25 16:41:17,4.7,36.9,32.3,32.8,51.8,52.0,1,0,1,0,1,0,1,0,9953,5722
2024/11/25 16:43:16,4.6,37.0,32.5,32.8,51.8,52.0,1,0,1,0,1,0,1,0,9954,5722
2024/11/25 16:45:15,4.6,37.2,32.6,32.8,51.7,52.0,1,0,1,0,1,0,1,0,9955,5722
2024/11/25 16:47:14,4.5,37.4,32.8,32.8,51.6,52.0,1,0,1,0,1,0,1,0,9956,5722
2024/11/25 16:49:13,4.5,37.6,33.0,32.8,51.6,52.0,1,0,1,0,1,0,1,0,9956,5722
2024/11/25 16:51:13,4.5,37.8,33.2,32.8,51.5,52.0,1,0,1,0,1,0,1,0,9957,5722
2024/11/25 16:53:12,4.4,38.1,33.4,32.8,51.4,52.0,1,0,1,0,1,0,1,0,9958,5722
2024/11/25 16:55:10,4.4,38.1,33.5,32.8,51.4,52.0,1,0,1,0,1,0,1,0,9959,5722
2024/11/25 16:57:08,4.4,38.3,33.7,32.8,51.3,52.0,1,0,1,0,1,0,1,0,9959,5722
2024/11/25 16:59:08,4.4,38.5,33.8,32.8,51.2,52.0,1,0,1,0,1,0,1,0,9960,5722
2024/11/25 17:01:07,4.4,38.7,34.1,32.8,51.2,52.0,1,0,1,0,1,0,1,0,9961,5722
2024/11/25 17:03:06,4.4,38.9,34.3,32.8,51.1,52.0,1,0,1,0,1,0,1,0,9962,5722
2024/11/25 17:05:04,4.5,39.1,34.4,32.8,51.0,52.0,1,0,1,0,1,0,1,0,9962,5722
2024/11/25 17:07:02,4.5,39.3,34.6,32.8,51.0,52.0,1,0,1,0,1,0,1,0,9963,5722
2024/11/25 17:09:01,4.5,39.5,34.7,32.8,50.9,52.0,1,0,1,0,1,0,1,0,9964,5722
2024/11/25 17:11:00,4.6,36.9,34.9,32.8,50.8,52.0,0,0,0,0,1,0,1,0,9964,5722
2024/11/25 17:12:58,4.6,37.2,35.1,32.8,50.8,52.0,0,0,0,0,1,0,0,0,9964,5722
2024/11/25 17:14:57,4.6,36.7,34.6,32.8,50.7,52.0,0,0,0,0,1,0,0,0,9964,5722
2024/11/25 17:16:55,4.5,36.3,34.3,32.8,50.6,52.0,0,0,0,0,1,0,0,0,9964,5722
2024/11/25 17:18:54,4.5,36.0,34.0,32.8,50.6,52.0,0,0,0,0,1,0,0,0,9964,5722
2024/11/25 17:20:53,4.5,35.8,33.7,32.8,50.5,52.0,0,0,0,0,1,0,0,0,9964,5722
2024/11/25 17:22:52,4.5,35.6,33.5,32.8,50.5,52.0,0,0,0,0,1,0,0,0,9964,5722
2024/11/25 17:24:51,4.4,35.4,33.2,32.8,50.4,52.0,0,0,0,0,1,0,0,0,9964,5722
2024/11/25 17:26:50,4.4,35.3,33.0,32.8,50.3,52.0,0,0,0,0,1,0,0,0,9964,5722
2024/11/25 17:28:49,4.4,35.2,32.7,32.8,50.3,52.0,0,0,0,0,1,0,0,0,9964,5722
2024/11/25 17:30:47,4.4,35.1,32.5,32.8,50.2,52.0,0,0,0,0,1,0,0,0,9964,5722
2024/11/25 17:32:46,4.4,35.0,32.2,32.8,50.1,52.0,0,0,0,0,1,0,0,0,9964,5722
2024/11/25 17:34:45,4.4,34.9,31.9,32.8,50.1,52.0,0,0,0,0,1,0,0,0,9964,5722
2024/11/25 17:36:44,4.4,34.8,31.6,32.8,50.0,52.0,0,0,0,0,1,0,0,0,9964,5722
2024/11/25 17:38:43,4.4,34.8,31.3,32.8,50.0,52.0,0,0,0,0,1,0,0,0,9964,5722
2024/11/25 17:40:42,4.4,34.7,31.1,32.8,49.9,52.0,0,0,0,0,1,0,0,0,9964,5722
2024/11/25 17:42:40,4.4,34.7,30.8,32.8,49.9,52.0,0,0,0,0,1,0,0,0,9964,5722
2024/11/25 17:44:39,4.4,34.6,30.5,32.8,49.8,52.0,0,0,0,0,1,0,0,0,9964,5722
2024/11/25 17:46:38,4.4,34.5,30.2,32.8,49.8,52.0,0,0,0,0,1,0,0,0,9964,5722
2024/11/25 17:48:36,4.4,34.5,29.9,32.8,49.7,52.0,0,0,0,0,1,0,0,0,9964,5722
2024/11/25 17:50:35,4.3,34.4,29.7,32.8,49.6,52.0,0,0,0,0,1,0,0,0,9964,5722
2024/11/25 17:52:34,4.3,34.4,29.5,32.8,49.6,52.0,0,0,0,0,1,0,0,0,9964,5722
2024/11/25 17:54:33,4.3,34.4,29.2,32.8,49.5,52.0,0,0,0,0,1,0,0,0,9964,5722
2024/11/25 17:56:32,4.3,34.3,29.0,32.8,49.5,52.0,0,0,0,0,1,0,0,0,9964,5722
2024/11/25 17:58:32,4.3,34.3,28.8,32.8,49.4,52.0,0,0,0,0,1,0,0,0,9964,5722
2024/11/25 18:00:31,4.3,34.2,28.6,32.8,49.4,52.0,0,0,0,0,1,0,0,0,9964,5722
2024/11/25 18:02:30,4.3,34.2,28.4,32.8,49.3,52.0,0,0,0,0,1,0,0,0,9964,5722
2024/11/25 18:04:28,4.3,34.1,28.2,32.8,49.3,52.0,0,0,0,0,1,0,0,0,9964,5722
2024/11/25 18:06:27,4.3,34.1,28.1,32.8,49.2,52.0,0,0,0,0,1,0,0,0,9964,5722
2024/11/25 18:08:25,4.3,34.0,27.9,32.8,49.2,52.0,0,0,0,0,1,0,0,0,9964,5722
2024/11/25 18:10:25,4.3,34.0,27.7,32.8,49.2,52.0,0,0,0,0,1,0,0,0,9964,5722
2024/11/25 18:13:22,4.3,33.9,27.5,32.8,49.1,52.0,0,0,0,0,1,0,0,0,9964,5722
2024/11/25 18:15:21,4.3,33.9,27.3,32.8,49.1,52.0,0,0,0,0,1,0,0,0,9964,5722
2024/11/25 18:17:20,4.3,33.9,27.2,32.8,49.0,52.0,0,0,0,0,1,0,0,0,9964,5722
2024/11/25 18:19:19,4.3,33.8,27.0,32.8,49.0,52.0,0,0,0,0,1,0,0,0,9964,5722
2024/11/25 18:21:18,4.3,33.8,26.8,32.8,48.9,52.0,0,0,0,0,1,0,0,0,9964,5722
2024/11/25 18:23:18,4.3,33.7,26.6,32.8,48.8,52.0,0,0,0,0,1,0,0,0,9964,5722
2024/11/25 18:25:17,4.3,33.7,26.5,32.8,48.8,52.0,0,0,0,0,1,0,0,0,9964,5722
2024/11/25 18:27:16,4.3,33.6,26.3,32.8,48.7,52.0,0,0,0,0,1,0,0,0,9964,5722
2024/11/25 18:29:15,4.3,33.5,26.2,32.8,48.7,52.0,0,0,0,0,1,0,0,0,9964,5722
2024/11/25 18:31:14,4.3,33.5,26.0,32.8,48.6,52.0,0,0,0,0,1,0,0,0,9964,5722
2024/11/25 18:33:13,4.3,33.4,25.9,32.8,48.6,52.0,0,0,0,0,1,0,0,0,9964,5722
2024/11/25 18:35:12,4.3,29.9,28.4,32.8,48.5,52.0,0,0,1,0,1,0,1,0,9964,5722
2024/11/25 18:37:11,4.3,31.5,28.4,32.8,48.5,52.0,0,1,1,0,1,0,1,0,9965,5722
2024/11/25 18:39:09,4.3,32.0,28.3,32.8,48.4,52.0,0,1,1,0,1,0,1,0,9966,5722
2024/11/25 18:41:08,4.3,32.2,28.5,32.8,48.4,52.0,0,1,1,0,1,0,1,0,9966,5722
2024/11/25 18:43:07,4.3,32.6,28.7,32.8,48.3,52.0,0,1,1,0,1,0,1,0,9967,5722
2024/11/25 18:45:07,4.3,32.7,28.8,32.8,48.3,52.0,0,1,1,0,1,0,1,0,9968,5722
2024/11/25 18:47:06,4.2,33.0,29.0,32.8,48.2,52.0,0,1,1,0,1,0,1,0,9969,5722
2024/11/25 18:49:05,4.2,33.1,29.1,32.8,48.2,52.0,0,1,1,0,1,0,1,0,9970,5722
2024/11/25 18:51:04,4.2,33.4,29.3,32.8,48.1,52.0,0,1,1,0,1,0,1,0,9970,5722
2024/11/25 18:53:03,4.2,33.6,29.5,32.8,48.1,52.0,0,1,1,0,1,0,1,0,9971,5722
2024/11/25 18:55:02,4.2,33.8,29.7,32.8,48.0,52.0,0,1,1,0,1,0,1,0,9972,5722
2024/11/25 18:57:01,4.2,34.0,29.9,32.8,48.0,52.0,0,1,1,0,1,0,1,0,9973,5722
2024/11/25 18:59:01,4.2,34.1,30.0,32.8,47.9,52.0,0,1,1,0,1,0,1,0,9974,5722
2024/11/25 19:01:00,4.2,34.6,30.1,32.8,47.9,52.0,0,1,1,0,1,0,1,0,9975,5722
2024/11/25 19:03:00,4.2,34.6,30.1,32.8,47.8,52.0,0,1,1,0,1,0,1,0,9975,5722
2024/11/25 19:04:59,4.2,34.7,30.1,32.8,47.7,52.0,0,1,1,0,1,0,1,0,9976,5722
2024/11/25 19:06:58,4.2,34.8,30.2,32.8,47.7,52.0,0,1,1,0,1,0,1,0,9977,5722
2024/11/25 19:08:57,4.2,35.0,30.5,32.8,47.7,52.0,0,1,1,0,1,0,1,0,9978,5722
2024/11/25 19:10:57,4.1,35.2,30.6,32.8,47.6,52.0,0,1,1,0,1,0,1,0,9978,5722
2024/11/25 19:12:55,4.1,35.4,30.9,32.8,47.6,52.0,0,1,1,0,1,0,1,0,9979,5722
2024/11/25 19:14:54,4.1,35.6,31.1,32.8,47.5,52.0,0,1,1,0,1,0,1,0,9980,5722
2024/11/25 19:16:53,4.1,35.8,31.2,32.8,47.4,52.0,0,1,1,0,1,0,1,0,9981,5722
2024/11/25 19:18:52,4.0,35.9,31.4,32.8,47.4,52.0,0,1,1,0,1,0,1,0,9982,5722
2024/11/25 19:20:51,4.0,36.1,31.5,32.8,47.3,52.0,0,1,1,0,1,0,1,0,9982,5722
2024/11/25 19:22:50,4.0,36.5,31.9,32.8,47.3,52.0,0,1,1,0,1,0,1,0,9983,5722
2024/11/25 19:24:49,4.0,36.6,32.0,32.8,47.2,52.0,0,1,1,0,1,0,1,0,9984,5722
2024/11/25 19:26:49,4.0,36.8,32.1,32.8,47.2,52.0,0,1,1,0,1,0,1,0,9985,5722
2024/11/25 19:28:48,4.0,37.0,32.4,32.8,47.1,52.0,0,1,1,0,1,0,1,0,9986,5722
2024/11/25 19:30:47,4.0,37.1,32.5,32.8,47.1,52.0,0,1,1,0,1,0,1,0,9986,5722
2024/11/25 19:32:45,4.0,37.3,32.7,32.8,47.0,52.0,0,1,1,0,1,0,1,0,9987,5722
2024/11/25 19:34:44,4.0,37.5,32.9,32.8,47.0,52.0,0,1,1,0,1,0,1,0,9988,5722
2024/11/25 19:36:43,4.0,37.8,33.1,32.8,46.9,52.0,0,1,1,0,1,0,1,0,9989,5722
2024/11/25 19:38:42,4.0,37.9,33.2,32.8,46.9,52.0,0,1,1,0,1,0,1,0,9989,5722
2024/11/25 19:40:40,4.0,38.1,33.4,32.8,46.8,52.0,0,1,1,0,1,0,1,0,9990,5722
2024/11/25 19:42:39,4.0,38.3,33.6,32.8,46.8,52.0,0,1,1,0,1,0,1,0,9991,5722
2024/11/25 19:44:39,4.0,38.4,33.8,32.8,46.7,52.0,0,1,1,0,1,0,1,0,9992,5722
2024/11/25 19:46:38,4.0,38.6,33.9,32.8,46.7,52.0,0,1,1,0,1,0,1,0,9992,5722
2024/11/25 19:48:37,4.0,38.8,34.1,32.8,46.6,52.0,0,1,1,0,1,0,1,0,9993,5722
2024/11/25 19:50:36,4.0,38.9,34.2,32.8,46.6,52.0,0,1,1,0,1,0,1,0,9994,5722
2024/11/25 19:52:35,4.0,39.1,34.4,32.8,46.5,52.0,0,1,1,0,1,0,1,0,9995,5722
2024/11/25 19:54:34,4.0,39.3,34.6,32.8,46.5,52.0,0,1,1,0,1,0,1,0,9995,5722
2024/11/25 19:56:33,4.0,37.8,34.8,32.8,46.4,52.0,0,0,1,0,1,0,1,0,9996,5722
2024/11/25 19:58:32,4.0,37.0,35.1,32.8,46.4,52.0,0,0,0,0,1,0,1,0,9996,5722
2024/11/25 20:00:32,4.0,36.8,34.8,32.8,46.3,52.0,0,0,0,0,1,0,0,0,9996,5722
2024/11/25 20:02:30,4.0,36.4,34.3,32.8,46.3,52.0,0,0,0,0,1,0,0,0,9996,5722
2024/11/25 20:04:30,4.0,36.1,34.1,32.8,46.2,52.0,0,0,0,0,1,0,0,0,9996,5722
2024/11/25 20:06:29,4.0,35.8,33.8,32.8,46.2,52.0,0,0,0,0,1,0,0,0,9996,5722
2024/11/25 20:08:28,4.0,35.6,33.5,32.8,46.1,52.0,0,0,0,0,1,0,0,0,9996,5722
2024/11/25 20:10:27,4.0,35.4,33.3,32.8,46.1,52.0,0,0,0,0,1,0,0,0,9996,5722
2024/11/25 20:12:26,4.0,35.2,33.0,32.8,46.0,52.0,0,0,0,0,1,0,0,0,9996,5722
2024/11/25 20:14:25,4.0,35.1,32.7,32.8,45.9,52.0,0,0,0,0,1,0,0,0,9996,5722
2024/11/25 20:16:24,4.0,35.0,32.5,32.8,45.9,52.0,0,0,0,0,1,0,0,0,9996,5722
2024/11/25 20:19:23,4.0,34.9,32.2,32.8,45.8,52.0,0,0,0,0,1,0,0,0,9996,5722
2024/11/25 20:21:22,4.0,34.9,32.0,32.8,45.7,52.0,0,0,0,0,1,0,0,0,9996,5722
2024/11/25 20:23:21,4.0,34.8,31.7,32.8,45.7,52.0,0,0,0,0,1,0,0,0,9996,5722
2024/11/25 20:25:19,4.0,34.7,31.4,32.8,45.6,52.0,0,0,0,0,1,0,0,0,9996,5722
2024/11/25 20:27:18,4.0,34.7,31.1,32.8,45.6,52.0,0,0,0,0,1,0,0,0,9996,5722
2024/11/25 20:29:18,4.0,34.6,30.8,32.8,45.5,52.0,0,0,0,0,1,0,0,0,9996,5722
2024/11/25 20:31:17,4.0,34.6,30.5,32.8,45.5,52.0,0,0,0,0,1,0,0,0,9996,5722
2024/11/25 20:33:15,4.0,34.5,30.2,32.8,45.4,52.0,0,0,0,0,1,0,0,0,9996,5722
2024/11/25 20:35:14,4.0,34.4,29.9,32.8,45.4,52.0,0,0,0,0,1,0,0,0,9996,5722
2024/11/25 20:37:12,4.0,34.4,29.7,32.8,45.3,52.0,0,0,0,0,1,0,0,0,9996,5722
2024/11/25 20:39:11,4.0,34.4,29.5,32.8,45.2,52.0,0,0,0,0,1,0,0,0,9996,5722
2024/11/25 20:41:09,4.0,34.3,29.3,32.8,45.2,52.0,0,0,0,0,1,0,0,0,9996,5722
2024/11/25 20:43:08,4.0,34.3,29.1,32.8,45.2,52.0,0,0,0,0,1,0,0,0,9996,5722
2024/11/25 20:45:07,4.0,34.2,28.9,32.8,45.1,52.0,0,0,0,0,1,0,0,0,9996,5722
2024/11/25 20:47:05,4.0,34.2,28.7,32.8,45.0,52.0,0,0,0,0,1,0,0,0,9996,5722
2024/11/25 20:49:04,3.9,34.1,28.5,33.4,45.0,52.0,0,0,0,0,1,0,0,0,9996,5722
2024/11/25 20:51:03,3.9,34.1,28.3,33.4,45.0,52.0,0,0,0,0,1,0,0,0,9996,5722
2024/11/25 20:53:02,3.9,34.1,28.1,33.4,44.9,52.0,0,0,0,0,1,0,0,0,9996,5722
2024/11/25 20:55:01,3.9,34.0,27.9,33.4,44.9,52.0,0,0,0,0,1,0,0,0,9996,5722
2024/11/25 20:57:00,3.9,34.0,27.7,33.4,44.8,52.0,0,0,0,0,1,0,0,0,9996,5722
2024/11/25 20:58:59,3.9,33.9,27.5,33.4,44.8,52.0,0,0,0,0,1,0,0,0,9996,5722
2024/11/25 21:00:58,3.9,33.9,27.3,33.4,44.7,52.0,0,0,0,0,1,0,0,0,9996,5722
2024/11/25 21:02:56,3.9,33.8,27.0,33.4,44.7,52.0,0,0,0,0,1,0,0,0,9996,5722
2024/11/25 21:04:55,3.8,33.8,26.8,33.4,44.6,52.0,0,0,0,0,1,0,0,0,9996,5722
2024/11/25 21:06:54,3.8,33.8,26.6,33.4,44.6,52.0,0,0,0,0,1,0,0,0,9996,5722
2024/11/25 21:08:53,3.8,33.7,26.5,33.4,44.6,52.0,0,0,0,0,1,0,0,0,9996,5722
2024/11/25 21:10:52,3.8,33.7,26.3,33.4,44.5,52.0,0,0,0,0,1,0,0,0,9996,5722
2024/11/25 21:12:50,3.8,33.6,26.1,33.4,44.5,52.0,0,0,0,0,1,0,0,0,9996,5722
2024/11/25 21:14:50,3.8,30.3,28.7,33.4,44.4,52.0,0,0,1,0,1,0,1,0,9996,5722
2024/11/25 21:16:49,3.8,31.8,28.7,33.4,44.4,52.0,1,0,1,0,1,0,1,0,9997,5722
2024/11/25 21:18:47,3.8,32.3,28.6,33.4,44.3,52.0,1,0,1,0,1,0,1,0,9997,5722
2024/11/25 21:20:46,3.8,32.4,28.6,33.4,44.3,52.0,1,0,1,0,1,0,1,0,9998,5722
2024/11/25 21:22:46,3.8,32.7,28.8,33.4,44.2,52.0,1,0,1,0,1,0,1,0,9999,5722
2024/11/25 21:24:44,3.8,32.9,28.9,33.4,44.2,52.0,1,0,1,0,1,0,1,0,0,5722
2024/11/25 21:26:42,3.8,33.1,29.1,33.4,44.1,52.0,1,0,1,0,1,0,1,0,1,5722
2024/11/25 21:28:41,3.8,33.3,29.3,33.4,44.1,52.0,1,0,1,0,1,0,1,0,1,5722
2024/11/25 21:30:40,3.7,33.9,28.4,33.4,44.0,52.0,1,0,1,0,0,1,1,0,2,5722
2024/11/25 21:32:39,3.7,39.4,35.3,33.4,43.6,52.0,1,0,1,0,0,1,1,0,2,5723
2024/11/25 21:34:37,3.7,41.1,37.1,33.4,43.2,52.0,1,0,1,0,0,1,1,0,2,5724
2024/11/25 21:36:36,3.7,45.2,39.3,33.4,43.2,52.0,1,1,1,0,0,1,1,0,2,5725
2024/11/25 21:38:35,3.7,48.3,41.6,33.4,43.5,52.0,1,1,1,0,0,1,1,0,2,5726
2024/11/25 21:40:35,3.7,49.9,43.1,33.4,44.0,52.0,1,1,1,0,0,1,1,0,2,5728
2024/11/25 21:42:34,3.6,51.3,44.3,33.4,44.6,52.0,1,1,1,0,0,1,1,0,2,5729
2024/11/25 21:44:33,3.6,52.5,45.2,33.4,45.5,52.0,1,1,1,0,0,1,1,0,2,5730
2024/11/25 21:46:33,3.6,53.5,46.3,33.4,46.3,52.0,1,1,1,0,0,1,1,0,2,5731
2024/11/25 21:48:32,3.6,54.4,47.2,33.4,47.1,52.0,1,1,1,0,0,1,1,0,2,5733
2024/11/25 21:50:31,3.6,55.4,48.1,33.4,48.0,52.0,1,1,1,0,0,1,1,0,2,5734
2024/11/25 21:52:31,3.6,56.4,48.9,33.4,48.8,52.0,1,1,1,0,0,1,1,0,2,5735
2024/11/25 21:54:30,3.5,57.2,49.7,33.4,49.6,52.0,1,1,1,0,0,1,1,0,2,5737
2024/11/25 21:56:28,3.5,58.2,50.6,33.4,50.5,52.0,1,1,1,0,0,1,1,0,2,5738
2024/11/25 21:58:27,3.5,58.9,51.5,33.4,51.5,52.0,1,1,1,0,0,1,1,0,2,5739
2024/11/25 22:00:27,3.5,56.9,51.6,33.4,52.4,52.0,0,1,1,0,1,0,1,0,2,5740
2024/11/25 22:02:26,3.5,37.5,31.9,33.4,53.1,52.0,0,1,1,0,1,0,1,0,3,5740
2024/11/25 22:04:24,3.4,36.1,30.7,33.4,53.4,52.0,0,1,1,0,1,0,1,0,3,5740
2024/11/25 22:07:23,3.4,35.1,30.0,33.4,53.6,52.0,0,1,1,0,1,0,1,0,4,5740
2024/11/25 22:09:23,3.4,34.4,29.8,33.4,53.6,52.0,0,1,1,0,1,0,1,0,5,5740
2024/11/25 22:11:21,3.4,35.1,30.5,33.4,53.6,52.0,0,1,1,0,1,0,1,0,6,5740
2024/11/25 22:13:20,3.4,35.2,30.5,33.4,53.7,52.0,0,1,1,0,1,0,1,0,7,5740
2024/11/25 22:15:20,3.4,35.2,30.6,33.4,53.7,52.0,0,1,1,0,1,0,1,0,7,5740
2024/11/25 22:17:19,3.4,35.4,30.9,33.4,53.7,52.0,0,1,1,0,1,0,1,0,8,5740
2024/11/25 22:19:17,3.4,35.4,30.9,33.4,53.7,52.0,0,1,1,0,1,0,1,0,9,5740
2024/11/25 22:21:16,3.4,35.5,30.9,33.4,53.7,52.0,0,1,1,0,1,0,1,0,10,5740
2024/11/25 22:23:15,3.4,35.4,30.9,33.4,53.7,52.0,0,1,1,0,1,0,1,0,11,5740
2024/11/25 22:25:14,3.4,35.6,31.1,33.4,53.7,52.0,0,1,1,0,1,0,1,0,11,5740
2024/11/25 22:27:13,3.4,35.7,31.2,33.4,53.7,52.0,0,1,1,0,1,0,1,0,12,5740
2024/11/25 22:29:13,3.4,36.9,31.4,33.4,53.6,52.0,1,1,1,0,1,0,1,0,13,5740
2024/11/25 22:31:12,3.4,37.7,31.7,33.4,53.6,40.0,1,1,1,0,1,0,1,0,14,5740
2024/11/25 22:33:11,3.4,38.1,32.0,33.4,53.6,40.0,1,1,1,0,1,0,1,0,16,5740
2024/11/25 22:35:10,3.4,38.8,32.6,33.4,53.6,40.0,1,1,1,0,1,0,1,0,17,5740
2024/11/25 22:37:09,3.4,39.4,33.1,33.4,53.6,40.0,1,1,1,0,1,0,1,0,19,5740
2024/11/25 22:39:07,3.3,39.8,33.6,33.4,53.6,40.0,1,1,1,0,1,0,1,0,20,5740
2024/11/25 22:41:07,3.3,40.2,33.9,33.4,53.5,40.0,1,1,1,0,1,0,1,0,21,5740
2024/11/25 22:43:06,3.3,40.7,34.3,33.4,53.5,40.0,1,1,1,0,1,0,1,0,23,5740
2024/11/25 22:45:05,3.3,41.3,34.7,33.4,53.5,40.0,1,1,1,0,1,0,1,0,24,5740
2024/11/25 22:47:04,3.3,41.8,35.2,33.4,53.5,40.0,1,1,1,0,1,0,1,0,25,5740
2024/11/25 22:49:03,3.3,40.6,35.7,33.4,53.5,40.0,1,0,1,0,1,0,1,0,26,5740
2024/11/25 22:51:03,3.3,40.9,36.1,33.4,53.5,40.0,1,0,1,0,1,0,1,0,27,5740
2024/11/25 22:53:02,3.3,40.9,36.3,33.4,53.4,40.0,1,0,1,0,1,0,1,0,28,5740
2024/11/25 22:55:02,3.3,41.1,36.4,33.4,53.4,40.0,1,0,1,0,1,0,1,0,28,5740
2024/11/25 22:57:01,3.4,41.4,36.7,33.4,53.4,40.0,1,0,1,0,1,0,1,0,29,5740
2024/11/25 22:59:00,3.5,41.4,36.8,33.4,53.4,40.0,1,0,1,0,1,0,1,0,30,5740
2024/11/25 23:00:58,3.6,41.6,37.0,33.4,53.3,40.0,1,0,1,0,1,0,1,0,31,5740
2024/11/25 23:02:57,3.8,39.5,37.1,33.4,53.3,40.0,0,0,1,0,1,0,1,0,31,5740
2024/11/25 23:04:56,3.8,39.2,37.4,33.4,53.3,40.0,0,0,0,0,1,0,1,0,31,5740
2024/11/25 23:06:55,3.9,38.7,36.6,33.4,53.3,40.0,0,0,0,0,1,0,0,0,31,5740
2024/11/25 23:08:54,3.9,38.3,36.1,33.4,53.3,40.0,0,0,0,0,1,0,0,0,31,5740
2024/11/25 23:10:53,4.0,38.0,35.8,32.8,53.2,40.0,0,0,0,0,1,0,0,0,31,5740
2024/11/25 23:12:52,4.1,37.8,35.5,32.8,53.2,40.0,0,0,0,0,1,0,0,0,31,5740
2024/11/25 23:14:51,4.1,37.5,35.1,32.8,53.2,40.0,0,0,0,0,1,0,0,0,31,5740
2024/11/25 23:16:50,4.1,37.4,34.9,32.8,53.2,40.0,0,0,0,0,1,0,0,0,31,5740
2024/11/25 23:18:49,4.1,37.3,34.6,32.8,53.2,40.0,0,0,0,0,1,0,0,0,31,5740
2024/11/25 23:20:48,4.2,37.1,34.4,32.8,53.1,40.0,0,0,0,0,1,0,0,0,31,5740
2024/11/25 23:22:46,4.2,37.0,34.1,32.8,53.1,40.0,0,0,0,0,1,0,0,0,31,5740
2024/11/25 23:24:45,4.2,36.9,33.8,32.8,53.1,40.0,0,0,0,0,1,0,0,0,31,5740
2024/11/25 23:26:45,4.1,36.8,33.5,32.8,53.1,40.0,0,0,0,0,1,0,0,0,31,5740
2024/11/25 23:28:43,4.1,36.7,33.2,32.8,53.0,40.0,0,0,0,0,1,0,0,0,31,5740
2024/11/25 23:30:42,4.1,36.6,32.8,32.8,53.0,40.0,0,0,0,0,1,0,0,0,31,5740
2024/11/25 23:32:41,4.1,36.6,32.5,32.8,53.0,40.0,0,0,0,0,1,0,0,0,31,5740
2024/11/25 23:34:40,4.0,36.5,32.1,32.8,53.0,40.0,0,0,0,0,1,0,0,0,31,5740
2024/11/25 23:36:39,4.0,36.4,31.8,32.8,52.9,40.0,0,0,0,0,1,0,0,0,31,5740
2024/11/25 23:38:37,4.0,36.4,31.5,32.8,52.9,40.0,0,0,0,0,1,0,0,0,31,5740
2024/11/25 23:40:37,3.9,36.3,31.1,33.4,52.9,40.0,0,0,0,0,1,0,0,0,31,5740
2024/11/25 23:42:35,3.9,36.2,30.8,33.4,52.9,40.0,0,0,0,0,1,0,0,0,31,5740
2024/11/25 23:44:35,3.9,36.2,30.5,33.4,52.8,40.0,0,0,0,0,1,0,0,0,31,5740
2024/11/25 23:46:34,3.9,36.1,30.2,33.4,52.8,40.0,0,0,0,0,1,0,0,0,31,5740
2024/11/25 23:48:32,3.8,36.1,29.9,33.4,52.8,40.0,0,0,0,0,1,0,0,0,31,5740
2024/11/25 23:50:31,3.8,36.0,29.6,33.4,52.8,40.0,0,0,0,0,1,0,0,0,31,5740
2024/11/25 23:52:29,3.8,35.9,29.4,33.4,52.7,40.0,0,0,0,0,1,0,0,0,31,5740
2024/11/25 23:54:28,3.8,35.9,29.2,33.4,52.7,40.0,0,0,0,0,1,0,0,0,31,5740
2024/11/25 23:56:27,3.8,35.8,28.9,33.4,52.7,40.0,0,0,0,0,1,0,0,0,31,5740
2024/11/25 23:58:25,3.8,35.8,28.7,33.4,52.6,40.0,0,0,0,0,1,0,0,0,31,5740
