Type,Analog,Analog,Analog,Analog,Analog,Analog,Digital,Digital,Digital,Digital,Digital,Digital,Digital,Digital,Integer,Integer
Index,1,5,2,53,3,58,41,42,43,44,45,46,49,50,95,98
Name,R1,R9,R2,R2 Solltemperatur,R3,R3 Solltemperatur,M1,M3,M2/M11,E10,M13,M18,M16,E9,Waermemenge Heizen,Waermemenge Warmwasser
Description,Variable 1,Variable 2,Variable 3,Variable 4,Variable 5,Variable 6,Variable 7,Variable 8,Variable 9,Variable 10,Variable 11,Variable 12,Variable 13,Variable 14,Variable 15,Variable 16
2022/08/19 00:01:10,18.6,36.5,32.4,10.0,44.0,10.0,0,0,0,0,0,0,0,0,2865,1514
2022/08/19 00:03:08,18.6,36.5,32.3,10.0,44.0,10.0,0,0,0,0,0,0,0,0,2865,1514
2022/08/19 00:05:06,18.6,36.4,32.3,10.0,44.0,10.0,0,0,0,0,0,0,0,0,2865,1514
2022/08/19 00:07:05,18.6,36.4,32.2,10.0,44.0,10.0,0,0,0,0,0,0,0,0,2865,1514
2022/08/19 00:09:04,18.6,36.3,32.2,10.0,43.9,10.0,0,0,0,0,0,0,0,0,2865,1514
2022/08/19 00:11:03,18.5,36.3,32.1,10.0,43.9,10.0,0,0,0,0,0,0,0,0,2865,1514
2022/08/19 00:13:01,18.5,36.2,32.0,10.0,43.9,10.0,0,0,0,0,0,0,0,0,2865,1514
2022/08/19 00:15:00,18.5,36.2,32.0,10.0,43.9,10.0,0,0,0,0,0,0,0,0,2865,1514
2022/08/19 00:17:59,18.5,36.1,31.9,10.0,43.9,10.0,0,0,0,0,0,0,0,0,2865,1514
2022/08/19 00:19:58,18.5,36.1,31.9,10.0,43.9,10.0,0,0,0,0,0,0,0,0,2865,1514
2022/08/19 00:21:56,18.5,36.0,31.8,10.0,43.9,10.0,0,0,0,0,0,0,0,0,2865,1514
2022/08/19 00:23:53,18.4,36.0,31.8,10.0,43.9,10.0,0,0,0,0,0,0,0,0,2865,1514
2022/08/19 00:25:52,18.4,35.9,31.7,10.0,43.9,10.0,0,0,0,0,0,0,0,0,2865,1514
2022/08/19 00:27:51,18.4,35.9,31.7,10.0,43.9,10.0,0,0,0,0,0,0,0,0,2865,1514
2022/08/19 00:29:47,18.4,35.8,31.6,10.0,43.9,10.0,0,0,0,0,0,0,0,0,2865,1514
2022/08/19 00:31:46,18.4,35.8,31.6,10.0,43.9,10.0,0,0,0,0,0,0,0,0,2865,1514
2022/08/19 00:33:44,18.3,35.7,31.5,10.0,43.8,10.0,0,0,0,0,0,0,0,0,2865,1514
2022/08/19 00:35:43,18.3,35.7,31.5,10.0,43.8,10.0,0,0,0,0,0,0,0,0,2865,1514
2022/08/19 00:37:42,18.3,35.6,31.4,10.0,43.8,10.0,0,0,0,0,0,0,0,0,2865,1514
2022/08/19 00:39:42,18.3,35.6,31.4,10.0,43.8,10.0,0,0,0,0,0,0,0,0,2865,1514
2022/08/19 00:41:41,18.2,35.5,31.3,10.0,43.8,10.0,0,0,0,0,0,0,0,0,2865,1514
2022/08/19 00:43:40,18.2,35.4,31.3,10.0,43.8,10.0,0,0,0,0,0,0,0,0,2865,1514
2022/08/19 00:45:38,18.2,35.4,31.2,10.0,43.8,10.0,0,0,0,0,0,0,0,0,2865,1514
2022/08/19 00:47:36,18.2,35.3,31.2,10.0,43.8,10.0,0,0,0,0,0,0,0,0,2865,1514
2022/08/19 00:49:35,18.2,35.3,31.1,10.0,43.8,10.0,0,0,0,0,0,0,0,0,2865,1514
2022/08/19 00:51:33,18.1,35.2,31.1,10.0,43.8,10.0,0,0,0,0,0,0,0,0,2865,1514
2022/08/19 00:53:32,18.1,35.2,31.1,10.0,43.8,10.0,0,0,0,0,0,0,0,0,2865,1514
2022/08/19 00:55:31,18.1,35.1,31.0,10.0,43.7,10.0,0,0,0,0,0,0,0,0,2865,1514
2022/08/19 00:57:30,18.1,35.1,31.0,10.0,43.7,10.0,0,0,0,0,0,0,0,0,2865,1514
2022/08/19 00:59:29,18.1,35.0,30.9,10.0,43.7,10.0,0,0,0,0,0,0,0,0,2865,1514
2022/08/19 01:01:27,18.1,35.0,30.9,10.0,43.7,10.0,0,0,0,0,0,0,0,0,2865,1514
2022/08/19 01:03:26,18.1,35.0,30.9,10.0,43.7,10.0,0,0,0,0,0,0,0,0,2865,1514
2022/08/19 01:05:24,18.1,34.9,30.8,10.0,43.7,10.0,0,0,0,0,0,0,0,0,2865,1514
2022/08/19 01:07:23,18.1,34.9,30.8,10.0,43.7,10.0,0,0,0,0,0,0,0,0,2865,1514
2022/08/19 01:09:21,18.1,34.9,30.7,10.0,43.7,10.0,0,0,0,0,0,0,0,0,2865,1514
2022/08/19 01:11:19,18.1,34.8,30.7,10.0,43.7,10.0,0,0,0,0,0,0,0,0,2865,1514
2022/08/19 01:13:18,18.1,34.8,30.7,10.0,43.6,10.0,0,0,0,0,0,0,0,0,2865,1514
2022/08/19 01:15:16,18.1,34.7,30.6,10.0,43.6,10.0,0,0,0,0,0,0,0,0,2865,1514
2022/08/19 01:17:15,18.1,34.7,30.6,10.0,43.6,10.0,0,0,0,0,0,0,0,0,2865,1514
2022/08/19 01:19:14,18.1,34.7,30.6,10.0,43.6,10.0,0,0,0,0,0,0,0,0,2865,1514
2022/08/19 01:21:12,18.1,34.6,30.5,10.0,43.6,10.0,0,0,0,0,0,0,0,0,2865,1514
2022/08/19 01:23:12,18.1,34.6,30.5,10.0,43.6,10.0,0,0,0,0,0,0,0,0,2865,1514
2022/08/19 01:25:11,18.1,34.6,30.4,10.0,43.6,10.0,0,0,0,0,0,0,0,0,2865,1514
2022/08/19 01:27:10,18.1,34.5,30.4,10.0,43.6,10.0,0,0,0,0,0,0,0,0,2865,1514
2022/08/19 01:29:09,18.1,34.5,30.4,10.0,43.5,10.0,0,0,0,0,0,0,0,0,2865,1514
2022/08/19 01:31:08,18.1,34.5,30.3,10.0,43.5,10.0,0,0,0,0,0,0,0,0,2865,1514
2022/08/19 01:33:06,18.1,34.4,30.3,10.0,43.5,10.0,0,0,0,0,0,0,0,0,2865,1514
2022/08/19 01:35:05,18.1,34.4,30.3,10.0,43.5,10.0,0,0,0,0,0,0,0,0,2865,1514
2022/08/19 01:37:03,18.1,34.3,30.2,10.0,43.5,10.0,0,0,0,0,0,0,0,0,2865,1514
2022/08/19 01:39:03,18.1,34.3,30.2,10.0,43.5,10.0,0,0,0,0,0,0,0,0,2865,1514
2022/08/19 01:41:01,18.1,34.3,30.2,10.0,43.5,10.0,0,0,0,0,0,0,0,0,2865,1514
2022/08/19 01:43:00,18.1,34.2,30.1,10.0,43.5,10.0,0,0,0,0,0,0,0,0,2865,1514
2022/08/19 01:46:00,18.1,34.2,30.1,10.0,43.5,10.0,0,0,0,0,0,0,0,0,2865,1514
2022/08/19 01:47:59,18.1,34.2,30.1,10.0,43.4,10.0,0,0,0,0,0,0,0,0,2865,1514
2022/08/19 01:49:58,18.1,34.1,30.0,10.0,43.4,10.0,0,0,0,0,0,0,0,0,2865,1514
2022/08/19 01:51:58,18.1,34.1,30.0,10.0,43.4,10.0,0,0,0,0,0,0,0,0,2865,1514
2022/08/19 01:53:55,18.1,34.1,30.0,10.0,43.4,10.0,0,0,0,0,0,0,0,0,2865,1514
2022/08/19 01:55:52,18.1,34.0,30.0,10.0,43.4,10.0,0,0,0,0,0,0,0,0,2865,1514
2022/08/19 01:57:51,18.1,34.0,29.9,10.0,43.4,10.0,0,0,0,0,0,0,0,0,2865,1514
2022/08/19 01:59:50,18.1,34.0,29.9,10.0,43.4,10.0,0,0,0,0,0,0,0,0,2865,1514
2022/08/19 02:01:49,18.2,33.9,29.9,10.0,43.4,10.0,0,0,0,0,0,0,0,0,2865,1514
2022/08/19 02:03:47,18.2,33.9,29.9,10.0,43.4,10.0,0,0,0,0,0,0,0,0,2865,1514
2022/08/19 02:05:45,18.2,33.9,29.8,10.0,43.3,10.0,0,0,0,0,0,0,0,0,2865,1514
2022/08/19 02:07:44,18.2,33.8,29.8,10.0,43.3,10.0,0,0,0,0,0,0,0,0,2865,1514
2022/08/19 02:09:43,18.2,33.8,29.8,10.0,43.3,10.0,0,0,0,0,0,0,0,0,2865,1514
2022/08/19 02:11:42,18.2,33.8,29.8,10.0,43.3,10.0,0,0,0,0,0,0,0,0,2865,1514
2022/08/19 02:13:41,18.2,33.7,29.7,10.0,43.3,10.0,0,0,0,0,0,0,0,0,2865,1514
2022/08/19 02:15:38,18.2,33.7,29.7,10.0,43.3,10.0,0,0,0,0,0,0,0,0,2865,1514
2022/08/19 02:17:37,18.2,33.7,29.7,10.0,43.3,10.0,0,0,0,0,0,0,0,0,2865,1514
2022/08/19 02:19:36,18.2,33.6,29.7,10.0,43.3,10.0,0,0,0,0,0,0,0,0,2865,1514
2022/08/19 02:21:35,18.2,33.6,29.7,10.0,43.2,10.0,0,0,0,0,0,0,0,0,2865,1514
2022/08/19 02:23:34,18.2,33.5,29.6,10.0,43.2,10.0,0,0,0,0,0,0,0,0,2865,1514
2022/08/19 02:25:33,18.2,33.5,29.6,10.0,43.2,10.0,0,0,0,0,0,0,0,0,2865,1514
2022/08/19 02:27:31,18.2,33.5,29.6,10.0,43.2,10.0,0,0,0,0,0,0,0,0,2865,1514
2022/08/19 02:29:30,18.2,33.4,29.6,10.0,43.2,10.0,0,0,0,0,0,0,0,0,2865,1514
2022/08/19 02:31:29,18.2,33.4,29.5,10.0,43.2,10.0,0,0,0,0,0,0,0,0,2865,1514
2022/08/19 02:33:27,18.2,33.4,29.5,10.0,43.2,10.0,0,0,0,0,0,0,0,0,2865,1514
2022/08/19 02:35:26,18.2,33.4,29.5,10.0,43.2,10.0,0,0,0,0,0,0,0,0,2865,1514
2022/08/19 02:37:25,18.2,33.3,29.5,10.0,43.2,10.0,0,0,0,0,0,0,0,0,2865,1514
2022/08/19 02:39:24,18.2,33.3,29.5,10.0,43.2,10.0,0,0,0,0,0,0,0,0,2865,1514
2022/08/19 02:41:20,18.2,33.3,29.4,10.0,43.1,10.0,0,0,0,0,0,0,0,0,2865,1514
2022/08/19 02:43:19,18.1,33.2,29.4,10.0,43.1,10.0,0,0,0,0,0,0,0,0,2865,1514
2022/08/19 02:45:18,18.1,33.2,29.4,10.0,43.1,10.0,0,0,0,0,0,0,0,0,2865,1514
2022/08/19 02:47:17,18.1,33.2,29.4,10.0,43.1,10.0,0,0,0,0,0,0,0,0,2865,1514
2022/08/19 02:49:15,18.0,33.1,29.4,10.0,43.1,10.0,0,0,0,0,0,0,0,0,2865,1514
2022/08/19 02:51:15,18.0,33.1,29.3,10.0,43.1,10.0,0,0,0,0,0,0,0,0,2865,1514
2022/08/19 02:53:13,18.0,33.1,29.3,10.0,43.1,10.0,0,0,0,0,0,0,0,0,2865,1514
2022/08/19 02:55:12,18.0,33.0,29.3,10.0,43.1,10.0,0,0,0,0,0,0,0,0,2865,1514
2022/08/19 02:57:12,18.0,33.0,29.3,10.0,43.0,10.0,0,0,0,0,0,0,0,0,2865,1514
2022/08/19 02:59:11,17.9,33.0,29.3,10.0,43.0,10.0,0,0,0,0,0,0,0,0,2865,1514
2022/08/19 03:01:08,17.9,33.0,29.2,10.0,43.0,10.0,0,0,0,0,0,0,0,0,2865,1514
2022/08/19 03:03:06,17.9,32.9,29.2,10.0,43.0,10.0,0,0,0,0,0,0,0,0,2865,1514
2022/08/19 03:05:05,17.9,32.9,29.2,10.0,43.0,10.0,0,0,0,0,0,0,0,0,2865,1514
2022/08/19 03:07:04,17.9,32.9,29.2,10.0,43.0,10.0,0,0,0,0,0,0,0,0,2865,1514
2022/08/19 03:09:02,17.9,32.8,29.2,10.0,43.0,10.0,0,0,0,0,0,0,0,0,2865,1514
2022/08/19 03:11:01,17.8,32.8,29.2,10.0,43.0,10.0,0,0,0,0,0,0,0,0,2865,1514
2022/08/19 03:13:00,17.8,32.8,29.1,10.0,42.9,10.0,0,0,0,0,0,0,0,0,2865,1514
2022/08/19 03:16:00,17.8,32.8,29.1,10.0,42.9,10.0,0,0,0,0,0,0,0,0,2865,1514
2022/08/19 03:17:58,17.8,32.7,29.1,10.0,42.9,10.0,0,0,0,0,0,0,0,0,2865,1514
2022/08/19 03:19:58,17.8,32.7,29.1,10.0,42.9,10.0,0,0,0,0,0,0,0,0,2865,1514
2022/08/19 03:21:56,17.8,32.7,29.1,10.0,42.9,10.0,0,0,0,0,0,0,0,0,2865,1514
2022/08/19 03:23:55,17.8,32.6,29.1,10.0,42.9,10.0,0,0,0,0,0,0,0,0,2865,1514
2022/08/19 03:25:53,17.8,32.6,29.1,10.0,42.9,10.0,0,0,0,0,0,0,0,0,2865,1514
2022/08/19 03:27:51,17.8,32.6,29.0,10.0,42.9,10.0,0,0,0,0,0,0,0,0,2865,1514
2022/08/19 03:29:50,17.8,32.6,29.0,10.0,42.9,10.0,0,0,0,0,0,0,0,0,2865,1514
2022/08/19 03:31:49,17.8,32.5,29.0,10.0,42.9,10.0,0,0,0,0,0,0,0,0,2865,1514
2022/08/19 03:33:47,17.8,32.5,29.0,10.0,42.8,10.0,0,0,0,0,0,0,0,0,2865,1514
2022/08/19 03:35:47,17.8,32.5,29.0,10.0,42.8,10.0,0,0,0,0,0,0,0,0,2865,1514
2022/08/19 03:37:46,17.8,32.4,29.0,10.0,42.8,10.0,0,0,0,0,0,0,0,0,2865,1514
2022/08/19 03:39:44,17.8,32.4,28.9,10.0,42.8,10.0,0,0,0,0,0,0,0,0,2865,1514
2022/08/19 03:41:42,17.8,32.4,28.9,10.0,42.8,10.0,0,0,0,0,0,0,0,0,2865,1514
2022/08/19 03:43:41,17.8,32.3,28.9,10.0,42.8,10.0,0,0,0,0,0,0,0,0,2865,1514
2022/08/19 03:45:40,17.8,32.3,28.9,10.0,42.8,52.0,0,0,1,0,0,1,1,0,2865,1514
2022/08/19 03:47:39,17.8,39.9,36.7,10.0,42.7,52.0,0,1,1,0,0,1,1,0,2865,1514
2022/08/19 03:49:39,17.7,43.0,39.5,10.0,42.7,52.0,0,1,1,0,0,1,1,0,2865,1515
2022/08/19 03:51:37,17.7,44.8,41.2,10.0,42.7,52.0,0,1,1,0,0,1,1,0,2865,1516
2022/08/19 03:53:36,17.7,46.3,42.3,10.0,43.0,52.0,0,1,1,0,0,1,1,0,2865,1517
2022/08/19 03:55:36,17.7,47.3,43.1,10.0,43.5,52.0,0,1,1,0,0,1,1,0,2865,1518
2022/08/19 03:57:34,17.7,48.0,43.7,10.0,44.0,52.0,0,1,1,0,0,1,1,0,2865,1518
2022/08/19 03:59:34,17.7,48.8,44.3,10.0,44.5,52.0,0,1,1,0,0,1,1,0,2865,1519
2022/08/19 04:01:33,17.7,49.4,44.8,10.0,45.1,52.0,0,1,1,0,0,1,1,0,2865,1520
2022/08/19 04:03:31,17.7,50.1,45.5,10.0,45.7,52.0,0,1,1,0,0,1,1,0,2865,1521
2022/08/19 04:05:30,17.7,50.7,46.0,10.0,46.3,52.0,0,1,1,0,0,1,1,0,2865,1522
2022/08/19 04:07:29,17.7,51.5,46.6,10.0,47.0,52.0,0,1,1,0,0,1,1,0,2865,1522
2022/08/19 04:09:28,17.7,52.1,47.1,10.0,47.6,52.0,0,1,1,0,0,1,1,0,2865,1523
2022/08/19 04:11:26,17.7,52.7,47.8,10.0,48.2,52.0,0,1,1,0,0,1,1,0,2865,1524
2022/08/19 04:13:25,17.7,53.2,48.2,10.0,48.8,52.0,0,1,1,0,0,1,1,0,2865,1525
2022/08/19 04:15:23,17.7,53.8,48.8,10.0,49.5,52.0,0,1,1,0,0,1,1,0,2865,1525
2022/08/19 04:17:21,17.7,54.3,49.3,10.0,50.1,52.0,0,1,1,0,0,1,1,0,2865,1526
2022/08/19 04:19:20,17.7,54.8,49.8,10.0,50.7,52.0,0,1,1,0,0,1,1,0,2865,1527
2022/08/19 04:21:19,17.7,55.4,50.3,10.0,51.4,52.0,0,1,1,0,0,1,1,0,2865,1528
2022/08/19 04:23:18,17.7,55.9,51.3,10.0,52.0,52.0,0,0,1,0,0,1,1,0,2865,1528
2022/08/19 04:25:17,17.7,43.2,40.1,10.0,52.6,52.0,0,0,0,0,0,0,1,0,2865,1528
2022/08/19 04:27:16,17.7,41.5,39.1,10.0,52.9,52.0,0,0,0,0,0,0,0,0,2865,1528
2022/08/19 04:29:16,17.7,40.9,38.5,10.0,53.0,52.0,0,0,0,0,0,0,0,0,2865,1528
2022/08/19 04:31:15,17.7,40.4,38.2,10.0,53.1,52.0,0,0,0,0,0,0,0,0,2865,1528
2022/08/19 04:33:14,17.7,40.0,37.8,10.0,53.1,52.0,0,0,0,0,0,0,0,0,2865,1528
2022/08/19 04:35:12,17.7,39.7,37.5,10.0,53.1,52.0,0,0,0,0,0,0,0,0,2865,1528
2022/08/19 04:37:11,17.7,39.5,37.3,10.0,53.1,52.0,0,0,0,0,0,0,0,0,2865,1528
2022/08/19 04:39:10,17.7,39.3,37.0,10.0,53.0,52.0,0,0,0,0,0,0,0,0,2865,1528
2022/08/19 04:41:09,17.7,39.2,36.8,10.0,53.0,52.0,0,0,0,0,0,0,0,0,2865,1528
2022/08/19 04:43:08,17.8,39.0,36.6,10.0,52.9,52.0,0,0,0,0,0,0,0,0,2865,1528
2022/08/19 04:45:07,17.8,38.9,36.4,10.0,52.9,52.0,0,0,0,0,0,0,0,0,2865,1528
2022/08/19 04:47:07,17.8,38.8,36.3,10.0,52.9,52.0,0,0,0,0,0,0,0,0,2865,1528
2022/08/19 04:49:05,17.8,38.7,36.1,10.0,52.9,52.0,0,0,0,0,0,0,0,0,2865,1528
2022/08/19 04:51:05,17.8,38.6,35.9,10.0,52.8,52.0,0,0,0,0,0,0,0,0,2865,1528
2022/08/19 04:53:03,17.8,38.5,35.8,10.0,52.8,52.0,0,0,0,0,0,0,0,0,2865,1528
2022/08/19 04:55:01,17.8,38.4,35.7,10.0,52.8,52.0,0,0,0,0,0,0,0,0,2865,1528
2022/08/19 04:58:00,17.9,38.4,35.5,10.0,52.7,52.0,0,0,0,0,0,0,0,0,2865,1528
2022/08/19 04:59:59,17.9,38.3,35.4,10.0,52.7,52.0,0,0,0,0,0,0,0,0,2865,1528
2022/08/19 05:01:58,17.9,38.2,35.3,10.0,52.7,52.0,0,0,0,0,0,0,0,0,2865,1528
2022/08/19 05:03:57,17.9,38.1,35.2,10.0,52.7,52.0,0,0,0,0,0,0,0,0,2865,1528
2022/08/19 05:05:56,17.9,38.1,35.0,10.0,52.6,52.0,0,0,0,0,0,0,0,0,2865,1528
2022/08/19 05:07:54,17.9,38.0,34.9,10.0,52.6,52.0,0,0,0,0,0,0,0,0,2865,1528
2022/08/19 05:09:51,17.9,38.0,34.9,10.0,52.6,52.0,0,0,0,0,0,0,0,0,2865,1528
2022/08/19 05:11:50,17.9,37.9,34.8,10.0,52.6,52.0,0,0,0,0,0,0,0,0,2865,1528
2022/08/19 05:13:49,17.9,37.9,34.7,10.0,52.6,52.0,0,0,0,0,0,0,0,0,2865,1528
2022/08/19 05:15:46,17.9,37.8,34.6,10.0,52.5,52.0,0,0,0,0,0,0,0,0,2865,1528
2022/08/19 05:17:45,17.9,37.8,34.5,10.0,52.5,52.0,0,0,0,0,0,0,0,0,2865,1528
2022/08/19 05:19:43,17.9,37.7,34.4,10.0,52.5,52.0,0,0,0,0,0,0,0,0,2865,1528
2022/08/19 05:21:40,17.9,37.7,34.4,10.0,52.5,52.0,0,0,0,0,0,0,0,0,2865,1528
2022/08/19 05:23:38,17.9,37.6,34.3,10.0,52.4,52.0,0,0,0,0,0,0,0,0,2865,1528
2022/08/19 05:25:37,17.9,37.6,34.2,10.0,52.4,52.0,0,0,0,0,0,0,0,0,2865,1528
2022/08/19 05:27:35,17.9,37.5,34.1,10.0,52.4,52.0,0,0,0,0,0,0,0,0,2865,1528
2022/08/19 05:29:33,17.9,37.5,34.1,10.0,52.4,52.0,0,0,0,0,0,0,0,0,2865,1528
2022/08/19 05:31:30,17.9,37.5,34.0,10.0,51.8,52.0,0,0,0,0,0,0,0,0,2865,1528
2022/08/19 05:33:29,17.9,37.4,33.9,10.0,50.9,52.0,0,0,0,0,0,0,0,0,2865,1528
2022/08/19 05:35:27,17.9,37.4,33.8,10.0,50.4,52.0,0,0,0,0,0,0,0,0,2865,1528
2022/08/19 05:37:25,17.9,37.3,33.7,10.0,50.1,52.0,0,0,0,0,0,0,0,0,2865,1528
2022/08/19 05:39:23,17.9,37.3,33.7,10.0,49.9,52.0,0,0,0,0,0,0,0,0,2865,1528
2022/08/19 05:41:22,17.9,37.3,33.6,10.0,49.8,52.0,0,0,0,0,0,0,0,0,2865,1528
2022/08/19 05:43:21,17.9,37.2,33.5,10.0,49.7,52.0,0,0,0,0,0,0,0,0,2865,1528
2022/08/19 05:45:19,17.9,37.2,33.4,10.0,49.6,52.0,0,0,0,0,0,0,0,0,2865,1528
2022/08/19 05:47:19,17.9,37.1,33.4,10.0,49.5,52.0,0,0,0,0,0,0,0,0,2865,1528
2022/08/19 05:49:18,17.9,37.1,33.3,10.0,49.4,52.0,0,0,0,0,0,0,0,0,2865,1528
2022/08/19 05:51:17,17.9,37.1,33.2,10.0,49.3,52.0,0,0,0,0,0,0,0,0,2865,1528
2022/08/19 05:53:15,17.9,37.0,33.2,10.0,49.2,52.0,0,0,0,0,0,0,0,0,2865,1528
2022/08/19 05:55:14,17.9,37.0,33.1,10.0,49.2,52.0,0,0,0,0,0,0,0,0,2865,1528
2022/08/19 05:57:14,17.9,36.9,33.0,10.0,49.1,52.0,0,0,0,0,0,0,0,0,2865,1528
2022/08/19 05:59:13,17.9,36.9,32.9,10.0,49.0,52.0,0,0,0,0,0,0,0,0,2865,1528
2022/08/19 06:01:10,17.9,36.8,32.9,10.0,49.0,52.0,0,0,0,0,0,0,0,0,2865,1528
2022/08/19 06:03:10,17.9,36.8,32.8,10.0,48.9,52.0,0,0,0,0,0,0,0,0,2865,1528
2022/08/19 06:05:08,17.9,36.7,32.8,10.0,48.8,52.0,0,0,0,0,0,0,0,0,2865,1528
2022/08/19 06:07:06,17.9,36.7,32.7,10.0,48.8,52.0,0,0,0,0,0,0,0,0,2865,1528
2022/08/19 06:09:05,17.9,36.6,32.6,10.0,48.7,52.0,0,0,0,0,0,0,0,0,2865,1528
2022/08/19 06:11:03,17.9,36.6,32.6,10.0,48.6,52.0,0,0,0,0,0,0,0,0,2865,1528
2022/08/19 06:13:01,17.9,36.5,32.5,10.0,48.6,52.0,0,0,0,0,0,0,0,0,2865,1528
2022/08/19 06:16:01,17.9,36.5,32.4,10.0,48.5,52.0,0,0,0,0,0,0,0,0,2865,1528
2022/08/19 06:17:58,17.9,36.4,32.4,10.0,48.5,52.0,0,0,0,0,0,0,0,0,2865,1528
2022/08/19 06:19:57,17.9,36.4,32.3,10.0,48.4,52.0,0,0,0,0,0,0,0,0,2865,1528
2022/08/19 06:21:57,17.9,36.3,32.3,10.0,48.3,52.0,0,0,0,0,0,0,0,0,2865,1528
2022/08/19 06:23:55,17.9,36.3,32.2,10.0,48.3,52.0,0,0,0,0,0,0,0,0,2865,1528
2022/08/19 06:25:53,17.9,36.2,32.1,10.0,48.2,52.0,0,0,0,0,0,0,0,0,2865,1528
2022/08/19 06:27:52,17.9,36.2,32.1,10.0,48.2,52.0,0,0,0,0,0,0,0,0,2865,1528
2022/08/19 06:29:51,17.9,36.1,32.0,10.0,48.1,52.0,0,0,0,0,0,0,0,0,2865,1528
2022/08/19 06:31:50,17.9,36.1,32.0,10.0,48.0,52.0,0,0,0,0,0,0,0,0,2865,1528
2022/08/19 06:33:49,17.9,36.0,31.9,10.0,48.0,52.0,0,0,0,0,0,0,0,0,2865,1528
2022/08/19 06:35:48,17.9,36.0,31.9,10.0,47.9,52.0,0,0,0,0,0,0,0,0,2865,1528
2022/08/19 06:37:46,17.9,35.9,31.8,10.0,47.9,52.0,0,0,0,0,0,0,0,0,2865,1528
2022/08/19 06:39:46,17.9,35.9,31.8,10.0,47.8,52.0,0,0,0,0,0,0,0,0,2865,1528
2022/08/19 06:41:44,17.9,35.8,31.7,10.0,47.7,52.0,0,0,0,0,0,0,0,0,2865,1528
2022/08/19 06:43:44,17.9,35.8,31.7,10.0,47.7,52.0,0,0,0,0,0,0,0,0,2865,1528
2022/08/19 06:45:43,17.9,35.7,31.6,10.0,47.6,52.0,0,0,0,0,0,0,0,0,2865,1528
2022/08/19 06:47:42,17.9,35.7,31.6,10.0,47.5,52.0,0,0,0,0,0,0,0,0,2865,1528
2022/08/19 06:49:41,17.9,35.6,31.5,10.0,47.5,52.0,0,0,0,0,0,0,0,0,2865,1528
2022/08/19 06:51:40,17.9,35.6,31.5,10.0,47.4,52.0,0,0,0,0,0,0,0,0,2865,1528
2022/08/19 06:53:39,17.9,35.5,31.4,10.0,47.4,52.0,0,0,0,0,0,0,0,0,2865,1528
2022/08/19 06:55:38,17.9,35.5,31.4,10.0,47.3,52.0,0,0,0,0,0,0,0,0,2865,1528
2022/08/19 06:57:35,17.9,35.4,31.3,10.0,47.2,52.0,0,0,0,0,0,0,0,0,2865,1528
2022/08/19 06:59:31,17.9,35.4,31.3,10.0,47.2,52.0,0,0,0,0,0,0,0,0,2865,1528
2022/08/19 07:01:30,17.9,35.3,31.2,10.0,47.1,52.0,0,0,0,0,0,0,0,0,2865,1528
2022/08/19 07:03:30,17.9,35.3,31.2,10.0,47.0,52.0,0,0,0,0,0,0,0,0,2865,1528
2022/08/19 07:05:30,17.9,35.2,31.1,10.0,47.0,52.0,0,0,0,0,0,0,0,0,2865,1528
2022/08/19 07:07:28,17.9,35.2,31.1,10.0,46.9,52.0,0,0,0,0,0,0,0,0,2865,1528
2022/08/19 07:09:27,17.9,35.1,31.0,10.0,46.8,52.0,0,0,0,0,0,0,0,0,2865,1528
2022/08/19 07:11:27,17.9,35.1,31.0,10.0,46.8,52.0,0,0,0,0,0,0,0,0,2865,1528
2022/08/19 07:13:26,17.9,35.0,31.0,10.0,46.7,52.0,0,0,0,0,0,0,0,0,2865,1528
2022/08/19 07:15:24,17.9,35.0,30.9,10.0,46.6,52.0,0,0,0,0,0,0,0,0,2865,1528
2022/08/19 07:17:20,17.9,35.0,30.9,10.0,46.6,52.0,0,0,0,0,0,0,0,0,2865,1528
2022/08/19 07:19:18,17.9,34.9,30.8,10.0,46.5,52.0,0,0,0,0,0,0,0,0,2865,1528
2022/08/19 07:21:18,17.9,34.9,30.8,10.0,46.4,52.0,0,0,0,0,0,0,0,0,2865,1528
2022/08/19 07:23:16,17.9,34.8,30.8,10.0,46.4,52.0,0,0,0,0,0,0,0,0,2865,1528
2022/08/19 07:25:14,17.9,34.8,30.7,10.0,46.3,52.0,0,0,0,0,0,0,0,0,2865,1528
2022/08/19 07:27:13,17.9,34.8,30.7,10.0,46.2,52.0,0,0,0,0,0,0,0,0,2865,1528
2022/08/19 07:29:11,17.9,34.7,30.6,10.0,46.2,52.0,0,0,0,0,0,0,0,0,2865,1528
2022/08/19 07:31:11,17.9,34.7,30.6,10.0,46.1,52.0,0,0,0,0,0,0,0,0,2865,1528
2022/08/19 07:33:09,17.8,34.7,30.6,10.0,46.0,52.0,0,0,0,0,0,0,0,0,2865,1528
2022/08/19 07:35:08,17.8,34.6,30.5,10.0,46.0,52.0,0,0,0,0,0,0,0,0,2865,1528
2022/08/19 07:37:07,17.8,34.6,30.5,10.0,45.9,52.0,0,0,0,0,0,0,0,0,2865,1528
2022/08/19 07:39:05,17.8,34.6,30.5,10.0,45.8,52.0,0,0,0,0,0,0,0,0,2865,1528
2022/08/19 07:41:04,17.8,34.5,30.4,10.0,45.7,52.0,0,0,0,0,0,0,0,0,2865,1528
2022/08/19 07:43:03,17.8,34.5,30.4,10.0,45.6,52.0,0,0,0,0,0,0,0,0,2865,1528
2022/08/19 07:45:02,17.8,34.4,30.3,10.0,45.4,52.0,0,0,0,0,0,0,0,0,2865,1528
2022/08/19 07:47:01,17.8,34.4,30.3,10.0,45.3,52.0,0,0,0,0,0,0,0,0,2865,1528
2022/08/19 07:50:00,17.8,34.4,30.3,10.0,45.2,52.0,0,0,0,0,0,0,0,0,2865,1528
2022/08/19 07:51:58,17.8,34.3,30.2,10.0,45.1,52.0,0,0,0,0,0,0,0,0,2865,1528
2022/08/19 07:53:57,17.8,34.3,30.2,10.0,45.0,52.0,0,0,0,0,0,0,0,0,2865,1528
2022/08/19 07:55:56,17.8,34.3,30.2,10.0,44.9,52.0,0,0,0,0,0,0,0,0,2865,1528
2022/08/19 07:57:56,17.7,34.2,30.1,10.0,44.8,52.0,0,0,0,0,0,0,0,0,2865,1528
2022/08/19 07:59:55,17.7,34.2,30.1,10.0,44.7,52.0,0,0,0,0,0,0,0,0,2865,1528
2022/08/19 08:01:54,17.7,34.2,30.1,10.0,44.6,52.0,0,0,0,0,0,0,0,0,2865,1528
2022/08/19 08:03:52,17.7,34.1,30.0,10.0,44.5,52.0,0,0,0,0,0,0,0,0,2865,1528
2022/08/19 08:05:51,17.7,34.1,30.0,10.0,44.5,52.0,0,0,0,0,0,0,0,0,2865,1528
2022/08/19 08:07:50,17.7,34.1,30.0,10.0,44.4,52.0,0,0,0,0,0,0,0,0,2865,1528
2022/08/19 08:09:48,17.7,34.0,30.0,10.0,44.3,52.0,0,0,0,0,0,0,0,0,2865,1528
2022/08/19 08:11:47,17.7,34.0,29.9,10.0,44.2,52.0,0,0,0,0,0,0,0,0,2865,1528
2022/08/19 08:13:46,17.7,34.0,29.9,10.0,44.1,52.0,0,0,0,0,0,0,0,0,2865,1528
2022/08/19 08:15:44,17.7,33.9,31.6,10.0,44.0,52.0,0,0,1,0,0,1,1,0,2865,1528
2022/08/19 08:17:43,17.7,39.9,35.0,10.0,43.8,52.0,1,0,1,0,0,1,1,0,2865,1529
2022/08/19 08:19:42,17.7,42.3,38.6,10.0,43.6,52.0,1,0,1,0,0,1,1,0,2865,1530
2022/08/19 08:21:41,17.7,43.8,39.7,10.0,43.6,52.0,1,0,1,0,0,1,1,0,2865,1531
2022/08/19 08:23:40,17.7,44.9,40.8,10.0,43.6,52.0,1,0,1,0,0,1,1,0,2865,1532
2022/08/19 08:25:38,17.7,45.8,41.6,10.0,43.9,52.0,1,0,1,0,0,1,1,0,2865,1532
2022/08/19 08:27:37,17.7,46.7,42.3,10.0,44.0,52.0,1,0,1,0,0,1,1,0,2865,1533
2022/08/19 08:29:35,17.7,47.4,42.9,10.0,44.3,52.0,1,0,1,0,0,1,1,0,2865,1534
2022/08/19 08:31:35,17.7,48.0,43.5,10.0,44.7,52.0,1,0,1,0,0,1,1,0,2865,1535
2022/08/19 08:33:34,17.8,48.6,44.0,10.0,45.1,52.0,1,0,1,0,0,1,1,0,2865,1536
2022/08/19 08:35:33,17.8,49.2,44.5,10.0,45.5,52.0,1,0,1,0,0,1,1,0,2865,1536
2022/08/19 08:37:32,17.8,49.7,45.0,10.0,46.0,52.0,1,0,1,0,0,1,1,0,2865,1537
2022/08/19 08:39:31,17.8,50.2,45.5,10.0,46.4,52.0,1,0,1,0,0,1,1,0,2865,1538
2022/08/19 08:41:30,17.8,50.8,46.1,10.0,46.9,52.0,1,0,1,0,0,1,1,0,2865,1539
2022/08/19 08:43:29,17.8,51.5,46.6,10.0,47.4,52.0,1,0,1,0,0,1,1,0,2865,1539
2022/08/19 08:45:28,17.8,51.9,47.0,10.0,47.9,52.0,1,0,1,0,0,1,1,0,2865,1540
2022/08/19 08:47:25,17.8,52.4,47.5,10.0,48.3,52.0,1,0,1,0,0,1,1,0,2865,1541
2022/08/19 08:49:24,17.8,52.8,47.9,10.0,48.8,52.0,1,0,1,0,0,1,1,0,2865,1542
2022/08/19 08:51:23,17.8,53.3,48.4,10.0,49.2,52.0,1,0,1,0,0,1,1,0,2865,1542
2022/08/19 08:53:22,17.8,53.8,48.8,10.0,49.7,52.0,1,0,1,0,0,1,1,0,2865,1543
2022/08/19 08:55:20,17.8,54.2,49.2,10.0,50.2,52.0,1,0,1,0,0,1,1,0,2865,1544
2022/08/19 08:57:19,17.8,54.6,49.6,10.0,50.7,52.0,1,0,1,0,0,1,1,0,2865,1545
2022/08/19 08:59:17,17.8,55.0,50.0,10.0,51.3,52.0,1,0,1,0,0,1,1,0,2865,1545
2022/08/19 09:01:15,17.8,55.5,50.5,10.0,51.7,52.0,1,0,1,0,0,1,1,0,2865,1546
2022/08/19 09:03:14,17.8,53.5,50.3,10.0,52.2,52.0,0,0,0,0,0,0,1,0,2865,1546
2022/08/19 09:05:13,17.8,41.8,39.6,10.0,52.6,52.0,0,0,0,0,0,0,0,0,2865,1546
2022/08/19 09:07:12,17.8,41.4,39.0,10.0,52.7,52.0,0,0,0,0,0,0,0,0,2865,1546
2022/08/19 09:09:10,17.8,40.9,38.5,10.0,52.7,52.0,0,0,0,0,0,0,0,0,2865,1546
2022/08/19 09:11:09,17.8,40.4,37.9,10.0,52.6,52.0,0,0,0,0,0,0,0,0,2865,1546
2022/08/19 09:13:08,17.8,40.1,37.4,10.0,52.5,52.0,0,0,0,0,0,0,0,0,2865,1546
2022/08/19 09:15:08,17.8,39.8,37.0,10.0,52.4,52.0,0,0,0,0,0,0,0,0,2865,1546
2022/08/19 09:17:07,17.7,39.6,36.6,10.0,52.3,52.0,0,0,0,0,0,0,0,0,2865,1546
2022/08/19 09:19:05,17.7,39.5,36.4,10.0,52.2,52.0,0,0,0,0,0,0,0,0,2865,1546
2022/08/19 09:21:02,17.7,39.4,36.1,10.0,52.2,52.0,0,0,0,0,0,0,0,0,2865,1546
2022/08/19 09:23:01,17.7,39.3,35.9,10.0,52.1,52.0,0,0,0,0,0,0,0,0,2865,1546
2022/08/19 09:26:00,17.7,39.2,35.7,10.0,52.0,52.0,0,0,0,0,0,0,0,0,2865,1546
2022/08/19 09:27:59,17.7,39.0,35.4,10.0,51.9,52.0,0,0,0,0,0,0,0,0,2865,1546
2022/08/19 09:29:57,17.7,38.9,35.2,10.0,51.8,52.0,0,0,0,0,0,0,0,0,2865,1546
2022/08/19 09:31:55,17.7,38.8,35.1,10.0,51.8,52.0,0,0,0,0,0,0,0,0,2865,1546
2022/08/19 09:33:55,17.7,38.7,34.9,10.0,51.7,52.0,0,0,0,0,0,0,0,0,2865,1546
2022/08/19 09:35:53,17.7,38.6,34.8,10.0,51.6,52.0,0,0,0,0,0,0,0,0,2865,1546
2022/08/19 09:37:52,17.7,38.6,34.7,10.0,51.5,52.0,0,0,0,0,0,0,0,0,2865,1546
2022/08/19 09:39:50,17.7,38.5,34.6,10.0,51.4,52.0,0,0,0,0,0,0,0,0,2865,1546
2022/08/19 09:41:50,17.7,38.4,34.5,10.0,51.4,52.0,0,0,0,0,0,0,0,0,2865,1546
2022/08/19 09:43:48,17.7,38.4,34.4,10.0,51.3,52.0,0,0,0,0,0,0,0,0,2865,1546
2022/08/19 09:45:47,17.7,38.3,34.3,10.0,51.2,52.0,0,0,0,0,0,0,0,0,2865,1546
2022/08/19 09:47:46,17.7,38.2,34.2,10.0,51.2,52.0,0,0,0,0,0,0,0,0,2865,1546
2022/08/19 09:49:43,17.7,38.2,34.1,10.0,51.1,52.0,0,0,0,0,0,0,0,0,2865,1546
2022/08/19 09:51:42,17.7,38.1,34.0,10.0,51.0,52.0,0,0,0,0,0,0,0,0,2865,1546
2022/08/19 09:53:41,17.7,38.1,34.0,10.0,51.0,52.0,0,0,0,0,0,0,0,0,2865,1546
2022/08/19 09:55:40,17.7,38.0,33.9,10.0,50.9,52.0,0,0,0,0,0,0,0,0,2865,1546
2022/08/19 09:57:38,17.7,38.0,33.8,10.0,50.8,52.0,0,0,0,0,0,0,0,0,2865,1546
2022/08/19 09:59:36,17.7,38.0,33.8,10.0,50.8,52.0,0,0,0,0,0,0,0,0,2865,1546
2022/08/19 10:01:36,17.7,37.9,33.7,10.0,50.7,52.0,0,0,0,0,0,0,0,0,2865,1546
2022/08/19 10:03:35,17.7,37.9,33.6,10.0,50.6,52.0,0,0,0,0,0,0,0,0,2865,1546
2022/08/19 10:05:34,17.7,37.8,33.6,10.0,50.5,52.0,0,0,0,0,0,0,0,0,2865,1546
2022/08/19 10:07:31,17.7,37.8,33.5,10.0,50.5,52.0,0,0,0,0,0,0,0,0,2865,1546
2022/08/19 10:09:30,17.7,37.7,33.4,10.0,50.4,52.0,0,0,0,0,0,0,0,0,2865,1546
2022/08/19 10:11:29,17.7,37.7,33.4,10.0,50.3,52.0,0,0,0,0,0,0,0,0,2865,1546
2022/08/19 10:13:27,17.7,37.6,33.3,10.0,50.3,52.0,0,0,0,0,0,0,0,0,2865,1546
2022/08/19 10:15:26,17.7,37.6,33.2,10.0,50.2,52.0,0,0,0,0,0,0,0,0,2865,1546
2022/08/19 10:17:22,17.7,37.5,33.2,10.0,50.1,52.0,0,0,0,0,0,0,0,0,2865,1546
2022/08/19 10:19:21,17.7,37.5,33.1,10.0,50.1,52.0,0,0,0,0,0,0,0,0,2865,1546
2022/08/19 10:21:20,17.7,37.5,33.0,10.0,50.0,52.0,0,0,0,0,0,0,0,0,2865,1546
2022/08/19 10:23:20,17.7,37.4,33.0,10.0,50.0,52.0,0,0,0,0,0,0,0,0,2865,1546
2022/08/19 10:25:18,17.7,37.4,32.9,10.0,49.9,52.0,0,0,0,0,0,0,0,0,2865,1546
2022/08/19 10:27:17,17.7,37.3,32.8,10.0,49.9,52.0,0,0,0,0,0,0,0,0,2865,1546
2022/08/19 10:29:16,17.7,37.3,32.8,10.0,49.8,52.0,0,0,0,0,0,0,0,0,2865,1546
2022/08/19 10:31:15,17.7,37.2,32.7,10.0,49.8,52.0,0,0,0,0,0,0,0,0,2865,1546
2022/08/19 10:33:12,17.8,37.2,32.7,10.0,49.7,52.0,0,0,0,0,0,0,0,0,2865,1546
2022/08/19 10:35:12,17.8,37.1,32.6,10.0,49.7,52.0,0,0,0,0,0,0,0,0,2865,1546
2022/08/19 10:37:11,17.8,37.1,32.6,10.0,49.6,52.0,0,0,0,0,0,0,0,0,2865,1546
2022/08/19 10:39:09,17.8,37.0,32.5,10.0,49.6,52.0,0,0,0,0,0,0,0,0,2865,1546
2022/08/19 10:41:07,17.8,37.0,32.4,10.0,49.5,52.0,0,0,0,0,0,0,0,0,2865,1546
2022/08/19 10:43:06,17.9,36.9,32.4,10.0,49.4,52.0,0,0,0,0,0,0,0,0,2865,1546
2022/08/19 10:45:05,17.9,36.9,32.3,10.0,49.4,52.0,0,0,0,0,0,0,0,0,2865,1546
2022/08/19 10:47:03,17.9,36.8,32.3,10.0,49.3,52.0,0,0,0,0,0,0,0,0,2865,1546
2022/08/19 10:49:01,18.0,36.8,32.2,10.0,49.3,52.0,0,0,0,0,0,0,0,0,2865,1546
2022/08/19 10:52:00,18.0,36.7,32.2,10.0,49.2,52.0,0,0,0,0,0,0,0,0,2865,1546
2022/08/19 10:53:58,18.1,36.7,32.1,10.0,49.2,52.0,0,0,0,0,0,0,0,0,2865,1546
2022/08/19 10:55:56,18.1,36.6,32.1,10.0,49.1,52.0,0,0,0,0,0,0,0,0,2865,1546
2022/08/19 10:57:55,18.1,36.6,32.0,10.0,49.1,52.0,0,0,0,0,0,0,0,0,2865,1546
2022/08/19 10:59:55,18.1,36.5,31.9,10.0,49.0,52.0,0,0,0,0,0,0,0,0,2865,1546
2022/08/19 11:01:54,18.2,36.5,31.9,10.0,48.9,52.0,0,0,0,0,0,0,0,0,2865,1546
2022/08/19 11:03:53,18.2,36.4,31.9,10.0,48.9,52.0,0,0,0,0,0,0,0,0,2865,1546
2022/08/19 11:05:52,18.2,36.4,31.8,10.0,48.8,52.0,0,0,0,0,0,0,0,0,2865,1546
2022/08/19 11:07:51,18.2,36.3,31.8,10.0,48.8,52.0,0,0,0,0,0,0,0,0,2865,1546
2022/08/19 11:09:50,18.3,36.3,31.7,10.0,48.7,52.0,0,0,0,0,0,0,0,0,2865,1546
2022/08/19 11:11:49,18.3,36.2,31.7,10.0,48.7,52.0,0,0,0,0,0,0,0,0,2865,1546
2022/08/19 11:13:47,18.3,36.2,31.6,10.0,48.6,52.0,0,0,0,0,0,0,0,0,2865,1546
2022/08/19 11:15:45,18.3,36.1,31.6,10.0,48.6,52.0,0,0,0,0,0,0,0,0,2865,1546
2022/08/19 11:17:45,18.3,36.1,31.5,10.0,48.5,52.0,0,0,0,0,0,0,0,0,2865,1546
2022/08/19 11:19:44,18.3,36.0,31.5,10.0,48.5,52.0,0,0,0,0,0,0,0,0,2865,1546
2022/08/19 11:21:43,18.3,35.9,31.4,10.0,48.4,52.0,0,0,0,0,0,0,0,0,2865,1546
2022/08/19 11:23:40,18.3,35.9,31.4,10.0,48.4,52.0,0,0,0,0,0,0,0,0,2865,1546
2022/08/19 11:25:39,18.3,35.9,31.4,10.0,48.3,52.0,0,0,0,0,0,0,0,0,2865,1546
2022/08/19 11:27:38,18.3,35.8,31.3,10.0,48.3,52.0,0,0,0,0,0,0,0,0,2865,1546
2022/08/19 11:29:37,18.3,35.8,31.3,10.0,48.2,52.0,0,0,0,0,0,0,0,0,2865,1546
2022/08/19 11:31:36,18.4,35.7,31.2,10.0,48.2,52.0,0,0,0,0,0,0,0,0,2865,1546
2022/08/19 11:33:35,18.4,35.7,31.2,10.0,48.1,52.0,0,0,0,0,0,0,0,0,2865,1546
2022/08/19 11:35:33,18.4,35.6,31.2,10.0,48.0,52.0,0,0,0,0,0,0,0,0,2865,1546
2022/08/19 11:37:33,18.4,35.6,31.1,10.0,48.0,52.0,0,0,0,0,0,0,0,0,2865,1546
2022/08/19 11:39:32,18.4,35.5,31.1,10.0,47.9,52.0,0,0,0,0,0,0,0,0,2865,1546
2022/08/19 11:41:31,18.4,35.5,31.0,10.0,47.9,52.0,0,0,0,0,0,0,0,0,2865,1546
2022/08/19 11:43:30,18.4,35.4,31.0,10.0,47.8,52.0,0,0,0,0,0,0,0,0,2865,1546
2022/08/19 11:45:29,18.4,35.4,31.0,10.0,47.8,52.0,0,0,0,0,0,0,0,0,2865,1546
2022/08/19 11:47:28,18.4,35.3,30.9,10.0,47.7,52.0,0,0,0,0,0,0,0,0,2865,1546
2022/08/19 11:49:27,18.4,35.3,30.9,10.0,47.6,52.0,0,0,0,0,0,0,0,0,2865,1546
2022/08/19 11:51:27,18.4,35.2,30.8,10.0,47.6,52.0,0,0,0,0,0,0,0,0,2865,1546
2022/08/19 11:53:26,18.4,35.2,30.8,10.0,47.5,52.0,0,0,0,0,0,0,0,0,2865,1546
2022/08/19 11:55:22,18.4,35.1,30.8,10.0,47.5,52.0,0,0,0,0,0,0,0,0,2865,1546
2022/08/19 11:57:21,18.5,35.1,30.7,10.0,47.4,52.0,0,0,0,0,0,0,0,0,2865,1546
2022/08/19 11:59:19,18.5,35.0,30.7,10.0,47.4,52.0,0,0,0,0,0,0,0,0,2865,1546
2022/08/19 12:01:18,18.6,35.0,30.6,10.0,47.3,52.0,0,0,0,0,0,0,0,0,2865,1546
2022/08/19 12:03:16,18.6,35.0,30.6,10.0,47.3,52.0,0,0,0,0,0,0,0,0,2865,1546
2022/08/19 12:05:15,18.6,34.9,30.6,10.0,47.2,52.0,0,0,0,0,0,0,0,0,2865,1546
2022/08/19 12:07:13,18.7,34.9,30.5,10.0,47.2,52.0,0,0,0,0,0,0,0,0,2865,1546
2022/08/19 12:09:11,18.7,34.9,30.5,10.0,47.1,52.0,0,0,0,0,0,0,0,0,2865,1546
2022/08/19 12:11:10,18.7,34.8,30.5,10.0,47.0,52.0,0,0,0,0,0,0,0,0,2865,1546
2022/08/19 12:13:08,18.7,34.8,30.4,10.0,47.0,52.0,0,0,0,0,0,0,0,0,2865,1546
2022/08/19 12:15:07,18.7,34.7,30.4,10.0,46.9,52.0,0,0,0,0,0,0,0,0,2865,1546
2022/08/19 12:17:06,18.8,34.7,30.4,10.0,46.9,52.0,0,0,0,0,0,0,0,0,2865,1546
2022/08/19 12:19:05,18.9,34.7,30.3,10.0,46.8,52.0,0,0,0,0,0,0,0,0,2865,1546
2022/08/19 12:21:04,18.9,34.6,30.3,10.0,46.8,52.0,0,0,0,0,0,0,0,0,2865,1546
2022/08/19 12:23:02,19.0,34.6,30.3,10.0,46.7,52.0,0,0,0,0,0,0,0,0,2865,1546
2022/08/19 12:25:02,19.1,34.6,30.2,10.0,46.6,52.0,0,0,0,0,0,0,0,0,2865,1546
2022/08/19 12:27:02,19.1,34.5,30.2,10.0,46.6,52.0,0,0,0,0,0,0,0,0,2865,1546
2022/08/19 12:30:00,19.2,34.5,30.2,10.0,46.5,52.0,0,0,0,0,0,0,0,0,2865,1546
2022/08/19 12:31:59,19.2,34.5,30.1,10.0,46.5,52.0,0,0,0,0,0,0,0,0,2865,1546
2022/08/19 12:33:57,19.2,34.4,30.1,10.0,46.4,52.0,0,0,0,0,0,0,0,0,2865,1546
2022/08/19 12:35:55,19.2,34.4,30.1,10.0,46.3,52.0,0,0,0,0,0,0,0,0,2865,1546
2022/08/19 12:37:53,19.2,34.4,30.1,10.0,46.3,52.0,0,0,0,0,0,0,0,0,2865,1546
2022/08/19 12:39:52,19.2,34.3,30.0,10.0,46.2,52.0,0,0,0,0,0,0,0,0,2865,1546
2022/08/19 12:41:51,19.2,34.3,30.0,10.0,46.2,52.0,0,0,0,0,0,0,0,0,2865,1546
2022/08/19 12:43:49,19.2,34.3,30.0,10.0,46.1,52.0,0,0,0,0,0,0,0,0,2865,1546
2022/08/19 12:45:49,19.2,34.2,30.0,10.0,46.1,52.0,0,0,0,0,0,0,0,0,2865,1546
2022/08/19 12:47:48,19.1,34.2,29.9,10.0,46.0,52.0,0,0,0,0,0,0,0,0,2865,1546
2022/08/19 12:49:47,19.1,34.2,29.9,10.0,45.9,52.0,0,0,0,0,0,0,0,0,2865,1546
2022/08/19 12:51:45,19.0,34.1,29.9,10.0,45.9,52.0,0,0,0,0,0,0,0,0,2865,1546
2022/08/19 12:53:44,19.0,34.1,29.9,10.0,45.8,52.0,0,0,0,0,0,0,0,0,2865,1546
2022/08/19 12:55:42,19.0,34.1,29.9,10.0,45.7,52.0,0,0,0,0,0,0,0,0,2865,1546
2022/08/19 12:57:40,19.0,34.0,29.8,10.0,45.6,52.0,0,0,0,0,0,0,0,0,2865,1546
2022/08/19 12:59:40,19.0,34.0,29.8,10.0,45.6,52.0,0,0,0,0,0,0,0,0,2865,1546
2022/08/19 13:01:38,19.0,34.0,29.8,10.0,45.5,52.0,0,0,0,0,0,0,0,0,2865,1546
2022/08/19 13:03:36,19.0,33.9,29.8,10.0,45.5,52.0,0,0,0,0,0,0,0,0,2865,1546
2022/08/19 13:05:34,19.0,33.9,29.8,10.0,45.4,52.0,0,0,0,0,0,0,0,0,2865,1546
2022/08/19 13:07:32,19.0,33.9,29.7,10.0,45.3,52.0,0,0,0,0,0,0,0,0,2865,1546
2022/08/19 13:09:31,19.1,33.8,29.7,10.0,45.3,52.0,0,0,0,0,0,0,0,0,2865,1546
2022/08/19 13:11:29,19.1,33.8,29.7,10.0,45.2,52.0,0,0,0,0,0,0,0,0,2865,1546
2022/08/19 13:13:27,19.1,33.8,29.7,10.0,45.1,52.0,0,0,0,0,0,0,0,0,2865,1546
2022/08/19 13:15:27,19.1,33.8,29.6,10.0,45.1,52.0,0,0,0,0,0,0,0,0,2865,1546
2022/08/19 13:17:24,19.2,33.7,29.6,10.0,45.0,52.0,0,0,0,0,0,0,0,0,2865,1546
2022/08/19 13:19:23,19.3,33.7,29.6,10.0,45.0,52.0,0,0,0,0,0,0,0,0,2865,1546
2022/08/19 13:21:22,19.3,33.7,29.6,10.0,44.9,52.0,0,0,0,0,0,0,0,0,2865,1546
2022/08/19 13:23:21,19.4,33.6,29.6,10.0,44.9,52.0,0,0,0,0,0,0,0,0,2865,1546
2022/08/19 13:25:20,19.4,33.6,29.6,10.0,44.8,52.0,0,0,0,0,0,0,0,0,2865,1546
2022/08/19 13:27:18,19.5,33.6,29.5,10.0,44.8,52.0,0,0,0,0,0,0,0,0,2865,1546
2022/08/19 13:29:16,19.5,33.5,29.5,10.0,44.7,52.0,0,0,0,0,0,0,0,0,2865,1546
2022/08/19 13:31:14,19.5,33.5,29.5,10.0,44.7,52.0,0,0,0,0,0,0,0,0,2865,1546
2022/08/19 13:33:13,19.5,33.5,29.5,10.0,44.6,52.0,0,0,0,0,0,0,0,0,2865,1546
2022/08/19 13:35:12,19.6,33.4,29.5,10.0,44.6,52.0,0,0,0,0,0,0,0,0,2865,1546
2022/08/19 13:37:10,19.6,33.4,29.4,10.0,44.5,52.0,0,0,0,0,0,0,0,0,2865,1546
2022/08/19 13:39:09,19.6,33.4,29.4,10.0,44.5,52.0,0,0,0,0,0,0,0,0,2865,1546
2022/08/19 13:41:07,19.6,33.3,29.4,10.0,44.4,52.0,0,0,0,0,0,0,0,0,2865,1546
2022/08/19 13:43:07,19.6,33.3,29.4,10.0,44.4,52.0,0,0,0,0,0,0,0,0,2865,1546
2022/08/19 13:45:06,19.6,33.3,29.4,10.0,44.3,52.0,0,0,0,0,0,0,0,0,2865,1546
2022/08/19 13:47:05,19.5,33.3,29.4,10.0,44.3,52.0,0,0,0,0,0,0,0,0,2865,1546
2022/08/19 13:49:03,19.5,33.2,29.3,10.0,44.2,52.0,0,0,0,0,0,0,0,0,2865,1546
2022/08/19 13:51:03,19.4,33.2,29.3,10.0,44.2,52.0,0,0,0,0,0,0,0,0,2865,1546
2022/08/19 13:53:02,19.4,33.2,29.3,10.0,44.1,52.0,0,0,0,0,0,0,0,0,2865,1546
2022/08/19 13:56:01,19.4,33.1,29.3,10.0,44.1,52.0,0,0,0,0,0,0,0,0,2865,1546
2022/08/19 13:57:59,19.3,36.9,36.2,10.0,44.0,52.0,0,0,1,0,0,1,1,0,2865,1546
2022/08/19 13:59:58,19.3,42.6,39.2,10.0,43.8,52.0,0,1,1,0,0,1,1,0,2865,1547
2022/08/19 14:01:56,19.3,45.2,41.5,10.0,43.8,52.0,0,1,1,0,0,1,1,0,2865,1548
2022/08/19 14:03:56,19.2,46.9,42.9,10.0,43.9,52.0,0,1,1,0,0,1,1,0,2865,1549
2022/08/19 14:05:55,19.2,48.0,43.8,10.0,44.2,52.0,0,1,1,0,0,1,1,0,2865,1550
2022/08/19 14:07:54,19.2,48.8,44.5,10.0,44.7,52.0,0,1,1,0,0,1,1,0,2865,1551
2022/08/19 14:09:51,19.1,49.5,45.0,10.0,45.2,52.0,0,1,1,0,0,1,1,0,2865,1551
2022/08/19 14:11:50,19.1,50.2,45.6,10.0,45.7,52.0,0,1,1,0,0,1,1,0,2865,1552
2022/08/19 14:13:50,19.1,50.8,46.2,10.0,46.3,52.0,0,1,1,0,0,1,1,0,2865,1553
2022/08/19 14:15:49,19.0,51.6,46.8,10.0,46.9,52.0,0,1,1,0,0,1,1,0,2865,1554
2022/08/19 14:17:46,19.0,52.2,47.3,10.0,47.4,52.0,0,1,1,0,0,1,1,0,2865,1554
2022/08/19 14:19:45,19.0,52.7,47.8,10.0,48.0,52.0,0,1,1,0,0,1,1,0,2865,1555
2022/08/19 14:21:43,18.9,53.2,48.3,10.0,48.5,52.0,0,1,1,0,0,1,1,0,2865,1556
2022/08/19 14:23:43,18.9,53.7,48.8,10.0,49.1,52.0,0,1,1,0,0,1,1,0,2865,1557
2022/08/19 14:25:41,18.9,54.2,49.2,10.0,49.6,52.0,0,1,1,0,0,1,1,0,2865,1557
2022/08/19 14:27:40,18.8,54.7,49.7,10.0,50.1,52.0,0,1,1,0,0,1,1,0,2865,1558
2022/08/19 14:29:39,18.8,55.2,50.1,10.0,50.7,52.0,0,1,1,0,0,1,1,0,2865,1559
2022/08/19 14:31:39,18.8,55.7,50.6,10.0,51.3,52.0,0,1,1,0,0,1,1,0,2865,1560
2022/08/19 14:33:38,18.7,56.2,51.1,10.0,51.9,52.0,0,1,1,0,0,1,1,0,2865,1560
2022/08/19 14:35:37,18.7,46.8,41.9,10.0,52.4,52.0,0,0,0,0,0,0,1,0,2865,1561
2022/08/19 14:37:36,18.6,41.8,39.5,10.0,52.7,52.0,0,0,0,0,0,0,0,0,2865,1561
2022/08/19 14:39:35,18.6,41.2,38.9,10.0,52.8,52.0,0,0,0,0,0,0,0,0,2865,1561
2022/08/19 14:41:34,18.6,40.7,38.5,10.0,52.8,52.0,0,0,0,0,0,0,0,0,2865,1561
2022/08/19 14:43:33,18.5,40.3,38.2,10.0,52.7,52.0,0,0,0,0,0,0,0,0,2865,1561
2022/08/19 14:45:32,18.5,39.9,37.9,10.0,52.6,52.0,0,0,0,0,0,0,0,0,2865,1561
2022/08/19 14:47:31,18.5,39.7,37.6,10.0,52.5,52.0,0,0,0,0,0,0,0,0,2865,1561
2022/08/19 14:49:29,18.5,39.5,37.4,10.0,52.4,52.0,0,0,0,0,0,0,0,0,2865,1561
2022/08/19 14:51:27,18.5,39.4,37.2,10.0,52.4,52.0,0,0,0,0,0,0,0,0,2865,1561
2022/08/19 14:53:23,18.5,39.3,37.0,10.0,52.3,52.0,0,0,0,0,0,0,0,0,2865,1561
2022/08/19 14:55:22,18.6,39.2,36.8,10.0,52.2,52.0,0,0,0,0,0,0,0,0,2865,1561
2022/08/19 14:57:21,18.7,39.0,36.6,10.0,52.2,52.0,0,0,0,0,0,0,0,0,2865,1561
2022/08/19 14:59:21,18.7,38.9,36.5,10.0,52.1,52.0,0,0,0,0,0,0,0,0,2865,1561
2022/08/19 15:01:19,18.7,38.8,36.3,10.0,52.0,52.0,0,0,0,0,0,0,0,0,2865,1561
2022/08/19 15:03:17,18.8,38.7,36.2,10.0,51.9,52.0,0,0,0,0,0,0,0,0,2865,1561
2022/08/19 15:05:16,18.8,38.6,36.0,10.0,51.9,52.0,0,0,0,0,0,0,0,0,2865,1561
2022/08/19 15:07:15,18.8,38.6,35.9,10.0,51.8,52.0,0,0,0,0,0,0,0,0,2865,1561
2022/08/19 15:09:14,18.8,38.5,35.8,10.0,51.7,52.0,0,0,0,0,0,0,0,0,2865,1561
2022/08/19 15:11:12,18.8,38.4,35.7,10.0,51.7,52.0,0,0,0,0,0,0,0,0,2865,1561
2022/08/19 15:13:12,18.8,38.4,35.5,10.0,51.6,52.0,0,0,0,0,0,0,0,0,2865,1561
2022/08/19 15:15:09,18.8,38.3,35.4,10.0,51.5,52.0,0,0,0,0,0,0,0,0,2865,1561
2022/08/19 15:17:08,18.8,38.2,35.3,10.0,51.5,52.0,0,0,0,0,0,0,0,0,2865,1561
2022/08/19 15:19:07,18.8,38.2,35.2,10.0,51.4,52.0,0,0,0,0,0,0,0,0,2865,1561
2022/08/19 15:21:06,18.8,38.2,35.1,10.0,51.3,52.0,0,0,0,0,0,0,0,0,2865,1561
2022/08/19 15:23:04,18.7,38.1,35.0,10.0,51.3,52.0,0,0,0,0,0,0,0,0,2865,1561
2022/08/19 15:26:01,18.7,38.1,34.9,10.0,51.2,52.0,0,0,0,0,0,0,0,0,2865,1561
2022/08/19 15:28:00,18.6,38.0,34.8,10.0,51.2,52.0,0,0,0,0,0,0,0,0,2865,1561
2022/08/19 15:29:59,18.6,38.0,34.7,10.0,51.1,52.0,0,0,0,0,0,0,0,0,2865,1561
2022/08/19 15:31:57,18.5,37.9,34.7,10.0,51.0,52.0,0,0,0,0,0,0,0,0,2865,1561
2022/08/19 15:33:55,18.5,37.9,34.6,10.0,51.0,52.0,0,0,0,0,0,0,0,0,2865,1561
2022/08/19 15:35:54,18.5,37.9,34.5,10.0,50.9,52.0,0,0,0,0,0,0,0,0,2865,1561
2022/08/19 15:37:53,18.5,37.8,34.4,10.0,50.9,52.0,0,0,0,0,0,0,0,0,2865,1561
2022/08/19 15:39:51,18.5,37.8,34.4,10.0,50.8,52.0,0,0,0,0,0,0,0,0,2865,1561
2022/08/19 15:41:49,18.4,37.7,34.3,10.0,50.7,52.0,0,0,0,0,0,0,0,0,2865,1561
2022/08/19 15:43:48,18.4,37.7,34.2,10.0,50.7,52.0,0,0,0,0,0,0,0,0,2865,1561
2022/08/19 15:45:47,18.4,37.7,34.1,10.0,50.6,52.0,0,0,0,0,0,0,0,0,2865,1561
2022/08/19 15:47:45,18.4,37.6,34.1,10.0,50.6,52.0,0,0,0,0,0,0,0,0,2865,1561
2022/08/19 15:49:43,18.3,37.6,34.0,10.0,50.5,52.0,0,0,0,0,0,0,0,0,2865,1561
2022/08/19 15:51:43,18.3,37.5,33.9,10.0,50.4,52.0,0,0,0,0,0,0,0,0,2865,1561
2022/08/19 15:53:42,18.3,37.5,33.8,10.0,50.4,52.0,0,0,0,0,0,0,0,0,2865,1561
2022/08/19 15:55:40,18.3,37.4,33.8,10.0,50.3,52.0,0,0,0,0,0,0,0,0,2865,1561
2022/08/19 15:57:39,18.3,37.4,33.7,10.0,50.2,52.0,0,0,0,0,0,0,0,0,2865,1561
2022/08/19 15:59:37,18.2,37.4,33.6,10.0,50.2,52.0,0,0,0,0,0,0,0,0,2865,1561
2022/08/19 16:01:36,18.2,37.3,33.5,10.0,50.1,52.0,0,0,0,0,0,0,0,0,2865,1561
2022/08/19 16:03:35,18.2,37.3,33.5,10.0,50.1,52.0,0,0,0,0,0,0,0,0,2865,1561
2022/08/19 16:05:34,18.2,37.3,33.4,10.0,50.0,52.0,0,0,0,0,0,0,0,0,2865,1561
2022/08/19 16:07:33,18.2,37.2,33.3,10.0,50.0,52.0,0,0,0,0,0,0,0,0,2865,1561
2022/08/19 16:09:32,18.2,37.2,33.3,10.0,49.9,52.0,0,0,0,0,0,0,0,0,2865,1561
2022/08/19 16:11:31,18.2,37.1,33.2,10.0,49.9,52.0,0,0,0,0,0,0,0,0,2865,1561
2022/08/19 16:13:30,18.2,37.1,33.1,10.0,49.8,52.0,0,0,0,0,0,0,0,0,2865,1561
2022/08/19 16:15:29,18.1,37.0,33.1,10.0,49.8,52.0,0,0,0,0,0,0,0,0,2865,1561
2022/08/19 16:17:27,18.1,37.0,33.0,10.0,49.7,52.0,0,0,0,0,0,0,0,0,2865,1561
2022/08/19 16:19:26,18.1,36.9,32.9,10.0,49.7,52.0,0,0,0,0,0,0,0,0,2865,1561
2022/08/19 16:21:24,18.1,36.9,32.9,10.0,49.6,52.0,0,0,0,0,0,0,0,0,2865,1561
2022/08/19 16:23:23,18.1,36.8,32.8,10.0,49.6,52.0,0,0,0,0,0,0,0,0,2865,1561
2022/08/19 16:25:20,18.1,36.8,32.8,10.0,49.5,52.0,0,0,0,0,0,0,0,0,2865,1561
2022/08/19 16:27:19,18.1,36.7,32.7,10.0,49.5,52.0,0,0,0,0,0,0,0,0,2865,1561
2022/08/19 16:29:18,18.1,36.7,32.6,10.0,49.4,52.0,0,0,0,0,0,0,0,0,2865,1561
2022/08/19 16:31:17,18.1,36.6,32.6,10.0,49.4,52.0,0,0,0,0,0,0,0,0,2865,1561
2022/08/19 16:33:16,18.1,36.6,32.5,10.0,49.3,52.0,0,0,0,0,0,0,0,0,2865,1561
2022/08/19 16:35:14,18.1,36.5,32.5,10.0,49.3,52.0,0,0,0,0,0,0,0,0,2865,1561
2022/08/19 16:37:12,18.1,36.5,32.4,10.0,49.2,52.0,0,0,0,0,0,0,0,0,2865,1561
2022/08/19 16:39:09,18.1,36.4,32.3,10.0,49.2,52.0,0,0,0,0,0,0,0,0,2865,1561
2022/08/19 16:41:08,18.1,36.4,32.3,10.0,49.2,52.0,0,0,0,0,0,0,0,0,2865,1561
2022/08/19 16:43:07,18.1,36.3,32.2,10.0,49.1,52.0,0,0,0,0,0,0,0,0,2865,1561
2022/08/19 16:45:06,18.1,36.3,32.2,10.0,49.1,52.0,0,0,0,0,0,0,0,0,2865,1561
2022/08/19 16:47:05,18.1,36.2,32.1,10.0,49.0,52.0,0,0,0,0,0,0,0,0,2865,1561
2022/08/19 16:49:03,18.1,36.2,32.1,10.0,49.0,52.0,0,0,0,0,0,0,0,0,2865,1561
2022/08/19 16:52:02,18.1,36.1,32.0,10.0,48.9,52.0,0,0,0,0,0,0,0,0,2865,1561
2022/08/19 16:54:00,18.1,36.1,32.0,10.0,48.9,52.0,0,0,0,0,0,0,0,0,2865,1561
2022/08/19 16:56:00,18.1,36.0,31.9,10.0,48.8,52.0,0,0,0,0,0,0,0,0,2865,1561
2022/08/19 16:58:00,18.1,36.0,31.9,10.0,48.8,52.0,0,0,0,0,0,0,0,0,2865,1561
2022/08/19 16:59:58,18.1,35.9,31.8,10.0,48.7,52.0,0,0,0,0,0,0,0,0,2865,1561
2022/08/19 17:01:58,18.1,35.9,31.8,10.0,48.7,52.0,0,0,0,0,0,0,0,0,2865,1561
2022/08/19 17:03:56,18.1,35.9,31.7,10.0,48.6,52.0,0,0,0,0,0,0,0,0,2865,1561
2022/08/19 17:05:55,18.1,35.8,31.7,10.0,48.6,52.0,0,0,0,0,0,0,0,0,2865,1561
2022/08/19 17:07:54,18.0,35.8,31.6,10.0,48.5,52.0,0,0,0,0,0,0,0,0,2865,1561
2022/08/19 17:09:53,18.0,35.7,31.6,10.0,48.5,52.0,0,0,0,0,0,0,0,0,2865,1561
2022/08/19 17:11:51,18.0,35.7,31.6,10.0,48.4,52.0,0,0,0,0,0,0,0,0,2865,1561
2022/08/19 17:13:50,18.0,35.6,31.5,10.0,48.4,52.0,0,0,0,0,0,0,0,0,2865,1561
2022/08/19 17:15:49,17.9,35.6,31.5,10.0,48.3,52.0,0,0,0,0,0,0,0,0,2865,1561
2022/08/19 17:17:48,17.9,35.5,31.4,10.0,48.3,52.0,0,0,0,0,0,0,0,0,2865,1561
2022/08/19 17:19:47,17.9,35.5,31.4,10.0,48.2,52.0,0,0,0,0,0,0,0,0,2865,1561
2022/08/19 17:21:46,17.8,35.4,31.3,10.0,48.2,52.0,0,0,0,0,0,0,0,0,2865,1561
2022/08/19 17:23:45,17.8,35.4,31.3,10.0,48.1,52.0,0,0,0,0,0,0,0,0,2865,1561
2022/08/19 17:25:45,17.7,35.3,31.2,10.0,48.1,52.0,0,0,0,0,0,0,0,0,2865,1561
2022/08/19 17:27:43,17.7,35.3,31.2,10.0,48.0,52.0,0,0,0,0,0,0,0,0,2865,1561
2022/08/19 17:29:42,17.7,35.2,31.2,10.0,48.0,52.0,0,0,0,0,0,0,0,0,2865,1561
2022/08/19 17:31:42,17.7,35.2,31.1,10.0,47.9,52.0,0,0,0,0,0,0,0,0,2865,1561
2022/08/19 17:33:41,17.7,35.2,31.1,10.0,47.9,52.0,0,0,0,0,0,0,0,0,2865,1561
2022/08/19 17:35:39,17.6,35.1,31.0,10.0,47.9,52.0,0,0,0,0,0,0,0,0,2865,1561
2022/08/19 17:37:38,17.6,35.1,31.0,10.0,47.8,52.0,0,0,0,0,0,0,0,0,2865,1561
2022/08/19 17:39:37,17.6,35.0,31.0,10.0,47.8,52.0,0,0,0,0,0,0,0,0,2865,1561
2022/08/19 17:41:36,17.5,35.0,30.9,10.0,47.7,52.0,0,0,0,0,0,0,0,0,2865,1561
2022/08/19 17:43:34,17.5,35.0,30.9,10.0,47.7,52.0,0,0,0,0,0,0,0,0,2865,1561
2022/08/19 17:45:33,17.5,34.9,30.9,10.0,47.6,52.0,0,0,0,0,0,0,0,0,2865,1561
2022/08/19 17:47:32,17.5,34.9,30.8,10.0,47.6,52.0,0,0,0,0,0,0,0,0,2865,1561
2022/08/19 17:49:30,17.5,34.9,30.8,10.0,47.5,52.0,0,0,0,0,0,0,0,0,2865,1561
2022/08/19 17:51:28,17.4,34.8,30.8,10.0,47.5,52.0,0,0,0,0,0,0,0,0,2865,1561
2022/08/19 17:53:27,17.4,34.8,30.7,10.0,47.4,52.0,0,0,0,0,0,0,0,0,2865,1561
2022/08/19 17:55:25,17.4,34.8,30.7,10.0,47.4,52.0,0,0,0,0,0,0,0,0,2865,1561
2022/08/19 17:57:24,17.4,34.7,30.6,10.0,47.3,52.0,0,0,0,0,0,0,0,0,2865,1561
2022/08/19 17:59:23,17.3,34.7,30.6,10.0,47.3,52.0,0,0,0,0,0,0,0,0,2865,1561
2022/08/19 18:01:21,17.3,34.7,30.6,10.0,47.2,52.0,0,0,0,0,0,0,0,0,2865,1561
2022/08/19 18:03:19,17.3,34.6,30.6,10.0,47.2,52.0,0,0,0,0,0,0,0,0,2865,1561
2022/08/19 18:05:18,17.2,34.6,30.5,10.0,47.1,52.0,0,0,0,0,0,0,0,0,2865,1561
2022/08/19 18:07:18,17.2,34.5,30.5,10.0,47.1,52.0,0,0,0,0,0,0,0,0,2865,1561
2022/08/19 18:09:16,17.2,34.5,30.4,10.0,47.0,52.0,0,0,0,0,0,0,0,0,2865,1561
2022/08/19 18:11:15,17.2,34.5,30.4,10.0,47.0,52.0,0,0,0,0,0,0,0,0,2865,1561
2022/08/19 18:13:14,17.3,34.4,30.4,10.0,46.9,52.0,0,0,0,0,0,0,0,0,2865,1561
2022/08/19 18:15:11,17.3,34.4,30.4,10.0,46.9,52.0,0,0,0,0,0,0,0,0,2865,1561
2022/08/19 18:17:10,17.3,34.4,30.3,10.0,46.8,52.0,0,0,0,0,0,0,0,0,2865,1561
2022/08/19 18:19:09,17.3,34.3,30.3,10.0,46.8,52.0,0,0,0,0,0,0,0,0,2865,1561
2022/08/19 18:21:08,17.3,34.3,30.3,10.0,46.7,52.0,0,0,0,0,0,0,0,0,2865,1561
2022/08/19 18:23:07,17.3,34.3,30.2,10.0,46.7,52.0,0,0,0,0,0,0,0,0,2865,1561
2022/08/19 18:25:06,17.3,34.2,30.2,10.0,46.6,52.0,0,0,0,0,0,0,0,0,2865,1561
2022/08/19 18:27:05,17.3,34.2,30.2,10.0,46.6,52.0,0,0,0,0,0,0,0,0,2865,1561
2022/08/19 18:29:03,17.3,34.2,30.1,10.0,46.5,52.0,0,0,0,0,0,0,0,0,2865,1561
2022/08/19 18:31:02,17.3,34.1,30.1,10.0,46.5,52.0,0,0,0,0,0,0,0,0,2865,1561
2022/08/19 18:34:01,17.2,34.1,30.1,10.0,46.4,52.0,0,0,0,0,0,0,0,0,2865,1561
2022/08/19 18:36:00,17.2,34.1,30.1,10.0,46.4,52.0,0,0,0,0,0,0,0,0,2865,1561
2022/08/19 18:37:59,17.2,34.0,30.0,10.0,46.3,52.0,0,0,0,0,0,0,0,0,2865,1561
2022/08/19 18:39:57,17.2,34.0,30.0,10.0,46.3,52.0,0,0,0,0,0,0,0,0,2865,1561
2022/08/19 18:41:55,17.2,34.0,30.0,10.0,46.2,52.0,0,0,0,0,0,0,0,0,2865,1561
2022/08/19 18:43:53,17.2,33.9,30.0,10.0,46.2,52.0,0,0,0,0,0,0,0,0,2865,1561
2022/08/19 18:45:51,17.2,33.9,29.9,10.0,46.1,52.0,0,0,0,0,0,0,0,0,2865,1561
2022/08/19 18:47:49,17.1,33.9,29.9,10.0,46.1,52.0,0,0,0,0,0,0,0,0,2865,1561
2022/08/19 18:49:47,17.1,33.9,29.9,10.0,46.0,52.0,0,0,0,0,0,0,0,0,2865,1561
2022/08/19 18:51:46,17.1,33.8,29.9,10.0,46.0,52.0,0,0,0,0,0,0,0,0,2865,1561
2022/08/19 18:53:44,17.1,33.8,29.9,10.0,45.9,52.0,0,0,0,0,0,0,0,0,2865,1561
2022/08/19 18:55:43,17.1,33.8,29.8,10.0,45.9,52.0,0,0,0,0,0,0,0,0,2865,1561
2022/08/19 18:57:43,17.1,33.7,29.8,10.0,45.8,52.0,0,0,0,0,0,0,0,0,2865,1561
2022/08/19 18:59:42,17.1,33.7,29.8,10.0,45.7,52.0,0,0,0,0,0,0,0,0,2865,1561
2022/08/19 19:01:41,17.1,33.7,29.8,10.0,45.6,52.0,0,0,0,0,0,0,0,0,2865,1561
2022/08/19 19:03:40,17.1,33.6,29.8,10.0,45.6,52.0,0,0,0,0,0,0,0,0,2865,1561
2022/08/19 19:05:39,17.1,33.6,29.7,10.0,45.5,52.0,0,0,0,0,0,0,0,0,2865,1561
2022/08/19 19:07:38,17.2,33.6,29.7,10.0,45.5,52.0,0,0,0,0,0,0,0,0,2865,1561
2022/08/19 19:09:37,17.2,33.5,29.7,10.0,45.4,52.0,0,0,0,0,0,0,0,0,2865,1561
2022/08/19 19:11:36,17.2,33.5,29.7,10.0,45.3,52.0,0,0,0,0,0,0,0,0,2865,1561
2022/08/19 19:13:35,17.3,33.5,29.7,10.0,45.3,52.0,0,0,0,0,0,0,0,0,2865,1561
2022/08/19 19:15:34,17.3,33.5,29.6,10.0,45.2,52.0,0,0,0,0,0,0,0,0,2865,1561
2022/08/19 19:17:32,17.3,33.4,29.6,10.0,45.2,52.0,0,0,0,0,0,0,0,0,2865,1561
2022/08/19 19:19:31,17.3,33.4,29.6,10.0,45.1,52.0,0,0,0,0,0,0,0,0,2865,1561
2022/08/19 19:21:29,17.3,33.4,29.6,10.0,45.1,52.0,0,0,0,0,0,0,0,0,2865,1561
2022/08/19 19:23:28,17.3,33.3,29.6,10.0,45.0,52.0,0,0,0,0,0,0,0,0,2865,1561
2022/08/19 19:25:26,17.3,33.3,29.5,10.0,45.0,52.0,0,0,0,0,0,0,0,0,2865,1561
2022/08/19 19:27:26,17.3,33.3,29.5,10.0,44.9,52.0,0,0,0,0,0,0,0,0,2865,1561
2022/08/19 19:29:25,17.3,33.3,29.5,10.0,44.9,52.0,0,0,0,0,0,0,0,0,2865,1561
2022/08/19 19:31:24,17.3,33.2,29.5,10.0,44.8,52.0,0,0,0,0,0,0,0,0,2865,1561
2022/08/19 19:33:22,17.3,33.2,29.5,10.0,44.8,52.0,0,0,0,0,0,0,0,0,2865,1561
2022/08/19 19:35:20,17.3,33.2,29.4,10.0,44.8,52.0,0,0,0,0,0,0,0,0,2865,1561
2022/08/19 19:37:18,17.2,33.1,29.4,10.0,44.7,52.0,0,0,0,0,0,0,0,0,2865,1561
2022/08/19 19:39:17,17.2,33.1,29.4,10.0,44.7,52.0,0,0,0,0,0,0,0,0,2865,1561
2022/08/19 19:41:16,17.2,33.1,29.4,10.0,44.6,52.0,0,0,0,0,0,0,0,0,2865,1561
2022/08/19 19:43:15,17.2,33.1,29.4,10.0,44.6,52.0,0,0,0,0,0,0,0,0,2865,1561
2022/08/19 19:45:11,17.2,33.0,29.4,10.0,44.5,52.0,0,0,0,0,0,0,0,0,2865,1561
2022/08/19 19:47:09,17.1,33.0,29.3,10.0,44.5,52.0,0,0,0,0,0,0,0,0,2865,1561
2022/08/19 19:49:08,17.1,33.0,29.3,10.0,44.5,52.0,0,0,0,0,0,0,0,0,2865,1561
2022/08/19 19:51:05,17.1,32.9,29.3,10.0,44.4,52.0,0,0,0,0,0,0,0,0,2865,1561
2022/08/19 19:53:05,17.1,32.9,29.3,10.0,44.4,52.0,0,0,0,0,0,0,0,0,2865,1561
2022/08/19 19:55:03,17.1,32.9,29.3,10.0,44.3,52.0,0,0,0,0,0,0,0,0,2865,1561
2022/08/19 19:57:02,17.1,32.9,29.2,10.0,44.3,52.0,0,0,0,0,0,0,0,0,2865,1561
2022/08/19 20:00:00,17.0,32.8,29.2,10.0,44.2,52.0,0,0,0,0,0,0,0,0,2865,1561
2022/08/19 20:01:58,17.0,32.8,29.2,10.0,44.2,52.0,0,0,0,0,0,0,0,0,2865,1561
2022/08/19 20:03:55,17.0,32.8,29.2,10.0,44.1,52.0,0,0,0,0,0,0,0,0,2865,1561
2022/08/19 20:05:54,17.0,32.8,29.2,10.0,44.1,52.0,0,0,0,0,0,0,0,0,2865,1561
2022/08/19 20:07:54,17.0,32.7,29.4,10.0,44.0,52.0,0,0,1,0,0,1,1,0,2865,1561
2022/08/19 20:09:53,17.0,41.5,38.0,10.0,43.9,52.0,1,0,1,0,0,1,1,0,2865,1561
2022/08/19 20:11:52,17.0,45.3,41.9,10.0,43.8,52.0,1,0,1,0,0,1,1,0,2865,1562
2022/08/19 20:13:51,17.0,47.2,43.4,10.0,43.9,52.0,1,0,1,0,0,1,1,0,2865,1563
2022/08/19 20:15:49,17.0,48.5,44.3,10.0,44.3,52.0,1,0,1,0,0,1,1,0,2865,1564
2022/08/19 20:17:48,17.0,49.3,45.0,10.0,44.8,52.0,1,0,1,0,0,1,1,0,2865,1564
2022/08/19 20:19:47,17.0,50.1,45.8,10.0,45.4,52.0,1,0,1,0,0,1,1,0,2865,1565
2022/08/19 20:21:46,17.0,50.8,46.3,10.0,45.9,52.0,1,0,1,0,0,1,1,0,2865,1566
2022/08/19 20:23:45,17.0,51.5,46.9,10.0,46.6,52.0,1,0,1,0,0,1,1,0,2865,1567
2022/08/19 20:25:44,17.0,52.2,47.4,10.0,47.2,52.0,1,0,1,0,0,1,1,0,2865,1567
2022/08/19 20:27:42,17.0,52.7,47.9,10.0,47.8,52.0,1,0,1,0,0,1,1,0,2865,1568
2022/08/19 20:29:41,17.0,53.2,48.4,10.0,48.3,52.0,1,0,1,0,0,1,1,0,2865,1569
2022/08/19 20:31:41,17.0,53.7,48.9,10.0,48.9,52.0,1,0,1,0,0,1,1,0,2865,1570
2022/08/19 20:33:40,17.0,54.2,49.3,10.0,49.5,52.0,1,0,1,0,0,1,1,0,2865,1570
2022/08/19 20:35:39,17.0,54.6,49.7,10.0,49.9,52.0,1,0,1,0,0,1,1,0,2865,1571
2022/08/19 20:37:37,17.0,55.1,50.2,10.0,50.6,52.0,1,0,1,0,0,1,1,0,2865,1572
2022/08/19 20:39:36,17.0,55.6,50.7,10.0,51.3,52.0,1,0,1,0,0,1,1,0,2865,1573
2022/08/19 20:41:35,17.0,56.2,51.4,10.0,51.8,52.0,1,0,1,0,0,1,1,0,2865,1573
2022/08/19 20:43:33,17.0,51.0,44.4,10.0,52.3,52.0,0,0,0,0,0,0,1,0,2865,1574
2022/08/19 20:45:32,17.0,41.6,39.4,10.0,52.7,52.0,0,0,0,0,0,0,0,0,2865,1574
2022/08/19 20:47:30,17.0,41.0,38.7,10.0,52.8,52.0,0,0,0,0,0,0,0,0,2865,1574
2022/08/19 20:49:29,16.9,40.5,38.3,10.0,52.8,52.0,0,0,0,0,0,0,0,0,2865,1574
2022/08/19 20:51:26,16.9,40.1,38.0,10.0,52.8,52.0,0,0,0,0,0,0,0,0,2865,1574
2022/08/19 20:53:25,16.9,39.8,37.7,10.0,52.7,52.0,0,0,0,0,0,0,0,0,2865,1574
2022/08/19 20:55:24,16.9,39.5,37.4,10.0,52.6,52.0,0,0,0,0,0,0,0,0,2865,1574
2022/08/19 20:57:23,16.9,39.3,37.2,10.0,52.5,52.0,0,0,0,0,0,0,0,0,2865,1574
2022/08/19 20:59:21,16.9,39.2,37.0,10.0,52.4,52.0,0,0,0,0,0,0,0,0,2865,1574
2022/08/19 21:01:19,16.9,39.1,36.8,10.0,52.3,52.0,0,0,0,0,0,0,0,0,2865,1574
2022/08/19 21:03:18,16.9,38.9,36.6,10.0,52.3,52.0,0,0,0,0,0,0,0,0,2865,1574
2022/08/19 21:05:18,16.9,38.8,36.4,10.0,52.2,52.0,0,0,0,0,0,0,0,0,2865,1574
2022/08/19 21:07:17,16.9,38.7,36.3,10.0,52.1,52.0,0,0,0,0,0,0,0,0,2865,1574
2022/08/19 21:09:15,16.9,38.6,36.1,10.0,52.1,52.0,0,0,0,0,0,0,0,0,2865,1574
2022/08/19 21:11:13,16.9,38.5,36.0,10.0,52.0,52.0,0,0,0,0,0,0,0,0,2865,1574
2022/08/19 21:13:13,16.9,38.4,35.9,10.0,51.9,52.0,0,0,0,0,0,0,0,0,2865,1574
2022/08/19 21:15:12,16.9,38.3,35.7,10.0,51.8,52.0,0,0,0,0,0,0,0,0,2865,1574
2022/08/19 21:17:11,16.9,38.2,35.6,10.0,51.8,52.0,0,0,0,0,0,0,0,0,2865,1574
2022/08/19 21:19:10,16.9,38.2,35.5,10.0,51.7,52.0,0,0,0,0,0,0,0,0,2865,1574
2022/08/19 21:21:09,16.9,38.1,35.4,10.0,51.7,52.0,0,0,0,0,0,0,0,0,2865,1574
2022/08/19 21:23:08,16.9,38.0,35.3,10.0,51.6,52.0,0,0,0,0,0,0,0,0,2865,1574
2022/08/19 21:25:06,16.9,38.0,35.2,10.0,51.5,52.0,0,0,0,0,0,0,0,0,2865,1574
2022/08/19 21:27:04,16.9,37.9,35.0,10.0,51.4,52.0,0,0,0,0,0,0,0,0,2865,1574
2022/08/19 21:29:02,16.9,37.9,35.0,10.0,51.4,52.0,0,0,0,0,0,0,0,0,2865,1574
2022/08/19 21:32:01,16.9,37.8,34.9,10.0,51.3,52.0,0,0,0,0,0,0,0,0,2865,1574
2022/08/19 21:34:00,16.9,37.8,34.8,10.0,51.3,52.0,0,0,0,0,0,0,0,0,2865,1574
2022/08/19 21:35:59,16.9,37.7,34.7,10.0,51.2,52.0,0,0,0,0,0,0,0,0,2865,1574
2022/08/19 21:37:55,16.9,37.7,34.7,10.0,51.1,52.0,0,0,0,0,0,0,0,0,2865,1574
2022/08/19 21:39:53,16.9,37.6,34.6,10.0,51.1,52.0,0,0,0,0,0,0,0,0,2865,1574
2022/08/19 21:41:52,16.9,37.6,34.5,10.0,51.0,52.0,0,0,0,0,0,0,0,0,2865,1574
2022/08/19 21:43:50,16.9,37.5,34.4,10.0,50.9,52.0,0,0,0,0,0,0,0,0,2865,1574
2022/08/19 21:45:49,16.9,37.5,34.3,10.0,50.9,52.0,0,0,0,0,0,0,0,0,2865,1574
2022/08/19 21:47:47,16.9,37.4,34.3,10.0,50.8,52.0,0,0,0,0,0,0,0,0,2865,1574
2022/08/19 21:49:46,16.9,37.4,34.2,10.0,50.7,52.0,0,0,0,0,0,0,0,0,2865,1574
2022/08/19 21:51:45,16.9,37.4,34.1,10.0,50.7,52.0,0,0,0,0,0,0,0,0,2865,1574
2022/08/19 21:53:44,16.9,37.3,34.0,10.0,50.6,52.0,0,0,0,0,0,0,0,0,2865,1574
2022/08/19 21:55:43,16.9,37.3,34.0,10.0,50.5,52.0,0,0,0,0,0,0,0,0,2865,1574
2022/08/19 21:57:41,16.9,37.3,33.9,10.0,50.5,52.0,0,0,0,0,0,0,0,0,2865,1574
2022/08/19 21:59:37,16.9,37.2,33.8,10.0,50.4,10.0,0,0,0,0,0,0,0,0,2865,1574
2022/08/19 22:01:35,16.9,37.2,33.7,10.0,50.3,10.0,0,0,0,0,0,0,0,0,2865,1574
2022/08/19 22:03:34,16.9,37.1,33.7,10.0,50.3,10.0,0,0,0,0,0,0,0,0,2865,1574
2022/08/19 22:05:32,16.9,37.1,33.6,10.0,50.3,10.0,0,0,0,0,0,0,0,0,2865,1574
2022/08/19 22:07:32,16.9,37.0,33.5,10.0,50.3,10.0,0,0,0,0,0,0,0,0,2865,1574
2022/08/19 22:09:31,16.9,37.0,33.5,10.0,50.3,10.0,0,0,0,0,0,0,0,0,2865,1574
2022/08/19 22:11:30,16.9,36.9,33.4,10.0,50.3,10.0,0,0,0,0,0,0,0,0,2865,1574
2022/08/19 22:13:29,16.9,36.9,33.3,10.0,50.3,10.0,0,0,0,0,0,0,0,0,2865,1574
2022/08/19 22:15:28,16.8,36.8,33.3,10.0,50.3,10.0,0,0,0,0,0,0,0,0,2865,1574
2022/08/19 22:17:24,16.8,36.8,33.2,10.0,50.3,10.0,0,0,0,0,0,0,0,0,2865,1574
2022/08/19 22:19:22,16.8,36.7,33.1,10.0,50.3,10.0,0,0,0,0,0,0,0,0,2865,1574
2022/08/19 22:21:21,16.8,36.7,33.1,10.0,50.3,10.0,0,0,0,0,0,0,0,0,2865,1574
2022/08/19 22:23:20,16.7,36.6,33.0,10.0,50.3,10.0,0,0,0,0,0,0,0,0,2865,1574
2022/08/19 22:25:18,16.7,36.6,32.9,10.0,50.3,10.0,0,0,0,0,0,0,0,0,2865,1574
2022/08/19 22:27:17,16.7,36.5,32.9,10.0,50.3,10.0,0,0,0,0,0,0,0,0,2865,1574
2022/08/19 22:29:16,16.6,36.5,32.8,10.0,50.2,10.0,0,0,0,0,0,0,0,0,2865,1574
2022/08/19 22:31:15,16.6,36.4,32.7,10.0,50.2,10.0,0,0,0,0,0,0,0,0,2865,1574
2022/08/19 22:33:15,16.6,36.4,32.7,10.0,50.2,10.0,0,0,0,0,0,0,0,0,2865,1574
2022/08/19 22:35:14,16.5,36.3,32.6,10.0,50.2,10.0,0,0,0,0,0,0,0,0,2865,1574
2022/08/19 22:37:12,16.5,36.3,32.6,10.0,50.2,10.0,0,0,0,0,0,0,0,0,2865,1574
2022/08/19 22:39:11,16.5,36.2,32.5,10.0,50.2,10.0,0,0,0,0,0,0,0,0,2865,1574
2022/08/19 22:41:10,16.4,36.2,32.4,10.0,50.2,10.0,0,0,0,0,0,0,0,0,2865,1574
2022/08/19 22:43:07,16.4,36.2,32.4,10.0,50.2,10.0,0,0,0,0,0,0,0,0,2865,1574
2022/08/19 22:45:05,16.4,36.1,32.3,10.0,50.2,10.0,0,0,0,0,0,0,0,0,2865,1574
2022/08/19 22:47:04,16.4,36.0,32.3,10.0,50.2,10.0,0,0,0,0,0,0,0,0,2865,1574
2022/08/19 22:49:03,16.4,36.0,32.2,10.0,50.1,10.0,0,0,0,0,0,0,0,0,2865,1574
2022/08/19 22:51:02,16.4,35.9,32.2,10.0,50.1,10.0,0,0,0,0,0,0,0,0,2865,1574
2022/08/19 22:53:02,16.4,35.9,32.1,10.0,50.1,10.0,0,0,0,0,0,0,0,0,2865,1574
2022/08/19 22:56:01,16.4,35.9,32.0,10.0,50.1,10.0,0,0,0,0,0,0,0,0,2865,1574
2022/08/19 22:58:01,16.4,35.8,32.0,10.0,50.1,10.0,0,0,0,0,0,0,0,0,2865,1574
2022/08/19 23:00:00,16.4,35.8,31.9,10.0,50.1,10.0,0,0,0,0,0,0,0,0,2865,1574
2022/08/19 23:01:59,16.4,35.7,31.9,10.0,50.1,10.0,0,0,0,0,0,0,0,0,2865,1574
2022/08/19 23:03:56,16.4,35.7,31.8,10.0,50.1,10.0,0,0,0,0,0,0,0,0,2865,1574
2022/08/19 23:05:56,16.4,35.6,31.8,10.0,50.0,10.0,0,0,0,0,0,0,0,0,2865,1574
2022/08/19 23:07:55,16.4,35.6,31.7,10.0,50.0,10.0,0,0,0,0,0,0,0,0,2865,1574
2022/08/19 23:09:54,16.4,35.5,31.7,10.0,50.0,10.0,0,0,0,0,0,0,0,0,2865,1574
2022/08/19 23:11:53,16.4,35.4,31.7,10.0,50.0,10.0,0,0,0,0,0,0,0,0,2865,1574
2022/08/19 23:13:53,16.4,35.4,31.6,10.0,50.0,10.0,0,0,0,0,0,0,0,0,2865,1574
2022/08/19 23:15:51,16.4,35.3,31.6,10.0,50.0,10.0,0,0,0,0,0,0,0,0,2865,1574
2022/08/19 23:17:47,16.4,35.3,31.5,10.0,50.0,10.0,0,0,0,0,0,0,0,0,2865,1574
2022/08/19 23:19:46,16.4,35.3,31.5,10.0,50.0,10.0,0,0,0,0,0,0,0,0,2865,1574
2022/08/19 23:21:44,16.4,35.2,31.4,10.0,50.0,10.0,0,0,0,0,0,0,0,0,2865,1574
2022/08/19 23:23:42,16.4,35.2,31.4,10.0,50.0,10.0,0,0,0,0,0,0,0,0,2865,1574
2022/08/19 23:25:40,16.4,35.1,31.3,10.0,49.9,10.0,0,0,0,0,0,0,0,0,2865,1574
2022/08/19 23:27:39,16.4,35.1,31.3,10.0,49.9,10.0,0,0,0,0,0,0,0,0,2865,1574
2022/08/19 23:29:38,16.4,35.0,31.2,10.0,49.9,10.0,0,0,0,0,0,0,0,0,2865,1574
2022/08/19 23:31:37,16.4,35.0,31.2,10.0,49.9,10.0,0,0,0,0,0,0,0,0,2865,1574
2022/08/19 23:33:37,16.5,35.0,31.1,10.0,49.9,10.0,0,0,0,0,0,0,0,0,2865,1574
2022/08/19 23:35:36,16.5,34.9,31.1,10.0,49.9,10.0,0,0,0,0,0,0,0,0,2865,1574
2022/08/19 23:37:34,16.5,34.9,31.1,10.0,49.9,10.0,0,0,0,0,0,0,0,0,2865,1574
2022/08/19 23:39:33,16.5,34.8,31.0,10.0,49.9,10.0,0,0,0,0,0,0,0,0,2865,1574
2022/08/19 23:41:31,16.5,34.8,31.0,10.0,49.9,10.0,0,0,0,0,0,0,0,0,2865,1574
2022/08/19 23:43:28,16.5,34.8,30.9,10.0,49.9,10.0,0,0,0,0,0,0,0,0,2865,1574
2022/08/19 23:45:27,16.5,34.7,30.9,10.0,49.8,10.0,0,0,0,0,0,0,0,0,2865,1574
2022/08/19 23:47:26,16.5,34.7,30.8,10.0,49.8,10.0,0,0,0,0,0,0,0,0,2865,1574
2022/08/19 23:49:25,16.5,34.7,30.8,10.0,49.8,10.0,0,0,0,0,0,0,0,0,2865,1574
2022/08/19 23:51:24,16.5,34.6,30.8,10.0,49.8,10.0,0,0,0,0,0,0,0,0,2865,1574
2022/08/19 23:53:24,16.5,34.6,30.7,10.0,49.8,10.0,0,0,0,0,0,0,0,0,2865,1574
2022/08/19 23:55:23,16.5,34.5,30.7,10.0,49.8,10.0,0,0,0,0,0,0,0,0,2865,1574
2022/08/19 23:57:20,16.5,34.5,30.6,10.0,49.8,10.0,0,0,0,0,0,0,0,0,2865,1574
2022/08/19 23:59:20,16.5,34.5,30.6,10.0,49.8,10.0,0,0,0,0,0,0,0,0,2865,1574
